502
Lattice="30.985787180406774 0.0 0.0 -15.492893590203387 26.834478854490456 0.0 0.0 0.0 12.0" Properties=species:S:1:pos:R:3:remoteness:R:1:shift:R:3:adsorption:S:1 size="_JSON [[10, 0], [0, 10]]" mass_center_dist=6.197157436081355 min_atom_dist=6.197157436081355 s1=nb2coh2 s2=nb2coh2 s1idx=1 s2idx=1 pbc="T T T"
Nb      -0.00464090       1.86693230       6.23593900              inf       0.00000000       0.00000000       0.00000000 s 
Nb       1.61911710       0.92938520       3.76379870              inf       0.00000000       0.00000000       0.00000000 s 
C        0.00000000       0.00000000       5.00000000              inf       0.00000000       0.00000000       0.00000000 s 
O        1.61539760       0.93228690       7.24917030              inf       0.00000000       0.00000000       0.00000000 s 
O       -0.00028100       1.86508430       2.75054790              inf       0.00000000       0.00000000       0.00000000 s 
Nb      -1.55393026       4.55038019       6.23593900              inf       0.00000000       0.00000000       0.00000000 s 
Nb       0.06982774       3.61283309       3.76379870              inf       0.00000000       0.00000000       0.00000000 s 
C       -1.54928936       2.68344789       5.00000000              inf       0.00000000       0.00000000       0.00000000 s 
O        0.06610824       3.61573479       7.24917030              inf       0.00000000       0.00000000       0.00000000 s 
O       -1.54957036       4.54853219       2.75054790              inf       0.00000000       0.00000000       0.00000000 s 
Nb      -3.10321962       7.23382807       6.23593900              inf       0.00000000       0.00000000       0.00000000 s 
Nb      -1.47946162       6.29628097       3.76379870              inf       0.00000000       0.00000000       0.00000000 s 
C       -3.09857872       5.36689577       5.00000000              inf       0.00000000       0.00000000       0.00000000 s 
O       -1.48318112       6.29918267       7.24917030              inf       0.00000000       0.00000000       0.00000000 s 
O       -3.09885972       7.23198007       2.75054790              inf       0.00000000       0.00000000       0.00000000 s 
Nb      -4.65250898       9.91727596       6.23593900              inf       0.00000000       0.00000000       0.00000000 s 
Nb      -3.02875098       8.97972886       3.76379870              inf       0.00000000       0.00000000       0.00000000 s 
C       -4.64786808       8.05034366       5.00000000              inf       0.00000000       0.00000000       0.00000000 s 
O       -3.03247048       8.98263056       7.24917030              inf       0.00000000       0.00000000       0.00000000 s 
O       -4.64814908       9.91542796       2.75054790              inf       0.00000000       0.00000000       0.00000000 s 
Nb      -6.20179834      12.60072384       6.23593900              inf       0.00000000       0.00000000       0.00000000 s 
Nb      -4.57804034      11.66317674       3.76379870              inf       0.00000000       0.00000000       0.00000000 s 
C       -6.19715744      10.73379154       5.00000000              inf       0.00000000       0.00000000       0.00000000 s 
O       -4.58175984      11.66607844       7.24917030              inf       0.00000000       0.00000000       0.00000000 s 
O       -6.19743844      12.59887584       2.75054790              inf       0.00000000       0.00000000       0.00000000 s 
Nb      -7.75108770      15.28417173       6.23593900              inf       0.00000000       0.00000000       0.00000000 s 
Nb      -6.12732970      14.34662463       3.76379870              inf       0.00000000       0.00000000       0.00000000 s 
C       -7.74644680      13.41723943       5.00000000              inf       0.00000000       0.00000000       0.00000000 s 
O       -6.13104920      14.34952633       7.24917030              inf       0.00000000       0.00000000       0.00000000 s 
O       -7.74672780      15.28232373       2.75054790              inf       0.00000000       0.00000000       0.00000000 s 
Nb      -9.30037705      17.96761961       6.23593900              inf       0.00000000       0.00000000       0.00000000 s 
Nb      -7.67661905      17.03007251       3.76379870              inf       0.00000000       0.00000000       0.00000000 s 
C       -9.29573615      16.10068731       5.00000000              inf       0.00000000       0.00000000       0.00000000 s 
O       -7.68033855      17.03297421       7.24917030              inf       0.00000000       0.00000000       0.00000000 s 
O       -9.29601715      17.96577161       2.75054790              inf       0.00000000       0.00000000       0.00000000 s 
Nb     -10.84966641      20.65106750       6.23593900              inf       0.00000000       0.00000000       0.00000000 s 
Nb      -9.22590841      19.71352040       3.76379870              inf       0.00000000       0.00000000       0.00000000 s 
C      -10.84502551      18.78413520       5.00000000              inf       0.00000000       0.00000000       0.00000000 s 
O       -9.22962791      19.71642210       7.24917030              inf       0.00000000       0.00000000       0.00000000 s 
O      -10.84530651      20.64921950       2.75054790              inf       0.00000000       0.00000000       0.00000000 s 
Nb     -12.39895577      23.33451538       6.23593900              inf       0.00000000       0.00000000       0.00000000 s 
Nb     -10.77519777      22.39696828       3.76379870              inf       0.00000000       0.00000000       0.00000000 s 
C      -12.39431487      21.46758308       5.00000000              inf       0.00000000       0.00000000       0.00000000 s 
O      -10.77891727      22.39986998       7.24917030              inf       0.00000000       0.00000000       0.00000000 s 
O      -12.39459587      23.33266738       2.75054790              inf       0.00000000       0.00000000       0.00000000 s 
Nb     -13.94824513      26.01796327       6.23593900              inf       0.00000000       0.00000000       0.00000000 s 
Nb     -12.32448713      25.08041617       3.76379870              inf       0.00000000       0.00000000       0.00000000 s 
C      -13.94360423      24.15103097       5.00000000              inf       0.00000000       0.00000000       0.00000000 s 
O      -12.32820663      25.08331787       7.24917030              inf       0.00000000       0.00000000       0.00000000 s 
O      -13.94388523      26.01611527       2.75054790              inf       0.00000000       0.00000000       0.00000000 s 
Nb       3.09393782       1.86693230       6.23593900              inf       0.00000000       0.00000000       0.00000000 s 
Nb       4.71769582       0.92938520       3.76379870              inf       0.00000000       0.00000000       0.00000000 s 
C        3.09857872       0.00000000       5.00000000              inf       0.00000000       0.00000000       0.00000000 s 
O        4.71397632       0.93228690       7.24917030              inf       0.00000000       0.00000000       0.00000000 s 
O        3.09829772       1.86508430       2.75054790              inf       0.00000000       0.00000000       0.00000000 s 
Nb       1.54464846       4.55038019       6.23593900              inf       0.00000000       0.00000000       0.00000000 s 
Nb       3.16840646       3.61283309       3.76379870              inf       0.00000000       0.00000000       0.00000000 s 
C        1.54928936       2.68344789       5.00000000              inf       0.00000000       0.00000000       0.00000000 s 
O        3.16468696       3.61573479       7.24917030              inf       0.00000000       0.00000000       0.00000000 s 
O        1.54900836       4.54853219       2.75054790              inf       0.00000000       0.00000000       0.00000000 s 
Nb      -0.00464090       7.23382807       6.23593900              inf       0.00000000       0.00000000       0.00000000 s 
Nb       1.61911710       6.29628097       3.76379870              inf       0.00000000       0.00000000       0.00000000 s 
C        0.00000000       5.36689577       5.00000000              inf       0.00000000       0.00000000       0.00000000 s 
O        1.61539760       6.29918267       7.24917030              inf       0.00000000       0.00000000       0.00000000 s 
O       -0.00028100       7.23198007       2.75054790              inf       0.00000000       0.00000000       0.00000000 s 
Nb      -1.55393026       9.91727596       6.23593900              inf       0.00000000       0.00000000       0.00000000 s 
Nb       0.06982774       8.97972886       3.76379870              inf       0.00000000       0.00000000       0.00000000 s 
C       -1.54928936       8.05034366       5.00000000              inf       0.00000000       0.00000000       0.00000000 s 
O        0.06610824       8.98263056       7.24917030              inf       0.00000000       0.00000000       0.00000000 s 
O       -1.54957036       9.91542796       2.75054790              inf       0.00000000       0.00000000       0.00000000 s 
Nb      -3.10321962      12.60072384       6.23593900              inf       0.00000000       0.00000000       0.00000000 s 
Nb      -1.47946162      11.66317674       3.76379870              inf       0.00000000       0.00000000       0.00000000 s 
C       -3.09857872      10.73379154       5.00000000              inf       0.00000000       0.00000000       0.00000000 s 
O       -1.48318112      11.66607844       7.24917030              inf       0.00000000       0.00000000       0.00000000 s 
O       -3.09885972      12.59887584       2.75054790              inf       0.00000000       0.00000000       0.00000000 s 
Nb      -4.65250898      15.28417173       6.23593900              inf       0.00000000       0.00000000       0.00000000 s 
Nb      -3.02875098      14.34662463       3.76379870              inf       0.00000000       0.00000000       0.00000000 s 
C       -4.64786808      13.41723943       5.00000000              inf       0.00000000       0.00000000       0.00000000 s 
O       -3.03247048      14.34952633       7.24917030              inf       0.00000000       0.00000000       0.00000000 s 
O       -4.64814908      15.28232373       2.75054790              inf       0.00000000       0.00000000       0.00000000 s 
Nb      -6.20179834      17.96761961       6.23593900              inf       0.00000000       0.00000000       0.00000000 s 
Nb      -4.57804034      17.03007251       3.76379870              inf       0.00000000       0.00000000       0.00000000 s 
C       -6.19715744      16.10068731       5.00000000              inf       0.00000000       0.00000000       0.00000000 s 
O       -4.58175984      17.03297421       7.24917030              inf       0.00000000       0.00000000       0.00000000 s 
O       -6.19743844      17.96577161       2.75054790              inf       0.00000000       0.00000000       0.00000000 s 
Nb      -7.75108770      20.65106750       6.23593900              inf       0.00000000       0.00000000       0.00000000 s 
Nb      -6.12732970      19.71352040       3.76379870              inf       0.00000000       0.00000000       0.00000000 s 
C       -7.74644680      18.78413520       5.00000000              inf       0.00000000       0.00000000       0.00000000 s 
O       -6.13104920      19.71642210       7.24917030              inf       0.00000000       0.00000000       0.00000000 s 
O       -7.74672780      20.64921950       2.75054790              inf       0.00000000       0.00000000       0.00000000 s 
Nb      -9.30037705      23.33451538       6.23593900              inf       0.00000000       0.00000000       0.00000000 s 
Nb      -7.67661905      22.39696828       3.76379870              inf       0.00000000       0.00000000       0.00000000 s 
C       -9.29573615      21.46758308       5.00000000              inf       0.00000000       0.00000000       0.00000000 s 
O       -7.68033855      22.39986998       7.24917030              inf       0.00000000       0.00000000       0.00000000 s 
O       -9.29601715      23.33266738       2.75054790              inf       0.00000000       0.00000000       0.00000000 s 
Nb     -10.84966641      26.01796327       6.23593900              inf       0.00000000       0.00000000       0.00000000 s 
Nb      -9.22590841      25.08041617       3.76379870              inf       0.00000000       0.00000000       0.00000000 s 
C      -10.84502551      24.15103097       5.00000000              inf       0.00000000       0.00000000       0.00000000 s 
O       -9.22962791      25.08331787       7.24917030              inf       0.00000000       0.00000000       0.00000000 s 
O      -10.84530651      26.01611527       2.75054790              inf       0.00000000       0.00000000       0.00000000 s 
Nb       6.19251654       1.86693230       6.23593900              inf       0.00000000       0.00000000       0.00000000 s 
Nb       7.81627454       0.92938520       3.76379870              inf       0.00000000       0.00000000       0.00000000 s 
C        6.19715744       0.00000000       5.00000000              inf       0.00000000       0.00000000       0.00000000 s 
O        7.81255504       0.93228690       7.24917030              inf       0.00000000       0.00000000       0.00000000 s 
O        6.19687644       1.86508430       2.75054790              inf       0.00000000       0.00000000       0.00000000 s 
Nb       4.64322718       4.55038019       6.23593900              inf       0.00000000       0.00000000       0.00000000 s 
Nb       6.26698518       3.61283309       3.76379870              inf       0.00000000       0.00000000       0.00000000 s 
C        4.64786808       2.68344789       5.00000000              inf       0.00000000       0.00000000       0.00000000 s 
O        6.26326568       3.61573479       7.24917030              inf       0.00000000       0.00000000       0.00000000 s 
O        4.64758708       4.54853219       2.75054790              inf       0.00000000       0.00000000       0.00000000 s 
Nb       3.09393782       7.23382807       6.23593900              inf       0.00000000       0.00000000       0.00000000 s 
Nb       4.71769582       6.29628097       3.76379870              inf       0.00000000       0.00000000       0.00000000 s 
C        3.09857872       5.36689577       5.00000000              inf       0.00000000       0.00000000       0.00000000 s 
O        4.71397632       6.29918267       7.24917030              inf       0.00000000       0.00000000       0.00000000 s 
O        3.09829772       7.23198007       2.75054790              inf       0.00000000       0.00000000       0.00000000 s 
Nb       1.54464846       9.91727596       6.23593900              inf       0.00000000       0.00000000       0.00000000 s 
Nb       3.16840646       8.97972886       3.76379870              inf       0.00000000       0.00000000       0.00000000 s 
C        1.54928936       8.05034366       5.00000000              inf       0.00000000       0.00000000       0.00000000 s 
O        3.16468696       8.98263056       7.24917030              inf       0.00000000       0.00000000       0.00000000 s 
O        1.54900836       9.91542796       2.75054790              inf       0.00000000       0.00000000       0.00000000 s 
Nb      -0.00464090      12.60072384       6.23593900              inf       0.00000000       0.00000000       0.00000000 s 
Nb       1.61911710      11.66317674       3.76379870              inf       0.00000000       0.00000000       0.00000000 s 
C        0.00000000      10.73379154       5.00000000              inf       0.00000000       0.00000000       0.00000000 s 
O        1.61539760      11.66607844       7.24917030              inf       0.00000000       0.00000000       0.00000000 s 
O       -0.00028100      12.59887584       2.75054790              inf       0.00000000       0.00000000       0.00000000 s 
Nb      -1.55393026      15.28417173       6.23593900              inf       0.00000000       0.00000000       0.00000000 s 
Nb       0.06982774      14.34662463       3.76379870              inf       0.00000000       0.00000000       0.00000000 s 
C       -1.54928936      13.41723943       5.00000000              inf       0.00000000       0.00000000       0.00000000 s 
O        0.06610824      14.34952633       7.24917030              inf       0.00000000       0.00000000       0.00000000 s 
O       -1.54957036      15.28232373       2.75054790              inf       0.00000000       0.00000000       0.00000000 s 
Nb      -3.10321962      17.96761961       6.23593900              inf       0.00000000       0.00000000       0.00000000 s 
Nb      -1.47946162      17.03007251       3.76379870              inf       0.00000000       0.00000000       0.00000000 s 
C       -3.09857872      16.10068731       5.00000000              inf       0.00000000       0.00000000       0.00000000 s 
O       -1.48318112      17.03297421       7.24917030              inf       0.00000000       0.00000000       0.00000000 s 
O       -3.09885972      17.96577161       2.75054790              inf       0.00000000       0.00000000       0.00000000 s 
Nb      -4.65250898      20.65106750       6.23593900              inf       0.00000000       0.00000000       0.00000000 s 
Nb      -3.02875098      19.71352040       3.76379870              inf       0.00000000       0.00000000       0.00000000 s 
C       -4.64786808      18.78413520       5.00000000              inf       0.00000000       0.00000000       0.00000000 s 
O       -3.03247048      19.71642210       7.24917030              inf       0.00000000       0.00000000       0.00000000 s 
O       -4.64814908      20.64921950       2.75054790              inf       0.00000000       0.00000000       0.00000000 s 
Nb      -6.20179834      23.33451538       6.23593900              inf       0.00000000       0.00000000       0.00000000 s 
Nb      -4.57804034      22.39696828       3.76379870              inf       0.00000000       0.00000000       0.00000000 s 
C       -6.19715744      21.46758308       5.00000000              inf       0.00000000       0.00000000       0.00000000 s 
O       -4.58175984      22.39986998       7.24917030              inf       0.00000000       0.00000000       0.00000000 s 
O       -6.19743844      23.33266738       2.75054790              inf       0.00000000       0.00000000       0.00000000 s 
Nb      -7.75108770      26.01796327       6.23593900              inf       0.00000000       0.00000000       0.00000000 s 
Nb      -6.12732970      25.08041617       3.76379870              inf       0.00000000       0.00000000       0.00000000 s 
C       -7.74644680      24.15103097       5.00000000              inf       0.00000000       0.00000000       0.00000000 s 
O       -6.13104920      25.08331787       7.24917030              inf       0.00000000       0.00000000       0.00000000 s 
O       -7.74672780      26.01611527       2.75054790              inf       0.00000000       0.00000000       0.00000000 s 
Nb       9.29109525       1.86693230       6.23593900              inf       0.00000000       0.00000000       0.00000000 s 
Nb      10.91485325       0.92938520       3.76379870              inf       0.00000000       0.00000000       0.00000000 s 
C        9.29573615       0.00000000       5.00000000              inf       0.00000000       0.00000000       0.00000000 s 
O       10.91113375       0.93228690       7.24917030              inf       0.00000000       0.00000000       0.00000000 s 
O        9.29545515       1.86508430       2.75054790              inf       0.00000000       0.00000000       0.00000000 s 
Nb       7.74180590       4.55038019       6.23593900              inf       0.00000000       0.00000000       0.00000000 s 
Nb       9.36556390       3.61283309       3.76379870              inf       0.00000000       0.00000000       0.00000000 s 
C        7.74644680       2.68344789       5.00000000              inf       0.00000000       0.00000000       0.00000000 s 
O        9.36184440       3.61573479       7.24917030              inf       0.00000000       0.00000000       0.00000000 s 
O        7.74616580       4.54853219       2.75054790              inf       0.00000000       0.00000000       0.00000000 s 
Nb       6.19251654       7.23382807       6.23593900              inf       0.00000000       0.00000000       0.00000000 s 
Nb       7.81627454       6.29628097       3.76379870              inf       0.00000000       0.00000000       0.00000000 s 
C        6.19715744       5.36689577       5.00000000              inf       0.00000000       0.00000000       0.00000000 s 
O        7.81255504       6.29918267       7.24917030              inf       0.00000000       0.00000000       0.00000000 s 
O        6.19687644       7.23198007       2.75054790              inf       0.00000000       0.00000000       0.00000000 s 
Nb       4.64322718       9.91727596       6.23593900              inf       0.00000000       0.00000000       0.00000000 s 
Nb       6.26698518       8.97972886       3.76379870              inf       0.00000000       0.00000000       0.00000000 s 
C        4.64786808       8.05034366       5.00000000              inf       0.00000000       0.00000000       0.00000000 s 
O        6.26326568       8.98263056       7.24917030              inf       0.00000000       0.00000000       0.00000000 s 
O        4.64758708       9.91542796       2.75054790              inf       0.00000000       0.00000000       0.00000000 s 
Nb       3.09393782      12.60072384       6.23593900              inf       0.00000000       0.00000000       0.00000000 s 
Nb       4.71769582      11.66317674       3.76379870              inf       0.00000000       0.00000000       0.00000000 s 
C        3.09857872      10.73379154       5.00000000              inf       0.00000000       0.00000000       0.00000000 s 
O        4.71397632      11.66607844       7.24917030              inf       0.00000000       0.00000000       0.00000000 s 
O        3.09829772      12.59887584       2.75054790              inf       0.00000000       0.00000000       0.00000000 s 
Nb       1.54464846      15.28417173       6.23593900              inf       0.00000000       0.00000000       0.00000000 s 
Nb       3.16840646      14.34662463       3.76379870              inf       0.00000000       0.00000000       0.00000000 s 
C        1.54928936      13.41723943       5.00000000              inf       0.00000000       0.00000000       0.00000000 s 
O        3.16468696      14.34952633       7.24917030              inf       0.00000000       0.00000000       0.00000000 s 
O        1.54900836      15.28232373       2.75054790              inf       0.00000000       0.00000000       0.00000000 s 
Nb      -0.00464090      17.96761961       6.23593900              inf       0.00000000       0.00000000       0.00000000 s 
Nb       1.61911710      17.03007251       3.76379870              inf       0.00000000       0.00000000       0.00000000 s 
C        0.00000000      16.10068731       5.00000000              inf       0.00000000       0.00000000       0.00000000 s 
O        1.61539760      17.03297421       7.24917030              inf       0.00000000       0.00000000       0.00000000 s 
O       -0.00028100      17.96577161       2.75054790              inf       0.00000000       0.00000000       0.00000000 s 
Nb      -1.55393026      20.65106750       6.23593900              inf       0.00000000       0.00000000       0.00000000 s 
Nb       0.06982774      19.71352040       3.76379870              inf       0.00000000       0.00000000       0.00000000 s 
C       -1.54928936      18.78413520       5.00000000              inf       0.00000000       0.00000000       0.00000000 s 
O        0.06610824      19.71642210       7.24917030              inf       0.00000000       0.00000000       0.00000000 s 
O       -1.54957036      20.64921950       2.75054790              inf       0.00000000       0.00000000       0.00000000 s 
Nb      -3.10321962      23.33451538       6.23593900              inf       0.00000000       0.00000000       0.00000000 s 
Nb      -1.47946162      22.39696828       3.76379870              inf       0.00000000       0.00000000       0.00000000 s 
C       -3.09857872      21.46758308       5.00000000              inf       0.00000000       0.00000000       0.00000000 s 
O       -1.48318112      22.39986998       7.24917030              inf       0.00000000       0.00000000       0.00000000 s 
O       -3.09885972      23.33266738       2.75054790              inf       0.00000000       0.00000000       0.00000000 s 
Nb      -4.65250898      26.01796327       6.23593900              inf       0.00000000       0.00000000       0.00000000 s 
Nb      -3.02875098      25.08041617       3.76379870              inf       0.00000000       0.00000000       0.00000000 s 
C       -4.64786808      24.15103097       5.00000000              inf       0.00000000       0.00000000       0.00000000 s 
O       -3.03247048      25.08331787       7.24917030              inf       0.00000000       0.00000000       0.00000000 s 
O       -4.64814908      26.01611527       2.75054790              inf       0.00000000       0.00000000       0.00000000 s 
Nb      12.38967397       1.86693230       6.23593900              inf       0.00000000       0.00000000       0.00000000 s 
Nb      14.01343197       0.92938520       3.76379870              inf       0.00000000       0.00000000       0.00000000 s 
C       12.39431487       0.00000000       5.00000000              inf       0.00000000       0.00000000       0.00000000 s 
O       14.00971247       0.93228690       7.24917030              inf       0.00000000       0.00000000       0.00000000 s 
O       12.39403387       1.86508430       2.75054790              inf       0.00000000       0.00000000       0.00000000 s 
Nb      10.84038461       4.55038019       6.23593900              inf       0.00000000       0.00000000       0.00000000 s 
Nb      12.46414261       3.61283309       3.76379870              inf       0.00000000       0.00000000       0.00000000 s 
C       10.84502551       2.68344789       5.00000000              inf       0.00000000       0.00000000       0.00000000 s 
O       12.46042311       3.61573479       7.24917030              inf       0.00000000       0.00000000       0.00000000 s 
O       10.84474451       4.54853219       2.75054790              inf       0.00000000       0.00000000       0.00000000 s 
Nb       9.29109525       7.23382807       6.23593900              inf       0.00000000       0.00000000       0.00000000 s 
Nb      10.91485325       6.29628097       3.76379870              inf       0.00000000       0.00000000       0.00000000 s 
C        9.29573615       5.36689577       5.00000000              inf       0.00000000       0.00000000       0.00000000 s 
O       10.91113375       6.29918267       7.24917030              inf       0.00000000       0.00000000       0.00000000 s 
O        9.29545515       7.23198007       2.75054790              inf       0.00000000       0.00000000       0.00000000 s 
Nb       7.74180590       9.91727596       6.23593900              inf       0.00000000       0.00000000       0.00000000 s 
Nb       9.36556390       8.97972886       3.76379870              inf       0.00000000       0.00000000       0.00000000 s 
C        7.74644680       8.05034366       5.00000000              inf       0.00000000       0.00000000       0.00000000 s 
O        9.36184440       8.98263056       7.24917030              inf       0.00000000       0.00000000       0.00000000 s 
O        7.74616580       9.91542796       2.75054790              inf       0.00000000       0.00000000       0.00000000 s 
Nb       6.19251654      12.60072384       6.23593900              inf       0.00000000       0.00000000       0.00000000 s 
Nb       7.81627454      11.66317674       3.76379870              inf       0.00000000       0.00000000       0.00000000 s 
C        6.19715744      10.73379154       5.00000000              inf       0.00000000       0.00000000       0.00000000 s 
O        7.81255504      11.66607844       7.24917030              inf       0.00000000       0.00000000       0.00000000 s 
O        6.19687644      12.59887597       2.75054790       5.81612112       0.00000000       0.00000013       0.00000000 s 
Nb       4.64322718      15.28417173       6.23593900              inf       0.00000000       0.00000000       0.00000000 s 
Nb       6.26698529      14.34662464       3.76379870       4.53152533       0.00000012       0.00000002       0.00000000 s 
C        4.64786808      13.41723943       5.00000000              inf       0.00000000       0.00000000       0.00000000 s 
O        6.26326569      14.34952644       7.24917030       1.04617186       0.00000002       0.00000012       0.00000000 s 
O        4.64758708      15.28232373       2.75054790              inf       0.00000000       0.00000000       0.00000000 s 
Nb       3.09393782      17.96761961       6.23593900              inf       0.00000000       0.00000000       0.00000000 s 
Nb       4.71769582      17.03007251       3.76379870              inf       0.00000000       0.00000000       0.00000000 s 
C        3.09857872      16.10068731       5.00000000              inf       0.00000000       0.00000000       0.00000000 s 
O        4.71397632      17.03297421       7.24917030              inf       0.00000000       0.00000000       0.00000000 s 
O        3.09829772      17.96577161       2.75054790              inf       0.00000000       0.00000000       0.00000000 s 
Nb       1.54464846      20.65106750       6.23593900              inf       0.00000000       0.00000000       0.00000000 s 
Nb       3.16840646      19.71352040       3.76379870              inf       0.00000000       0.00000000       0.00000000 s 
C        1.54928936      18.78413520       5.00000000              inf       0.00000000       0.00000000       0.00000000 s 
O        3.16468696      19.71642210       7.24917030              inf       0.00000000       0.00000000       0.00000000 s 
O        1.54900836      20.64921950       2.75054790              inf       0.00000000       0.00000000       0.00000000 s 
Nb      -0.00464090      23.33451538       6.23593900              inf       0.00000000       0.00000000       0.00000000 s 
Nb       1.61911710      22.39696828       3.76379870              inf       0.00000000       0.00000000       0.00000000 s 
C        0.00000000      21.46758308       5.00000000              inf       0.00000000       0.00000000       0.00000000 s 
O        1.61539760      22.39986998       7.24917030              inf       0.00000000       0.00000000       0.00000000 s 
O       -0.00028100      23.33266738       2.75054790              inf       0.00000000       0.00000000       0.00000000 s 
Nb      -1.55393026      26.01796327       6.23593900              inf       0.00000000       0.00000000       0.00000000 s 
Nb       0.06982774      25.08041617       3.76379870              inf       0.00000000       0.00000000       0.00000000 s 
C       -1.54928936      24.15103097       5.00000000              inf       0.00000000       0.00000000       0.00000000 s 
O        0.06610824      25.08331787       7.24917030              inf       0.00000000       0.00000000       0.00000000 s 
O       -1.54957036      26.01611527       2.75054790              inf       0.00000000       0.00000000       0.00000000 s 
Nb      15.48825269       1.86693230       6.23593900              inf       0.00000000       0.00000000       0.00000000 s 
Nb      17.11201069       0.92938520       3.76379870              inf       0.00000000       0.00000000       0.00000000 s 
C       15.49289359       0.00000000       5.00000000              inf       0.00000000       0.00000000       0.00000000 s 
O       17.10829119       0.93228690       7.24917030              inf       0.00000000       0.00000000       0.00000000 s 
O       15.49261259       1.86508430       2.75054790              inf       0.00000000       0.00000000       0.00000000 s 
Nb      13.93896333       4.55038019       6.23593900              inf       0.00000000       0.00000000       0.00000000 s 
Nb      15.56272133       3.61283309       3.76379870              inf       0.00000000       0.00000000       0.00000000 s 
C       13.94360423       2.68344789       5.00000000              inf       0.00000000       0.00000000       0.00000000 s 
O       15.55900183       3.61573479       7.24917030              inf       0.00000000       0.00000000       0.00000000 s 
O       13.94332323       4.54853219       2.75054790              inf       0.00000000       0.00000000       0.00000000 s 
Nb      12.38967397       7.23382807       6.23593900              inf       0.00000000       0.00000000       0.00000000 s 
Nb      14.01343197       6.29628097       3.76379870              inf       0.00000000       0.00000000       0.00000000 s 
C       12.39431487       5.36689577       5.00000000              inf       0.00000000       0.00000000       0.00000000 s 
O       14.00971247       6.29918267       7.24917030              inf       0.00000000       0.00000000       0.00000000 s 
O       12.39403387       7.23198007       2.75054790              inf       0.00000000       0.00000000       0.00000000 s 
Nb      10.84038461       9.91727596       6.23593900              inf       0.00000000       0.00000000       0.00000000 s 
Nb      12.46414261       8.97972886       3.76379870              inf       0.00000000       0.00000000       0.00000000 s 
C       10.84502551       8.05034366       5.00000000              inf       0.00000000       0.00000000       0.00000000 s 
O       12.46042311       8.98263056       7.24917030              inf       0.00000000       0.00000000       0.00000000 s 
O       10.84474451       9.91542796       2.75054790              inf       0.00000000       0.00000000       0.00000000 s 
Nb       9.29109525      12.60072384       6.23593900              inf       0.00000000       0.00000000       0.00000000 s 
Nb      10.91485325      11.66317674       3.76379870              inf       0.00000000       0.00000000       0.00000000 s 
C        9.29573615      10.73379154       5.00000000              inf       0.00000000       0.00000000       0.00000000 s 
O       10.91113375      11.66607844       7.24917030              inf       0.00000000       0.00000000       0.00000000 s 
O        9.29545515      12.59887584       2.75054790              inf       0.00000000       0.00000000       0.00000000 s 
Nb       7.74180590      15.28417186       6.23593900       2.70487946       0.00000000       0.00000013       0.00000000 s 
Nb       9.36556390      14.34662463       3.76379870              inf       0.00000000       0.00000000       0.00000000 s 
C        7.74644680      13.41723943       5.00000000              inf       0.00000000       0.00000000       0.00000000 s 
O        9.36184440      14.34952633       7.24917030              inf       0.00000000       0.00000000       0.00000000 s 
O        7.74616580      15.28232373       2.75054790              inf       0.00000000       0.00000000       0.00000000 s 
Nb       6.19251654      17.96761961       6.23593900              inf       0.00000000       0.00000000       0.00000000 s 
Nb       7.81627454      17.03007251       3.76379870              inf       0.00000000       0.00000000       0.00000000 s 
C        6.19715744      16.10068731       5.00000000       3.73017974      -0.00000000      -0.00000000       0.00000000 s 
O        7.81255504      17.03297421       7.24917030              inf       0.00000000       0.00000000       0.00000000 s 
O        6.19687644      17.96577161       2.75054790              inf       0.00000000       0.00000000       0.00000000 s 
Nb       4.64322718      20.65106750       6.23593900              inf       0.00000000       0.00000000       0.00000000 s 
Nb       6.26698518      19.71352040       3.76379870              inf       0.00000000       0.00000000       0.00000000 s 
C        4.64786808      18.78413520       5.00000000              inf       0.00000000       0.00000000       0.00000000 s 
O        6.26326568      19.71642210       7.24917030              inf       0.00000000       0.00000000       0.00000000 s 
O        4.64758708      20.64921950       2.75054790              inf       0.00000000       0.00000000       0.00000000 s 
Nb       3.09393782      23.33451538       6.23593900              inf       0.00000000       0.00000000       0.00000000 s 
Nb       4.71769582      22.39696828       3.76379870              inf       0.00000000       0.00000000       0.00000000 s 
C        3.09857872      21.46758308       5.00000000              inf       0.00000000       0.00000000       0.00000000 s 
O        4.71397632      22.39986998       7.24917030              inf       0.00000000       0.00000000       0.00000000 s 
O        3.09829772      23.33266738       2.75054790              inf       0.00000000       0.00000000       0.00000000 s 
Nb       1.54464846      26.01796327       6.23593900              inf       0.00000000       0.00000000       0.00000000 s 
Nb       3.16840646      25.08041617       3.76379870              inf       0.00000000       0.00000000       0.00000000 s 
C        1.54928936      24.15103097       5.00000000              inf       0.00000000       0.00000000       0.00000000 s 
O        3.16468696      25.08331787       7.24917030              inf       0.00000000       0.00000000       0.00000000 s 
O        1.54900836      26.01611527       2.75054790              inf       0.00000000       0.00000000       0.00000000 s 
Nb      18.58683141       1.86693230       6.23593900              inf       0.00000000       0.00000000       0.00000000 s 
Nb      20.21058941       0.92938520       3.76379870              inf       0.00000000       0.00000000       0.00000000 s 
C       18.59147231       0.00000000       5.00000000              inf       0.00000000       0.00000000       0.00000000 s 
O       20.20686991       0.93228690       7.24917030              inf       0.00000000       0.00000000       0.00000000 s 
O       18.59119131       1.86508430       2.75054790              inf       0.00000000       0.00000000       0.00000000 s 
Nb      17.03754205       4.55038019       6.23593900              inf       0.00000000       0.00000000       0.00000000 s 
Nb      18.66130005       3.61283309       3.76379870              inf       0.00000000       0.00000000       0.00000000 s 
C       17.04218295       2.68344789       5.00000000              inf       0.00000000       0.00000000       0.00000000 s 
O       18.65758055       3.61573479       7.24917030              inf       0.00000000       0.00000000       0.00000000 s 
O       17.04190195       4.54853219       2.75054790              inf       0.00000000       0.00000000       0.00000000 s 
Nb      15.48825269       7.23382807       6.23593900              inf       0.00000000       0.00000000       0.00000000 s 
Nb      17.11201069       6.29628097       3.76379870              inf       0.00000000       0.00000000       0.00000000 s 
C       15.49289359       5.36689577       5.00000000              inf       0.00000000       0.00000000       0.00000000 s 
O       17.10829119       6.29918267       7.24917030              inf       0.00000000       0.00000000       0.00000000 s 
O       15.49261259       7.23198007       2.75054790              inf       0.00000000       0.00000000       0.00000000 s 
Nb      13.93896333       9.91727596       6.23593900              inf       0.00000000       0.00000000       0.00000000 s 
Nb      15.56272133       8.97972886       3.76379870              inf       0.00000000       0.00000000       0.00000000 s 
C       13.94360423       8.05034366       5.00000000              inf       0.00000000       0.00000000       0.00000000 s 
O       15.55900183       8.98263056       7.24917030              inf       0.00000000       0.00000000       0.00000000 s 
O       13.94332323       9.91542796       2.75054790              inf       0.00000000       0.00000000       0.00000000 s 
Nb      12.38967397      12.60072384       6.23593900              inf       0.00000000       0.00000000       0.00000000 s 
Nb      14.01343197      11.66317674       3.76379870              inf       0.00000000       0.00000000       0.00000000 s 
C       12.39431487      10.73379154       5.00000000              inf       0.00000000       0.00000000       0.00000000 s 
O       14.00971247      11.66607844       7.24917030              inf       0.00000000       0.00000000       0.00000000 s 
O       12.39403388      12.59887597       2.75054790       5.81612112       0.00000000       0.00000013       0.00000000 s 
Nb      10.84038461      15.28417173       6.23593900              inf       0.00000000       0.00000000       0.00000000 s 
Nb      12.46414273      14.34662464       3.76379870       4.53152533       0.00000012       0.00000002       0.00000000 s 
C       10.84502551      13.41723943       5.00000000              inf       0.00000000       0.00000000       0.00000000 s 
O       12.46042313      14.34952644       7.24917030       1.04617186       0.00000002       0.00000012       0.00000000 s 
O       10.84474451      15.28232373       2.75054790              inf       0.00000000       0.00000000       0.00000000 s 
Nb       9.29109525      17.96761961       6.23593900              inf       0.00000000       0.00000000       0.00000000 s 
Nb      10.91485325      17.03007251       3.76379870              inf       0.00000000       0.00000000       0.00000000 s 
C        9.29573615      16.10068731       5.00000000              inf       0.00000000       0.00000000       0.00000000 s 
O       10.91113375      17.03297421       7.24917030              inf       0.00000000       0.00000000       0.00000000 s 
O        9.29545515      17.96577161       2.75054790              inf       0.00000000       0.00000000       0.00000000 s 
Nb       7.74180590      20.65106750       6.23593900              inf       0.00000000       0.00000000       0.00000000 s 
Nb       9.36556390      19.71352040       3.76379870              inf       0.00000000       0.00000000       0.00000000 s 
C        7.74644680      18.78413520       5.00000000              inf       0.00000000       0.00000000       0.00000000 s 
O        9.36184440      19.71642210       7.24917030              inf       0.00000000       0.00000000       0.00000000 s 
O        7.74616580      20.64921950       2.75054790              inf       0.00000000       0.00000000       0.00000000 s 
Nb       6.19251654      23.33451538       6.23593900              inf       0.00000000       0.00000000       0.00000000 s 
Nb       7.81627454      22.39696828       3.76379870              inf       0.00000000       0.00000000       0.00000000 s 
C        6.19715744      21.46758308       5.00000000              inf       0.00000000       0.00000000       0.00000000 s 
O        7.81255504      22.39986998       7.24917030              inf       0.00000000       0.00000000       0.00000000 s 
O        6.19687644      23.33266738       2.75054790              inf       0.00000000       0.00000000       0.00000000 s 
Nb       4.64322718      26.01796327       6.23593900              inf       0.00000000       0.00000000       0.00000000 s 
Nb       6.26698518      25.08041617       3.76379870              inf       0.00000000       0.00000000       0.00000000 s 
C        4.64786808      24.15103097       5.00000000              inf       0.00000000       0.00000000       0.00000000 s 
O        6.26326568      25.08331787       7.24917030              inf       0.00000000       0.00000000       0.00000000 s 
O        4.64758708      26.01611527       2.75054790              inf       0.00000000       0.00000000       0.00000000 s 
Nb      21.68541013       1.86693230       6.23593900              inf       0.00000000       0.00000000       0.00000000 s 
Nb      23.30916813       0.92938520       3.76379870              inf       0.00000000       0.00000000       0.00000000 s 
C       21.69005103       0.00000000       5.00000000              inf       0.00000000       0.00000000       0.00000000 s 
O       23.30544863       0.93228690       7.24917030              inf       0.00000000       0.00000000       0.00000000 s 
O       21.68977003       1.86508430       2.75054790              inf       0.00000000       0.00000000       0.00000000 s 
Nb      20.13612077       4.55038019       6.23593900              inf       0.00000000       0.00000000       0.00000000 s 
Nb      21.75987877       3.61283309       3.76379870              inf       0.00000000       0.00000000       0.00000000 s 
C       20.14076167       2.68344789       5.00000000              inf       0.00000000       0.00000000       0.00000000 s 
O       21.75615927       3.61573479       7.24917030              inf       0.00000000       0.00000000       0.00000000 s 
O       20.14048067       4.54853219       2.75054790              inf       0.00000000       0.00000000       0.00000000 s 
Nb      18.58683141       7.23382807       6.23593900              inf       0.00000000       0.00000000       0.00000000 s 
Nb      20.21058941       6.29628097       3.76379870              inf       0.00000000       0.00000000       0.00000000 s 
C       18.59147231       5.36689577       5.00000000              inf       0.00000000       0.00000000       0.00000000 s 
O       20.20686991       6.29918267       7.24917030              inf       0.00000000       0.00000000       0.00000000 s 
O       18.59119131       7.23198007       2.75054790              inf       0.00000000       0.00000000       0.00000000 s 
Nb      17.03754205       9.91727596       6.23593900              inf       0.00000000       0.00000000       0.00000000 s 
Nb      18.66130005       8.97972886       3.76379870              inf       0.00000000       0.00000000       0.00000000 s 
C       17.04218295       8.05034366       5.00000000              inf       0.00000000       0.00000000       0.00000000 s 
O       18.65758055       8.98263056       7.24917030              inf       0.00000000       0.00000000       0.00000000 s 
O       17.04190195       9.91542796       2.75054790              inf       0.00000000       0.00000000       0.00000000 s 
Nb      15.48825269      12.60072384       6.23593900              inf       0.00000000       0.00000000       0.00000000 s 
Nb      17.11201069      11.66317674       3.76379870              inf       0.00000000       0.00000000       0.00000000 s 
C       15.49289359      10.73379154       5.00000000              inf       0.00000000       0.00000000       0.00000000 s 
O       17.10829119      11.66607844       7.24917030              inf       0.00000000       0.00000000       0.00000000 s 
O       15.49261259      12.59887584       2.75054790              inf       0.00000000       0.00000000       0.00000000 s 
Nb      13.93896333      15.28417186       6.23593900       2.70487946       0.00000000       0.00000013       0.00000000 s 
Nb      15.56272133      14.34662463       3.76379870              inf       0.00000000       0.00000000       0.00000000 s 
C       13.94360423      13.41723943       5.00000000              inf       0.00000000       0.00000000       0.00000000 s 
O       15.55900183      14.34952633       7.24917030              inf       0.00000000       0.00000000       0.00000000 s 
O       13.94332323      15.28232373       2.75054790              inf       0.00000000       0.00000000       0.00000000 s 
Nb      12.38967397      17.96761961       6.23593900              inf       0.00000000       0.00000000       0.00000000 s 
Nb      14.01343197      17.03007251       3.76379870              inf       0.00000000       0.00000000       0.00000000 s 
C       12.39431487      16.10068731       5.00000000       3.73017974      -0.00000000      -0.00000000       0.00000000 s 
O       14.00971247      17.03297421       7.24917030              inf       0.00000000       0.00000000       0.00000000 s 
O       12.39403387      17.96577161       2.75054790              inf       0.00000000       0.00000000       0.00000000 s 
Nb      10.84038461      20.65106750       6.23593900              inf       0.00000000       0.00000000       0.00000000 s 
Nb      12.46414261      19.71352040       3.76379870              inf       0.00000000       0.00000000       0.00000000 s 
C       10.84502551      18.78413520       5.00000000              inf       0.00000000       0.00000000       0.00000000 s 
O       12.46042311      19.71642210       7.24917030              inf       0.00000000       0.00000000       0.00000000 s 
O       10.84474451      20.64921950       2.75054790              inf       0.00000000       0.00000000       0.00000000 s 
Nb       9.29109525      23.33451538       6.23593900              inf       0.00000000       0.00000000       0.00000000 s 
Nb      10.91485325      22.39696828       3.76379870              inf       0.00000000       0.00000000       0.00000000 s 
C        9.29573615      21.46758308       5.00000000              inf       0.00000000       0.00000000       0.00000000 s 
O       10.91113375      22.39986998       7.24917030              inf       0.00000000       0.00000000       0.00000000 s 
O        9.29545515      23.33266738       2.75054790              inf       0.00000000       0.00000000       0.00000000 s 
Nb       7.74180590      26.01796327       6.23593900              inf       0.00000000       0.00000000       0.00000000 s 
Nb       9.36556390      25.08041617       3.76379870              inf       0.00000000       0.00000000       0.00000000 s 
C        7.74644680      24.15103097       5.00000000              inf       0.00000000       0.00000000       0.00000000 s 
O        9.36184440      25.08331787       7.24917030              inf       0.00000000       0.00000000       0.00000000 s 
O        7.74616580      26.01611527       2.75054790              inf       0.00000000       0.00000000       0.00000000 s 
Nb      24.78398884       1.86693230       6.23593900              inf       0.00000000       0.00000000       0.00000000 s 
Nb      26.40774684       0.92938520       3.76379870              inf       0.00000000       0.00000000       0.00000000 s 
C       24.78862974       0.00000000       5.00000000              inf       0.00000000       0.00000000       0.00000000 s 
O       26.40402734       0.93228690       7.24917030              inf       0.00000000       0.00000000       0.00000000 s 
O       24.78834874       1.86508430       2.75054790              inf       0.00000000       0.00000000       0.00000000 s 
Nb      23.23469949       4.55038019       6.23593900              inf       0.00000000       0.00000000       0.00000000 s 
Nb      24.85845749       3.61283309       3.76379870              inf       0.00000000       0.00000000       0.00000000 s 
C       23.23934039       2.68344789       5.00000000              inf       0.00000000       0.00000000       0.00000000 s 
O       24.85473799       3.61573479       7.24917030              inf       0.00000000       0.00000000       0.00000000 s 
O       23.23905939       4.54853219       2.75054790              inf       0.00000000       0.00000000       0.00000000 s 
Nb      21.68541013       7.23382807       6.23593900              inf       0.00000000       0.00000000       0.00000000 s 
Nb      23.30916813       6.29628097       3.76379870              inf       0.00000000       0.00000000       0.00000000 s 
C       21.69005103       5.36689577       5.00000000              inf       0.00000000       0.00000000       0.00000000 s 
O       23.30544863       6.29918267       7.24917030              inf       0.00000000       0.00000000       0.00000000 s 
O       21.68977003       7.23198007       2.75054790              inf       0.00000000       0.00000000       0.00000000 s 
Nb      20.13612077       9.91727596       6.23593900              inf       0.00000000       0.00000000       0.00000000 s 
Nb      21.75987877       8.97972886       3.76379870              inf       0.00000000       0.00000000       0.00000000 s 
C       20.14076167       8.05034366       5.00000000              inf       0.00000000       0.00000000       0.00000000 s 
O       21.75615927       8.98263056       7.24917030              inf       0.00000000       0.00000000       0.00000000 s 
O       20.14048067       9.91542796       2.75054790              inf       0.00000000       0.00000000       0.00000000 s 
Nb      18.58683141      12.60072384       6.23593900              inf       0.00000000       0.00000000       0.00000000 s 
Nb      20.21058941      11.66317674       3.76379870              inf       0.00000000       0.00000000       0.00000000 s 
C       18.59147231      10.73379154       5.00000000              inf       0.00000000       0.00000000       0.00000000 s 
O       20.20686991      11.66607844       7.24917030              inf       0.00000000       0.00000000       0.00000000 s 
O       18.59119131      12.59887584       2.75054790              inf       0.00000000       0.00000000       0.00000000 s 
Nb      17.03754205      15.28417173       6.23593900              inf       0.00000000       0.00000000       0.00000000 s 
Nb      18.66130005      14.34662463       3.76379870              inf       0.00000000       0.00000000       0.00000000 s 
C       17.04218295      13.41723943       5.00000000              inf       0.00000000       0.00000000       0.00000000 s 
O       18.65758055      14.34952633       7.24917030              inf       0.00000000       0.00000000       0.00000000 s 
O       17.04190195      15.28232373       2.75054790              inf       0.00000000       0.00000000       0.00000000 s 
Nb      15.48825269      17.96761961       6.23593900              inf       0.00000000       0.00000000       0.00000000 s 
Nb      17.11201069      17.03007251       3.76379870              inf       0.00000000       0.00000000       0.00000000 s 
C       15.49289359      16.10068731       5.00000000              inf       0.00000000       0.00000000       0.00000000 s 
O       17.10829119      17.03297421       7.24917030              inf       0.00000000       0.00000000       0.00000000 s 
O       15.49261259      17.96577161       2.75054790              inf       0.00000000       0.00000000       0.00000000 s 
Nb      13.93896333      20.65106750       6.23593900              inf       0.00000000       0.00000000       0.00000000 s 
Nb      15.56272133      19.71352040       3.76379870              inf       0.00000000       0.00000000       0.00000000 s 
C       13.94360423      18.78413520       5.00000000              inf       0.00000000       0.00000000       0.00000000 s 
O       15.55900183      19.71642210       7.24917030              inf       0.00000000       0.00000000       0.00000000 s 
O       13.94332323      20.64921950       2.75054790              inf       0.00000000       0.00000000       0.00000000 s 
Nb      12.38967397      23.33451538       6.23593900              inf       0.00000000       0.00000000       0.00000000 s 
Nb      14.01343197      22.39696828       3.76379870              inf       0.00000000       0.00000000       0.00000000 s 
C       12.39431487      21.46758308       5.00000000              inf       0.00000000       0.00000000       0.00000000 s 
O       14.00971247      22.39986998       7.24917030              inf       0.00000000       0.00000000       0.00000000 s 
O       12.39403387      23.33266738       2.75054790              inf       0.00000000       0.00000000       0.00000000 s 
Nb      10.84038461      26.01796327       6.23593900              inf       0.00000000       0.00000000       0.00000000 s 
Nb      12.46414261      25.08041617       3.76379870              inf       0.00000000       0.00000000       0.00000000 s 
C       10.84502551      24.15103097       5.00000000              inf       0.00000000       0.00000000       0.00000000 s 
O       12.46042311      25.08331787       7.24917030              inf       0.00000000       0.00000000       0.00000000 s 
O       10.84474451      26.01611527       2.75054790              inf       0.00000000       0.00000000       0.00000000 s 
Nb      27.88256756       1.86693230       6.23593900              inf       0.00000000       0.00000000       0.00000000 s 
Nb      29.50632556       0.92938520       3.76379870              inf       0.00000000       0.00000000       0.00000000 s 
C       27.88720846       0.00000000       5.00000000              inf       0.00000000       0.00000000       0.00000000 s 
O       29.50260606       0.93228690       7.24917030              inf       0.00000000       0.00000000       0.00000000 s 
O       27.88692746       1.86508430       2.75054790              inf       0.00000000       0.00000000       0.00000000 s 
Nb      26.33327820       4.55038019       6.23593900              inf       0.00000000       0.00000000       0.00000000 s 
Nb      27.95703620       3.61283309       3.76379870              inf       0.00000000       0.00000000       0.00000000 s 
C       26.33791910       2.68344789       5.00000000              inf       0.00000000       0.00000000       0.00000000 s 
O       27.95331670       3.61573479       7.24917030              inf       0.00000000       0.00000000       0.00000000 s 
O       26.33763810       4.54853219       2.75054790              inf       0.00000000       0.00000000       0.00000000 s 
Nb      24.78398884       7.23382807       6.23593900              inf       0.00000000       0.00000000       0.00000000 s 
Nb      26.40774684       6.29628097       3.76379870              inf       0.00000000       0.00000000       0.00000000 s 
C       24.78862974       5.36689577       5.00000000              inf       0.00000000       0.00000000       0.00000000 s 
O       26.40402734       6.29918267       7.24917030              inf       0.00000000       0.00000000       0.00000000 s 
O       24.78834874       7.23198007       2.75054790              inf       0.00000000       0.00000000       0.00000000 s 
Nb      23.23469949       9.91727596       6.23593900              inf       0.00000000       0.00000000       0.00000000 s 
Nb      24.85845749       8.97972886       3.76379870              inf       0.00000000       0.00000000       0.00000000 s 
C       23.23934039       8.05034366       5.00000000              inf       0.00000000       0.00000000       0.00000000 s 
O       24.85473799       8.98263056       7.24917030              inf       0.00000000       0.00000000       0.00000000 s 
O       23.23905939       9.91542796       2.75054790              inf       0.00000000       0.00000000       0.00000000 s 
Nb      21.68541013      12.60072384       6.23593900              inf       0.00000000       0.00000000       0.00000000 s 
Nb      23.30916813      11.66317674       3.76379870              inf       0.00000000       0.00000000       0.00000000 s 
C       21.69005103      10.73379154       5.00000000              inf       0.00000000       0.00000000       0.00000000 s 
O       23.30544863      11.66607844       7.24917030              inf       0.00000000       0.00000000       0.00000000 s 
O       21.68977003      12.59887584       2.75054790              inf       0.00000000       0.00000000       0.00000000 s 
Nb      20.13612077      15.28417173       6.23593900              inf       0.00000000       0.00000000       0.00000000 s 
Nb      21.75987877      14.34662463       3.76379870              inf       0.00000000       0.00000000       0.00000000 s 
C       20.14076167      13.41723943       5.00000000              inf       0.00000000       0.00000000       0.00000000 s 
O       21.75615927      14.34952633       7.24917030              inf       0.00000000       0.00000000       0.00000000 s 
O       20.14048067      15.28232373       2.75054790              inf       0.00000000       0.00000000       0.00000000 s 
Nb      18.58683141      17.96761961       6.23593900              inf       0.00000000       0.00000000       0.00000000 s 
Nb      20.21058941      17.03007251       3.76379870              inf       0.00000000       0.00000000       0.00000000 s 
C       18.59147231      16.10068731       5.00000000              inf       0.00000000       0.00000000       0.00000000 s 
O       20.20686991      17.03297421       7.24917030              inf       0.00000000       0.00000000       0.00000000 s 
O       18.59119131      17.96577161       2.75054790              inf       0.00000000       0.00000000       0.00000000 s 
Nb      17.03754205      20.65106750       6.23593900              inf       0.00000000       0.00000000       0.00000000 s 
Nb      18.66130005      19.71352040       3.76379870              inf       0.00000000       0.00000000       0.00000000 s 
C       17.04218295      18.78413520       5.00000000              inf       0.00000000       0.00000000       0.00000000 s 
O       18.65758055      19.71642210       7.24917030              inf       0.00000000       0.00000000       0.00000000 s 
O       17.04190195      20.64921950       2.75054790              inf       0.00000000       0.00000000       0.00000000 s 
Nb      15.48825269      23.33451538       6.23593900              inf       0.00000000       0.00000000       0.00000000 s 
Nb      17.11201069      22.39696828       3.76379870              inf       0.00000000       0.00000000       0.00000000 s 
C       15.49289359      21.46758308       5.00000000              inf       0.00000000       0.00000000       0.00000000 s 
O       17.10829119      22.39986998       7.24917030              inf       0.00000000       0.00000000       0.00000000 s 
O       15.49261259      23.33266738       2.75054790              inf       0.00000000       0.00000000       0.00000000 s 
Nb      13.93896333      26.01796327       6.23593900              inf       0.00000000       0.00000000       0.00000000 s 
Nb      15.56272133      25.08041617       3.76379870              inf       0.00000000       0.00000000       0.00000000 s 
C       13.94360423      24.15103097       5.00000000              inf       0.00000000       0.00000000       0.00000000 s 
O       15.55900183      25.08331787       7.24917030              inf       0.00000000       0.00000000       0.00000000 s 
O       13.94332323      26.01611527       2.75054790              inf       0.00000000       0.00000000       0.00000000 s 
H       12.45246333      14.35373704       8.29530340       0.00000000       0.00000000       0.00000000       0.00000000 a1
H        6.25530589      14.35373704       8.29530340       0.00000000       0.00000000       0.00000000       0.00000000 a2
