449
Lattice="22.99935516487365 0.0 0.0 0.0 30.665806886498196 0.0 0.0 0.0 20.0" Properties=species:S:1:pos:R:3:adsorption:S:1 size="9 12" mass_center_dist=13.766179439124308 min_atom_dist=11.302247793182378 s1=TPA s2=Fe s1idx=1 s2idx=3 pbc="T T T"
Cu      -7.56645172      -7.56606969       7.22900000 s 
Cu      -6.28870977      -6.28832774       1.80700000 s 
Cu      -7.56645172      -7.56606969       3.61500000 s 
Cu      -6.28870977      -6.28832774       5.42200000 s 
Cu      -7.56645172      -5.01058578       7.22900000 s 
Cu      -6.28870977      -3.73284383       1.80700000 s 
Cu      -7.56645172      -5.01058578       3.61500000 s 
Cu      -6.28870977      -3.73284383       5.42200000 s 
Cu      -7.56645172      -2.45510188       7.22900000 s 
Cu      -6.28870977      -1.17735993       1.80700000 s 
Cu      -7.56645172      -2.45510188       3.61500000 s 
Cu      -6.28870977      -1.17735993       5.42200000 s 
Cu      -7.56645172       0.10038203       7.22900000 s 
Cu      -6.28870977       1.37812398       1.80700000 s 
Cu      -7.56645172       0.10038203       3.61500000 s 
Cu      -6.28870977       1.37812398       5.42200000 s 
Cu      -7.56645172       2.65586594       7.22900000 s 
Cu      -6.28870977       3.93360789       1.80700000 s 
Cu      -7.56645172       2.65586594       3.61500000 s 
Cu      -6.28870977       3.93360789       5.42200000 s 
Cu      -7.56645172       5.21134984       7.22900000 s 
Cu      -6.28870977       6.48909179       1.80700000 s 
Cu      -7.56645172       5.21134984       3.61500000 s 
Cu      -6.28870977       6.48909179       5.42200000 s 
Cu      -7.56645172       7.76683375       7.22900000 s 
Cu      -6.28870977       9.04457570       1.80700000 s 
Cu      -7.56645172       7.76683375       3.61500000 s 
Cu      -6.28870977       9.04457570       5.42200000 s 
Cu      -7.56645172      10.32231766       7.22900000 s 
Cu      -6.28870977      11.60005961       1.80700000 s 
Cu      -7.56645172      10.32231766       3.61500000 s 
Cu      -6.28870977      11.60005961       5.42200000 s 
Cu      -7.56645172      12.87780157       7.22900000 s 
Cu      -6.28870977      14.15554352       1.80700000 s 
Cu      -7.56645172      12.87780157       3.61500000 s 
Cu      -6.28870977      14.15554352       5.42200000 s 
Cu      -7.56645172      15.43328547       7.22900000 s 
Cu      -6.28870977      16.71102742       1.80700000 s 
Cu      -7.56645172      15.43328547       3.61500000 s 
Cu      -6.28870977      16.71102742       5.42200000 s 
Cu      -7.56645172      17.98876938       7.22900000 s 
Cu      -6.28870977      19.26651133       1.80700000 s 
Cu      -7.56645172      17.98876938       3.61500000 s 
Cu      -6.28870977      19.26651133       5.42200000 s 
Cu      -7.56645172      20.54425329       7.22900000 s 
Cu      -6.28870977      21.82199524       1.80700000 s 
Cu      -7.56645172      20.54425329       3.61500000 s 
Cu      -6.28870977      21.82199524       5.42200000 s 
Cu      -5.01096781      -7.56606969       7.22900000 s 
Cu      -3.73322586      -6.28832774       1.80700000 s 
Cu      -5.01096781      -7.56606969       3.61500000 s 
Cu      -3.73322586      -6.28832774       5.42200000 s 
Cu      -5.01096781      -5.01058578       7.22900000 s 
Cu      -3.73322586      -3.73284383       1.80700000 s 
Cu      -5.01096781      -5.01058578       3.61500000 s 
Cu      -3.73322586      -3.73284383       5.42200000 s 
Cu      -5.01096781      -2.45510188       7.22900000 s 
Cu      -3.73322586      -1.17735993       1.80700000 s 
Cu      -5.01096781      -2.45510188       3.61500000 s 
Cu      -3.73322586      -1.17735993       5.42200000 s 
Cu      -5.01096781       0.10038203       7.22900000 s 
Cu      -3.73322586       1.37812398       1.80700000 s 
Cu      -5.01096781       0.10038203       3.61500000 s 
Cu      -3.73322586       1.37812398       5.42200000 s 
Cu      -5.01096781       2.65586594       7.22900000 s 
Cu      -3.73322586       3.93360789       1.80700000 s 
Cu      -5.01096781       2.65586594       3.61500000 s 
Cu      -3.73322586       3.93360789       5.42200000 s 
Cu      -5.01096781       5.21134984       7.22900000 s 
Cu      -3.73322586       6.48909179       1.80700000 s 
Cu      -5.01096781       5.21134984       3.61500000 s 
Cu      -3.73322586       6.48909179       5.42200000 s 
Cu      -5.01096781       7.76683375       7.22900000 s 
Cu      -3.73322586       9.04457570       1.80700000 s 
Cu      -5.01096781       7.76683375       3.61500000 s 
Cu      -3.73322586       9.04457570       5.42200000 s 
Cu      -5.01096781      10.32231766       7.22900000 s 
Cu      -3.73322586      11.60005961       1.80700000 s 
Cu      -5.01096781      10.32231766       3.61500000 s 
Cu      -3.73322586      11.60005961       5.42200000 s 
Cu      -5.01096781      12.87780157       7.22900000 s 
Cu      -3.73322586      14.15554352       1.80700000 s 
Cu      -5.01096781      12.87780157       3.61500000 s 
Cu      -3.73322586      14.15554352       5.42200000 s 
Cu      -5.01096781      15.43328547       7.22900000 s 
Cu      -3.73322586      16.71102742       1.80700000 s 
Cu      -5.01096781      15.43328547       3.61500000 s 
Cu      -3.73322586      16.71102742       5.42200000 s 
Cu      -5.01096781      17.98876938       7.22900000 s 
Cu      -3.73322586      19.26651133       1.80700000 s 
Cu      -5.01096781      17.98876938       3.61500000 s 
Cu      -3.73322586      19.26651133       5.42200000 s 
Cu      -5.01096781      20.54425329       7.22900000 s 
Cu      -3.73322586      21.82199524       1.80700000 s 
Cu      -5.01096781      20.54425329       3.61500000 s 
Cu      -3.73322586      21.82199524       5.42200000 s 
Cu      -2.45548391      -7.56606969       7.22900000 s 
Cu      -1.17774196      -6.28832774       1.80700000 s 
Cu      -2.45548391      -7.56606969       3.61500000 s 
Cu      -1.17774196      -6.28832774       5.42200000 s 
Cu      -2.45548391      -5.01058578       7.22900000 s 
Cu      -1.17774196      -3.73284383       1.80700000 s 
Cu      -2.45548391      -5.01058578       3.61500000 s 
Cu      -1.17774196      -3.73284383       5.42200000 s 
Cu      -2.45548391      -2.45510188       7.22900000 s 
Cu      -1.17774196      -1.17735993       1.80700000 s 
Cu      -2.45548391      -2.45510188       3.61500000 s 
Cu      -1.17774196      -1.17735993       5.42200000 s 
Cu      -2.45548391       0.10038203       7.22900000 s 
Cu      -1.17774196       1.37812398       1.80700000 s 
Cu      -2.45548391       0.10038203       3.61500000 s 
Cu      -1.17774196       1.37812398       5.42200000 s 
Cu      -2.45548391       2.65586594       7.22900000 s 
Cu      -1.17774196       3.93360789       1.80700000 s 
Cu      -2.45548391       2.65586594       3.61500000 s 
Cu      -1.17774196       3.93360789       5.42200000 s 
Cu      -2.45548391       5.21134984       7.22900000 s 
Cu      -1.17774196       6.48909179       1.80700000 s 
Cu      -2.45548391       5.21134984       3.61500000 s 
Cu      -1.17774196       6.48909179       5.42200000 s 
Cu      -2.45548391       7.76683375       7.22900000 s 
Cu      -1.17774196       9.04457570       1.80700000 s 
Cu      -2.45548391       7.76683375       3.61500000 s 
Cu      -1.17774196       9.04457570       5.42200000 s 
Cu      -2.45548391      10.32231766       7.22900000 s 
Cu      -1.17774196      11.60005961       1.80700000 s 
Cu      -2.45548391      10.32231766       3.61500000 s 
Cu      -1.17774196      11.60005961       5.42200000 s 
Cu      -2.45548391      12.87780157       7.22900000 s 
Cu      -1.17774196      14.15554352       1.80700000 s 
Cu      -2.45548391      12.87780157       3.61500000 s 
Cu      -1.17774196      14.15554352       5.42200000 s 
Cu      -2.45548391      15.43328547       7.22900000 s 
Cu      -1.17774196      16.71102742       1.80700000 s 
Cu      -2.45548391      15.43328547       3.61500000 s 
Cu      -1.17774196      16.71102742       5.42200000 s 
Cu      -2.45548391      17.98876938       7.22900000 s 
Cu      -1.17774196      19.26651133       1.80700000 s 
Cu      -2.45548391      17.98876938       3.61500000 s 
Cu      -1.17774196      19.26651133       5.42200000 s 
Cu      -2.45548391      20.54425329       7.22900000 s 
Cu      -1.17774196      21.82199524       1.80700000 s 
Cu      -2.45548391      20.54425329       3.61500000 s 
Cu      -1.17774196      21.82199524       5.42200000 s 
Cu       0.10000000      -7.56606969       7.22900000 s 
Cu       1.37774195      -6.28832774       1.80700000 s 
Cu       0.10000000      -7.56606969       3.61500000 s 
Cu       1.37774195      -6.28832774       5.42200000 s 
Cu       0.10000000      -5.01058578       7.22900000 s 
Cu       1.37774195      -3.73284383       1.80700000 s 
Cu       0.10000000      -5.01058578       3.61500000 s 
Cu       1.37774195      -3.73284383       5.42200000 s 
Cu       0.10000000      -2.45510188       7.22900000 s 
Cu       1.37774195      -1.17735993       1.80700000 s 
Cu       0.10000000      -2.45510188       3.61500000 s 
Cu       1.37774195      -1.17735993       5.42200000 s 
Cu       0.10000000       0.10038203       7.22900000 s 
Cu       1.37774195       1.37812398       1.80700000 s 
Cu       0.10000000       0.10038203       3.61500000 s 
Cu       1.37774195       1.37812398       5.42200000 s 
Cu       0.10000000       2.65586594       7.22900000 s 
Cu       1.37774195       3.93360789       1.80700000 s 
Cu       0.10000000       2.65586594       3.61500000 s 
Cu       1.37774195       3.93360789       5.42200000 s 
Cu       0.10000000       5.21134984       7.22900000 s 
Cu       1.37774195       6.48909179       1.80700000 s 
Cu       0.10000000       5.21134984       3.61500000 s 
Cu       1.37774195       6.48909179       5.42200000 s 
Cu       0.10000000       7.76683375       7.22900000 s 
Cu       1.37774195       9.04457570       1.80700000 s 
Cu       0.10000000       7.76683375       3.61500000 s 
Cu       1.37774195       9.04457570       5.42200000 s 
Cu       0.10000000      10.32231766       7.22900000 s 
Cu       1.37774195      11.60005961       1.80700000 s 
Cu       0.10000000      10.32231766       3.61500000 s 
Cu       1.37774195      11.60005961       5.42200000 s 
Cu       0.10000000      12.87780157       7.22900000 s 
Cu       1.37774195      14.15554352       1.80700000 s 
Cu       0.10000000      12.87780157       3.61500000 s 
Cu       1.37774195      14.15554352       5.42200000 s 
Cu       0.10000000      15.43328547       7.22900000 s 
Cu       1.37774195      16.71102742       1.80700000 s 
Cu       0.10000000      15.43328547       3.61500000 s 
Cu       1.37774195      16.71102742       5.42200000 s 
Cu       0.10000000      17.98876938       7.22900000 s 
Cu       1.37774195      19.26651133       1.80700000 s 
Cu       0.10000000      17.98876938       3.61500000 s 
Cu       1.37774195      19.26651133       5.42200000 s 
Cu       0.10000000      20.54425329       7.22900000 s 
Cu       1.37774195      21.82199524       1.80700000 s 
Cu       0.10000000      20.54425329       3.61500000 s 
Cu       1.37774195      21.82199524       5.42200000 s 
Cu       2.65548391      -7.56606969       7.22900000 s 
Cu       3.93322586      -6.28832774       1.80700000 s 
Cu       2.65548391      -7.56606969       3.61500000 s 
Cu       3.93322586      -6.28832774       5.42200000 s 
Cu       2.65548391      -5.01058578       7.22900000 s 
Cu       3.93322586      -3.73284383       1.80700000 s 
Cu       2.65548391      -5.01058578       3.61500000 s 
Cu       3.93322586      -3.73284383       5.42200000 s 
Cu       2.65548391      -2.45510188       7.22900000 s 
Cu       3.93322586      -1.17735993       1.80700000 s 
Cu       2.65548391      -2.45510188       3.61500000 s 
Cu       3.93322586      -1.17735993       5.42200000 s 
Cu       2.65548391       0.10038203       7.22900000 s 
Cu       3.93322586       1.37812398       1.80700000 s 
Cu       2.65548391       0.10038203       3.61500000 s 
Cu       3.93322586       1.37812398       5.42200000 s 
Cu       2.65548391       2.65586594       7.22900000 s 
Cu       3.93322586       3.93360789       1.80700000 s 
Cu       2.65548391       2.65586594       3.61500000 s 
Cu       3.93322586       3.93360789       5.42200000 s 
Cu       2.65548391       5.21134984       7.22900000 s 
Cu       3.93322586       6.48909179       1.80700000 s 
Cu       2.65548391       5.21134984       3.61500000 s 
Cu       3.93322586       6.48909179       5.42200000 s 
Cu       2.65548391       7.76683375       7.22900000 s 
Cu       3.93322586       9.04457570       1.80700000 s 
Cu       2.65548391       7.76683375       3.61500000 s 
Cu       3.93322586       9.04457570       5.42200000 s 
Cu       2.65548391      10.32231766       7.22900000 s 
Cu       3.93322586      11.60005961       1.80700000 s 
Cu       2.65548391      10.32231766       3.61500000 s 
Cu       3.93322586      11.60005961       5.42200000 s 
Cu       2.65548391      12.87780157       7.22900000 s 
Cu       3.93322586      14.15554352       1.80700000 s 
Cu       2.65548391      12.87780157       3.61500000 s 
Cu       3.93322586      14.15554352       5.42200000 s 
Cu       2.65548391      15.43328547       7.22900000 s 
Cu       3.93322586      16.71102742       1.80700000 s 
Cu       2.65548391      15.43328547       3.61500000 s 
Cu       3.93322586      16.71102742       5.42200000 s 
Cu       2.65548391      17.98876938       7.22900000 s 
Cu       3.93322586      19.26651133       1.80700000 s 
Cu       2.65548391      17.98876938       3.61500000 s 
Cu       3.93322586      19.26651133       5.42200000 s 
Cu       2.65548391      20.54425329       7.22900000 s 
Cu       3.93322586      21.82199524       1.80700000 s 
Cu       2.65548391      20.54425329       3.61500000 s 
Cu       3.93322586      21.82199524       5.42200000 s 
Cu       5.21096781      -7.56606969       7.22900000 s 
Cu       6.48870976      -6.28832774       1.80700000 s 
Cu       5.21096781      -7.56606969       3.61500000 s 
Cu       6.48870976      -6.28832774       5.42200000 s 
Cu       5.21096781      -5.01058578       7.22900000 s 
Cu       6.48870976      -3.73284383       1.80700000 s 
Cu       5.21096781      -5.01058578       3.61500000 s 
Cu       6.48870976      -3.73284383       5.42200000 s 
Cu       5.21096781      -2.45510188       7.22900000 s 
Cu       6.48870976      -1.17735993       1.80700000 s 
Cu       5.21096781      -2.45510188       3.61500000 s 
Cu       6.48870976      -1.17735993       5.42200000 s 
Cu       5.21096781       0.10038203       7.22900000 s 
Cu       6.48870976       1.37812398       1.80700000 s 
Cu       5.21096781       0.10038203       3.61500000 s 
Cu       6.48870976       1.37812398       5.42200000 s 
Cu       5.21096781       2.65586594       7.22900000 s 
Cu       6.48870976       3.93360789       1.80700000 s 
Cu       5.21096781       2.65586594       3.61500000 s 
Cu       6.48870976       3.93360789       5.42200000 s 
Cu       5.21096781       5.21134984       7.22900000 s 
Cu       6.48870976       6.48909179       1.80700000 s 
Cu       5.21096781       5.21134984       3.61500000 s 
Cu       6.48870976       6.48909179       5.42200000 s 
Cu       5.21096781       7.76683375       7.22900000 s 
Cu       6.48870976       9.04457570       1.80700000 s 
Cu       5.21096781       7.76683375       3.61500000 s 
Cu       6.48870976       9.04457570       5.42200000 s 
Cu       5.21096781      10.32231766       7.22900000 s 
Cu       6.48870976      11.60005961       1.80700000 s 
Cu       5.21096781      10.32231766       3.61500000 s 
Cu       6.48870976      11.60005961       5.42200000 s 
Cu       5.21096781      12.87780157       7.22900000 s 
Cu       6.48870976      14.15554352       1.80700000 s 
Cu       5.21096781      12.87780157       3.61500000 s 
Cu       6.48870976      14.15554352       5.42200000 s 
Cu       5.21096781      15.43328547       7.22900000 s 
Cu       6.48870976      16.71102742       1.80700000 s 
Cu       5.21096781      15.43328547       3.61500000 s 
Cu       6.48870976      16.71102742       5.42200000 s 
Cu       5.21096781      17.98876938       7.22900000 s 
Cu       6.48870976      19.26651133       1.80700000 s 
Cu       5.21096781      17.98876938       3.61500000 s 
Cu       6.48870976      19.26651133       5.42200000 s 
Cu       5.21096781      20.54425329       7.22900000 s 
Cu       6.48870976      21.82199524       1.80700000 s 
Cu       5.21096781      20.54425329       3.61500000 s 
Cu       6.48870976      21.82199524       5.42200000 s 
Cu       7.76645172      -7.56606969       7.22900000 s 
Cu       9.04419367      -6.28832774       1.80700000 s 
Cu       7.76645172      -7.56606969       3.61500000 s 
Cu       9.04419367      -6.28832774       5.42200000 s 
Cu       7.76645172      -5.01058578       7.22900000 s 
Cu       9.04419367      -3.73284383       1.80700000 s 
Cu       7.76645172      -5.01058578       3.61500000 s 
Cu       9.04419367      -3.73284383       5.42200000 s 
Cu       7.76645172      -2.45510188       7.22900000 s 
Cu       9.04419367      -1.17735993       1.80700000 s 
Cu       7.76645172      -2.45510188       3.61500000 s 
Cu       9.04419367      -1.17735993       5.42200000 s 
Cu       7.76645172       0.10038203       7.22900000 s 
Cu       9.04419367       1.37812398       1.80700000 s 
Cu       7.76645172       0.10038203       3.61500000 s 
Cu       9.04419367       1.37812398       5.42200000 s 
Cu       7.76645172       2.65586594       7.22900000 s 
Cu       9.04419367       3.93360789       1.80700000 s 
Cu       7.76645172       2.65586594       3.61500000 s 
Cu       9.04419367       3.93360789       5.42200000 s 
Cu       7.76645172       5.21134984       7.22900000 s 
Cu       9.04419367       6.48909179       1.80700000 s 
Cu       7.76645172       5.21134984       3.61500000 s 
Cu       9.04419367       6.48909179       5.42200000 s 
Cu       7.76645172       7.76683375       7.22900000 s 
Cu       9.04419367       9.04457570       1.80700000 s 
Cu       7.76645172       7.76683375       3.61500000 s 
Cu       9.04419367       9.04457570       5.42200000 s 
Cu       7.76645172      10.32231766       7.22900000 s 
Cu       9.04419367      11.60005961       1.80700000 s 
Cu       7.76645172      10.32231766       3.61500000 s 
Cu       9.04419367      11.60005961       5.42200000 s 
Cu       7.76645172      12.87780157       7.22900000 s 
Cu       9.04419367      14.15554352       1.80700000 s 
Cu       7.76645172      12.87780157       3.61500000 s 
Cu       9.04419367      14.15554352       5.42200000 s 
Cu       7.76645172      15.43328547       7.22900000 s 
Cu       9.04419367      16.71102742       1.80700000 s 
Cu       7.76645172      15.43328547       3.61500000 s 
Cu       9.04419367      16.71102742       5.42200000 s 
Cu       7.76645172      17.98876938       7.22900000 s 
Cu       9.04419367      19.26651133       1.80700000 s 
Cu       7.76645172      17.98876938       3.61500000 s 
Cu       9.04419367      19.26651133       5.42200000 s 
Cu       7.76645172      20.54425329       7.22900000 s 
Cu       9.04419367      21.82199524       1.80700000 s 
Cu       7.76645172      20.54425329       3.61500000 s 
Cu       9.04419367      21.82199524       5.42200000 s 
Cu      10.32193563      -7.56606969       7.22900000 s 
Cu      11.59967758      -6.28832774       1.80700000 s 
Cu      10.32193563      -7.56606969       3.61500000 s 
Cu      11.59967758      -6.28832774       5.42200000 s 
Cu      10.32193563      -5.01058578       7.22900000 s 
Cu      11.59967758      -3.73284383       1.80700000 s 
Cu      10.32193563      -5.01058578       3.61500000 s 
Cu      11.59967758      -3.73284383       5.42200000 s 
Cu      10.32193563      -2.45510188       7.22900000 s 
Cu      11.59967758      -1.17735993       1.80700000 s 
Cu      10.32193563      -2.45510188       3.61500000 s 
Cu      11.59967758      -1.17735993       5.42200000 s 
Cu      10.32193563       0.10038203       7.22900000 s 
Cu      11.59967758       1.37812398       1.80700000 s 
Cu      10.32193563       0.10038203       3.61500000 s 
Cu      11.59967758       1.37812398       5.42200000 s 
Cu      10.32193563       2.65586594       7.22900000 s 
Cu      11.59967758       3.93360789       1.80700000 s 
Cu      10.32193563       2.65586594       3.61500000 s 
Cu      11.59967758       3.93360789       5.42200000 s 
Cu      10.32193563       5.21134984       7.22900000 s 
Cu      11.59967758       6.48909179       1.80700000 s 
Cu      10.32193563       5.21134984       3.61500000 s 
Cu      11.59967758       6.48909179       5.42200000 s 
Cu      10.32193563       7.76683375       7.22900000 s 
Cu      11.59967758       9.04457570       1.80700000 s 
Cu      10.32193563       7.76683375       3.61500000 s 
Cu      11.59967758       9.04457570       5.42200000 s 
Cu      10.32193563      10.32231766       7.22900000 s 
Cu      11.59967758      11.60005961       1.80700000 s 
Cu      10.32193563      10.32231766       3.61500000 s 
Cu      11.59967758      11.60005961       5.42200000 s 
Cu      10.32193563      12.87780157       7.22900000 s 
Cu      11.59967758      14.15554352       1.80700000 s 
Cu      10.32193563      12.87780157       3.61500000 s 
Cu      11.59967758      14.15554352       5.42200000 s 
Cu      10.32193563      15.43328547       7.22900000 s 
Cu      11.59967758      16.71102742       1.80700000 s 
Cu      10.32193563      15.43328547       3.61500000 s 
Cu      11.59967758      16.71102742       5.42200000 s 
Cu      10.32193563      17.98876938       7.22900000 s 
Cu      11.59967758      19.26651133       1.80700000 s 
Cu      10.32193563      17.98876938       3.61500000 s 
Cu      11.59967758      19.26651133       5.42200000 s 
Cu      10.32193563      20.54425329       7.22900000 s 
Cu      11.59967758      21.82199524       1.80700000 s 
Cu      10.32193563      20.54425329       3.61500000 s 
Cu      11.59967758      21.82199524       5.42200000 s 
Cu      12.87741954      -7.56606969       7.22900000 s 
Cu      14.15516149      -6.28832774       1.80700000 s 
Cu      12.87741954      -7.56606969       3.61500000 s 
Cu      14.15516149      -6.28832774       5.42200000 s 
Cu      12.87741954      -5.01058578       7.22900000 s 
Cu      14.15516149      -3.73284383       1.80700000 s 
Cu      12.87741954      -5.01058578       3.61500000 s 
Cu      14.15516149      -3.73284383       5.42200000 s 
Cu      12.87741954      -2.45510188       7.22900000 s 
Cu      14.15516149      -1.17735993       1.80700000 s 
Cu      12.87741954      -2.45510188       3.61500000 s 
Cu      14.15516149      -1.17735993       5.42200000 s 
Cu      12.87741954       0.10038203       7.22900000 s 
Cu      14.15516149       1.37812398       1.80700000 s 
Cu      12.87741954       0.10038203       3.61500000 s 
Cu      14.15516149       1.37812398       5.42200000 s 
Cu      12.87741954       2.65586594       7.22900000 s 
Cu      14.15516149       3.93360789       1.80700000 s 
Cu      12.87741954       2.65586594       3.61500000 s 
Cu      14.15516149       3.93360789       5.42200000 s 
Cu      12.87741954       5.21134984       7.22900000 s 
Cu      14.15516149       6.48909179       1.80700000 s 
Cu      12.87741954       5.21134984       3.61500000 s 
Cu      14.15516149       6.48909179       5.42200000 s 
Cu      12.87741954       7.76683375       7.22900000 s 
Cu      14.15516149       9.04457570       1.80700000 s 
Cu      12.87741954       7.76683375       3.61500000 s 
Cu      14.15516149       9.04457570       5.42200000 s 
Cu      12.87741954      10.32231766       7.22900000 s 
Cu      14.15516149      11.60005961       1.80700000 s 
Cu      12.87741954      10.32231766       3.61500000 s 
Cu      14.15516149      11.60005961       5.42200000 s 
Cu      12.87741954      12.87780157       7.22900000 s 
Cu      14.15516149      14.15554352       1.80700000 s 
Cu      12.87741954      12.87780157       3.61500000 s 
Cu      14.15516149      14.15554352       5.42200000 s 
Cu      12.87741954      15.43328547       7.22900000 s 
Cu      14.15516149      16.71102742       1.80700000 s 
Cu      12.87741954      15.43328547       3.61500000 s 
Cu      14.15516149      16.71102742       5.42200000 s 
Cu      12.87741954      17.98876938       7.22900000 s 
Cu      14.15516149      19.26651133       1.80700000 s 
Cu      12.87741954      17.98876938       3.61500000 s 
Cu      14.15516149      19.26651133       5.42200000 s 
Cu      12.87741954      20.54425329       7.22900000 s 
Cu      14.15516149      21.82199524       1.80700000 s 
Cu      12.87741954      20.54425329       3.61500000 s 
Cu      14.15516149      21.82199524       5.42200000 s 
C       5.19116882      14.09119680       9.22400000 a1 
C       5.90534667      15.31873418       9.30400000 a1 
C       7.30895363      15.32651235       9.33300000 a1 
C       8.03939493      14.10675315       9.29400000 a1 
C       7.32450998      12.87709446       9.32200000 a1 
C       5.91666038      12.86931629       9.29400000 a1 
C       9.51724811      14.12372372       9.25500000 a1 
C       3.70200194      14.09685366       9.23400000 a1 
O      10.13030969      13.00013104       9.17900000 a1 
O       3.10591092      12.97043256       9.21100000 a1 
O      10.09848988      15.26357985       9.17000000 a1 
O       3.12570991      15.23317426       9.18300000 a1 
H       5.33188307      16.23019482       9.51000000 a1 
H       7.85413296      16.24645827       9.56400000 a1 
H       7.88312434      11.95785565       9.53600000 a1 
H       5.35946023      11.94442062       9.49000000 a1 
Fe       1.37774195       1.37812398       9.00000000 a2 
