386
Lattice="30.665806886498196 0.0 0.0 0.0 20.443871257665464 0.0 0.0 0.0 20.0" Properties=species:S:1:pos:R:3:adsorption:S:1 size="12 8" mass_center_dist=13.030462309526856 min_atom_dist=13.030462309526856 s1=Fe s2=Fe s1idx=3 s2idx=3 pbc="T T T"
Cu      -7.56645172      -7.56606969       7.22900000 s 
Cu      -6.28870977      -6.28832774       1.80700000 s 
Cu      -7.56645172      -7.56606969       3.61500000 s 
Cu      -6.28870977      -6.28832774       5.42200000 s 
Cu      -7.56645172      -5.01058578       7.22900000 s 
Cu      -6.28870977      -3.73284383       1.80700000 s 
Cu      -7.56645172      -5.01058578       3.61500000 s 
Cu      -6.28870977      -3.73284383       5.42200000 s 
Cu      -7.56645172      -2.45510188       7.22900000 s 
Cu      -6.28870977      -1.17735993       1.80700000 s 
Cu      -7.56645172      -2.45510188       3.61500000 s 
Cu      -6.28870977      -1.17735993       5.42200000 s 
Cu      -7.56645172       0.10038203       7.22900000 s 
Cu      -6.28870977       1.37812398       1.80700000 s 
Cu      -7.56645172       0.10038203       3.61500000 s 
Cu      -6.28870977       1.37812398       5.42200000 s 
Cu      -7.56645172       2.65586594       7.22900000 s 
Cu      -6.28870977       3.93360789       1.80700000 s 
Cu      -7.56645172       2.65586594       3.61500000 s 
Cu      -6.28870977       3.93360789       5.42200000 s 
Cu      -7.56645172       5.21134984       7.22900000 s 
Cu      -6.28870977       6.48909179       1.80700000 s 
Cu      -7.56645172       5.21134984       3.61500000 s 
Cu      -6.28870977       6.48909179       5.42200000 s 
Cu      -7.56645172       7.76683375       7.22900000 s 
Cu      -6.28870977       9.04457570       1.80700000 s 
Cu      -7.56645172       7.76683375       3.61500000 s 
Cu      -6.28870977       9.04457570       5.42200000 s 
Cu      -7.56645172      10.32231766       7.22900000 s 
Cu      -6.28870977      11.60005961       1.80700000 s 
Cu      -7.56645172      10.32231766       3.61500000 s 
Cu      -6.28870977      11.60005961       5.42200000 s 
Cu      -5.01096781      -7.56606969       7.22900000 s 
Cu      -3.73322586      -6.28832774       1.80700000 s 
Cu      -5.01096781      -7.56606969       3.61500000 s 
Cu      -3.73322586      -6.28832774       5.42200000 s 
Cu      -5.01096781      -5.01058578       7.22900000 s 
Cu      -3.73322586      -3.73284383       1.80700000 s 
Cu      -5.01096781      -5.01058578       3.61500000 s 
Cu      -3.73322586      -3.73284383       5.42200000 s 
Cu      -5.01096781      -2.45510188       7.22900000 s 
Cu      -3.73322586      -1.17735993       1.80700000 s 
Cu      -5.01096781      -2.45510188       3.61500000 s 
Cu      -3.73322586      -1.17735993       5.42200000 s 
Cu      -5.01096781       0.10038203       7.22900000 s 
Cu      -3.73322586       1.37812398       1.80700000 s 
Cu      -5.01096781       0.10038203       3.61500000 s 
Cu      -3.73322586       1.37812398       5.42200000 s 
Cu      -5.01096781       2.65586594       7.22900000 s 
Cu      -3.73322586       3.93360789       1.80700000 s 
Cu      -5.01096781       2.65586594       3.61500000 s 
Cu      -3.73322586       3.93360789       5.42200000 s 
Cu      -5.01096781       5.21134984       7.22900000 s 
Cu      -3.73322586       6.48909179       1.80700000 s 
Cu      -5.01096781       5.21134984       3.61500000 s 
Cu      -3.73322586       6.48909179       5.42200000 s 
Cu      -5.01096781       7.76683375       7.22900000 s 
Cu      -3.73322586       9.04457570       1.80700000 s 
Cu      -5.01096781       7.76683375       3.61500000 s 
Cu      -3.73322586       9.04457570       5.42200000 s 
Cu      -5.01096781      10.32231766       7.22900000 s 
Cu      -3.73322586      11.60005961       1.80700000 s 
Cu      -5.01096781      10.32231766       3.61500000 s 
Cu      -3.73322586      11.60005961       5.42200000 s 
Cu      -2.45548391      -7.56606969       7.22900000 s 
Cu      -1.17774196      -6.28832774       1.80700000 s 
Cu      -2.45548391      -7.56606969       3.61500000 s 
Cu      -1.17774196      -6.28832774       5.42200000 s 
Cu      -2.45548391      -5.01058578       7.22900000 s 
Cu      -1.17774196      -3.73284383       1.80700000 s 
Cu      -2.45548391      -5.01058578       3.61500000 s 
Cu      -1.17774196      -3.73284383       5.42200000 s 
Cu      -2.45548391      -2.45510188       7.22900000 s 
Cu      -1.17774196      -1.17735993       1.80700000 s 
Cu      -2.45548391      -2.45510188       3.61500000 s 
Cu      -1.17774196      -1.17735993       5.42200000 s 
Cu      -2.45548391       0.10038203       7.22900000 s 
Cu      -1.17774196       1.37812398       1.80700000 s 
Cu      -2.45548391       0.10038203       3.61500000 s 
Cu      -1.17774196       1.37812398       5.42200000 s 
Cu      -2.45548391       2.65586594       7.22900000 s 
Cu      -1.17774196       3.93360789       1.80700000 s 
Cu      -2.45548391       2.65586594       3.61500000 s 
Cu      -1.17774196       3.93360789       5.42200000 s 
Cu      -2.45548391       5.21134984       7.22900000 s 
Cu      -1.17774196       6.48909179       1.80700000 s 
Cu      -2.45548391       5.21134984       3.61500000 s 
Cu      -1.17774196       6.48909179       5.42200000 s 
Cu      -2.45548391       7.76683375       7.22900000 s 
Cu      -1.17774196       9.04457570       1.80700000 s 
Cu      -2.45548391       7.76683375       3.61500000 s 
Cu      -1.17774196       9.04457570       5.42200000 s 
Cu      -2.45548391      10.32231766       7.22900000 s 
Cu      -1.17774196      11.60005961       1.80700000 s 
Cu      -2.45548391      10.32231766       3.61500000 s 
Cu      -1.17774196      11.60005961       5.42200000 s 
Cu       0.10000000      -7.56606969       7.22900000 s 
Cu       1.37774195      -6.28832774       1.80700000 s 
Cu       0.10000000      -7.56606969       3.61500000 s 
Cu       1.37774195      -6.28832774       5.42200000 s 
Cu       0.10000000      -5.01058578       7.22900000 s 
Cu       1.37774195      -3.73284383       1.80700000 s 
Cu       0.10000000      -5.01058578       3.61500000 s 
Cu       1.37774195      -3.73284383       5.42200000 s 
Cu       0.10000000      -2.45510188       7.22900000 s 
Cu       1.37774195      -1.17735993       1.80700000 s 
Cu       0.10000000      -2.45510188       3.61500000 s 
Cu       1.37774195      -1.17735993       5.42200000 s 
Cu       0.10000000       0.10038203       7.22900000 s 
Cu       1.37774195       1.37812398       1.80700000 s 
Cu       0.10000000       0.10038203       3.61500000 s 
Cu       1.37774195       1.37812398       5.42200000 s 
Cu       0.10000000       2.65586594       7.22900000 s 
Cu       1.37774195       3.93360789       1.80700000 s 
Cu       0.10000000       2.65586594       3.61500000 s 
Cu       1.37774195       3.93360789       5.42200000 s 
Cu       0.10000000       5.21134984       7.22900000 s 
Cu       1.37774195       6.48909179       1.80700000 s 
Cu       0.10000000       5.21134984       3.61500000 s 
Cu       1.37774195       6.48909179       5.42200000 s 
Cu       0.10000000       7.76683375       7.22900000 s 
Cu       1.37774195       9.04457570       1.80700000 s 
Cu       0.10000000       7.76683375       3.61500000 s 
Cu       1.37774195       9.04457570       5.42200000 s 
Cu       0.10000000      10.32231766       7.22900000 s 
Cu       1.37774195      11.60005961       1.80700000 s 
Cu       0.10000000      10.32231766       3.61500000 s 
Cu       1.37774195      11.60005961       5.42200000 s 
Cu       2.65548391      -7.56606969       7.22900000 s 
Cu       3.93322586      -6.28832774       1.80700000 s 
Cu       2.65548391      -7.56606969       3.61500000 s 
Cu       3.93322586      -6.28832774       5.42200000 s 
Cu       2.65548391      -5.01058578       7.22900000 s 
Cu       3.93322586      -3.73284383       1.80700000 s 
Cu       2.65548391      -5.01058578       3.61500000 s 
Cu       3.93322586      -3.73284383       5.42200000 s 
Cu       2.65548391      -2.45510188       7.22900000 s 
Cu       3.93322586      -1.17735993       1.80700000 s 
Cu       2.65548391      -2.45510188       3.61500000 s 
Cu       3.93322586      -1.17735993       5.42200000 s 
Cu       2.65548391       0.10038203       7.22900000 s 
Cu       3.93322586       1.37812398       1.80700000 s 
Cu       2.65548391       0.10038203       3.61500000 s 
Cu       3.93322586       1.37812398       5.42200000 s 
Cu       2.65548391       2.65586594       7.22900000 s 
Cu       3.93322586       3.93360789       1.80700000 s 
Cu       2.65548391       2.65586594       3.61500000 s 
Cu       3.93322586       3.93360789       5.42200000 s 
Cu       2.65548391       5.21134984       7.22900000 s 
Cu       3.93322586       6.48909179       1.80700000 s 
Cu       2.65548391       5.21134984       3.61500000 s 
Cu       3.93322586       6.48909179       5.42200000 s 
Cu       2.65548391       7.76683375       7.22900000 s 
Cu       3.93322586       9.04457570       1.80700000 s 
Cu       2.65548391       7.76683375       3.61500000 s 
Cu       3.93322586       9.04457570       5.42200000 s 
Cu       2.65548391      10.32231766       7.22900000 s 
Cu       3.93322586      11.60005961       1.80700000 s 
Cu       2.65548391      10.32231766       3.61500000 s 
Cu       3.93322586      11.60005961       5.42200000 s 
Cu       5.21096781      -7.56606969       7.22900000 s 
Cu       6.48870976      -6.28832774       1.80700000 s 
Cu       5.21096781      -7.56606969       3.61500000 s 
Cu       6.48870976      -6.28832774       5.42200000 s 
Cu       5.21096781      -5.01058578       7.22900000 s 
Cu       6.48870976      -3.73284383       1.80700000 s 
Cu       5.21096781      -5.01058578       3.61500000 s 
Cu       6.48870976      -3.73284383       5.42200000 s 
Cu       5.21096781      -2.45510188       7.22900000 s 
Cu       6.48870976      -1.17735993       1.80700000 s 
Cu       5.21096781      -2.45510188       3.61500000 s 
Cu       6.48870976      -1.17735993       5.42200000 s 
Cu       5.21096781       0.10038203       7.22900000 s 
Cu       6.48870976       1.37812398       1.80700000 s 
Cu       5.21096781       0.10038203       3.61500000 s 
Cu       6.48870976       1.37812398       5.42200000 s 
Cu       5.21096781       2.65586594       7.22900000 s 
Cu       6.48870976       3.93360789       1.80700000 s 
Cu       5.21096781       2.65586594       3.61500000 s 
Cu       6.48870976       3.93360789       5.42200000 s 
Cu       5.21096781       5.21134984       7.22900000 s 
Cu       6.48870976       6.48909179       1.80700000 s 
Cu       5.21096781       5.21134984       3.61500000 s 
Cu       6.48870976       6.48909179       5.42200000 s 
Cu       5.21096781       7.76683375       7.22900000 s 
Cu       6.48870976       9.04457570       1.80700000 s 
Cu       5.21096781       7.76683375       3.61500000 s 
Cu       6.48870976       9.04457570       5.42200000 s 
Cu       5.21096781      10.32231766       7.22900000 s 
Cu       6.48870976      11.60005961       1.80700000 s 
Cu       5.21096781      10.32231766       3.61500000 s 
Cu       6.48870976      11.60005961       5.42200000 s 
Cu       7.76645172      -7.56606969       7.22900000 s 
Cu       9.04419367      -6.28832774       1.80700000 s 
Cu       7.76645172      -7.56606969       3.61500000 s 
Cu       9.04419367      -6.28832774       5.42200000 s 
Cu       7.76645172      -5.01058578       7.22900000 s 
Cu       9.04419367      -3.73284383       1.80700000 s 
Cu       7.76645172      -5.01058578       3.61500000 s 
Cu       9.04419367      -3.73284383       5.42200000 s 
Cu       7.76645172      -2.45510188       7.22900000 s 
Cu       9.04419367      -1.17735993       1.80700000 s 
Cu       7.76645172      -2.45510188       3.61500000 s 
Cu       9.04419367      -1.17735993       5.42200000 s 
Cu       7.76645172       0.10038203       7.22900000 s 
Cu       9.04419367       1.37812398       1.80700000 s 
Cu       7.76645172       0.10038203       3.61500000 s 
Cu       9.04419367       1.37812398       5.42200000 s 
Cu       7.76645172       2.65586594       7.22900000 s 
Cu       9.04419367       3.93360789       1.80700000 s 
Cu       7.76645172       2.65586594       3.61500000 s 
Cu       9.04419367       3.93360789       5.42200000 s 
Cu       7.76645172       5.21134984       7.22900000 s 
Cu       9.04419367       6.48909179       1.80700000 s 
Cu       7.76645172       5.21134984       3.61500000 s 
Cu       9.04419367       6.48909179       5.42200000 s 
Cu       7.76645172       7.76683375       7.22900000 s 
Cu       9.04419367       9.04457570       1.80700000 s 
Cu       7.76645172       7.76683375       3.61500000 s 
Cu       9.04419367       9.04457570       5.42200000 s 
Cu       7.76645172      10.32231766       7.22900000 s 
Cu       9.04419367      11.60005961       1.80700000 s 
Cu       7.76645172      10.32231766       3.61500000 s 
Cu       9.04419367      11.60005961       5.42200000 s 
Cu      10.32193563      -7.56606969       7.22900000 s 
Cu      11.59967758      -6.28832774       1.80700000 s 
Cu      10.32193563      -7.56606969       3.61500000 s 
Cu      11.59967758      -6.28832774       5.42200000 s 
Cu      10.32193563      -5.01058578       7.22900000 s 
Cu      11.59967758      -3.73284383       1.80700000 s 
Cu      10.32193563      -5.01058578       3.61500000 s 
Cu      11.59967758      -3.73284383       5.42200000 s 
Cu      10.32193563      -2.45510188       7.22900000 s 
Cu      11.59967758      -1.17735993       1.80700000 s 
Cu      10.32193563      -2.45510188       3.61500000 s 
Cu      11.59967758      -1.17735993       5.42200000 s 
Cu      10.32193563       0.10038203       7.22900000 s 
Cu      11.59967758       1.37812398       1.80700000 s 
Cu      10.32193563       0.10038203       3.61500000 s 
Cu      11.59967758       1.37812398       5.42200000 s 
Cu      10.32193563       2.65586594       7.22900000 s 
Cu      11.59967758       3.93360789       1.80700000 s 
Cu      10.32193563       2.65586594       3.61500000 s 
Cu      11.59967758       3.93360789       5.42200000 s 
Cu      10.32193563       5.21134984       7.22900000 s 
Cu      11.59967758       6.48909179       1.80700000 s 
Cu      10.32193563       5.21134984       3.61500000 s 
Cu      11.59967758       6.48909179       5.42200000 s 
Cu      10.32193563       7.76683375       7.22900000 s 
Cu      11.59967758       9.04457570       1.80700000 s 
Cu      10.32193563       7.76683375       3.61500000 s 
Cu      11.59967758       9.04457570       5.42200000 s 
Cu      10.32193563      10.32231766       7.22900000 s 
Cu      11.59967758      11.60005961       1.80700000 s 
Cu      10.32193563      10.32231766       3.61500000 s 
Cu      11.59967758      11.60005961       5.42200000 s 
Cu      12.87741954      -7.56606969       7.22900000 s 
Cu      14.15516149      -6.28832774       1.80700000 s 
Cu      12.87741954      -7.56606969       3.61500000 s 
Cu      14.15516149      -6.28832774       5.42200000 s 
Cu      12.87741954      -5.01058578       7.22900000 s 
Cu      14.15516149      -3.73284383       1.80700000 s 
Cu      12.87741954      -5.01058578       3.61500000 s 
Cu      14.15516149      -3.73284383       5.42200000 s 
Cu      12.87741954      -2.45510188       7.22900000 s 
Cu      14.15516149      -1.17735993       1.80700000 s 
Cu      12.87741954      -2.45510188       3.61500000 s 
Cu      14.15516149      -1.17735993       5.42200000 s 
Cu      12.87741954       0.10038203       7.22900000 s 
Cu      14.15516149       1.37812398       1.80700000 s 
Cu      12.87741954       0.10038203       3.61500000 s 
Cu      14.15516149       1.37812398       5.42200000 s 
Cu      12.87741954       2.65586594       7.22900000 s 
Cu      14.15516149       3.93360789       1.80700000 s 
Cu      12.87741954       2.65586594       3.61500000 s 
Cu      14.15516149       3.93360789       5.42200000 s 
Cu      12.87741954       5.21134984       7.22900000 s 
Cu      14.15516149       6.48909179       1.80700000 s 
Cu      12.87741954       5.21134984       3.61500000 s 
Cu      14.15516149       6.48909179       5.42200000 s 
Cu      12.87741954       7.76683375       7.22900000 s 
Cu      14.15516149       9.04457570       1.80700000 s 
Cu      12.87741954       7.76683375       3.61500000 s 
Cu      14.15516149       9.04457570       5.42200000 s 
Cu      12.87741954      10.32231766       7.22900000 s 
Cu      14.15516149      11.60005961       1.80700000 s 
Cu      12.87741954      10.32231766       3.61500000 s 
Cu      14.15516149      11.60005961       5.42200000 s 
Cu      15.43290344      -7.56606969       7.22900000 s 
Cu      16.71064539      -6.28832774       1.80700000 s 
Cu      15.43290344      -7.56606969       3.61500000 s 
Cu      16.71064539      -6.28832774       5.42200000 s 
Cu      15.43290344      -5.01058578       7.22900000 s 
Cu      16.71064539      -3.73284383       1.80700000 s 
Cu      15.43290344      -5.01058578       3.61500000 s 
Cu      16.71064539      -3.73284383       5.42200000 s 
Cu      15.43290344      -2.45510188       7.22900000 s 
Cu      16.71064539      -1.17735993       1.80700000 s 
Cu      15.43290344      -2.45510188       3.61500000 s 
Cu      16.71064539      -1.17735993       5.42200000 s 
Cu      15.43290344       0.10038203       7.22900000 s 
Cu      16.71064539       1.37812398       1.80700000 s 
Cu      15.43290344       0.10038203       3.61500000 s 
Cu      16.71064539       1.37812398       5.42200000 s 
Cu      15.43290344       2.65586594       7.22900000 s 
Cu      16.71064539       3.93360789       1.80700000 s 
Cu      15.43290344       2.65586594       3.61500000 s 
Cu      16.71064539       3.93360789       5.42200000 s 
Cu      15.43290344       5.21134984       7.22900000 s 
Cu      16.71064539       6.48909179       1.80700000 s 
Cu      15.43290344       5.21134984       3.61500000 s 
Cu      16.71064539       6.48909179       5.42200000 s 
Cu      15.43290344       7.76683375       7.22900000 s 
Cu      16.71064539       9.04457570       1.80700000 s 
Cu      15.43290344       7.76683375       3.61500000 s 
Cu      16.71064539       9.04457570       5.42200000 s 
Cu      15.43290344      10.32231766       7.22900000 s 
Cu      16.71064539      11.60005961       1.80700000 s 
Cu      15.43290344      10.32231766       3.61500000 s 
Cu      16.71064539      11.60005961       5.42200000 s 
Cu      17.98838735      -7.56606969       7.22900000 s 
Cu      19.26612930      -6.28832774       1.80700000 s 
Cu      17.98838735      -7.56606969       3.61500000 s 
Cu      19.26612930      -6.28832774       5.42200000 s 
Cu      17.98838735      -5.01058578       7.22900000 s 
Cu      19.26612930      -3.73284383       1.80700000 s 
Cu      17.98838735      -5.01058578       3.61500000 s 
Cu      19.26612930      -3.73284383       5.42200000 s 
Cu      17.98838735      -2.45510188       7.22900000 s 
Cu      19.26612930      -1.17735993       1.80700000 s 
Cu      17.98838735      -2.45510188       3.61500000 s 
Cu      19.26612930      -1.17735993       5.42200000 s 
Cu      17.98838735       0.10038203       7.22900000 s 
Cu      19.26612930       1.37812398       1.80700000 s 
Cu      17.98838735       0.10038203       3.61500000 s 
Cu      19.26612930       1.37812398       5.42200000 s 
Cu      17.98838735       2.65586594       7.22900000 s 
Cu      19.26612930       3.93360789       1.80700000 s 
Cu      17.98838735       2.65586594       3.61500000 s 
Cu      19.26612930       3.93360789       5.42200000 s 
Cu      17.98838735       5.21134984       7.22900000 s 
Cu      19.26612930       6.48909179       1.80700000 s 
Cu      17.98838735       5.21134984       3.61500000 s 
Cu      19.26612930       6.48909179       5.42200000 s 
Cu      17.98838735       7.76683375       7.22900000 s 
Cu      19.26612930       9.04457570       1.80700000 s 
Cu      17.98838735       7.76683375       3.61500000 s 
Cu      19.26612930       9.04457570       5.42200000 s 
Cu      17.98838735      10.32231766       7.22900000 s 
Cu      19.26612930      11.60005961       1.80700000 s 
Cu      17.98838735      10.32231766       3.61500000 s 
Cu      19.26612930      11.60005961       5.42200000 s 
Cu      20.54387126      -7.56606969       7.22900000 s 
Cu      21.82161321      -6.28832774       1.80700000 s 
Cu      20.54387126      -7.56606969       3.61500000 s 
Cu      21.82161321      -6.28832774       5.42200000 s 
Cu      20.54387126      -5.01058578       7.22900000 s 
Cu      21.82161321      -3.73284383       1.80700000 s 
Cu      20.54387126      -5.01058578       3.61500000 s 
Cu      21.82161321      -3.73284383       5.42200000 s 
Cu      20.54387126      -2.45510188       7.22900000 s 
Cu      21.82161321      -1.17735993       1.80700000 s 
Cu      20.54387126      -2.45510188       3.61500000 s 
Cu      21.82161321      -1.17735993       5.42200000 s 
Cu      20.54387126       0.10038203       7.22900000 s 
Cu      21.82161321       1.37812398       1.80700000 s 
Cu      20.54387126       0.10038203       3.61500000 s 
Cu      21.82161321       1.37812398       5.42200000 s 
Cu      20.54387126       2.65586594       7.22900000 s 
Cu      21.82161321       3.93360789       1.80700000 s 
Cu      20.54387126       2.65586594       3.61500000 s 
Cu      21.82161321       3.93360789       5.42200000 s 
Cu      20.54387126       5.21134984       7.22900000 s 
Cu      21.82161321       6.48909179       1.80700000 s 
Cu      20.54387126       5.21134984       3.61500000 s 
Cu      21.82161321       6.48909179       5.42200000 s 
Cu      20.54387126       7.76683375       7.22900000 s 
Cu      21.82161321       9.04457570       1.80700000 s 
Cu      20.54387126       7.76683375       3.61500000 s 
Cu      21.82161321       9.04457570       5.42200000 s 
Cu      20.54387126      10.32231766       7.22900000 s 
Cu      21.82161321      11.60005961       1.80700000 s 
Cu      20.54387126      10.32231766       3.61500000 s 
Cu      21.82161321      11.60005961       5.42200000 s 
Fe      14.15516148       3.93360788       9.00000000 a1 
Fe       1.37774195       1.37812398       9.00000000 a2 
