284
Lattice="17.88838735045728 0.0 0.0 0.0 22.99935516487365 0.0 0.0 0.0 20.0" Properties=species:S:1:pos:R:3:adsorption:S:1 size="7 9" mass_center_dist=5.110967814416366 min_atom_dist=0.8233523019350659 s1=TPA s2=TPA s1idx=1 s2idx=1 pbc="T T T"
Cu      -7.56645172      -7.56606969       7.22900000 s 
Cu      -6.28870977      -6.28832774       1.80700000 s 
Cu      -7.56645172      -7.56606969       3.61500000 s 
Cu      -6.28870977      -6.28832774       5.42200000 s 
Cu      -7.56645172      -5.01058578       7.22900000 s 
Cu      -6.28870977      -3.73284383       1.80700000 s 
Cu      -7.56645172      -5.01058578       3.61500000 s 
Cu      -6.28870977      -3.73284383       5.42200000 s 
Cu      -7.56645172      -2.45510188       7.22900000 s 
Cu      -6.28870977      -1.17735993       1.80700000 s 
Cu      -7.56645172      -2.45510188       3.61500000 s 
Cu      -6.28870977      -1.17735993       5.42200000 s 
Cu      -7.56645172       0.10038203       7.22900000 s 
Cu      -6.28870977       1.37812398       1.80700000 s 
Cu      -7.56645172       0.10038203       3.61500000 s 
Cu      -6.28870977       1.37812398       5.42200000 s 
Cu      -7.56645172       2.65586594       7.22900000 s 
Cu      -6.28870977       3.93360789       1.80700000 s 
Cu      -7.56645172       2.65586594       3.61500000 s 
Cu      -6.28870977       3.93360789       5.42200000 s 
Cu      -7.56645172       5.21134984       7.22900000 s 
Cu      -6.28870977       6.48909179       1.80700000 s 
Cu      -7.56645172       5.21134984       3.61500000 s 
Cu      -6.28870977       6.48909179       5.42200000 s 
Cu      -7.56645172       7.76683375       7.22900000 s 
Cu      -6.28870977       9.04457570       1.80700000 s 
Cu      -7.56645172       7.76683375       3.61500000 s 
Cu      -6.28870977       9.04457570       5.42200000 s 
Cu      -7.56645172      10.32231766       7.22900000 s 
Cu      -6.28870977      11.60005961       1.80700000 s 
Cu      -7.56645172      10.32231766       3.61500000 s 
Cu      -6.28870977      11.60005961       5.42200000 s 
Cu      -7.56645172      12.87780157       7.22900000 s 
Cu      -6.28870977      14.15554352       1.80700000 s 
Cu      -7.56645172      12.87780157       3.61500000 s 
Cu      -6.28870977      14.15554352       5.42200000 s 
Cu      -5.01096781      -7.56606969       7.22900000 s 
Cu      -3.73322586      -6.28832774       1.80700000 s 
Cu      -5.01096781      -7.56606969       3.61500000 s 
Cu      -3.73322586      -6.28832774       5.42200000 s 
Cu      -5.01096781      -5.01058578       7.22900000 s 
Cu      -3.73322586      -3.73284383       1.80700000 s 
Cu      -5.01096781      -5.01058578       3.61500000 s 
Cu      -3.73322586      -3.73284383       5.42200000 s 
Cu      -5.01096781      -2.45510188       7.22900000 s 
Cu      -3.73322586      -1.17735993       1.80700000 s 
Cu      -5.01096781      -2.45510188       3.61500000 s 
Cu      -3.73322586      -1.17735993       5.42200000 s 
Cu      -5.01096781       0.10038203       7.22900000 s 
Cu      -3.73322586       1.37812398       1.80700000 s 
Cu      -5.01096781       0.10038203       3.61500000 s 
Cu      -3.73322586       1.37812398       5.42200000 s 
Cu      -5.01096781       2.65586594       7.22900000 s 
Cu      -3.73322586       3.93360789       1.80700000 s 
Cu      -5.01096781       2.65586594       3.61500000 s 
Cu      -3.73322586       3.93360789       5.42200000 s 
Cu      -5.01096781       5.21134984       7.22900000 s 
Cu      -3.73322586       6.48909179       1.80700000 s 
Cu      -5.01096781       5.21134984       3.61500000 s 
Cu      -3.73322586       6.48909179       5.42200000 s 
Cu      -5.01096781       7.76683375       7.22900000 s 
Cu      -3.73322586       9.04457570       1.80700000 s 
Cu      -5.01096781       7.76683375       3.61500000 s 
Cu      -3.73322586       9.04457570       5.42200000 s 
Cu      -5.01096781      10.32231766       7.22900000 s 
Cu      -3.73322586      11.60005961       1.80700000 s 
Cu      -5.01096781      10.32231766       3.61500000 s 
Cu      -3.73322586      11.60005961       5.42200000 s 
Cu      -5.01096781      12.87780157       7.22900000 s 
Cu      -3.73322586      14.15554352       1.80700000 s 
Cu      -5.01096781      12.87780157       3.61500000 s 
Cu      -3.73322586      14.15554352       5.42200000 s 
Cu      -2.45548391      -7.56606969       7.22900000 s 
Cu      -1.17774196      -6.28832774       1.80700000 s 
Cu      -2.45548391      -7.56606969       3.61500000 s 
Cu      -1.17774196      -6.28832774       5.42200000 s 
Cu      -2.45548391      -5.01058578       7.22900000 s 
Cu      -1.17774196      -3.73284383       1.80700000 s 
Cu      -2.45548391      -5.01058578       3.61500000 s 
Cu      -1.17774196      -3.73284383       5.42200000 s 
Cu      -2.45548391      -2.45510188       7.22900000 s 
Cu      -1.17774196      -1.17735993       1.80700000 s 
Cu      -2.45548391      -2.45510188       3.61500000 s 
Cu      -1.17774196      -1.17735993       5.42200000 s 
Cu      -2.45548391       0.10038203       7.22900000 s 
Cu      -1.17774196       1.37812398       1.80700000 s 
Cu      -2.45548391       0.10038203       3.61500000 s 
Cu      -1.17774196       1.37812398       5.42200000 s 
Cu      -2.45548391       2.65586594       7.22900000 s 
Cu      -1.17774196       3.93360789       1.80700000 s 
Cu      -2.45548391       2.65586594       3.61500000 s 
Cu      -1.17774196       3.93360789       5.42200000 s 
Cu      -2.45548391       5.21134984       7.22900000 s 
Cu      -1.17774196       6.48909179       1.80700000 s 
Cu      -2.45548391       5.21134984       3.61500000 s 
Cu      -1.17774196       6.48909179       5.42200000 s 
Cu      -2.45548391       7.76683375       7.22900000 s 
Cu      -1.17774196       9.04457570       1.80700000 s 
Cu      -2.45548391       7.76683375       3.61500000 s 
Cu      -1.17774196       9.04457570       5.42200000 s 
Cu      -2.45548391      10.32231766       7.22900000 s 
Cu      -1.17774196      11.60005961       1.80700000 s 
Cu      -2.45548391      10.32231766       3.61500000 s 
Cu      -1.17774196      11.60005961       5.42200000 s 
Cu      -2.45548391      12.87780157       7.22900000 s 
Cu      -1.17774196      14.15554352       1.80700000 s 
Cu      -2.45548391      12.87780157       3.61500000 s 
Cu      -1.17774196      14.15554352       5.42200000 s 
Cu       0.10000000      -7.56606969       7.22900000 s 
Cu       1.37774195      -6.28832774       1.80700000 s 
Cu       0.10000000      -7.56606969       3.61500000 s 
Cu       1.37774195      -6.28832774       5.42200000 s 
Cu       0.10000000      -5.01058578       7.22900000 s 
Cu       1.37774195      -3.73284383       1.80700000 s 
Cu       0.10000000      -5.01058578       3.61500000 s 
Cu       1.37774195      -3.73284383       5.42200000 s 
Cu       0.10000000      -2.45510188       7.22900000 s 
Cu       1.37774195      -1.17735993       1.80700000 s 
Cu       0.10000000      -2.45510188       3.61500000 s 
Cu       1.37774195      -1.17735993       5.42200000 s 
Cu       0.10000000       0.10038203       7.22900000 s 
Cu       1.37774195       1.37812398       1.80700000 s 
Cu       0.10000000       0.10038203       3.61500000 s 
Cu       1.37774195       1.37812398       5.42200000 s 
Cu       0.10000000       2.65586594       7.22900000 s 
Cu       1.37774195       3.93360789       1.80700000 s 
Cu       0.10000000       2.65586594       3.61500000 s 
Cu       1.37774195       3.93360789       5.42200000 s 
Cu       0.10000000       5.21134984       7.22900000 s 
Cu       1.37774195       6.48909179       1.80700000 s 
Cu       0.10000000       5.21134984       3.61500000 s 
Cu       1.37774195       6.48909179       5.42200000 s 
Cu       0.10000000       7.76683375       7.22900000 s 
Cu       1.37774195       9.04457570       1.80700000 s 
Cu       0.10000000       7.76683375       3.61500000 s 
Cu       1.37774195       9.04457570       5.42200000 s 
Cu       0.10000000      10.32231766       7.22900000 s 
Cu       1.37774195      11.60005961       1.80700000 s 
Cu       0.10000000      10.32231766       3.61500000 s 
Cu       1.37774195      11.60005961       5.42200000 s 
Cu       0.10000000      12.87780157       7.22900000 s 
Cu       1.37774195      14.15554352       1.80700000 s 
Cu       0.10000000      12.87780157       3.61500000 s 
Cu       1.37774195      14.15554352       5.42200000 s 
Cu       2.65548391      -7.56606969       7.22900000 s 
Cu       3.93322586      -6.28832774       1.80700000 s 
Cu       2.65548391      -7.56606969       3.61500000 s 
Cu       3.93322586      -6.28832774       5.42200000 s 
Cu       2.65548391      -5.01058578       7.22900000 s 
Cu       3.93322586      -3.73284383       1.80700000 s 
Cu       2.65548391      -5.01058578       3.61500000 s 
Cu       3.93322586      -3.73284383       5.42200000 s 
Cu       2.65548391      -2.45510188       7.22900000 s 
Cu       3.93322586      -1.17735993       1.80700000 s 
Cu       2.65548391      -2.45510188       3.61500000 s 
Cu       3.93322586      -1.17735993       5.42200000 s 
Cu       2.65548391       0.10038203       7.22900000 s 
Cu       3.93322586       1.37812398       1.80700000 s 
Cu       2.65548391       0.10038203       3.61500000 s 
Cu       3.93322586       1.37812398       5.42200000 s 
Cu       2.65548391       2.65586594       7.22900000 s 
Cu       3.93322586       3.93360789       1.80700000 s 
Cu       2.65548391       2.65586594       3.61500000 s 
Cu       3.93322586       3.93360789       5.42200000 s 
Cu       2.65548391       5.21134984       7.22900000 s 
Cu       3.93322586       6.48909179       1.80700000 s 
Cu       2.65548391       5.21134984       3.61500000 s 
Cu       3.93322586       6.48909179       5.42200000 s 
Cu       2.65548391       7.76683375       7.22900000 s 
Cu       3.93322586       9.04457570       1.80700000 s 
Cu       2.65548391       7.76683375       3.61500000 s 
Cu       3.93322586       9.04457570       5.42200000 s 
Cu       2.65548391      10.32231766       7.22900000 s 
Cu       3.93322586      11.60005961       1.80700000 s 
Cu       2.65548391      10.32231766       3.61500000 s 
Cu       3.93322586      11.60005961       5.42200000 s 
Cu       2.65548391      12.87780157       7.22900000 s 
Cu       3.93322586      14.15554352       1.80700000 s 
Cu       2.65548391      12.87780157       3.61500000 s 
Cu       3.93322586      14.15554352       5.42200000 s 
Cu       5.21096781      -7.56606969       7.22900000 s 
Cu       6.48870976      -6.28832774       1.80700000 s 
Cu       5.21096781      -7.56606969       3.61500000 s 
Cu       6.48870976      -6.28832774       5.42200000 s 
Cu       5.21096781      -5.01058578       7.22900000 s 
Cu       6.48870976      -3.73284383       1.80700000 s 
Cu       5.21096781      -5.01058578       3.61500000 s 
Cu       6.48870976      -3.73284383       5.42200000 s 
Cu       5.21096781      -2.45510188       7.22900000 s 
Cu       6.48870976      -1.17735993       1.80700000 s 
Cu       5.21096781      -2.45510188       3.61500000 s 
Cu       6.48870976      -1.17735993       5.42200000 s 
Cu       5.21096781       0.10038203       7.22900000 s 
Cu       6.48870976       1.37812398       1.80700000 s 
Cu       5.21096781       0.10038203       3.61500000 s 
Cu       6.48870976       1.37812398       5.42200000 s 
Cu       5.21096781       2.65586594       7.22900000 s 
Cu       6.48870976       3.93360789       1.80700000 s 
Cu       5.21096781       2.65586594       3.61500000 s 
Cu       6.48870976       3.93360789       5.42200000 s 
Cu       5.21096781       5.21134984       7.22900000 s 
Cu       6.48870976       6.48909179       1.80700000 s 
Cu       5.21096781       5.21134984       3.61500000 s 
Cu       6.48870976       6.48909179       5.42200000 s 
Cu       5.21096781       7.76683375       7.22900000 s 
Cu       6.48870976       9.04457570       1.80700000 s 
Cu       5.21096781       7.76683375       3.61500000 s 
Cu       6.48870976       9.04457570       5.42200000 s 
Cu       5.21096781      10.32231766       7.22900000 s 
Cu       6.48870976      11.60005961       1.80700000 s 
Cu       5.21096781      10.32231766       3.61500000 s 
Cu       6.48870976      11.60005961       5.42200000 s 
Cu       5.21096781      12.87780157       7.22900000 s 
Cu       6.48870976      14.15554352       1.80700000 s 
Cu       5.21096781      12.87780157       3.61500000 s 
Cu       6.48870976      14.15554352       5.42200000 s 
Cu       7.76645172      -7.56606969       7.22900000 s 
Cu       9.04419367      -6.28832774       1.80700000 s 
Cu       7.76645172      -7.56606969       3.61500000 s 
Cu       9.04419367      -6.28832774       5.42200000 s 
Cu       7.76645172      -5.01058578       7.22900000 s 
Cu       9.04419367      -3.73284383       1.80700000 s 
Cu       7.76645172      -5.01058578       3.61500000 s 
Cu       9.04419367      -3.73284383       5.42200000 s 
Cu       7.76645172      -2.45510188       7.22900000 s 
Cu       9.04419367      -1.17735993       1.80700000 s 
Cu       7.76645172      -2.45510188       3.61500000 s 
Cu       9.04419367      -1.17735993       5.42200000 s 
Cu       7.76645172       0.10038203       7.22900000 s 
Cu       9.04419367       1.37812398       1.80700000 s 
Cu       7.76645172       0.10038203       3.61500000 s 
Cu       9.04419367       1.37812398       5.42200000 s 
Cu       7.76645172       2.65586594       7.22900000 s 
Cu       9.04419367       3.93360789       1.80700000 s 
Cu       7.76645172       2.65586594       3.61500000 s 
Cu       9.04419367       3.93360789       5.42200000 s 
Cu       7.76645172       5.21134984       7.22900000 s 
Cu       9.04419367       6.48909179       1.80700000 s 
Cu       7.76645172       5.21134984       3.61500000 s 
Cu       9.04419367       6.48909179       5.42200000 s 
Cu       7.76645172       7.76683375       7.22900000 s 
Cu       9.04419367       9.04457570       1.80700000 s 
Cu       7.76645172       7.76683375       3.61500000 s 
Cu       9.04419367       9.04457570       5.42200000 s 
Cu       7.76645172      10.32231766       7.22900000 s 
Cu       9.04419367      11.60005961       1.80700000 s 
Cu       7.76645172      10.32231766       3.61500000 s 
Cu       9.04419367      11.60005961       5.42200000 s 
Cu       7.76645172      12.87780157       7.22900000 s 
Cu       9.04419367      14.15554352       1.80700000 s 
Cu       7.76645172      12.87780157       3.61500000 s 
Cu       9.04419367      14.15554352       5.42200000 s 
C       0.08020101       6.42474507       9.22400000 a1 
C       0.79437886       7.65228245       9.30400000 a1 
C       2.19798582       7.66006062       9.33300000 a1 
C       2.92842712       6.44030142       9.29400000 a1 
C       2.21354217       5.21064273       9.32200000 a1 
C       0.80569257       5.20286456       9.29400000 a1 
C       4.40628030       6.45727199       9.25500000 a1 
C      -1.40896587       6.43040193       9.23400000 a1 
O       5.01934188       5.33367931       9.17900000 a1 
O      -2.00505689       5.30398083       9.21100000 a1 
O       4.98752207       7.59712812       9.17000000 a1 
O      -1.98525790       7.56672253       9.18300000 a1 
H       0.22091526       8.56374309       9.51000000 a1 
H       2.74316515       8.58000654       9.56400000 a1 
H       2.77215653       4.29140392       9.53600000 a1 
H       0.24849242       4.27796889       9.49000000 a1 
C       0.08020101       1.31377726       9.22400000 a2 
C       0.79437886       2.54131464       9.30400000 a2 
C       2.19798582       2.54909281       9.33300000 a2 
C       2.92842712       1.32933361       9.29400000 a2 
C       2.21354217       0.09967492       9.32200000 a2 
C       0.80569257       0.09189675       9.29400000 a2 
C       4.40628030       1.34630418       9.25500000 a2 
C      -1.40896587       1.31943412       9.23400000 a2 
O       5.01934188       0.22271150       9.17900000 a2 
O      -2.00505689       0.19301302       9.21100000 a2 
O       4.98752207       2.48616031       9.17000000 a2 
O      -1.98525790       2.45575472       9.18300000 a2 
H       0.22091526       3.45277528       9.51000000 a2 
H       2.74316515       3.46903873       9.56400000 a2 
H       2.77215653      -0.81956389       9.53600000 a2 
H       0.24849242      -0.83299892       9.49000000 a2 
