102
Lattice="10.0 0.0 0.0 5.0 8.660254037844386 0.0 0.0 0.0 10.0" Properties=species:S:1:pos:R:3:remoteness:R:1:shift:R:3:adsorption:S:1 size="10 10" mass_center_dist=3.0 min_atom_dist=3.0 s1=atop-triang s2=atop-triang s1idx=1 s2idx=1 pbc="T T T"
H      -5.30000000      -4.13012702       2.00000000              inf       0.00000000       0.00000000       0.00000000 s 
H      -4.80000000      -3.26410162       2.00000000              inf       0.00000000       0.00000000       0.00000000 s 
H      -4.30000000      -2.39807621       2.00000000              inf       0.00000000       0.00000000       0.00000000 s 
H      -3.80000000      -1.53205081       2.00000000              inf       0.00000000       0.00000000       0.00000000 s 
H      -3.30000000      -0.66602540       2.00000000              inf       0.00000000       0.00000000       0.00000000 s 
H      -2.80000000       0.20000000       2.00000000              inf       0.00000000       0.00000000       0.00000000 s 
H      -2.30000000       1.06602540       2.00000000              inf       0.00000000       0.00000000       0.00000000 s 
H      -1.80000000       1.93205081       2.00000000              inf       0.00000000       0.00000000       0.00000000 s 
H      -1.30000000       2.79807621       2.00000000              inf       0.00000000       0.00000000       0.00000000 s 
H      -0.80000000       3.66410162       2.00000000              inf       0.00000000       0.00000000       0.00000000 s 
H      -4.30000000      -4.13012702       2.00000000              inf       0.00000000       0.00000000       0.00000000 s 
H      -3.80000000      -3.26410162       2.00000000              inf       0.00000000       0.00000000       0.00000000 s 
H      -3.30000000      -2.39807621       2.00000000              inf       0.00000000       0.00000000       0.00000000 s 
H      -2.80000000      -1.53205081       2.00000000              inf       0.00000000       0.00000000       0.00000000 s 
H      -2.30000000      -0.66602540       2.00000000              inf       0.00000000       0.00000000       0.00000000 s 
H      -1.80000000       0.20000000       2.00000000              inf       0.00000000       0.00000000       0.00000000 s 
H      -1.30000000       1.06602540       2.00000000              inf       0.00000000       0.00000000       0.00000000 s 
H      -0.80000000       1.93205081       2.00000000              inf       0.00000000       0.00000000       0.00000000 s 
H      -0.30000000       2.79807621       2.00000000              inf       0.00000000       0.00000000       0.00000000 s 
H       0.20000000       3.66410162       2.00000000              inf       0.00000000       0.00000000       0.00000000 s 
H      -3.30000000      -4.13012702       2.00000000              inf       0.00000000       0.00000000       0.00000000 s 
H      -2.80000000      -3.26410162       2.00000000              inf       0.00000000       0.00000000       0.00000000 s 
H      -2.30000000      -2.39807621       2.00000000              inf       0.00000000       0.00000000       0.00000000 s 
H      -1.80000000      -1.53205081       2.00000000              inf       0.00000000       0.00000000       0.00000000 s 
H      -1.30000000      -0.66602540       2.00000000              inf       0.00000000       0.00000000       0.00000000 s 
H      -0.80000000       0.20000000       2.00000000              inf       0.00000000       0.00000000       0.00000000 s 
H      -0.30000000       1.06602540       2.00000000              inf       0.00000000       0.00000000       0.00000000 s 
H       0.20000000       1.93205081       2.00000000              inf       0.00000000       0.00000000       0.00000000 s 
H       0.70000000       2.79807621       2.00000000              inf       0.00000000       0.00000000       0.00000000 s 
H       1.20000000       3.66410162       2.00000000              inf       0.00000000       0.00000000       0.00000000 s 
H      -2.30000000      -4.13012702       2.00000000              inf       0.00000000       0.00000000       0.00000000 s 
H      -1.80000000      -3.26410162       2.00000000              inf       0.00000000       0.00000000       0.00000000 s 
H      -1.30000000      -2.39807621       2.00000000              inf       0.00000000       0.00000000       0.00000000 s 
H      -0.80000000      -1.53205081       2.00000000              inf       0.00000000       0.00000000       0.00000000 s 
H      -0.30000000      -0.66602540       2.00000000              inf       0.00000000       0.00000000       0.00000000 s 
H       0.20000000       0.20000000       2.00000000       2.00000000       0.00000000       0.00000000       0.00000000 s 
H       0.70000000       1.06602540       2.00000000              inf       0.00000000       0.00000000       0.00000000 s 
H       1.20000000       1.93205081       2.00000000              inf       0.00000000       0.00000000       0.00000000 s 
H       1.70000000       2.79807621       2.00000000              inf       0.00000000       0.00000000       0.00000000 s 
H       2.20000000       3.66410162       2.00000000              inf       0.00000000       0.00000000       0.00000000 s 
H      -1.30000000      -4.13012702       2.00000000              inf       0.00000000       0.00000000       0.00000000 s 
H      -0.80000000      -3.26410162       2.00000000              inf       0.00000000       0.00000000       0.00000000 s 
H      -0.30000000      -2.39807621       2.00000000              inf       0.00000000       0.00000000       0.00000000 s 
H       0.20000000      -1.53205081       2.00000000              inf       0.00000000       0.00000000       0.00000000 s 
H       0.70000000      -0.66602540       2.00000000              inf       0.00000000       0.00000000       0.00000000 s 
H       1.20000000       0.20000000       2.00000000              inf       0.00000000       0.00000000       0.00000000 s 
H       1.70000000       1.06602540       2.00000000              inf       0.00000000       0.00000000       0.00000000 s 
H       2.20000000       1.93205081       2.00000000              inf       0.00000000       0.00000000       0.00000000 s 
H       2.70000000       2.79807621       2.00000000              inf       0.00000000       0.00000000       0.00000000 s 
H       3.20000000       3.66410162       2.00000000              inf       0.00000000       0.00000000       0.00000000 s 
H      -0.30000000      -4.13012702       2.00000000              inf       0.00000000       0.00000000       0.00000000 s 
H       0.20000000      -3.26410162       2.00000000              inf       0.00000000       0.00000000       0.00000000 s 
H       0.70000000      -2.39807621       2.00000000              inf       0.00000000       0.00000000       0.00000000 s 
H       1.20000000      -1.53205081       2.00000000              inf       0.00000000       0.00000000       0.00000000 s 
H       1.70000000      -0.66602540       2.00000000              inf       0.00000000       0.00000000       0.00000000 s 
H       2.20000000       0.20000000       2.00000000              inf       0.00000000       0.00000000       0.00000000 s 
H       2.70000000       1.06602540       2.00000000              inf       0.00000000       0.00000000       0.00000000 s 
H       3.20000000       1.93205081       2.00000000              inf       0.00000000       0.00000000       0.00000000 s 
H       3.70000000       2.79807621       2.00000000              inf       0.00000000       0.00000000       0.00000000 s 
H       4.20000000       3.66410162       2.00000000              inf       0.00000000       0.00000000       0.00000000 s 
H       0.70000000      -4.13012702       2.00000000              inf       0.00000000       0.00000000       0.00000000 s 
H       1.20000000      -3.26410162       2.00000000              inf       0.00000000       0.00000000       0.00000000 s 
H       1.70000000      -2.39807621       2.00000000              inf       0.00000000       0.00000000       0.00000000 s 
H       2.20000000      -1.53205081       2.00000000              inf       0.00000000       0.00000000       0.00000000 s 
H       2.70000000      -0.66602540       2.00000000              inf       0.00000000       0.00000000       0.00000000 s 
H       3.20000000       0.20000000       2.00000000       2.00000000       0.00000000       0.00000000       0.00000000 s 
H       3.70000000       1.06602540       2.00000000              inf       0.00000000       0.00000000       0.00000000 s 
H       4.20000000       1.93205081       2.00000000              inf       0.00000000       0.00000000       0.00000000 s 
H       4.70000000       2.79807621       2.00000000              inf       0.00000000       0.00000000       0.00000000 s 
H       5.20000000       3.66410162       2.00000000              inf       0.00000000       0.00000000       0.00000000 s 
H       1.70000000      -4.13012702       2.00000000              inf       0.00000000       0.00000000       0.00000000 s 
H       2.20000000      -3.26410162       2.00000000              inf       0.00000000       0.00000000       0.00000000 s 
H       2.70000000      -2.39807621       2.00000000              inf       0.00000000       0.00000000       0.00000000 s 
H       3.20000000      -1.53205081       2.00000000              inf       0.00000000       0.00000000       0.00000000 s 
H       3.70000000      -0.66602540       2.00000000              inf       0.00000000       0.00000000       0.00000000 s 
H       4.20000000       0.20000000       2.00000000              inf       0.00000000       0.00000000       0.00000000 s 
H       4.70000000       1.06602540       2.00000000              inf       0.00000000       0.00000000       0.00000000 s 
H       5.20000000       1.93205081       2.00000000              inf       0.00000000       0.00000000       0.00000000 s 
H       5.70000000       2.79807621       2.00000000              inf       0.00000000       0.00000000       0.00000000 s 
H       6.20000000       3.66410162       2.00000000              inf       0.00000000       0.00000000       0.00000000 s 
H       2.70000000      -4.13012702       2.00000000              inf       0.00000000       0.00000000       0.00000000 s 
H       3.20000000      -3.26410162       2.00000000              inf       0.00000000       0.00000000       0.00000000 s 
H       3.70000000      -2.39807621       2.00000000              inf       0.00000000       0.00000000       0.00000000 s 
H       4.20000000      -1.53205081       2.00000000              inf       0.00000000       0.00000000       0.00000000 s 
H       4.70000000      -0.66602540       2.00000000              inf       0.00000000       0.00000000       0.00000000 s 
H       5.20000000       0.20000000       2.00000000              inf       0.00000000       0.00000000       0.00000000 s 
H       5.70000000       1.06602540       2.00000000              inf       0.00000000       0.00000000       0.00000000 s 
H       6.20000000       1.93205081       2.00000000              inf       0.00000000       0.00000000       0.00000000 s 
H       6.70000000       2.79807621       2.00000000              inf       0.00000000       0.00000000       0.00000000 s 
H       7.20000000       3.66410162       2.00000000              inf       0.00000000       0.00000000       0.00000000 s 
H       3.70000000      -4.13012702       2.00000000              inf       0.00000000       0.00000000       0.00000000 s 
H       4.20000000      -3.26410162       2.00000000              inf       0.00000000       0.00000000       0.00000000 s 
H       4.70000000      -2.39807621       2.00000000              inf       0.00000000       0.00000000       0.00000000 s 
H       5.20000000      -1.53205081       2.00000000              inf       0.00000000       0.00000000       0.00000000 s 
H       5.70000000      -0.66602540       2.00000000              inf       0.00000000       0.00000000       0.00000000 s 
H       6.20000000       0.20000000       2.00000000              inf       0.00000000       0.00000000       0.00000000 s 
H       6.70000000       1.06602540       2.00000000              inf       0.00000000       0.00000000       0.00000000 s 
H       7.20000000       1.93205081       2.00000000              inf       0.00000000       0.00000000       0.00000000 s 
H       7.70000000       2.79807621       2.00000000              inf       0.00000000       0.00000000       0.00000000 s 
H       8.20000000       3.66410162       2.00000000              inf       0.00000000       0.00000000       0.00000000 s 
Li       3.20000000       0.20000000       4.00000000       0.00000000       0.00000000       0.00000000       0.00000000 a1 
Li       0.20000000       0.20000000       4.00000000       0.00000000       0.00000000       0.00000000       0.00000000 a2 
