184
Lattice="36.16319999999999 0.0 0.0 -18.081599999999995 31.318249882114287 0.0 0.0 0.0 30.0" Properties=species:S:1:pos:R:3:remoteness:R:1:shift:R:3:adsorption:S:1 size="_JSON [[12, 0], [0, 12]]" mass_center_dist=7.974701006011046 min_atom_dist=3.990068133628487 s1=cu_hollow s2=tpb_hollow_down s1idx=2 s2idx=6 pbc="T T T"
O       -1.24327575       2.36559791       7.38060000              inf       0.00000000       0.00000000       0.00000000 s 
O       -2.75007575       4.97545206       7.38060000              inf       0.00000000       0.00000000       0.00000000 s 
O       -4.25687575       7.58530622       7.38060000              inf       0.00000000       0.00000000       0.00000000 s 
O       -5.76367575      10.19516038       7.38060000              inf       0.00000000       0.00000000       0.00000000 s 
O       -7.27047575      12.80501453       7.38060000              inf       0.00000000       0.00000000       0.00000000 s 
O       -8.77727575      15.41486869       7.38060000              inf       0.00000000       0.00000000       0.00000000 s 
O      -10.28407575      18.02472285       7.38060000              inf       0.00000000       0.00000000       0.00000000 s 
O      -11.79087575      20.63457700       7.38060000              inf       0.00000000       0.00000000       0.00000000 s 
O      -13.29752507      23.24437896       7.38060000      11.72896791       0.00015068      -0.00005220       0.00000000 s 
O      -14.80447575      25.85428532       7.38060000              inf       0.00000000       0.00000000       0.00000000 s 
O      -16.31127575      28.46413947       7.38060000              inf       0.00000000       0.00000000       0.00000000 s 
O      -17.81807575      31.07399363       7.38060000              inf       0.00000000       0.00000000       0.00000000 s 
O        1.77032425       2.36559791       7.38060000              inf       0.00000000       0.00000000       0.00000000 s 
O        0.26352425       4.97545206       7.38060000              inf       0.00000000       0.00000000       0.00000000 s 
O       -1.24327575       7.58530622       7.38060000              inf       0.00000000       0.00000000       0.00000000 s 
O       -2.75007575      10.19516038       7.38060000              inf       0.00000000       0.00000000       0.00000000 s 
O       -4.25687575      12.80501453       7.38060000              inf       0.00000000       0.00000000       0.00000000 s 
O       -5.76367575      15.41486869       7.38060000              inf       0.00000000       0.00000000       0.00000000 s 
O       -7.27047575      18.02472285       7.38060000              inf       0.00000000       0.00000000       0.00000000 s 
O       -8.77727575      20.63457700       7.38060000              inf       0.00000000       0.00000000       0.00000000 s 
O      -10.28407575      23.24443116       7.38060000              inf       0.00000000       0.00000000       0.00000000 s 
O      -11.79087575      25.85428532       7.38060000              inf       0.00000000       0.00000000       0.00000000 s 
O      -13.29767575      28.46413947       7.38060000              inf       0.00000000       0.00000000       0.00000000 s 
O      -14.80447575      31.07399363       7.38060000              inf       0.00000000       0.00000000       0.00000000 s 
O        4.78392425       2.36559791       7.38060000              inf       0.00000000       0.00000000       0.00000000 s 
O        3.27712425       4.97545206       7.38060000              inf       0.00000000       0.00000000       0.00000000 s 
O        1.77032425       7.58530622       7.38060000              inf       0.00000000       0.00000000       0.00000000 s 
O        0.26352425      10.19516038       7.38060000              inf       0.00000000       0.00000000       0.00000000 s 
O       -1.24314014      12.80488404       7.38060000      10.06618962       0.00013561      -0.00013049       0.00000000 s 
O       -2.74997027      15.41479039       7.38060000      10.06461387       0.00010548      -0.00007830       0.00000000 s 
O       -4.25687575      18.02472285       7.38060000              inf       0.00000000       0.00000000       0.00000000 s 
O       -5.76367575      20.63457700       7.38060000              inf       0.00000000       0.00000000       0.00000000 s 
O       -7.27047575      23.24443116       7.38060000              inf       0.00000000       0.00000000       0.00000000 s 
O       -8.77727575      25.85428532       7.38060000              inf       0.00000000       0.00000000       0.00000000 s 
O      -10.28407575      28.46413947       7.38060000              inf       0.00000000       0.00000000       0.00000000 s 
O      -11.79087575      31.07399363       7.38060000              inf       0.00000000       0.00000000       0.00000000 s 
O        7.79752425       2.36559791       7.38060000              inf       0.00000000       0.00000000       0.00000000 s 
O        6.29072425       4.97545206       7.38060000              inf       0.00000000       0.00000000       0.00000000 s 
O        4.78392425       7.58530622       7.38060000              inf       0.00000000       0.00000000       0.00000000 s 
O        3.27724480      10.19516038       7.38060000       9.60586231       0.00012054       0.00000000       0.00000000 s 
O        1.77052014      12.80488404       7.38060000       8.06206983       0.00019588      -0.00013049       0.00000000 s 
O        0.26369000      15.41479039       7.38060000       7.47550002       0.00016575      -0.00007830       0.00000000 s 
O       -1.24314014      18.02469675       7.38060000       8.05813426       0.00013561      -0.00002610       0.00000000 s 
O       -2.74986480      20.63442041       7.38060000       9.59925573       0.00021095      -0.00015659       0.00000000 s 
O       -4.25687575      23.24443116       7.38060000              inf       0.00000000       0.00000000       0.00000000 s 
O       -5.76367575      25.85428532       7.38060000              inf       0.00000000       0.00000000       0.00000000 s 
O       -7.27047575      28.46413947       7.38060000              inf       0.00000000       0.00000000       0.00000000 s 
O       -8.77727575      31.07399363       7.38060000              inf       0.00000000       0.00000000       0.00000000 s 
O       10.81112425       2.36559791       7.38060000              inf       0.00000000       0.00000000       0.00000000 s 
O        9.30432425       4.97545206       7.38060000              inf       0.00000000       0.00000000       0.00000000 s 
O        7.79758452       7.58530622       7.38060000      10.92723166       0.00006027       0.00000000       0.00000000 s 
O        6.29090507      10.19516038       7.38060000       9.12070152       0.00018082       0.00000000       0.00000000 s 
O        4.78418041      12.80488404       7.38060000       6.84324945       0.00025616      -0.00013049       0.00000000 s 
O        3.27735027      15.41479039       7.38060000       5.35107890       0.00022602      -0.00007830       0.00000000 s 
O        1.77052014      18.02469675       7.38060000       5.34811408       0.00019588      -0.00002610       0.00000000 s 
O        0.26379548      20.63442041       7.38060000       6.83615350       0.00027122      -0.00015659       0.00000000 s 
O       -1.24303466      23.24432677       7.38060000       9.11200280       0.00024109      -0.00010439       0.00000000 s 
O       -2.74986480      25.85423312       7.38060000      11.72554868       0.00021095      -0.00005220       0.00000000 s 
O       -4.25687575      28.46413947       7.38060000              inf       0.00000000       0.00000000       0.00000000 s 
O       -5.76367575      31.07399363       7.38060000              inf       0.00000000       0.00000000       0.00000000 s 
O       13.82472425       2.36559791       7.38060000              inf       0.00000000       0.00000000       0.00000000 s 
O       12.31792425       4.97545206       7.38060000              inf       0.00000000       0.00000000       0.00000000 s 
O       10.81124480       7.58530622       7.38060000       9.59992618       0.00012054       0.00000000       0.00000000 s 
O        9.30452014      10.19502988       7.38060000       8.05692530       0.00019588      -0.00013049       0.00000000 s 
O        7.79762973      12.80488404       7.38060000       6.84301227       0.00010548      -0.00013049       0.00000000 s 
O        6.29079959      15.41479039       7.38060000       4.42145755       0.00007534      -0.00007830       0.00000000 s 
O        4.78396946      18.02469675       7.38060000       3.23048808       0.00004520      -0.00002610       0.00000000 s 
O        3.27724480      20.63442041       7.38060000       4.41427761       0.00012054      -0.00015659       0.00000000 s 
O        1.77041466      23.24432677       7.38060000       6.83373504       0.00009041      -0.00010439       0.00000000 s 
O        0.26358452      25.85423312       7.38060000       9.59574483       0.00006027      -0.00005220       0.00000000 s 
O       -1.24327575      28.46413947       7.38060000              inf       0.00000000       0.00000000       0.00000000 s 
O       -2.75007575      31.07399363       7.38060000              inf       0.00000000       0.00000000       0.00000000 s 
O       16.83832425       2.36559791       7.38060000              inf       0.00000000       0.00000000       0.00000000 s 
O       15.33152425       4.97545206       7.38060000              inf       0.00000000       0.00000000       0.00000000 s 
O       13.82490507       7.58530622       7.38060000       9.11466238       0.00018082       0.00000000       0.00000000 s 
O       12.31818041      10.19502988       7.38060000       6.83747177       0.00025616      -0.00013049       0.00000000 s 
O       10.81135027      12.80493624       7.38060000       5.34659593       0.00022602      -0.00007830       0.00000000 s 
O        9.30452014      15.41484259       7.38060000       5.34653648       0.00019588      -0.00002610       0.00000000 s 
O        7.79762973      18.02469675       7.38060000       3.22988719       0.00010548      -0.00002610       0.00000000 s 
O        6.29090507      20.63442041       7.38060000       3.22497323       0.00018082      -0.00015659       0.00000000 s 
O        4.78407493      23.24432677       7.38060000       5.34157205       0.00015068      -0.00010439       0.00000000 s 
O        3.27724480      25.85423312       7.38060000       8.05162269       0.00012054      -0.00005220       0.00000000 s 
O        1.77041466      28.46413947       7.38060000      10.92195772       0.00009041       0.00000000       0.00000000 s 
O        0.26352425      31.07399363       7.38060000              inf       0.00000000       0.00000000       0.00000000 s 
O       19.85192425       2.36559791       7.38060000              inf       0.00000000       0.00000000       0.00000000 s 
O       18.34512425       4.97545206       7.38060000              inf       0.00000000       0.00000000       0.00000000 s 
O       16.83835439       7.58530622       7.38060000       9.59992618       0.00003014       0.00000000       0.00000000 s 
O       15.33162973      10.19502988       7.38060000       6.83751826       0.00010548      -0.00013049       0.00000000 s 
O       13.82479959      12.80493624       7.38060000       4.41647045       0.00007534      -0.00007830       0.00000000 s 
O       12.31796946      15.41484259       7.38060000       3.22847688       0.00004520      -0.00002610       0.00000000 s 
O       10.81124480      18.02456626       7.38060000       4.41632651       0.00012054      -0.00015659       0.00000000 s 
O        9.30456534      20.63442041       7.38060000       4.41354215       0.00024109      -0.00015659       0.00000000 s 
O        7.79773520      23.24432677       7.38060000       5.34126817       0.00021095      -0.00010439       0.00000000 s 
O        6.29090507      25.85423312       7.38060000       7.46613913       0.00018082      -0.00005220       0.00000000 s 
O        4.78407493      28.46413947       7.38060000      10.05592451       0.00015068       0.00000000       0.00000000 s 
O        3.27712425      31.07399363       7.38060000              inf       0.00000000       0.00000000       0.00000000 s 
O       22.86552425       2.36559791       7.38060000              inf       0.00000000       0.00000000       0.00000000 s 
O       21.35872425       4.97545206       7.38060000              inf       0.00000000       0.00000000       0.00000000 s 
O       19.85201466       7.58530622       7.38060000      10.92723166       0.00009041       0.00000000       0.00000000 s 
O       18.34529000      10.19502988       7.38060000       8.05704365       0.00016575      -0.00013049       0.00000000 s 
O       16.83845986      12.80493624       7.38060000       5.34671483       0.00013561      -0.00007830       0.00000000 s 
O       15.33162973      15.41484259       7.38060000       3.22847688       0.00010548      -0.00002610       0.00000000 s 
O       13.82490507      18.02456626       7.38060000       3.22837843       0.00018082      -0.00015659       0.00000000 s 
O       12.31807493      20.63447261       7.38060000       5.34653648       0.00015068      -0.00010439       0.00000000 s 
O       10.81118452      23.24432677       7.38060000       6.83288292       0.00006027      -0.00010439       0.00000000 s 
O        9.30435439      25.85423312       7.38060000       8.05114056       0.00003014      -0.00005220       0.00000000 s 
O        7.79752425      28.46413947       7.38060000      10.05573150       0.00000000       0.00000000       0.00000000 s 
O        6.29079959      31.07386314       7.38060000      12.47294899       0.00007534      -0.00013049       0.00000000 s 
O       25.87912425       2.36559791       7.38060000              inf       0.00000000       0.00000000       0.00000000 s 
O       24.37232425       4.97545206       7.38060000              inf       0.00000000       0.00000000       0.00000000 s 
O       22.86552425       7.58530622       7.38060000              inf       0.00000000       0.00000000       0.00000000 s 
O       21.35895027      10.19502988       7.38060000      10.06203485       0.00022602      -0.00013049       0.00000000 s 
O       19.85212014      12.80493624       7.38060000       7.47220210       0.00019588      -0.00007830       0.00000000 s 
O       18.34529000      15.41484259       7.38060000       5.34671483       0.00016575      -0.00002610       0.00000000 s 
O       16.83856534      18.02456626       7.38060000       4.41647045       0.00024109      -0.00015659       0.00000000 s 
O       15.33173520      20.63447261       7.38060000       5.34659593       0.00021095      -0.00010439       0.00000000 s 
O       13.82490507      23.24437896       7.38060000       7.47203194       0.00018082      -0.00005220       0.00000000 s 
O       12.31801466      25.85423312       7.38060000       9.59493571       0.00009041      -0.00005220       0.00000000 s 
O       10.81118452      28.46413947       7.38060000      10.92142458       0.00006027       0.00000000       0.00000000 s 
O        9.30432425      31.07399363       7.38060000              inf       0.00000000       0.00000000       0.00000000 s 
O       28.89272425       2.36559791       7.38060000              inf       0.00000000       0.00000000       0.00000000 s 
O       27.38592425       4.97545206       7.38060000              inf       0.00000000       0.00000000       0.00000000 s 
O       25.87912425       7.58530622       7.38060000              inf       0.00000000       0.00000000       0.00000000 s 
O       24.37232425      10.19516038       7.38060000              inf       0.00000000       0.00000000       0.00000000 s 
O       22.86556946      12.80493624       7.38060000      10.06184531       0.00004520      -0.00007830       0.00000000 s 
O       21.35873932      15.41484259       7.38060000       8.05684639       0.00001507      -0.00002610       0.00000000 s 
O       19.85201466      18.02456626       7.38060000       6.83737879       0.00009041      -0.00015659       0.00000000 s 
O       18.34518452      20.63447261       7.38060000       6.83733230       0.00006027      -0.00010439       0.00000000 s 
O       16.83835439      23.24437896       7.38060000       8.05684639       0.00003014      -0.00005220       0.00000000 s 
O       15.33152425      25.85428532       7.38060000      10.06184531       0.00000000       0.00000000       0.00000000 s 
O       13.82479959      28.46400898       7.38060000      12.47912395       0.00007534      -0.00013049       0.00000000 s 
O       12.31792425      31.07399363       7.38060000              inf       0.00000000       0.00000000       0.00000000 s 
O       31.90632425       2.36559791       7.38060000              inf       0.00000000       0.00000000       0.00000000 s 
O       30.39952425       4.97545206       7.38060000              inf       0.00000000       0.00000000       0.00000000 s 
O       28.89272425       7.58530622       7.38060000              inf       0.00000000       0.00000000       0.00000000 s 
O       27.38592425      10.19516038       7.38060000              inf       0.00000000       0.00000000       0.00000000 s 
O       25.87912425      12.80501453       7.38060000              inf       0.00000000       0.00000000       0.00000000 s 
O       24.37232425      15.41486869       7.38060000              inf       0.00000000       0.00000000       0.00000000 s 
O       22.86567493      18.02456626       7.38060000       9.59999241       0.00015068      -0.00015659       0.00000000 s 
O       21.35884480      20.63447261       7.38060000       9.11466238       0.00012054      -0.00010439       0.00000000 s 
O       19.85201466      23.24437896       7.38060000       9.59992618       0.00009041      -0.00005220       0.00000000 s 
O       18.34512425      25.85428532       7.38060000              inf       0.00000000       0.00000000       0.00000000 s 
O       16.83832425      28.46413947       7.38060000              inf       0.00000000       0.00000000       0.00000000 s 
O       15.33152425      31.07399363       7.38060000              inf       0.00000000       0.00000000       0.00000000 s 
Cu      13.82479959      16.28481138      10.10010000       0.00000000       0.00000000       0.00000000       0.00000000 a1
N        6.26073893      13.17373473      10.10010000       0.00000000       0.00000000       0.00000000       0.00000000 a2
H        4.18919029      13.26982956      10.10010000       0.00000000       0.00000000       0.00000000       0.00000000 a2
H        8.33597923      13.24005112      10.10010000       0.00000000       0.00000000       0.00000000       0.00000000 a2
C        5.11548052      13.85005234      10.10010000       0.00000000       0.00000000       0.00000000       0.00000000 a2
C        7.41865446      13.83324487      10.10010000       0.00000000       0.00000000       0.00000000       0.00000000 a2
C        5.07982964      15.25384069      10.10010000       0.00000000       0.00000000       0.00000000       0.00000000 a2
C        7.47518960      15.23337943      10.10010000       0.00000000       0.00000000       0.00000000       0.00000000 a2
H        4.10111783      15.72828608      10.10010000       0.00000000       0.00000000       0.00000000       0.00000000 a2
C        6.28120128      15.99117669      10.10010000       0.00000000       0.00000000       0.00000000       0.00000000 a2
H        8.46181210      15.69302695      10.10010000       0.00000000       0.00000000       0.00000000       0.00000000 a2
C        6.29069412      17.47132937      10.10010000       0.00000000       0.00000000       0.00000000       0.00000000 a2
H        4.14373014      17.66333634      10.10010000       0.00000000       0.00000000       0.00000000       0.00000000 a2
H        8.43713072      17.64488467      10.10010000       0.00000000       0.00000000       0.00000000       0.00000000 a2
C        5.08373225      18.20482888      10.10010000       0.00000000       0.00000000       0.00000000       0.00000000 a2
C        7.50008193      18.19149253      10.10010000       0.00000000       0.00000000       0.00000000       0.00000000 a2
H        2.44240226      18.62538078      10.10010000       0.00000000       0.00000000       0.00000000       0.00000000 a2
H       10.14700215      18.60090035      10.10010000       0.00000000       0.00000000       0.00000000       0.00000000 a2
C        2.53722518      19.70781779      10.10010000       0.00000000       0.00000000       0.00000000       0.00000000 a2
C        5.06200419      19.60788648      10.10010000       0.00000000       0.00000000       0.00000000       0.00000000 a2
C        7.52961521      19.59966544      10.10010000       0.00000000       0.00000000       0.00000000       0.00000000 a2
C       10.05481613      19.68498157      10.10010000       0.00000000       0.00000000       0.00000000       0.00000000 a2
H        0.38045193      19.96614116      10.10010000       0.00000000       0.00000000       0.00000000       0.00000000 a2
C        3.78817054      20.36148187      10.10010000       0.00000000       0.00000000       0.00000000       0.00000000 a2
C        1.35494470      20.45775939      10.10010000       0.00000000       0.00000000       0.00000000       0.00000000 a2
C        6.29976505      20.28219450      10.10010000       0.00000000       0.00000000       0.00000000       0.00000000 a2
C        8.81041028      20.34156868      10.10010000       0.00000000       0.00000000       0.00000000       0.00000000 a2
H       12.21644127      19.93636272      10.10010000       0.00000000       0.00000000       0.00000000       0.00000000 a2
C       11.24226494      20.43291357      10.10010000       0.00000000       0.00000000       0.00000000       0.00000000 a2
N        1.36707444      21.79011603      10.10010000       0.00000000       0.00000000       0.00000000       0.00000000 a2
C        3.75536750      21.76910670      10.10010000       0.00000000       0.00000000       0.00000000       0.00000000 a2
H        6.30461695      21.36700647      10.10010000       0.00000000       0.00000000       0.00000000       0.00000000 a2
C        8.84911997      21.75430883      10.10010000       0.00000000       0.00000000       0.00000000       0.00000000 a2
N       11.23604185      21.76198180      10.10010000       0.00000000       0.00000000       0.00000000       0.00000000 a2
C        2.52340782      22.44177052      10.10010000       0.00000000       0.00000000       0.00000000       0.00000000 a2
C       10.08023584      22.42258809      10.10010000       0.00000000       0.00000000       0.00000000       0.00000000 a2
H        4.65729278      22.37691564      10.10010000       0.00000000       0.00000000       0.00000000       0.00000000 a2
H        7.94930422      22.36394466      10.10010000       0.00000000       0.00000000       0.00000000       0.00000000 a2
H        2.48185028      23.53498622      10.10010000       0.00000000       0.00000000       0.00000000       0.00000000 a2
H       10.12717266      23.51342883      10.10010000       0.00000000       0.00000000       0.00000000       0.00000000 a2
