145
Lattice="36.16319999999999 0.0 0.0 -18.081599999999995 31.318249882114287 0.0 0.0 0.0 30.0" Properties=species:S:1:pos:R:3:remoteness:R:1:shift:R:3:adsorption:S:1 size="_JSON [[12, 0], [0, 12]]" ac_name=cu_atop pbc="T T T"
O      -10.28407575     -13.29352703       7.38060000              inf       0.00000000       0.00000000       0.00000000 s 
O      -11.79087575     -10.68367288       7.38060000              inf       0.00000000       0.00000000       0.00000000 s 
O      -13.29767575      -8.07381872       7.38060000              inf       0.00000000       0.00000000       0.00000000 s 
O      -14.80447575      -5.46396456       7.38060000              inf       0.00000000       0.00000000       0.00000000 s 
O      -16.31127575      -2.85411041       7.38060000              inf       0.00000000       0.00000000       0.00000000 s 
O      -17.81807575      -0.24425625       7.38060000              inf       0.00000000       0.00000000       0.00000000 s 
O      -19.32487575       2.36559791       7.38060000              inf       0.00000000       0.00000000       0.00000000 s 
O      -20.83167575       4.97545206       7.38060000              inf       0.00000000       0.00000000       0.00000000 s 
O      -22.33847575       7.58530622       7.38060000              inf       0.00000000       0.00000000       0.00000000 s 
O      -23.84527575      10.19516038       7.38060000              inf       0.00000000       0.00000000       0.00000000 s 
O      -25.35207575      12.80501453       7.38060000              inf       0.00000000       0.00000000       0.00000000 s 
O      -26.85887575      15.41486869       7.38060000              inf       0.00000000       0.00000000       0.00000000 s 
O       -7.27047575     -13.29352703       7.38060000              inf       0.00000000       0.00000000       0.00000000 s 
O       -8.77727575     -10.68367288       7.38060000              inf       0.00000000       0.00000000       0.00000000 s 
O      -10.28407575      -8.07381872       7.38060000              inf       0.00000000       0.00000000       0.00000000 s 
O      -11.79087575      -5.46396456       7.38060000              inf       0.00000000       0.00000000       0.00000000 s 
O      -13.29767575      -2.85411041       7.38060000              inf       0.00000000       0.00000000       0.00000000 s 
O      -14.80447575      -0.24425625       7.38060000              inf       0.00000000       0.00000000       0.00000000 s 
O      -16.31127575       2.36559791       7.38060000              inf       0.00000000       0.00000000       0.00000000 s 
O      -17.81807575       4.97545206       7.38060000              inf       0.00000000       0.00000000       0.00000000 s 
O      -19.32487575       7.58530622       7.38060000              inf       0.00000000       0.00000000       0.00000000 s 
O      -20.83167575      10.19516038       7.38060000              inf       0.00000000       0.00000000       0.00000000 s 
O      -22.33847575      12.80501453       7.38060000              inf       0.00000000       0.00000000       0.00000000 s 
O      -23.84527575      15.41486869       7.38060000              inf       0.00000000       0.00000000       0.00000000 s 
O       -4.25687575     -13.29352703       7.38060000              inf       0.00000000       0.00000000       0.00000000 s 
O       -5.76367575     -10.68367288       7.38060000              inf       0.00000000       0.00000000       0.00000000 s 
O       -7.27047575      -8.07381872       7.38060000              inf       0.00000000       0.00000000       0.00000000 s 
O       -8.77727575      -5.46396456       7.38060000              inf       0.00000000       0.00000000       0.00000000 s 
O      -10.28403054      -2.85418870       7.38060000      10.78784708       0.00004520      -0.00007830       0.00000000 s 
O      -11.79087575      -0.24425625       7.38060000              inf       0.00000000       0.00000000       0.00000000 s 
O      -13.29767575       2.36559791       7.38060000              inf       0.00000000       0.00000000       0.00000000 s 
O      -14.80447575       4.97545206       7.38060000              inf       0.00000000       0.00000000       0.00000000 s 
O      -16.31127575       7.58530622       7.38060000              inf       0.00000000       0.00000000       0.00000000 s 
O      -17.81807575      10.19516038       7.38060000              inf       0.00000000       0.00000000       0.00000000 s 
O      -19.32487575      12.80501453       7.38060000              inf       0.00000000       0.00000000       0.00000000 s 
O      -20.83167575      15.41486869       7.38060000              inf       0.00000000       0.00000000       0.00000000 s 
O       -1.24327575     -13.29352703       7.38060000              inf       0.00000000       0.00000000       0.00000000 s 
O       -2.75007575     -10.68367288       7.38060000              inf       0.00000000       0.00000000       0.00000000 s 
O       -4.25681548      -8.07381872       7.38060000      11.20071331       0.00006027       0.00000000       0.00000000 s 
O       -5.76354014      -5.46409506       7.38060000       9.44093216       0.00013561      -0.00013049       0.00000000 s 
O       -7.27037027      -2.85418870       7.38060000       8.42422336       0.00010548      -0.00007830       0.00000000 s 
O       -8.77720041      -0.24428235       7.38060000       8.42426109       0.00007534      -0.00002610       0.00000000 s 
O      -10.28392507       2.36544132       7.38060000       9.44093216       0.00015068      -0.00015659       0.00000000 s 
O      -11.79087575       4.97545206       7.38060000              inf       0.00000000       0.00000000       0.00000000 s 
O      -13.29767575       7.58530622       7.38060000              inf       0.00000000       0.00000000       0.00000000 s 
O      -14.80447575      10.19516038       7.38060000              inf       0.00000000       0.00000000       0.00000000 s 
O      -16.31127575      12.80501453       7.38060000              inf       0.00000000       0.00000000       0.00000000 s 
O      -17.81807575      15.41486869       7.38060000              inf       0.00000000       0.00000000       0.00000000 s 
O        1.77032425     -13.29352703       7.38060000              inf       0.00000000       0.00000000       0.00000000 s 
O        0.26352425     -10.68367288       7.38060000              inf       0.00000000       0.00000000       0.00000000 s 
O       -1.24315520      -8.07381872       7.38060000      10.78767029       0.00012054       0.00000000       0.00000000 s 
O       -2.74987986      -5.46409506       7.38060000       8.42422336       0.00019588      -0.00013049       0.00000000 s 
O       -4.25671000      -2.85418870       7.38060000       6.61224094       0.00016575      -0.00007830       0.00000000 s 
O       -5.76354014      -0.24428235       7.38060000       5.88559409       0.00013561      -0.00002610       0.00000000 s 
O       -7.27026480       2.36544132       7.38060000       6.61224094       0.00021095      -0.00015659       0.00000000 s 
O       -8.77709493       4.97534767       7.38060000       8.42422336       0.00018082      -0.00010439       0.00000000 s 
O      -10.28392507       7.58525402       7.38060000      10.78784708       0.00015068      -0.00005220       0.00000000 s 
O      -11.79087575      10.19516038       7.38060000              inf       0.00000000       0.00000000       0.00000000 s 
O      -13.29767575      12.80501453       7.38060000              inf       0.00000000       0.00000000       0.00000000 s 
O      -14.80447575      15.41486869       7.38060000              inf       0.00000000       0.00000000       0.00000000 s 
O        4.78392425     -13.29352703       7.38060000              inf       0.00000000       0.00000000       0.00000000 s 
O        3.27712425     -10.68367288       7.38060000              inf       0.00000000       0.00000000       0.00000000 s 
O        1.77050507      -8.07381872       7.38060000      11.20071331       0.00018082       0.00000000       0.00000000 s 
O        0.26378041      -5.46409506       7.38060000       8.42426109       0.00025616      -0.00013049       0.00000000 s 
O       -1.24304973      -2.85418870       7.38060000       5.88559409       0.00022602      -0.00007830       0.00000000 s 
O       -2.74987986      -0.24428235       7.38060000       4.05913255       0.00019588      -0.00002610       0.00000000 s 
O       -4.25660452       2.36544132       7.38060000       4.05913255       0.00027122      -0.00015659       0.00000000 s 
O       -5.76343466       4.97534767       7.38060000       5.88559409       0.00024109      -0.00010439       0.00000000 s 
O       -7.27026480       7.58525402       7.38060000       8.42426109       0.00021095      -0.00005220       0.00000000 s 
O       -8.77727575      10.19516038       7.38060000              inf       0.00000000       0.00000000       0.00000000 s 
O      -10.28407575      12.80501453       7.38060000              inf       0.00000000       0.00000000       0.00000000 s 
O      -11.79087575      15.41486869       7.38060000              inf       0.00000000       0.00000000       0.00000000 s 
O        7.79752425     -13.29352703       7.38060000              inf       0.00000000       0.00000000       0.00000000 s 
O        6.29072425     -10.68367288       7.38060000              inf       0.00000000       0.00000000       0.00000000 s 
O        4.78392425      -8.07381872       7.38060000              inf       0.00000000       0.00000000       0.00000000 s 
O        3.27722973      -5.46409506       7.38060000       9.44093216       0.00010548      -0.00013049       0.00000000 s 
O        1.77039959      -2.85418870       7.38060000       6.61224094       0.00007534      -0.00007830       0.00000000 s 
O        0.26356946      -0.24428235       7.38060000       4.05913255       0.00004520      -0.00002610       0.00000000 s 
O       -1.24315520       2.36544132       7.38060000       2.71950000       0.00012054      -0.00015659       0.00000000 s 
O       -2.74998534       4.97534767       7.38060000       4.05928916       0.00009041      -0.00010439       0.00000000 s 
O       -4.25681548       7.58525402       7.38060000       6.61243323       0.00006027      -0.00005220       0.00000000 s 
O       -5.76364561      10.19516038       7.38060000       9.44113417       0.00003014       0.00000000       0.00000000 s 
O       -7.27047575      12.80501453       7.38060000              inf       0.00000000       0.00000000       0.00000000 s 
O       -8.77727575      15.41486869       7.38060000              inf       0.00000000       0.00000000       0.00000000 s 
O       10.81112425     -13.29352703       7.38060000              inf       0.00000000       0.00000000       0.00000000 s 
O        9.30432425     -10.68367288       7.38060000              inf       0.00000000       0.00000000       0.00000000 s 
O        7.79752425      -8.07381872       7.38060000              inf       0.00000000       0.00000000       0.00000000 s 
O        6.29072425      -5.46396456       7.38060000              inf       0.00000000       0.00000000       0.00000000 s 
O        4.78405986      -2.85418870       7.38060000       8.42422336       0.00013561      -0.00007830       0.00000000 s 
O        3.27722973      -0.24428235       7.38060000       5.88559409       0.00010548      -0.00002610       0.00000000 s 
O        1.77050507       2.36544132       7.38060000       4.05928916       0.00018082      -0.00015659       0.00000000 s 
O        0.26367493       4.97534767       7.38060000       4.05928916       0.00015068      -0.00010439       0.00000000 s 
O       -1.24315520       7.58525402       7.38060000       5.88575611       0.00012054      -0.00005220       0.00000000 s 
O       -2.74998534      10.19516038       7.38060000       8.42441202       0.00009041       0.00000000       0.00000000 s 
O       -4.25671000      12.80488404       7.38060000      11.20085520       0.00016575      -0.00013049       0.00000000 s 
O       -5.76367575      15.41486869       7.38060000              inf       0.00000000       0.00000000       0.00000000 s 
O       13.82472425     -13.29352703       7.38060000              inf       0.00000000       0.00000000       0.00000000 s 
O       12.31792425     -10.68367288       7.38060000              inf       0.00000000       0.00000000       0.00000000 s 
O       10.81112425      -8.07381872       7.38060000              inf       0.00000000       0.00000000       0.00000000 s 
O        9.30432425      -5.46396456       7.38060000              inf       0.00000000       0.00000000       0.00000000 s 
O        7.79772014      -2.85418870       7.38060000      10.78784708       0.00019588      -0.00007830       0.00000000 s 
O        6.29089000      -0.24428235       7.38060000       8.42426109       0.00016575      -0.00002610       0.00000000 s 
O        4.78416534       2.36544132       7.38060000       6.61243323       0.00024109      -0.00015659       0.00000000 s 
O        3.27733520       4.97534767       7.38060000       5.88575611       0.00021095      -0.00010439       0.00000000 s 
O        1.77050507       7.58525402       7.38060000       6.61243323       0.00018082      -0.00005220       0.00000000 s 
O        0.26367493      10.19516038       7.38060000       8.42441202       0.00015068       0.00000000       0.00000000 s 
O       -1.24304973      12.80488404       7.38060000      10.78784708       0.00022602      -0.00013049       0.00000000 s 
O       -2.75007575      15.41486869       7.38060000              inf       0.00000000       0.00000000       0.00000000 s 
O       16.83832425     -13.29352703       7.38060000              inf       0.00000000       0.00000000       0.00000000 s 
O       15.33152425     -10.68367288       7.38060000              inf       0.00000000       0.00000000       0.00000000 s 
O       13.82472425      -8.07381872       7.38060000              inf       0.00000000       0.00000000       0.00000000 s 
O       12.31792425      -5.46396456       7.38060000              inf       0.00000000       0.00000000       0.00000000 s 
O       10.81112425      -2.85411041       7.38060000              inf       0.00000000       0.00000000       0.00000000 s 
O        9.30433932      -0.24428235       7.38060000      11.20071331       0.00001507      -0.00002610       0.00000000 s 
O        7.79761466       2.36544132       7.38060000       9.44093216       0.00009041      -0.00015659       0.00000000 s 
O        6.29078452       4.97534767       7.38060000       8.42422336       0.00006027      -0.00010439       0.00000000 s 
O        4.78395439       7.58525402       7.38060000       8.42426109       0.00003014      -0.00005220       0.00000000 s 
O        3.27712425      10.19516038       7.38060000       9.44103316       0.00000000       0.00000000       0.00000000 s 
O        1.77039959      12.80488404       7.38060000      11.20085520       0.00007534      -0.00013049       0.00000000 s 
O        0.26352425      15.41486869       7.38060000              inf       0.00000000       0.00000000       0.00000000 s 
O       19.85192425     -13.29352703       7.38060000              inf       0.00000000       0.00000000       0.00000000 s 
O       18.34512425     -10.68367288       7.38060000              inf       0.00000000       0.00000000       0.00000000 s 
O       16.83832425      -8.07381872       7.38060000              inf       0.00000000       0.00000000       0.00000000 s 
O       15.33152425      -5.46396456       7.38060000              inf       0.00000000       0.00000000       0.00000000 s 
O       13.82472425      -2.85411041       7.38060000              inf       0.00000000       0.00000000       0.00000000 s 
O       12.31792425      -0.24425625       7.38060000              inf       0.00000000       0.00000000       0.00000000 s 
O       10.81112425       2.36559791       7.38060000              inf       0.00000000       0.00000000       0.00000000 s 
O        9.30444480       4.97534767       7.38060000      11.20085520       0.00012054      -0.00010439       0.00000000 s 
O        7.79761466       7.58525402       7.38060000      10.78784708       0.00009041      -0.00005220       0.00000000 s 
O        6.29072425      10.19516038       7.38060000              inf       0.00000000       0.00000000       0.00000000 s 
O        4.78392425      12.80501453       7.38060000              inf       0.00000000       0.00000000       0.00000000 s 
O        3.27712425      15.41486869       7.38060000              inf       0.00000000       0.00000000       0.00000000 s 
O       22.86552425     -13.29352703       7.38060000              inf       0.00000000       0.00000000       0.00000000 s 
O       21.35872425     -10.68367288       7.38060000              inf       0.00000000       0.00000000       0.00000000 s 
O       19.85192425      -8.07381872       7.38060000              inf       0.00000000       0.00000000       0.00000000 s 
O       18.34512425      -5.46396456       7.38060000              inf       0.00000000       0.00000000       0.00000000 s 
O       16.83832425      -2.85411041       7.38060000              inf       0.00000000       0.00000000       0.00000000 s 
O       15.33152425      -0.24425625       7.38060000              inf       0.00000000       0.00000000       0.00000000 s 
O       13.82472425       2.36559791       7.38060000              inf       0.00000000       0.00000000       0.00000000 s 
O       12.31792425       4.97545206       7.38060000              inf       0.00000000       0.00000000       0.00000000 s 
O       10.81112425       7.58530622       7.38060000              inf       0.00000000       0.00000000       0.00000000 s 
O        9.30432425      10.19516038       7.38060000              inf       0.00000000       0.00000000       0.00000000 s 
O        7.79752425      12.80501453       7.38060000              inf       0.00000000       0.00000000       0.00000000 s 
O        6.29072425      15.41486869       7.38060000              inf       0.00000000       0.00000000       0.00000000 s 
Cu      -1.24315520       2.36544132      10.10010000       0.00000000       0.00000000       0.00000000       0.00000000 a1
