184
Lattice="36.16319999999999 0.0 0.0 -18.081599999999995 31.318249882114287 0.0 0.0 0.0 30.0" Properties=species:S:1:pos:R:3:remoteness:R:1:shift:R:3:adsorption:S:1 size="_JSON [[12, 0], [0, 12]]" mass_center_dist=15.943793724497558 min_atom_dist=10.051790517910502 s1=cu_hollow s2=tpb_hollow_down s1idx=2 s2idx=6 pbc="T T T"
O       -1.24327575       2.36559791       7.38060000              inf       0.00000000       0.00000000       0.00000000 s 
O       -2.75007575       4.97545206       7.38060000              inf       0.00000000       0.00000000       0.00000000 s 
O       -4.25674014       7.58517573       7.38060000      10.06618962       0.00013561      -0.00013049       0.00000000 s 
O       -5.76357027      10.19508208       7.38060000      10.06461387       0.00010548      -0.00007830       0.00000000 s 
O       -7.27047575      12.80501453       7.38060000              inf       0.00000000       0.00000000       0.00000000 s 
O       -8.77723054      15.41479039       7.38060000      10.06184531       0.00004520      -0.00007830       0.00000000 s 
O      -10.28406068      18.02469675       7.38060000       8.05684639       0.00001507      -0.00002610       0.00000000 s 
O      -11.79078534      20.63442041       7.38060000       6.83737879       0.00009041      -0.00015659       0.00000000 s 
O      -13.29761548      23.24432677       7.38060000       6.83733230       0.00006027      -0.00010439       0.00000000 s 
O      -14.80444561      25.85423312       7.38060000       8.05684639       0.00003014      -0.00005220       0.00000000 s 
O      -16.31127575      28.46413947       7.38060000      10.06184531       0.00000000       0.00000000       0.00000000 s 
O      -17.81800041      31.07386314       7.38060000      12.47912395       0.00007534      -0.00013049       0.00000000 s 
O        1.77032425       2.36559791       7.38060000              inf       0.00000000       0.00000000       0.00000000 s 
O        0.26364480       4.97545206       7.38060000       9.60586231       0.00012054       0.00000000       0.00000000 s 
O       -1.24307986       7.58517573       7.38060000       8.06206983       0.00019588      -0.00013049       0.00000000 s 
O       -2.74991000      10.19508208       7.38060000       7.47550002       0.00016575      -0.00007830       0.00000000 s 
O       -4.25674014      12.80498844       7.38060000       8.05813426       0.00013561      -0.00002610       0.00000000 s 
O       -5.76346480      15.41471210       7.38060000       9.59925573       0.00021095      -0.00015659       0.00000000 s 
O       -7.27047575      18.02472285       7.38060000              inf       0.00000000       0.00000000       0.00000000 s 
O       -8.77712507      20.63442041       7.38060000       9.59999241       0.00015068      -0.00015659       0.00000000 s 
O      -10.28395520      23.24432677       7.38060000       9.11466238       0.00012054      -0.00010439       0.00000000 s 
O      -11.79078534      25.85423312       7.38060000       9.59992618       0.00009041      -0.00005220       0.00000000 s 
O      -13.29767575      28.46413947       7.38060000              inf       0.00000000       0.00000000       0.00000000 s 
O      -14.80447575      31.07399363       7.38060000              inf       0.00000000       0.00000000       0.00000000 s 
O        4.78392425       2.36559791       7.38060000              inf       0.00000000       0.00000000       0.00000000 s 
O        3.27730507       4.97545206       7.38060000       9.12070152       0.00018082      -0.00000000       0.00000000 s 
O        1.77058041       7.58517573       7.38060000       6.84324945       0.00025616      -0.00013049       0.00000000 s 
O        0.26375027      10.19508208       7.38060000       5.35107890       0.00022602      -0.00007830       0.00000000 s 
O       -1.24307986      12.80498844       7.38060000       5.34811408       0.00019588      -0.00002610       0.00000000 s 
O       -2.74980452      15.41471210       7.38060000       6.83615350       0.00027122      -0.00015659       0.00000000 s 
O       -4.25663466      18.02461845       7.38060000       9.11200280       0.00024109      -0.00010439       0.00000000 s 
O       -5.76346480      20.63452481       7.38060000      11.72554868       0.00021095      -0.00005220       0.00000000 s 
O       -7.27047575      23.24443116       7.38060000              inf       0.00000000       0.00000000       0.00000000 s 
O       -8.77712507      25.85423312       7.38060000      11.72896791       0.00015068      -0.00005220       0.00000000 s 
O      -10.28407575      28.46413947       7.38060000              inf       0.00000000       0.00000000       0.00000000 s 
O      -11.79087575      31.07399363       7.38060000              inf       0.00000000       0.00000000       0.00000000 s 
O        7.79752425       2.36559791       7.38060000              inf       0.00000000       0.00000000       0.00000000 s 
O        6.29075439       4.97545206       7.38060000       9.60545819       0.00003014       0.00000000       0.00000000 s 
O        4.78402973       7.58517573       7.38060000       6.84301227       0.00010548      -0.00013049       0.00000000 s 
O        3.27719959      10.19508208       7.38060000       4.42145755       0.00007534      -0.00007830       0.00000000 s 
O        1.77036946      12.80498844       7.38060000       3.23048808       0.00004520      -0.00002610       0.00000000 s 
O        0.26364480      15.41471210       7.38060000       4.41427761       0.00012054      -0.00015659       0.00000000 s 
O       -1.24318534      18.02461845       7.38060000       6.83373504       0.00009041      -0.00010439       0.00000000 s 
O       -2.75001548      20.63452481       7.38060000       9.59574483       0.00006027      -0.00005220       0.00000000 s 
O       -4.25687575      23.24443116       7.38060000              inf       0.00000000       0.00000000       0.00000000 s 
O       -5.76367575      25.85428532       7.38060000              inf       0.00000000       0.00000000       0.00000000 s 
O       -7.27047575      28.46413947       7.38060000              inf       0.00000000       0.00000000       0.00000000 s 
O       -8.77727575      31.07399363       7.38060000              inf       0.00000000       0.00000000       0.00000000 s 
O       10.81112425       2.36559791       7.38060000              inf       0.00000000       0.00000000       0.00000000 s 
O        9.30432425       4.97545206       7.38060000              inf       0.00000000       0.00000000       0.00000000 s 
O        7.79769000       7.58517573       7.38060000       8.06146584       0.00016575      -0.00013049       0.00000000 s 
O        6.29085986      10.19508208       7.38060000       5.35047223       0.00013561      -0.00007830       0.00000000 s 
O        4.78402973      12.80498844       7.38060000       3.22988719       0.00010548      -0.00002610       0.00000000 s 
O        3.27730507      15.41471210       7.38060000       3.22497323       0.00018082      -0.00015659       0.00000000 s 
O        1.77047493      18.02461845       7.38060000       5.34157205       0.00015068      -0.00010439       0.00000000 s 
O        0.26364480      20.63452481       7.38060000       8.05162269       0.00012054      -0.00005220       0.00000000 s 
O       -1.24318534      23.24443116       7.38060000      10.92195772       0.00009041       0.00000000       0.00000000 s 
O       -2.75007575      25.85428532       7.38060000              inf       0.00000000       0.00000000       0.00000000 s 
O       -4.25687575      28.46413947       7.38060000              inf       0.00000000       0.00000000       0.00000000 s 
O       -5.76367575      31.07399363       7.38060000              inf       0.00000000       0.00000000       0.00000000 s 
O       13.82472425       2.36559791       7.38060000              inf       0.00000000       0.00000000       0.00000000 s 
O       12.31792425       4.97545206       7.38060000              inf       0.00000000       0.00000000       0.00000000 s 
O       10.81135027       7.58517573       7.38060000      10.06538337       0.00022602      -0.00013049       0.00000000 s 
O        9.30452014      10.19508208       7.38060000       7.47463149       0.00019588      -0.00007830       0.00000000 s 
O        7.79769000      12.80498844       7.38060000       5.34720354       0.00016575      -0.00002610       0.00000000 s 
O        6.29096534      15.41471210       7.38060000       4.41354215       0.00024109      -0.00015659       0.00000000 s 
O        4.78413520      18.02461845       7.38060000       5.34126817       0.00021095      -0.00010439       0.00000000 s 
O        3.27730507      20.63452481       7.38060000       7.46613913       0.00018082      -0.00005220       0.00000000 s 
O        1.77047493      23.24443116       7.38060000      10.05592451       0.00015068       0.00000000       0.00000000 s 
O        0.26352425      25.85428532       7.38060000              inf       0.00000000       0.00000000       0.00000000 s 
O       -1.24327575      28.46413947       7.38060000              inf       0.00000000       0.00000000       0.00000000 s 
O       -2.75007575      31.07399363       7.38060000              inf       0.00000000       0.00000000       0.00000000 s 
O       16.83832425       2.36559791       7.38060000              inf       0.00000000       0.00000000       0.00000000 s 
O       15.33152425       4.97545206       7.38060000              inf       0.00000000       0.00000000       0.00000000 s 
O       13.82472425       7.58530622       7.38060000              inf       0.00000000       0.00000000       0.00000000 s 
O       12.31796946      10.19508208       7.38060000      10.06345671       0.00004520      -0.00007830       0.00000000 s 
O       10.81113932      12.80498844       7.38060000       8.05692983       0.00001507      -0.00002610       0.00000000 s 
O        9.30441466      15.41471210       7.38060000       6.83520373       0.00009041      -0.00015659       0.00000000 s 
O        7.79758452      18.02461845       7.38060000       6.83288292       0.00006027      -0.00010439       0.00000000 s 
O        6.29075439      20.63452481       7.38060000       8.05114056       0.00003014      -0.00005220       0.00000000 s 
O        4.78392425      23.24443116       7.38060000      10.05573150       0.00000000       0.00000000       0.00000000 s 
O        3.27719959      25.85415483       7.38060000      12.47294899       0.00007534      -0.00013049       0.00000000 s 
O        1.77032425      28.46413947       7.38060000              inf       0.00000000       0.00000000       0.00000000 s 
O        0.26352425      31.07399363       7.38060000              inf       0.00000000       0.00000000       0.00000000 s 
O       19.85192425       2.36559791       7.38060000              inf       0.00000000       0.00000000       0.00000000 s 
O       18.34512425       4.97545206       7.38060000              inf       0.00000000       0.00000000       0.00000000 s 
O       16.83832425       7.58530622       7.38060000              inf       0.00000000       0.00000000       0.00000000 s 
O       15.33164480      10.19516038       7.38060000       9.59992618       0.00012054       0.00000000       0.00000000 s 
O       13.82492014      12.80488404       7.38060000       8.05692530       0.00019588      -0.00013049       0.00000000 s 
O       12.31809000      15.41479039       7.38060000       7.47203194       0.00016575      -0.00007830       0.00000000 s 
O       10.81125986      18.02469675       7.38060000       8.05684639       0.00013561      -0.00002610       0.00000000 s 
O        9.30441466      20.63452481       7.38060000       9.59493571       0.00009041      -0.00005220       0.00000000 s 
O        7.79758452      23.24443116       7.38060000      10.92142458       0.00006027       0.00000000       0.00000000 s 
O        6.29072425      25.85428532       7.38060000              inf       0.00000000       0.00000000       0.00000000 s 
O        4.78392425      28.46413947       7.38060000              inf       0.00000000       0.00000000       0.00000000 s 
O        3.27712425      31.07399363       7.38060000              inf       0.00000000       0.00000000       0.00000000 s 
O       22.86552425       2.36559791       7.38060000              inf       0.00000000       0.00000000       0.00000000 s 
O       21.35872425       4.97545206       7.38060000              inf       0.00000000       0.00000000       0.00000000 s 
O       19.85192425       7.58530622       7.38060000              inf       0.00000000       0.00000000       0.00000000 s 
O       18.34530507      10.19516038       7.38060000       9.11466238       0.00018082       0.00000000       0.00000000 s 
O       16.83858041      12.80488404       7.38060000       6.83747177       0.00025616      -0.00013049       0.00000000 s 
O       15.33175027      15.41479039       7.38060000       5.34659593       0.00022602      -0.00007830       0.00000000 s 
O       13.82492014      18.02469675       7.38060000       5.34653648       0.00019588      -0.00002610       0.00000000 s 
O       12.31819548      20.63442041       7.38060000       6.83719284       0.00027122      -0.00015659       0.00000000 s 
O       10.81136534      23.24432677       7.38060000       9.11448801       0.00024109      -0.00010439       0.00000000 s 
O        9.30453520      25.85423312       7.38060000      11.72880530       0.00021095      -0.00005220       0.00000000 s 
O        7.79752425      28.46413947       7.38060000              inf       0.00000000       0.00000000       0.00000000 s 
O        6.29072425      31.07399363       7.38060000              inf       0.00000000       0.00000000       0.00000000 s 
O       25.87912425       2.36559791       7.38060000              inf       0.00000000       0.00000000       0.00000000 s 
O       24.37232425       4.97545206       7.38060000              inf       0.00000000       0.00000000       0.00000000 s 
O       22.86552425       7.58530622       7.38060000              inf       0.00000000       0.00000000       0.00000000 s 
O       21.35875439      10.19516038       7.38060000       9.59992618       0.00003014       0.00000000       0.00000000 s 
O       19.85202973      12.80488404       7.38060000       6.83751826       0.00010548      -0.00013049       0.00000000 s 
O       18.34519959      15.41479039       7.38060000       4.41647045       0.00007534      -0.00007830       0.00000000 s 
O       16.83836946      18.02469675       7.38060000       3.22847688       0.00004520      -0.00002610       0.00000000 s 
O       15.33164480      20.63442041       7.38060000       4.41632651       0.00012054      -0.00015659       0.00000000 s 
O       13.82481466      23.24432677       7.38060000       6.83733230       0.00009041      -0.00010439       0.00000000 s 
O       12.31798452      25.85423312       7.38060000       9.59992618       0.00006027      -0.00005220       0.00000000 s 
O       10.81112425      28.46413947       7.38060000              inf       0.00000000       0.00000000       0.00000000 s 
O        9.30432425      31.07399363       7.38060000              inf       0.00000000       0.00000000       0.00000000 s 
O       28.89272425       2.36559791       7.38060000              inf       0.00000000       0.00000000       0.00000000 s 
O       27.38592425       4.97545206       7.38060000              inf       0.00000000       0.00000000       0.00000000 s 
O       25.87912425       7.58530622       7.38060000              inf       0.00000000       0.00000000       0.00000000 s 
O       24.37241466      10.19516038       7.38060000      10.92723166       0.00009041       0.00000000       0.00000000 s 
O       22.86569000      12.80488404       7.38060000       8.05704365       0.00016575      -0.00013049       0.00000000 s 
O       21.35885986      15.41479039       7.38060000       5.34671483       0.00013561      -0.00007830       0.00000000 s 
O       19.85202973      18.02469675       7.38060000       3.22847688       0.00010548      -0.00002610       0.00000000 s 
O       18.34530507      20.63442041       7.38060000       3.22837843       0.00018082      -0.00015659       0.00000000 s 
O       16.83847493      23.24432677       7.38060000       5.34653648       0.00015068      -0.00010439       0.00000000 s 
O       15.33164480      25.85423312       7.38060000       8.05684639       0.00012054      -0.00005220       0.00000000 s 
O       13.82472425      28.46413947       7.38060000              inf       0.00000000       0.00000000       0.00000000 s 
O       12.31792425      31.07399363       7.38060000              inf       0.00000000       0.00000000       0.00000000 s 
O       31.90632425       2.36559791       7.38060000              inf       0.00000000       0.00000000       0.00000000 s 
O       30.39952425       4.97545206       7.38060000              inf       0.00000000       0.00000000       0.00000000 s 
O       28.89272425       7.58530622       7.38060000              inf       0.00000000       0.00000000       0.00000000 s 
O       27.38592425      10.19516038       7.38060000              inf       0.00000000       0.00000000       0.00000000 s 
O       25.87935027      12.80488404       7.38060000      10.06203485       0.00022602      -0.00013049       0.00000000 s 
O       24.37252014      15.41479039       7.38060000       7.47220210       0.00019588      -0.00007830       0.00000000 s 
O       22.86569000      18.02469675       7.38060000       5.34671483       0.00016575      -0.00002610       0.00000000 s 
O       21.35896534      20.63442041       7.38060000       4.41647045       0.00024109      -0.00015659       0.00000000 s 
O       19.85213520      23.24432677       7.38060000       5.34659593       0.00021095      -0.00010439       0.00000000 s 
O       18.34530507      25.85423312       7.38060000       7.47203194       0.00018082      -0.00005220       0.00000000 s 
O       16.83847493      28.46413947       7.38060000      10.06184531       0.00015068       0.00000000       0.00000000 s 
O       15.33152425      31.07399363       7.38060000              inf       0.00000000       0.00000000       0.00000000 s 
Cu      18.34519959      18.89466553      10.10010000       0.00000000       0.00000000       0.00000000       0.00000000 a1
N        3.24713893       7.95402642      10.10010000       0.00000000       0.00000000       0.00000000       0.00000000 a2
H        1.17559029       8.05012125      10.10010000       0.00000000       0.00000000       0.00000000       0.00000000 a2
H        5.32237923       8.02034281      10.10010000       0.00000000       0.00000000       0.00000000       0.00000000 a2
C        2.10188052       8.63034402      10.10010000       0.00000000       0.00000000       0.00000000       0.00000000 a2
C        4.40505446       8.61353656      10.10010000       0.00000000       0.00000000       0.00000000       0.00000000 a2
C        2.06622964      10.03413238      10.10010000       0.00000000       0.00000000       0.00000000       0.00000000 a2
C        4.46158960      10.01367112      10.10010000       0.00000000       0.00000000       0.00000000       0.00000000 a2
H        1.08751783      10.50857776      10.10010000       0.00000000       0.00000000       0.00000000       0.00000000 a2
C        3.26760128      10.77146837      10.10010000       0.00000000       0.00000000       0.00000000       0.00000000 a2
H        5.44821210      10.47331863      10.10010000       0.00000000       0.00000000       0.00000000       0.00000000 a2
C        3.27709412      12.25162106      10.10010000       0.00000000       0.00000000       0.00000000       0.00000000 a2
H        1.13013014      12.44362803      10.10010000       0.00000000       0.00000000       0.00000000       0.00000000 a2
H        5.42353072      12.42517636      10.10010000       0.00000000       0.00000000       0.00000000       0.00000000 a2
C        2.07013225      12.98512057      10.10010000       0.00000000       0.00000000       0.00000000       0.00000000 a2
C        4.48648193      12.97178421      10.10010000       0.00000000       0.00000000       0.00000000       0.00000000 a2
H       -0.57119774      13.40567247      10.10010000       0.00000000       0.00000000       0.00000000       0.00000000 a2
H        7.13340215      13.38119204      10.10010000       0.00000000       0.00000000       0.00000000       0.00000000 a2
C       -0.47637482      14.48810948      10.10010000       0.00000000       0.00000000       0.00000000       0.00000000 a2
C        2.04840419      14.38817816      10.10010000       0.00000000       0.00000000       0.00000000       0.00000000 a2
C        4.51601521      14.37995712      10.10010000       0.00000000       0.00000000       0.00000000       0.00000000 a2
C        7.04121613      14.46527326      10.10010000       0.00000000       0.00000000       0.00000000       0.00000000 a2
H       -2.63314807      14.74643284      10.10010000       0.00000000       0.00000000       0.00000000       0.00000000 a2
C        0.77457054      15.14177355      10.10010000       0.00000000       0.00000000       0.00000000       0.00000000 a2
C       -1.65865530      15.23805107      10.10010000       0.00000000       0.00000000       0.00000000       0.00000000 a2
C        3.28616505      15.06248618      10.10010000       0.00000000       0.00000000       0.00000000       0.00000000 a2
C        5.79681028      15.12186036      10.10010000       0.00000000       0.00000000       0.00000000       0.00000000 a2
H        9.20284127      14.71665441      10.10010000       0.00000000       0.00000000       0.00000000       0.00000000 a2
C        8.22866494      15.21320526      10.10010000       0.00000000       0.00000000       0.00000000       0.00000000 a2
N       -1.64652556      16.57040772      10.10010000       0.00000000       0.00000000       0.00000000       0.00000000 a2
C        0.74176750      16.54939839      10.10010000       0.00000000       0.00000000       0.00000000       0.00000000 a2
H        3.29101695      16.14729816      10.10010000       0.00000000       0.00000000       0.00000000       0.00000000 a2
C        5.83551997      16.53460052      10.10010000       0.00000000       0.00000000       0.00000000       0.00000000 a2
N        8.22244185      16.54227349      10.10010000       0.00000000       0.00000000       0.00000000       0.00000000 a2
C       -0.49019218      17.22206220      10.10010000       0.00000000       0.00000000       0.00000000       0.00000000 a2
C        7.06663584      17.20287977      10.10010000       0.00000000       0.00000000       0.00000000       0.00000000 a2
H        1.64369278      17.15720733      10.10010000       0.00000000       0.00000000       0.00000000       0.00000000 a2
H        4.93570422      17.14423635      10.10010000       0.00000000       0.00000000       0.00000000       0.00000000 a2
H       -0.53174972      18.31527791      10.10010000       0.00000000       0.00000000       0.00000000       0.00000000 a2
H        7.11357266      18.29372052      10.10010000       0.00000000       0.00000000       0.00000000       0.00000000 a2
