222
Lattice="36.16319999999999 0.0 0.0 -18.081599999999995 31.318249882114287 0.0 0.0 0.0 30.0" Properties=species:S:1:pos:R:3:remoteness:R:1:shift:R:3:adsorption:S:1 size="_JSON [[12, 0], [0, 12]]" mass_center_dist=9.213229544019757 min_atom_dist=0.5969362453664072 s1=tpb_hollow_up s2=tpb_hollow_up s1idx=8 s2idx=9 pbc="T T T"
O       -1.24327575       2.36559791       7.38060000              inf       0.00000000       0.00000000       0.00000000 s 
O       -2.75007575       4.97545206       7.38060000              inf       0.00000000       0.00000000       0.00000000 s 
O       -4.25687575       7.58530622       7.38060000              inf       0.00000000       0.00000000       0.00000000 s 
O       -5.76367575      10.19516038       7.38060000              inf       0.00000000       0.00000000       0.00000000 s 
O       -7.27047575      12.80501453       7.38060000              inf       0.00000000       0.00000000       0.00000000 s 
O       -8.77727575      15.41486869       7.38060000              inf       0.00000000       0.00000000       0.00000000 s 
O      -10.28400041      18.02469675       7.38060000      10.92687277       0.00007534      -0.00002610       0.00000000 s 
O      -11.79072507      20.63442041       7.38060000       9.59794003       0.00015068      -0.00015659       0.00000000 s 
O      -13.29755520      23.24432677       7.38060000       9.11076881       0.00012054      -0.00010439       0.00000000 s 
O      -14.80438534      25.85423312       7.38060000       9.59458494       0.00009041      -0.00005220       0.00000000 s 
O      -16.31121548      28.46413947       7.38060000      10.92109467       0.00006027       0.00000000       0.00000000 s 
O      -17.81807575      31.07399363       7.38060000              inf       0.00000000       0.00000000       0.00000000 s 
O        1.77032425       2.36559791       7.38060000              inf       0.00000000       0.00000000       0.00000000 s 
O        0.26352425       4.97545206       7.38060000              inf       0.00000000       0.00000000       0.00000000 s 
O       -1.24327575       7.58530622       7.38060000              inf       0.00000000       0.00000000       0.00000000 s 
O       -2.75007575      10.19516038       7.38060000              inf       0.00000000       0.00000000       0.00000000 s 
O       -4.25672507      12.80517112       7.38060000      11.72561138       0.00015068       0.00015659       0.00000000 s 
O       -5.76367575      15.41486869       7.38060000              inf       0.00000000       0.00000000       0.00000000 s 
O       -7.27047575      18.02472285       7.38060000              inf       0.00000000       0.00000000       0.00000000 s 
O       -8.77727575      20.63457700       7.38060000              inf       0.00000000       0.00000000       0.00000000 s 
O      -10.28389493      23.24432677       7.38060000      11.72573407       0.00018082      -0.00010439       0.00000000 s 
O      -11.79072507      25.85423312       7.38060000      11.72436111       0.00015068      -0.00005220       0.00000000 s 
O      -13.29767575      28.46413947       7.38060000              inf       0.00000000       0.00000000       0.00000000 s 
O      -14.80447575      31.07399363       7.38060000              inf       0.00000000       0.00000000       0.00000000 s 
O        4.78392425       2.36559791       7.38060000              inf       0.00000000       0.00000000       0.00000000 s 
O        3.27712425       4.97545206       7.38060000              inf       0.00000000       0.00000000       0.00000000 s 
O        1.77032425       7.58530622       7.38060000              inf       0.00000000       0.00000000       0.00000000 s 
O        0.26376534      10.19526477       7.38060000       9.59946726       0.00024109       0.00010439       0.00000000 s 
O       -1.24306480      12.80517112       7.38060000       9.11210956       0.00021095       0.00015659       0.00000000 s 
O       -2.75000041      15.41489479       7.38060000       9.59573599       0.00007534       0.00002610       0.00000000 s 
O       -4.25683054      18.02480114       7.38060000      10.92185311       0.00004520       0.00007830       0.00000000 s 
O       -5.76367575      20.63457700       7.38060000              inf       0.00000000       0.00000000       0.00000000 s 
O       -7.27047575      23.24443116       7.38060000              inf       0.00000000       0.00000000       0.00000000 s 
O       -8.77727575      25.85428532       7.38060000              inf       0.00000000       0.00000000       0.00000000 s 
O      -10.28407575      28.46413947       7.38060000              inf       0.00000000       0.00000000       0.00000000 s 
O      -11.79087575      31.07399363       7.38060000              inf       0.00000000       0.00000000       0.00000000 s 
O        7.79752425       2.36559791       7.38060000              inf       0.00000000       0.00000000       0.00000000 s 
O        6.29072425       4.97545206       7.38060000              inf       0.00000000       0.00000000       0.00000000 s 
O        4.78404480       7.58535842       7.38060000      10.06494431       0.00012054       0.00005220       0.00000000 s 
O        3.27721466      10.19526477       7.38060000       8.05841572       0.00009041       0.00010439       0.00000000 s 
O        1.77059548      12.80517112       7.38060000       6.83633055       0.00027122       0.00015659       0.00000000 s 
O        0.26365986      15.41489479       7.38060000       6.83375739       0.00013561       0.00002610       0.00000000 s 
O       -1.24317027      18.02480114       7.38060000       8.05151029       0.00010548       0.00007830       0.00000000 s 
O       -2.75000041      20.63470750       7.38060000      10.05572933       0.00007534       0.00013049       0.00000000 s 
O       -4.25672507      23.24443116       7.38060000      12.47270683       0.00015068      -0.00000000       0.00000000 s 
O       -5.76367575      25.85428532       7.38060000              inf       0.00000000       0.00000000       0.00000000 s 
O       -7.27047575      28.46413947       7.38060000              inf       0.00000000       0.00000000       0.00000000 s 
O       -8.77727575      31.07399363       7.38060000              inf       0.00000000       0.00000000       0.00000000 s 
O       10.81112425       2.36559791       7.38060000              inf       0.00000000       0.00000000       0.00000000 s 
O        9.30432425       4.97545206       7.38060000              inf       0.00000000       0.00000000       0.00000000 s 
O        7.79770507       7.58535842       7.38060000      10.06654360       0.00018082       0.00005220       0.00000000 s 
O        6.29087493      10.19526477       7.38060000       7.47583520       0.00015068       0.00010439       0.00000000 s 
O        4.78404480      12.80517112       7.38060000       5.34838481       0.00012054       0.00015659       0.00000000 s 
O        3.27732014      15.41489479       7.38060000       4.41436602       0.00019588       0.00002610       0.00000000 s 
O        1.77049000      18.02480114       7.38060000       5.34144709       0.00016575       0.00007830       0.00000000 s 
O        0.26365986      20.63470750       7.38060000       7.46590806       0.00013561       0.00013049       0.00000000 s 
O       -1.24327575      23.24443116       7.38060000      10.05545476       0.00000000       0.00000000       0.00000000 s 
O       -2.75007575      25.85428532       7.38060000              inf       0.00000000       0.00000000       0.00000000 s 
O       -4.25687575      28.46413947       7.38060000              inf       0.00000000       0.00000000       0.00000000 s 
O       -5.76367575      31.07399363       7.38060000              inf       0.00000000       0.00000000       0.00000000 s 
O       13.82472425       2.36559791       7.38060000              inf       0.00000000       0.00000000       0.00000000 s 
O       12.31792425       4.97545206       7.38060000              inf       0.00000000       0.00000000       0.00000000 s 
O       10.81112425       7.58530622       7.38060000              inf       0.00000000       0.00000000       0.00000000 s 
O        9.30453520      10.19526477       7.38060000       8.06241008       0.00021095       0.00010439       0.00000000 s 
O        7.79770507      12.80517112       7.38060000       5.35139386       0.00018082       0.00015659       0.00000000 s 
O        6.29076946      15.41489479       7.38060000       3.23068240       0.00004520       0.00002610       0.00000000 s 
O        4.78415027      18.02480114       7.38060000       3.22483991       0.00022602       0.00007830       0.00000000 s 
O        3.27732014      20.63470750       7.38060000       5.34098964       0.00019588       0.00013049       0.00000000 s 
O        1.77038452      23.24443116       7.38060000       8.05082441       0.00006027      -0.00000000       0.00000000 s 
O        0.26355439      25.85433752       7.38060000      10.92109467       0.00003014       0.00005220       0.00000000 s 
O       -1.24327575      28.46413947       7.38060000              inf       0.00000000       0.00000000       0.00000000 s 
O       -2.75007575      31.07399363       7.38060000              inf       0.00000000       0.00000000       0.00000000 s 
O       16.83832425       2.36559791       7.38060000              inf       0.00000000       0.00000000       0.00000000 s 
O       15.33152425       4.97545206       7.38060000              inf       0.00000000       0.00000000       0.00000000 s 
O       13.82472425       7.58530622       7.38060000              inf       0.00000000       0.00000000       0.00000000 s 
O       12.31804480      10.19516038       7.38060000       9.60617260       0.00012054       0.00000000       0.00000000 s 
O       10.81136534      12.80517112       7.38060000       6.84353045       0.00024109       0.00015659       0.00000000 s 
O        9.30442973      15.41489479       7.38060000       4.42165326       0.00010548       0.00002610       0.00000000 s 
O        7.79759959      18.02480114       7.38060000       3.22982762       0.00007534       0.00007830       0.00000000 s 
O        6.29098041      20.63470750       7.38060000       4.41325890       0.00025616       0.00013049       0.00000000 s 
O        4.78404480      23.24443116       7.38060000       6.83254516       0.00012054      -0.00000000       0.00000000 s 
O        3.27721466      25.85433751       7.38060000       9.59458494       0.00009041       0.00005220       0.00000000 s 
O        1.77032425      28.46413947       7.38060000              inf       0.00000000       0.00000000       0.00000000 s 
O        0.26352425      31.07399363       7.38060000              inf       0.00000000       0.00000000       0.00000000 s 
O       19.85192425       2.36559791       7.38060000              inf       0.00000000       0.00000000       0.00000000 s 
O       18.34512425       4.97545206       7.38060000              inf       0.00000000       0.00000000       0.00000000 s 
O       16.83832425       7.58530622       7.38060000              inf       0.00000000       0.00000000       0.00000000 s 
O       15.33170507      10.19516038       7.38060000       9.12093840       0.00018082       0.00000000       0.00000000 s 
O       13.82498041      12.80488404       7.38060000       6.84353045       0.00025616      -0.00013049       0.00000000 s 
O       12.31815027      15.41479039       7.38060000       5.35139386       0.00022602      -0.00007830       0.00000000 s 
O       10.81132014      18.02469675       7.38060000       5.34838481       0.00019588      -0.00002610       0.00000000 s 
O        9.30442973      20.63470750       7.38060000       5.34701417       0.00010548       0.00013049       0.00000000 s 
O        7.79770507      23.24443116       7.38060000       6.83490085       0.00018082      -0.00000000       0.00000000 s 
O        6.29087493      25.85433751       7.38060000       9.11076881       0.00015068       0.00005220       0.00000000 s 
O        4.78404480      28.46424387       7.38060000      11.72436111       0.00012054       0.00010439       0.00000000 s 
O        3.27712425      31.07399363       7.38060000              inf       0.00000000       0.00000000       0.00000000 s 
O       22.86552425       2.36559791       7.38060000              inf       0.00000000       0.00000000       0.00000000 s 
O       21.35872425       4.97545206       7.38060000              inf       0.00000000       0.00000000       0.00000000 s 
O       19.85192425       7.58530622       7.38060000              inf       0.00000000       0.00000000       0.00000000 s 
O       18.34515439      10.19516038       7.38060000       9.60559773       0.00003014       0.00000000       0.00000000 s 
O       16.83842973      12.80488404       7.38060000       6.84317344       0.00010548      -0.00013049       0.00000000 s 
O       15.33159959      15.41479039       7.38060000       4.42165326       0.00007534      -0.00007830       0.00000000 s 
O       13.82476946      18.02469675       7.38060000       3.23068240       0.00004520      -0.00002610       0.00000000 s 
O       12.31804480      20.63442041       7.38060000       4.41436602       0.00012054      -0.00015659       0.00000000 s 
O       10.81121466      23.24432677       7.38060000       6.83375739       0.00009041      -0.00010439       0.00000000 s 
O        9.30438452      25.85423312       7.38060000       9.59573599       0.00006027      -0.00005220       0.00000000 s 
O        7.79770507      28.46424387       7.38060000      11.72573407       0.00018082       0.00010439       0.00000000 s 
O        6.29072425      31.07399363       7.38060000              inf       0.00000000       0.00000000       0.00000000 s 
O       25.87912425       2.36559791       7.38060000              inf       0.00000000       0.00000000       0.00000000 s 
O       24.37232425       4.97545206       7.38060000              inf       0.00000000       0.00000000       0.00000000 s 
O       22.86552425       7.58530622       7.38060000              inf       0.00000000       0.00000000       0.00000000 s 
O       21.35872425      10.19516038       7.38060000              inf       0.00000000       0.00000000       0.00000000 s 
O       19.85209000      12.80488404       7.38060000       8.06150091       0.00016575      -0.00013049       0.00000000 s 
O       18.34525986      15.41479039       7.38060000       5.35048067       0.00013561      -0.00007830       0.00000000 s 
O       16.83842973      18.02469675       7.38060000       3.22982762       0.00010548      -0.00002610       0.00000000 s 
O       15.33170507      20.63442041       7.38060000       3.22483991       0.00018082      -0.00015659       0.00000000 s 
O       13.82487493      23.24432677       7.38060000       5.34144709       0.00015068      -0.00010439       0.00000000 s 
O       12.31804480      25.85423312       7.38060000       8.05151029       0.00012054      -0.00005220       0.00000000 s 
O       10.81121466      28.46413947       7.38060000      10.92185311       0.00009041       0.00000000       0.00000000 s 
O        9.30432425      31.07399363       7.38060000              inf       0.00000000       0.00000000       0.00000000 s 
O       28.89272425       2.36559791       7.38060000              inf       0.00000000       0.00000000       0.00000000 s 
O       27.38592425       4.97545206       7.38060000              inf       0.00000000       0.00000000       0.00000000 s 
O       25.87912425       7.58530622       7.38060000              inf       0.00000000       0.00000000       0.00000000 s 
O       24.37232425      10.19516038       7.38060000              inf       0.00000000       0.00000000       0.00000000 s 
O       22.86575027      12.80488404       7.38060000      10.06532997       0.00022602      -0.00013049       0.00000000 s 
O       21.35892014      15.41479039       7.38060000       7.47452780       0.00019588      -0.00007830       0.00000000 s 
O       19.85209000      18.02469675       7.38060000       5.34701417       0.00016575      -0.00002610       0.00000000 s 
O       18.34536534      20.63442041       7.38060000       4.41325890       0.00024109      -0.00015659       0.00000000 s 
O       16.83853520      23.24432677       7.38060000       5.34098964       0.00021095      -0.00010439       0.00000000 s 
O       15.33170507      25.85423312       7.38060000       7.46590806       0.00018082      -0.00005220       0.00000000 s 
O       13.82487493      28.46413947       7.38060000      10.05572933       0.00015068       0.00000000       0.00000000 s 
O       12.31792425      31.07399363       7.38060000              inf       0.00000000       0.00000000       0.00000000 s 
O       31.90632425       2.36559791       7.38060000              inf       0.00000000       0.00000000       0.00000000 s 
O       30.39952425       4.97545206       7.38060000              inf       0.00000000       0.00000000       0.00000000 s 
O       28.89272425       7.58530622       7.38060000              inf       0.00000000       0.00000000       0.00000000 s 
O       27.38592425      10.19516038       7.38060000              inf       0.00000000       0.00000000       0.00000000 s 
O       25.87912425      12.80501453       7.38060000              inf       0.00000000       0.00000000       0.00000000 s 
O       24.37236946      15.41479039       7.38060000      10.06329820       0.00004520      -0.00007830       0.00000000 s 
O       22.86553932      18.02469675       7.38060000       8.05670236       0.00001507      -0.00002610       0.00000000 s 
O       21.35881466      20.63442041       7.38060000       6.83490085       0.00009041      -0.00015659       0.00000000 s 
O       19.85198452      23.24432677       7.38060000       6.83254516       0.00006027      -0.00010439       0.00000000 s 
O       18.34515439      25.85423312       7.38060000       8.05082441       0.00003014      -0.00005220       0.00000000 s 
O       16.83832425      28.46413947       7.38060000      10.05545476       0.00000000       0.00000000       0.00000000 s 
O       15.33159959      31.07386314       7.38060000      12.47270683       0.00007534      -0.00013049       0.00000000 s 
N       15.36334787      24.62838462      10.10010000       0.00000000       0.00000000       0.00000000       0.00000000 a1
H       17.43468556      24.53228979      10.10010000       0.00000000       0.00000000       0.00000000       0.00000000 a1
H       13.28810757      24.56206823      10.10010000       0.00000000       0.00000000       0.00000000       0.00000000 a1
C       16.50860628      23.95206702      10.10010000       0.00000000       0.00000000       0.00000000       0.00000000 a1
C       14.20511591      23.96905717      10.10010000       0.00000000       0.00000000       0.00000000       0.00000000 a1
C       16.54394074      22.54846135      10.10010000       0.00000000       0.00000000       0.00000000       0.00000000 a1
C       14.14879173      22.56892261      10.10010000       0.00000000       0.00000000       0.00000000       0.00000000 a1
H       17.52286349      22.07401597      10.10010000       0.00000000       0.00000000       0.00000000       0.00000000 a1
C       15.34278005      21.81112536      10.10010000       0.00000000       0.00000000       0.00000000       0.00000000 a1
H       13.16216922      22.10927510      10.10010000       0.00000000       0.00000000       0.00000000       0.00000000 a1
C       15.33318173      20.33078998      10.10010000       0.00000000       0.00000000       0.00000000       0.00000000 a1
H       17.48035666      20.13878301      10.10010000       0.00000000       0.00000000       0.00000000       0.00000000 a1
H       13.18674513      20.15723468      10.10010000       0.00000000       0.00000000       0.00000000       0.00000000 a1
C       16.54024908      19.59747316      10.10010000       0.00000000       0.00000000       0.00000000       0.00000000 a1
C       14.12400487      19.61062682      10.10010000       0.00000000       0.00000000       0.00000000       0.00000000 a1
H       19.18136812      19.17692126      10.10010000       0.00000000       0.00000000       0.00000000       0.00000000 a1
H       11.47676822      19.20140169      10.10010000       0.00000000       0.00000000       0.00000000       0.00000000 a1
C       19.08686162      18.09430156      10.10010000       0.00000000       0.00000000       0.00000000       0.00000000 a1
C       16.56197713      18.19441556      10.10010000       0.00000000       0.00000000       0.00000000       0.00000000 a1
C       14.09426064      18.20245392      10.10010000       0.00000000       0.00000000       0.00000000       0.00000000 a1
C       11.56916520      18.11732047      10.10010000       0.00000000       0.00000000       0.00000000       0.00000000 a1
H       21.24352939      17.83616088      10.10010000       0.00000000       0.00000000       0.00000000       0.00000000 a1
C       17.83581078      17.44082018      10.10010000       0.00000000       0.00000000       0.00000000       0.00000000 a1
C       20.26914210      17.34435997      10.10010000       0.00000000       0.00000000       0.00000000       0.00000000 a1
C       15.32421627      17.52010755      10.10010000       0.00000000       0.00000000       0.00000000       0.00000000 a1
C       12.81357104      17.46073336      10.10010000       0.00000000       0.00000000       0.00000000       0.00000000 a1
H        9.40764553      17.86575663      10.10010000       0.00000000       0.00000000       0.00000000       0.00000000 a1
C       10.38161091      17.36920578      10.10010000       0.00000000       0.00000000       0.00000000       0.00000000 a1
N       20.25690689      16.01218601      10.10010000       0.00000000       0.00000000       0.00000000       0.00000000 a1
C       17.86861382      16.03319534      10.10010000       0.00000000       0.00000000       0.00000000       0.00000000 a1
H       15.31946985      16.43511288      10.10010000       0.00000000       0.00000000       0.00000000       0.00000000 a1
C       12.77465040      16.04799321      10.10010000       0.00000000       0.00000000       0.00000000       0.00000000 a1
N       10.38793947      16.04032024      10.10010000       0.00000000       0.00000000       0.00000000       0.00000000 a1
C       19.10036255      15.36053153      10.10010000       0.00000000       0.00000000       0.00000000       0.00000000 a1
C       11.54385096      15.37953127      10.10010000       0.00000000       0.00000000       0.00000000       0.00000000 a1
H       16.96668854      15.42538640      10.10010000       0.00000000       0.00000000       0.00000000       0.00000000 a1
H       13.67446616      15.43835738      10.10010000       0.00000000       0.00000000       0.00000000       0.00000000 a1
H       19.14213104      14.26731582      10.10010000       0.00000000       0.00000000       0.00000000       0.00000000 a1
H       11.49659771      14.28887321      10.10010000       0.00000000       0.00000000       0.00000000       0.00000000 a1
N        1.34109720      20.04918672      10.10010000       0.00000000       0.00000000       0.00000000       0.00000000 a2
H        2.45998661      21.79497036      10.10010000       0.00000000       0.00000000       0.00000000       0.00000000 a2
H        0.36090874      18.21881770      10.10010000       0.00000000       0.00000000       0.00000000       0.00000000 a2
C        2.49943464      20.70285079      10.10010000       0.00000000       0.00000000       0.00000000       0.00000000 a2
C        1.33297555      18.71646469      10.10010000       0.00000000       0.00000000       0.00000000       0.00000000 a2
C        3.73266003      20.03164850      10.10010000       0.00000000       0.00000000       0.00000000       0.00000000 a2
C        2.51736556      17.96761924      10.10010000       0.00000000       0.00000000       0.00000000       0.00000000 a2
H        4.63300316      20.64219778      10.10010000       0.00000000       0.00000000       0.00000000       0.00000000 a2
C        3.77063139      18.62274483      10.10010000       0.00000000       0.00000000       0.00000000       0.00000000 a2
H        2.42212073      16.88335533      10.10010000       0.00000000       0.00000000       0.00000000       0.00000000 a2
C        5.04784027      17.87426476      10.10010000       0.00000000       0.00000000       0.00000000       0.00000000 a2
H        6.28771065      19.63776931      10.10010000       0.00000000       0.00000000       0.00000000       0.00000000 a2
H        4.12492527      15.92861848      10.10010000       0.00000000       0.00000000       0.00000000       0.00000000 a2
C        6.28644494      18.55295733      10.10010000       0.00000000       0.00000000       0.00000000       0.00000000 a2
C        5.06693143      16.46700530      10.10010000       0.00000000       0.00000000       0.00000000       0.00000000 a2
H        7.97121309      20.62995756      10.10010000       0.00000000       0.00000000       0.00000000       0.00000000 a2
H        4.09771246      13.96981854      10.10010000       0.00000000       0.00000000       0.00000000       0.00000000 a2
C        8.86153600      20.00680269      10.10010000       0.00000000       0.00000000       0.00000000       0.00000000 a2
C        7.51239249      17.87024558      10.10010000       0.00000000       0.00000000       0.00000000       0.00000000 a2
C        6.27157282      15.73715958      10.10010000       0.00000000       0.00000000       0.00000000       0.00000000 a2
C        5.08275283      13.50779606      10.10010000       0.00000000       0.00000000       0.00000000       0.00000000 a2
H       10.16342627      21.74546143      10.10010000       0.00000000       0.00000000       0.00000000       0.00000000 a2
C        8.80194206      18.59662019      10.10010000       0.00000000       0.00000000       0.00000000       0.00000000 a2
C       10.10214472      20.65571682      10.10010000       0.00000000       0.00000000       0.00000000       0.00000000 a2
C        7.47747993      16.46115922      10.10010000       0.00000000       0.00000000       0.00000000       0.00000000 a2
C        6.27357687      14.25718958      10.10010000       0.00000000       0.00000000       0.00000000       0.00000000 a2
H        4.21985367      11.51008320      10.10010000       0.00000000       0.00000000       0.00000000       0.00000000 a2
C        5.13686202      12.10528654      10.10010000       0.00000000       0.00000000       0.00000000       0.00000000 a2
N       11.24972360      19.97903384      10.10010000       0.00000000       0.00000000       0.00000000       0.00000000 a2
C       10.03738245      17.92121603      10.10010000       0.00000000       0.00000000       0.00000000       0.00000000 a2
H        8.41473967      15.91455137      10.10010000       0.00000000       0.00000000       0.00000000       0.00000000 a2
C        7.47758541      13.51711324      10.10010000       0.00000000       0.00000000       0.00000000       0.00000000 a2
N        6.29087493      11.44632446      10.10010000       0.00000000       0.00000000       0.00000000       0.00000000 a2
C       11.23580076      18.65160982      10.10010000       0.00000000       0.00000000       0.00000000       0.00000000 a2
C        7.44109071      12.11697868      10.10010000       0.00000000       0.00000000       0.00000000       0.00000000 a2
H       10.11279779      16.83622136      10.10010000       0.00000000       0.00000000       0.00000000       0.00000000 a2
H        8.45545340      13.99155863      10.10010000       0.00000000       0.00000000       0.00000000       0.00000000 a2
H       12.20343759      18.14117454      10.10010000       0.00000000       0.00000000       0.00000000       0.00000000 a2
H        8.36200167      11.53072714      10.10010000       0.00000000       0.00000000       0.00000000       0.00000000 a2
