222
Lattice="36.16319999999999 0.0 0.0 -18.081599999999995 31.318249882114287 0.0 0.0 0.0 30.0" Properties=species:S:1:pos:R:3:remoteness:R:1:shift:R:3:adsorption:S:1 size="_JSON [[12, 0], [0, 12]]" mass_center_dist=16.783191280219643 min_atom_dist=4.768509092783855 s1=tpb_atop s2=tpb_atop s1idx=4 s2idx=5 pbc="T T T"
O       -1.24327575       2.36559791       7.38060000              inf       0.00000000       0.00000000       0.00000000 s 
O       -2.75007575       4.97545206       7.38060000              inf       0.00000000       0.00000000       0.00000000 s 
O       -4.25687575       7.58530622       7.38060000              inf       0.00000000       0.00000000       0.00000000 s 
O       -5.76367575      10.19516038       7.38060000              inf       0.00000000       0.00000000       0.00000000 s 
O       -7.27032507      12.80506673       7.38060000      11.19620674       0.00015068       0.00005220       0.00000000 s 
O       -8.77715520      15.41497308       7.38060000      10.78153931       0.00012054       0.00010439       0.00000000 s 
O      -10.28398534      18.02456626       7.38060000       9.44380483       0.00009041      -0.00015659       0.00000000 s 
O      -11.79081548      20.63447261       7.38060000       8.42447540       0.00006027      -0.00010439       0.00000000 s 
O      -13.29764561      23.24437896       7.38060000       8.42154489       0.00003014      -0.00005220       0.00000000 s 
O      -14.80447575      25.85428532       7.38060000       9.43596033       0.00000000       0.00000000       0.00000000 s 
O      -16.31120041      28.46400898       7.38060000      11.19434668       0.00007534      -0.00013049       0.00000000 s 
O      -17.81807575      31.07399363       7.38060000              inf       0.00000000       0.00000000       0.00000000 s 
O        1.77032425       2.36559791       7.38060000              inf       0.00000000       0.00000000       0.00000000 s 
O        0.26352425       4.97545206       7.38060000              inf       0.00000000       0.00000000       0.00000000 s 
O       -1.24327575       7.58530622       7.38060000              inf       0.00000000       0.00000000       0.00000000 s 
O       -2.75004561      10.19516038       7.38060000      11.19992230       0.00003014       0.00000000       0.00000000 s 
O       -4.25666480      12.80506673       7.38060000       9.43806608       0.00021095       0.00005220       0.00000000 s 
O       -5.76349493      15.41497308       7.38060000       8.41911442       0.00018082       0.00010439       0.00000000 s 
O       -7.27032507      18.02487944       7.38060000       8.41725492       0.00015068       0.00015659       0.00000000 s 
O       -8.77726068      20.63460310       7.38060000       9.43319010       0.00001507       0.00002610       0.00000000 s 
O      -10.28398534      23.24437896       7.38060000      10.78656332       0.00009041      -0.00005220       0.00000000 s 
O      -11.79081548      25.85428532       7.38060000      11.19744297       0.00006027       0.00000000       0.00000000 s 
O      -13.29767575      28.46413947       7.38060000              inf       0.00000000       0.00000000       0.00000000 s 
O      -14.80447575      31.07399363       7.38060000              inf       0.00000000       0.00000000       0.00000000 s 
O        4.78392425       2.36559791       7.38060000              inf       0.00000000       0.00000000       0.00000000 s 
O        3.27712425       4.97545206       7.38060000              inf       0.00000000       0.00000000       0.00000000 s 
O        1.77032425       7.58530622       7.38060000              inf       0.00000000       0.00000000       0.00000000 s 
O        0.26361466      10.19516038       7.38060000      10.78913708       0.00009041      -0.00000000       0.00000000 s 
O       -1.24321548      12.80506673       7.38060000       8.42401722       0.00006027       0.00005220       0.00000000 s 
O       -2.74983466      15.41497308       7.38060000       6.60951449       0.00024109       0.00010439       0.00000000 s 
O       -4.25666480      18.02487944       7.38060000       5.87981516       0.00021095       0.00015659       0.00000000 s 
O       -5.76360041      20.63460310       7.38060000       6.60487225       0.00007534       0.00002610       0.00000000 s 
O       -7.27043054      23.24450946       7.38060000       8.41658120       0.00004520       0.00007830       0.00000000 s 
O       -8.77704973      25.85441581       7.38060000      10.78025168       0.00022602       0.00013049       0.00000000 s 
O      -10.28407575      28.46413947       7.38060000              inf       0.00000000       0.00000000       0.00000000 s 
O      -11.79087575      31.07399363       7.38060000              inf       0.00000000       0.00000000       0.00000000 s 
O        7.79752425       2.36559791       7.38060000              inf       0.00000000       0.00000000       0.00000000 s 
O        6.29072425       4.97545206       7.38060000              inf       0.00000000       0.00000000       0.00000000 s 
O        4.78392425       7.58530622       7.38060000              inf       0.00000000       0.00000000       0.00000000 s 
O        3.27712425      10.19516038       7.38060000              inf       0.00000000       0.00000000       0.00000000 s 
O        1.77044480      12.80506673       7.38060000       8.42694687       0.00012054       0.00005220       0.00000000 s 
O        0.26361466      15.41497308       7.38060000       5.88677917       0.00009041       0.00010439       0.00000000 s 
O       -1.24300452      18.02487944       7.38060000       4.05691616       0.00027122       0.00015659       0.00000000 s 
O       -2.74994014      20.63460310       7.38060000       4.05313408       0.00013561       0.00002610       0.00000000 s 
O       -4.25677027      23.24450946       7.38060000       5.87879659       0.00010548       0.00007830       0.00000000 s 
O       -5.76360041      25.85441581       7.38060000       8.41765402       0.00007534       0.00013049       0.00000000 s 
O       -7.27032507      28.46413947       7.38060000      11.19434668       0.00015068      -0.00000000       0.00000000 s 
O       -8.77727575      31.07399363       7.38060000              inf       0.00000000       0.00000000       0.00000000 s 
O       10.81112425       2.36559791       7.38060000              inf       0.00000000       0.00000000       0.00000000 s 
O        9.30432425       4.97545206       7.38060000              inf       0.00000000       0.00000000       0.00000000 s 
O        7.79752425       7.58530622       7.38060000              inf       0.00000000       0.00000000       0.00000000 s 
O        6.29072425      10.19516038       7.38060000              inf       0.00000000       0.00000000       0.00000000 s 
O        4.78410507      12.80506673       7.38060000       9.44600961       0.00018082       0.00005220       0.00000000 s 
O        3.27727493      15.41497308       7.38060000       6.61707524       0.00015068       0.00010439       0.00000000 s 
O        1.77044480      18.02487944       7.38060000       4.06307377       0.00012054       0.00015659       0.00000000 s 
O        0.26372014      20.63460310       7.38060000       2.71951298       0.00019588       0.00002610       0.00000000 s 
O       -1.24311000      23.24450946       7.38060000       4.05536139       0.00016575       0.00007830       0.00000000 s 
O       -2.74994014      25.85441581       7.38060000       6.60760605       0.00013561       0.00013049       0.00000000 s 
O       -4.25687575      28.46413947       7.38060000       9.43596033       0.00000000       0.00000000       0.00000000 s 
O       -5.76367575      31.07399363       7.38060000              inf       0.00000000       0.00000000       0.00000000 s 
O       13.82472425       2.36559791       7.38060000              inf       0.00000000       0.00000000       0.00000000 s 
O       12.31792425       4.97545206       7.38060000              inf       0.00000000       0.00000000       0.00000000 s 
O       10.81112425       7.58530622       7.38060000              inf       0.00000000       0.00000000       0.00000000 s 
O        9.30432425      10.19516038       7.38060000              inf       0.00000000       0.00000000       0.00000000 s 
O        7.79756946      12.80493624       7.38060000      10.78913708       0.00004520      -0.00007830       0.00000000 s 
O        6.29093520      15.41497308       7.38060000       8.43098434       0.00021095       0.00010439       0.00000000 s 
O        4.78410507      18.02487944       7.38060000       5.89255737       0.00018082       0.00015659       0.00000000 s 
O        3.27716946      20.63460310       7.38060000       4.06529548       0.00004520       0.00002610       0.00000000 s 
O        1.77055027      23.24450946       7.38060000       4.06152179       0.00022602       0.00007830       0.00000000 s 
O        0.26372014      25.85441581       7.38060000       5.88458262       0.00019588       0.00013049       0.00000000 s 
O       -1.24321548      28.46413947       7.38060000       8.42154489       0.00006027      -0.00000000       0.00000000 s 
O       -2.75004561      31.07404583       7.38060000      11.19744297       0.00003014       0.00005220       0.00000000 s 
O       16.83832425       2.36559791       7.38060000              inf       0.00000000       0.00000000       0.00000000 s 
O       15.33152425       4.97545206       7.38060000              inf       0.00000000       0.00000000       0.00000000 s 
O       13.82472425       7.58530622       7.38060000              inf       0.00000000       0.00000000       0.00000000 s 
O       12.31805986      10.19502988       7.38060000       9.44600961       0.00013561      -0.00013049       0.00000000 s 
O       10.81122973      12.80493624       7.38060000       8.42694687       0.00010548      -0.00007830       0.00000000 s 
O        9.30439959      15.41484259       7.38060000       8.42401722       0.00007534      -0.00002610       0.00000000 s 
O        7.79776534      18.02487944       7.38060000       8.43209302       0.00024109       0.00015659       0.00000000 s 
O        6.29082973      20.63460310       7.38060000       6.61980391       0.00010548       0.00002610       0.00000000 s 
O        4.78399959      23.24450946       7.38060000       5.89137914       0.00007534       0.00007830       0.00000000 s 
O        3.27738041      25.85441581       7.38060000       6.61516924       0.00025616       0.00013049       0.00000000 s 
O        1.77044480      28.46413947       7.38060000       8.42447540       0.00012054      -0.00000000       0.00000000 s 
O        0.26361466      31.07404583       7.38060000      10.78656332       0.00009041       0.00005220       0.00000000 s 
O       19.85192425       2.36559791       7.38060000              inf       0.00000000       0.00000000       0.00000000 s 
O       18.34512425       4.97545206       7.38060000              inf       0.00000000       0.00000000       0.00000000 s 
O       16.83844480       7.58530622       7.38060000      10.79526691       0.00012054       0.00000000       0.00000000 s 
O       15.33172014      10.19502988       7.38060000       8.43098434       0.00019588      -0.00013049       0.00000000 s 
O       13.82489000      12.80493624       7.38060000       6.61707524       0.00016575      -0.00007830       0.00000000 s 
O       12.31805986      15.41484259       7.38060000       5.88677917       0.00013561      -0.00002610       0.00000000 s 
O       10.81133520      18.02456626       7.38060000       6.60951449       0.00021095      -0.00015659       0.00000000 s 
O        9.30450507      20.63447261       7.38060000       8.41911442       0.00018082      -0.00010439       0.00000000 s 
O        7.79765986      23.24450946       7.38060000       8.43123199       0.00013561       0.00007830       0.00000000 s 
O        6.29082973      25.85441581       7.38060000       8.42937516       0.00010548       0.00013049       0.00000000 s 
O        4.78410507      28.46413947       7.38060000       9.44380483       0.00018082      -0.00000000       0.00000000 s 
O        3.27712425      31.07399363       7.38060000              inf       0.00000000       0.00000000       0.00000000 s 
O       22.86552425       2.36559791       7.38060000              inf       0.00000000       0.00000000       0.00000000 s 
O       21.35872425       4.97545206       7.38060000              inf       0.00000000       0.00000000       0.00000000 s 
O       19.85192425       7.58530622       7.38060000              inf       0.00000000       0.00000000       0.00000000 s 
O       18.34538041      10.19502988       7.38060000       8.43209302       0.00025616      -0.00013049       0.00000000 s 
O       16.83855027      12.80493624       7.38060000       5.89255737       0.00022602      -0.00007830       0.00000000 s 
O       15.33172014      15.41484259       7.38060000       4.06307377       0.00019588      -0.00002610       0.00000000 s 
O       13.82499548      18.02456626       7.38060000       4.05691616       0.00027122      -0.00015659       0.00000000 s 
O       12.31816534      20.63447261       7.38060000       5.87981516       0.00024109      -0.00010439       0.00000000 s 
O       10.81133520      23.24437896       7.38060000       8.41725492       0.00021095      -0.00005220       0.00000000 s 
O        9.30449000      25.85441581       7.38060000      10.79415761       0.00016575       0.00013049       0.00000000 s 
O        7.79752425      28.46413947       7.38060000              inf       0.00000000       0.00000000       0.00000000 s 
O        6.29072425      31.07399363       7.38060000              inf       0.00000000       0.00000000       0.00000000 s 
O       25.87912425       2.36559791       7.38060000              inf       0.00000000       0.00000000       0.00000000 s 
O       24.37232425       4.97545206       7.38060000              inf       0.00000000       0.00000000       0.00000000 s 
O       22.86552425       7.58530622       7.38060000              inf       0.00000000       0.00000000       0.00000000 s 
O       21.35882973      10.19502988       7.38060000       9.44887700       0.00010548      -0.00013049       0.00000000 s 
O       19.85199959      12.80493624       7.38060000       6.61980391       0.00007534      -0.00007830       0.00000000 s 
O       18.34516946      15.41484259       7.38060000       4.06529548       0.00004520      -0.00002610       0.00000000 s 
O       16.83844480      18.02456626       7.38060000       2.71951298       0.00012054      -0.00015659       0.00000000 s 
O       15.33161466      20.63447261       7.38060000       4.05313408       0.00009041      -0.00010439       0.00000000 s 
O       13.82478452      23.24437896       7.38060000       6.60487225       0.00006027      -0.00005220       0.00000000 s 
O       12.31795439      25.85428532       7.38060000       9.43319010       0.00003014       0.00000000       0.00000000 s 
O       10.81112425      28.46413947       7.38060000              inf       0.00000000       0.00000000       0.00000000 s 
O        9.30432425      31.07399363       7.38060000              inf       0.00000000       0.00000000       0.00000000 s 
O       28.89272425       2.36559791       7.38060000              inf       0.00000000       0.00000000       0.00000000 s 
O       27.38592425       4.97545206       7.38060000              inf       0.00000000       0.00000000       0.00000000 s 
O       25.87912425       7.58530622       7.38060000              inf       0.00000000       0.00000000       0.00000000 s 
O       24.37232425      10.19516038       7.38060000              inf       0.00000000       0.00000000       0.00000000 s 
O       22.86565986      12.80493624       7.38060000       8.43123199       0.00013561      -0.00007830       0.00000000 s 
O       21.35882973      15.41484259       7.38060000       5.89137914       0.00010548      -0.00002610       0.00000000 s 
O       19.85210507      18.02456626       7.38060000       4.06152179       0.00018082      -0.00015659       0.00000000 s 
O       18.34527493      20.63447261       7.38060000       4.05536139       0.00015068      -0.00010439       0.00000000 s 
O       16.83844480      23.24437896       7.38060000       5.87879659       0.00012054      -0.00005220       0.00000000 s 
O       15.33161466      25.85428532       7.38060000       8.41658120       0.00009041       0.00000000       0.00000000 s 
O       13.82489000      28.46400898       7.38060000      11.19273330       0.00016575      -0.00013049       0.00000000 s 
O       12.31792425      31.07399363       7.38060000              inf       0.00000000       0.00000000       0.00000000 s 
O       31.90632425       2.36559791       7.38060000              inf       0.00000000       0.00000000       0.00000000 s 
O       30.39952425       4.97545206       7.38060000              inf       0.00000000       0.00000000       0.00000000 s 
O       28.89272425       7.58530622       7.38060000              inf       0.00000000       0.00000000       0.00000000 s 
O       27.38592425      10.19516038       7.38060000              inf       0.00000000       0.00000000       0.00000000 s 
O       25.87932014      12.80493624       7.38060000      10.79415761       0.00019588      -0.00007830       0.00000000 s 
O       24.37249000      15.41484259       7.38060000       8.42937516       0.00016575      -0.00002610       0.00000000 s 
O       22.86576534      18.02456626       7.38060000       6.61516924       0.00024109      -0.00015659       0.00000000 s 
O       21.35893520      20.63447261       7.38060000       5.88458262       0.00021095      -0.00010439       0.00000000 s 
O       19.85210507      23.24437896       7.38060000       6.60760605       0.00018082      -0.00005220       0.00000000 s 
O       18.34527493      25.85428532       7.38060000       8.41765402       0.00015068       0.00000000       0.00000000 s 
O       16.83855027      28.46400898       7.38060000      10.78025168       0.00022602      -0.00013049       0.00000000 s 
O       15.33152425      31.07399363       7.38060000              inf       0.00000000       0.00000000       0.00000000 s 
N       16.80448152      12.30527966      10.10010000       0.00000000       0.00000000       0.00000000       0.00000000 a1
H       14.73324931      12.40119180      10.10010000       0.00000000       0.00000000       0.00000000       0.00000000 a1
H       18.87993278      12.37159605      10.10010000       0.00000000       0.00000000       0.00000000       0.00000000 a1
C       15.65953954      12.98141458      10.10010000       0.00000000       0.00000000       0.00000000       0.00000000 a1
C       17.96271348      12.96460712      10.10010000       0.00000000       0.00000000       0.00000000       0.00000000 a1
C       15.62388866      14.38520293      10.10010000       0.00000000       0.00000000       0.00000000       0.00000000 a1
C       18.01924862      14.36474167      10.10010000       0.00000000       0.00000000       0.00000000       0.00000000 a1
H       14.64517685      14.85964832      10.10010000       0.00000000       0.00000000       0.00000000       0.00000000 a1
C       16.82526030      15.12253893      10.10010000       0.00000000       0.00000000       0.00000000       0.00000000 a1
H       19.00587112      14.82438919      10.10010000       0.00000000       0.00000000       0.00000000       0.00000000 a1
C       16.83464766      16.60287430      10.10010000       0.00000000       0.00000000       0.00000000       0.00000000 a1
H       14.68768368      16.79488127      10.10010000       0.00000000       0.00000000       0.00000000       0.00000000 a1
H       18.98108426      16.77642960      10.10010000       0.00000000       0.00000000       0.00000000       0.00000000 a1
C       15.62779127      17.33619112      10.10010000       0.00000000       0.00000000       0.00000000       0.00000000 a1
C       18.04403548      17.32303746      10.10010000       0.00000000       0.00000000       0.00000000       0.00000000 a1
H       12.98646128      17.75674302      10.10010000       0.00000000       0.00000000       0.00000000       0.00000000 a1
H       20.69106117      17.73226259      10.10010000       0.00000000       0.00000000       0.00000000       0.00000000 a1
C       13.08117872      18.83936272      10.10010000       0.00000000       0.00000000       0.00000000       0.00000000 a1
C       15.60606321      18.73924872      10.10010000       0.00000000       0.00000000       0.00000000       0.00000000 a1
C       18.07356876      18.73121037      10.10010000       0.00000000       0.00000000       0.00000000       0.00000000 a1
C       20.59887515      18.81634381      10.10010000       0.00000000       0.00000000       0.00000000       0.00000000 a1
H       10.92451095      19.09750340      10.10010000       0.00000000       0.00000000       0.00000000       0.00000000 a1
C       14.33222956      19.49284411      10.10010000       0.00000000       0.00000000       0.00000000       0.00000000 a1
C       11.89889824      19.58930432      10.10010000       0.00000000       0.00000000       0.00000000       0.00000000 a1
C       16.84382407      19.41355674      10.10010000       0.00000000       0.00000000       0.00000000       0.00000000 a1
C       19.35446930      19.47293092      10.10010000       0.00000000       0.00000000       0.00000000       0.00000000 a1
H       22.76039482      19.06790765      10.10010000       0.00000000       0.00000000       0.00000000       0.00000000 a1
C       21.78621848      19.56445850      10.10010000       0.00000000       0.00000000       0.00000000       0.00000000 a1
N       11.91092250      20.92147827      10.10010000       0.00000000       0.00000000       0.00000000       0.00000000 a1
C       14.29942652      20.90046895      10.10010000       0.00000000       0.00000000       0.00000000       0.00000000 a1
H       16.84857049      20.49855141      10.10010000       0.00000000       0.00000000       0.00000000       0.00000000 a1
C       19.39317899      20.88567107      10.10010000       0.00000000       0.00000000       0.00000000       0.00000000 a1
N       21.78010087      20.89334404      10.10010000       0.00000000       0.00000000       0.00000000       0.00000000 a1
C       13.06746684      21.57313276      10.10010000       0.00000000       0.00000000       0.00000000       0.00000000 a1
C       20.62418939      21.55413302      10.10010000       0.00000000       0.00000000       0.00000000       0.00000000 a1
H       15.20135180      21.50827788      10.10010000       0.00000000       0.00000000       0.00000000       0.00000000 a1
H       18.49336324      21.49530691      10.10010000       0.00000000       0.00000000       0.00000000       0.00000000 a1
H       13.02590930      22.66634847      10.10010000       0.00000000       0.00000000       0.00000000       0.00000000 a1
H       20.67123168      22.64479107      10.10010000       0.00000000       0.00000000       0.00000000       0.00000000 a1
N        5.19978598      17.74554675      10.10010000       0.00000000       0.00000000       0.00000000       0.00000000 a2
H        4.08110753      15.99976311      10.10010000       0.00000000       0.00000000       0.00000000       0.00000000 a2
H        6.18007993      19.57609845      10.10010000       0.00000000       0.00000000       0.00000000       0.00000000 a2
C        4.04176498      17.09206537      10.10010000       0.00000000       0.00000000       0.00000000       0.00000000 a2
C        5.20790764      19.07826877      10.10010000       0.00000000       0.00000000       0.00000000       0.00000000 a2
C        2.80822316      17.76308497      10.10010000       0.00000000       0.00000000       0.00000000       0.00000000 a2
C        4.02362311      19.82729692      10.10010000       0.00000000       0.00000000       0.00000000       0.00000000 a2
H        1.90798550      17.15271838      10.10010000       0.00000000       0.00000000       0.00000000       0.00000000 a2
C        2.77035728      19.17217133      10.10010000       0.00000000       0.00000000       0.00000000       0.00000000 a2
H        4.11886794      20.91156083      10.10010000       0.00000000       0.00000000       0.00000000       0.00000000 a2
C        1.49304292      19.92046871      10.10010000       0.00000000       0.00000000       0.00000000       0.00000000 a2
H        0.25327801      18.15714685      10.10010000       0.00000000       0.00000000       0.00000000       0.00000000 a2
H        2.41595792      21.86611498      10.10010000       0.00000000       0.00000000       0.00000000       0.00000000 a2
C        0.25454372      19.24195883      10.10010000       0.00000000       0.00000000       0.00000000       0.00000000 a2
C        1.47405724      21.32791086      10.10010000       0.00000000       0.00000000       0.00000000       0.00000000 a2
H       -1.43032990      17.16477590      10.10010000       0.00000000       0.00000000       0.00000000       0.00000000 a2
H        2.44317072      23.82491492      10.10010000       0.00000000       0.00000000       0.00000000       0.00000000 a2
C       -2.32054734      17.78811347      10.10010000       0.00000000       0.00000000       0.00000000       0.00000000 a2
C       -0.97140382      19.92467058      10.10010000       0.00000000       0.00000000       0.00000000       0.00000000 a2
C        0.26931036      22.05757388      10.10010000       0.00000000       0.00000000       0.00000000       0.00000000 a2
C        1.45823584      24.28712009      10.10010000       0.00000000       0.00000000       0.00000000       0.00000000 a2
H       -3.62243761      16.04945473      10.10010000       0.00000000       0.00000000       0.00000000       0.00000000 a2
C       -2.26095340      19.19829597      10.10010000       0.00000000       0.00000000       0.00000000       0.00000000 a2
C       -3.56115605      17.13919933      10.10010000       0.00000000       0.00000000       0.00000000       0.00000000 a2
C       -0.93649127      21.33375693      10.10010000       0.00000000       0.00000000       0.00000000       0.00000000 a2
C        0.26741180      23.53772657      10.10010000       0.00000000       0.00000000       0.00000000       0.00000000 a2
H        2.32113499      26.28483296      10.10010000       0.00000000       0.00000000       0.00000000       0.00000000 a2
C        1.40402117      25.68944693      10.10010000       0.00000000       0.00000000       0.00000000       0.00000000 a2
N       -4.70884041      17.81569963      10.10010000       0.00000000       0.00000000       0.00000000       0.00000000 a2
C       -3.49639379      19.87370012      10.10010000       0.00000000       0.00000000       0.00000000       0.00000000 a2
H       -1.87375100      21.88036479      10.10010000       0.00000000       0.00000000       0.00000000       0.00000000 a2
C       -0.93670222      24.27762022      10.10010000       0.00000000       0.00000000       0.00000000       0.00000000 a2
N        0.25011373      26.34859170      10.10010000       0.00000000       0.00000000       0.00000000       0.00000000 a2
C       -4.69491758      19.14312365      10.10010000       0.00000000       0.00000000       0.00000000       0.00000000 a2
C       -0.90010205      25.67793747      10.10010000       0.00000000       0.00000000       0.00000000       0.00000000 a2
H       -3.57180913      20.95869479      10.10010000       0.00000000       0.00000000       0.00000000       0.00000000 a2
H       -1.91457022      23.80317484      10.10010000       0.00000000       0.00000000       0.00000000       0.00000000 a2
H       -5.66244892      19.65374162      10.10010000       0.00000000       0.00000000       0.00000000       0.00000000 a2
H       -1.82111848      26.26400632      10.10010000       0.00000000       0.00000000       0.00000000       0.00000000 a2
