184
Lattice="36.16319999999999 0.0 0.0 -18.081599999999995 31.318249882114287 0.0 0.0 0.0 30.0" Properties=species:S:1:pos:R:3:remoteness:R:1:shift:R:3:adsorption:S:1 size="_JSON [[12, 0], [0, 12]]" mass_center_dist=9.202189449235888 min_atom_dist=4.1879576657272155 s1=cu_atop s2=tpb_hollow_up s1idx=1 s2idx=8 pbc="T T T"
O       -1.24327575       2.36559791       7.38060000              inf       0.00000000       0.00000000       0.00000000 s 
O       -2.75007575       4.97545206       7.38060000              inf       0.00000000       0.00000000       0.00000000 s 
O       -4.25687575       7.58530622       7.38060000              inf       0.00000000       0.00000000       0.00000000 s 
O       -5.76367575      10.19516038       7.38060000              inf       0.00000000       0.00000000       0.00000000 s 
O       -7.27047575      12.80501453       7.38060000              inf       0.00000000       0.00000000       0.00000000 s 
O       -8.77727575      15.41486869       7.38060000              inf       0.00000000       0.00000000       0.00000000 s 
O      -10.28407575      18.02472285       7.38060000              inf       0.00000000       0.00000000       0.00000000 s 
O      -11.79087575      20.63457700       7.38060000              inf       0.00000000       0.00000000       0.00000000 s 
O      -13.29767575      23.24443116       7.38060000              inf       0.00000000       0.00000000       0.00000000 s 
O      -14.80447575      25.85428532       7.38060000              inf       0.00000000       0.00000000       0.00000000 s 
O      -16.31127575      28.46413947       7.38060000              inf       0.00000000       0.00000000       0.00000000 s 
O      -17.81807575      31.07399363       7.38060000              inf       0.00000000       0.00000000       0.00000000 s 
O        1.77032425       2.36559791       7.38060000              inf       0.00000000       0.00000000       0.00000000 s 
O        0.26352425       4.97545206       7.38060000              inf       0.00000000       0.00000000       0.00000000 s 
O       -1.24327575       7.58530622       7.38060000              inf       0.00000000       0.00000000       0.00000000 s 
O       -2.75007575      10.19516038       7.38060000              inf       0.00000000       0.00000000       0.00000000 s 
O       -4.25687575      12.80501453       7.38060000              inf       0.00000000       0.00000000       0.00000000 s 
O       -5.76367575      15.41486869       7.38060000              inf       0.00000000       0.00000000       0.00000000 s 
O       -7.27047575      18.02472285       7.38060000              inf       0.00000000       0.00000000       0.00000000 s 
O       -8.77727575      20.63457700       7.38060000              inf       0.00000000       0.00000000       0.00000000 s 
O      -10.28407575      23.24443116       7.38060000              inf       0.00000000       0.00000000       0.00000000 s 
O      -11.79087575      25.85428532       7.38060000              inf       0.00000000       0.00000000       0.00000000 s 
O      -13.29767575      28.46413947       7.38060000              inf       0.00000000       0.00000000       0.00000000 s 
O      -14.80447575      31.07399363       7.38060000              inf       0.00000000       0.00000000       0.00000000 s 
O        4.78392425       2.36559791       7.38060000              inf       0.00000000       0.00000000       0.00000000 s 
O        3.27712425       4.97545206       7.38060000              inf       0.00000000       0.00000000       0.00000000 s 
O        1.77032425       7.58530622       7.38060000              inf       0.00000000       0.00000000       0.00000000 s 
O        0.26352425      10.19516038       7.38060000              inf       0.00000000       0.00000000       0.00000000 s 
O       -1.24327575      12.80501453       7.38060000              inf       0.00000000       0.00000000       0.00000000 s 
O       -2.75003054      15.41479039       7.38060000      10.78784708       0.00004520      -0.00007830       0.00000000 s 
O       -4.25687575      18.02472285       7.38060000              inf       0.00000000       0.00000000       0.00000000 s 
O       -5.76367575      20.63457700       7.38060000              inf       0.00000000       0.00000000       0.00000000 s 
O       -7.27047575      23.24443116       7.38060000              inf       0.00000000       0.00000000       0.00000000 s 
O       -8.77727575      25.85428532       7.38060000              inf       0.00000000       0.00000000       0.00000000 s 
O      -10.28407575      28.46413947       7.38060000              inf       0.00000000       0.00000000       0.00000000 s 
O      -11.79087575      31.07399363       7.38060000              inf       0.00000000       0.00000000       0.00000000 s 
O        7.79752425       2.36559791       7.38060000              inf       0.00000000       0.00000000       0.00000000 s 
O        6.29072425       4.97545206       7.38060000              inf       0.00000000       0.00000000       0.00000000 s 
O        4.78405986       7.58517573       7.38060000      10.06654360       0.00013561      -0.00013049       0.00000000 s 
O        3.27722973      10.19508208       7.38060000      10.06494431       0.00010548      -0.00007830       0.00000000 s 
O        1.77045986      12.80488404       7.38060000       9.44093216       0.00013561      -0.00013049       0.00000000 s 
O        0.26362973      15.41479039       7.38060000       8.42422336       0.00010548      -0.00007830       0.00000000 s 
O       -1.24320041      18.02469675       7.38060000       8.42426109       0.00007534      -0.00002610       0.00000000 s 
O       -2.74992507      20.63442041       7.38060000       9.44093216       0.00015068      -0.00015659       0.00000000 s 
O       -4.25687575      23.24443116       7.38060000              inf       0.00000000       0.00000000       0.00000000 s 
O       -5.76367575      25.85428532       7.38060000              inf       0.00000000       0.00000000       0.00000000 s 
O       -7.27047575      28.46413947       7.38060000              inf       0.00000000       0.00000000       0.00000000 s 
O       -8.77727575      31.07399363       7.38060000              inf       0.00000000       0.00000000       0.00000000 s 
O       10.81112425       2.36559791       7.38060000              inf       0.00000000       0.00000000       0.00000000 s 
O        9.30444480       4.97545206       7.38060000       9.60617260       0.00012054       0.00000000       0.00000000 s 
O        7.79772014       7.58517573       7.38060000       8.06241008       0.00019588      -0.00013049       0.00000000 s 
O        6.29089000      10.19508208       7.38060000       7.47583520       0.00016575      -0.00007830       0.00000000 s 
O        4.78405986      12.80498844       7.38060000       8.05841572       0.00013561      -0.00002610       0.00000000 s 
O        3.27729000      15.41479039       7.38060000       6.61224094       0.00016575      -0.00007830       0.00000000 s 
O        1.77045986      18.02469675       7.38060000       5.88559409       0.00013561      -0.00002610       0.00000000 s 
O        0.26373520      20.63442041       7.38060000       6.61224094       0.00021095      -0.00015659       0.00000000 s 
O       -1.24309493      23.24432677       7.38060000       8.42422336       0.00018082      -0.00010439       0.00000000 s 
O       -2.74992507      25.85423312       7.38060000      10.78784708       0.00015068      -0.00005220       0.00000000 s 
O       -4.25687575      28.46413947       7.38060000              inf       0.00000000       0.00000000       0.00000000 s 
O       -5.76367575      31.07399363       7.38060000              inf       0.00000000       0.00000000       0.00000000 s 
O       13.82472425       2.36559791       7.38060000              inf       0.00000000       0.00000000       0.00000000 s 
O       12.31810507       4.97545206       7.38060000       9.12093840       0.00018082       0.00000000       0.00000000 s 
O       10.81138041       7.58517573       7.38060000       6.84353045       0.00025616      -0.00013049       0.00000000 s 
O        9.30455027      10.19508208       7.38060000       5.35139386       0.00022602      -0.00007830       0.00000000 s 
O        7.79772014      12.80498844       7.38060000       5.34838481       0.00019588      -0.00002610       0.00000000 s 
O        6.29095027      15.41479039       7.38060000       5.88559409       0.00022602      -0.00007830       0.00000000 s 
O        4.78412014      18.02469675       7.38060000       4.05913255       0.00019588      -0.00002610       0.00000000 s 
O        3.27739548      20.63442041       7.38060000       4.05913255       0.00027122      -0.00015659       0.00000000 s 
O        1.77056534      23.24432677       7.38060000       5.88559409       0.00024109      -0.00010439       0.00000000 s 
O        0.26373520      25.85423312       7.38060000       8.42426109       0.00021095      -0.00005220       0.00000000 s 
O       -1.24327575      28.46413947       7.38060000              inf       0.00000000       0.00000000       0.00000000 s 
O       -2.75007575      31.07399363       7.38060000              inf       0.00000000       0.00000000       0.00000000 s 
O       16.83832425       2.36559791       7.38060000              inf       0.00000000       0.00000000       0.00000000 s 
O       15.33155439       4.97545206       7.38060000       9.60559773       0.00003014       0.00000000       0.00000000 s 
O       13.82482973       7.58517573       7.38060000       6.84317344       0.00010548      -0.00013049       0.00000000 s 
O       12.31799959      10.19508208       7.38060000       4.42165326       0.00007534      -0.00007830       0.00000000 s 
O       10.81116946      12.80498844       7.38060000       3.23068240       0.00004520      -0.00002610       0.00000000 s 
O        9.30444480      15.41471210       7.38060000       4.41436602       0.00012054      -0.00015659       0.00000000 s 
O        7.79756946      18.02469675       7.38060000       4.05913255       0.00004520      -0.00002610       0.00000000 s 
O        6.29084480      20.63442041       7.38060000       2.71950000       0.00012054      -0.00015659       0.00000000 s 
O        4.78401466      23.24432677       7.38060000       4.05928916       0.00009041      -0.00010439       0.00000000 s 
O        3.27718452      25.85423312       7.38060000       6.61243323       0.00006027      -0.00005220       0.00000000 s 
O        1.77035439      28.46413947       7.38060000       9.44113417       0.00003014       0.00000000       0.00000000 s 
O        0.26352425      31.07399363       7.38060000              inf       0.00000000       0.00000000       0.00000000 s 
O       19.85192425       2.36559791       7.38060000              inf       0.00000000       0.00000000       0.00000000 s 
O       18.34512425       4.97545206       7.38060000              inf       0.00000000       0.00000000       0.00000000 s 
O       16.83849000       7.58517573       7.38060000       8.06150091       0.00016575      -0.00013049       0.00000000 s 
O       15.33165986      10.19508208       7.38060000       5.35048067       0.00013561      -0.00007830       0.00000000 s 
O       13.82482973      12.80498844       7.38060000       3.22982762       0.00010548      -0.00002610       0.00000000 s 
O       12.31810507      15.41471210       7.38060000       3.22483991       0.00018082      -0.00015659       0.00000000 s 
O       10.81127493      18.02461845       7.38060000       5.34144709       0.00015068      -0.00010439       0.00000000 s 
O        9.30450507      20.63442041       7.38060000       4.05928916       0.00018082      -0.00015659       0.00000000 s 
O        7.79767493      23.24432677       7.38060000       4.05928916       0.00015068      -0.00010439       0.00000000 s 
O        6.29084480      25.85423312       7.38060000       5.88575611       0.00012054      -0.00005220       0.00000000 s 
O        4.78401466      28.46413947       7.38060000       8.42441202       0.00009041       0.00000000       0.00000000 s 
O        3.27729000      31.07386314       7.38060000      11.20085520       0.00016575      -0.00013049       0.00000000 s 
O       22.86552425       2.36559791       7.38060000              inf       0.00000000       0.00000000       0.00000000 s 
O       21.35872425       4.97545206       7.38060000              inf       0.00000000       0.00000000       0.00000000 s 
O       19.85215027       7.58517573       7.38060000      10.06532997       0.00022602      -0.00013049       0.00000000 s 
O       18.34532014      10.19508208       7.38060000       7.47452780       0.00019588      -0.00007830       0.00000000 s 
O       16.83849000      12.80498844       7.38060000       5.34701417       0.00016575      -0.00002610       0.00000000 s 
O       15.33176534      15.41471210       7.38060000       4.41325890       0.00024109      -0.00015659       0.00000000 s 
O       13.82493520      18.02461845       7.38060000       5.34098964       0.00021095      -0.00010439       0.00000000 s 
O       12.31816534      20.63442041       7.38060000       6.61243323       0.00024109      -0.00015659       0.00000000 s 
O       10.81133520      23.24432677       7.38060000       5.88575611       0.00021095      -0.00010439       0.00000000 s 
O        9.30450507      25.85423312       7.38060000       6.61243323       0.00018082      -0.00005220       0.00000000 s 
O        7.79767493      28.46413947       7.38060000       8.42441202       0.00015068       0.00000000       0.00000000 s 
O        6.29095027      31.07386314       7.38060000      10.78784708       0.00022602      -0.00013049       0.00000000 s 
O       25.87912425       2.36559791       7.38060000              inf       0.00000000       0.00000000       0.00000000 s 
O       24.37232425       4.97545206       7.38060000              inf       0.00000000       0.00000000       0.00000000 s 
O       22.86552425       7.58530622       7.38060000              inf       0.00000000       0.00000000       0.00000000 s 
O       21.35876946      10.19508208       7.38060000      10.06329820       0.00004520      -0.00007830       0.00000000 s 
O       19.85193932      12.80498844       7.38060000       8.05670236       0.00001507      -0.00002610       0.00000000 s 
O       18.34521466      15.41471210       7.38060000       6.83490085       0.00009041      -0.00015659       0.00000000 s 
O       16.83838452      18.02461845       7.38060000       6.83254516       0.00006027      -0.00010439       0.00000000 s 
O       15.33155439      20.63452481       7.38060000       8.05082441       0.00003014      -0.00005220       0.00000000 s 
O       13.82478452      23.24432677       7.38060000       8.42422336       0.00006027      -0.00010439       0.00000000 s 
O       12.31795439      25.85423312       7.38060000       8.42426109       0.00003014      -0.00005220       0.00000000 s 
O       10.81112425      28.46413947       7.38060000       9.44103316       0.00000000       0.00000000       0.00000000 s 
O        9.30439959      31.07386314       7.38060000      11.20085520       0.00007534      -0.00013049       0.00000000 s 
O       28.89272425       2.36559791       7.38060000              inf       0.00000000       0.00000000       0.00000000 s 
O       27.38592425       4.97545206       7.38060000              inf       0.00000000       0.00000000       0.00000000 s 
O       25.87912425       7.58530622       7.38060000              inf       0.00000000       0.00000000       0.00000000 s 
O       24.37232425      10.19516038       7.38060000              inf       0.00000000       0.00000000       0.00000000 s 
O       22.86559959      12.80498844       7.38060000      10.92687277       0.00007534      -0.00002610       0.00000000 s 
O       21.35887493      15.41471210       7.38060000       9.59794003       0.00015068      -0.00015659       0.00000000 s 
O       19.85204480      18.02461845       7.38060000       9.11076881       0.00012054      -0.00010439       0.00000000 s 
O       18.34521466      20.63452481       7.38060000       9.59458494       0.00009041      -0.00005220       0.00000000 s 
O       16.83838452      23.24443116       7.38060000      10.92109467       0.00006027       0.00000000       0.00000000 s 
O       15.33161466      25.85423312       7.38060000      10.78784708       0.00009041      -0.00005220       0.00000000 s 
O       13.82472425      28.46413947       7.38060000              inf       0.00000000       0.00000000       0.00000000 s 
O       12.31792425      31.07399363       7.38060000              inf       0.00000000       0.00000000       0.00000000 s 
O       31.90632425       2.36559791       7.38060000              inf       0.00000000       0.00000000       0.00000000 s 
O       30.39952425       4.97545206       7.38060000              inf       0.00000000       0.00000000       0.00000000 s 
O       28.89272425       7.58530622       7.38060000              inf       0.00000000       0.00000000       0.00000000 s 
O       27.38592425      10.19516038       7.38060000              inf       0.00000000       0.00000000       0.00000000 s 
O       25.87912425      12.80501453       7.38060000              inf       0.00000000       0.00000000       0.00000000 s 
O       24.37232425      15.41486869       7.38060000              inf       0.00000000       0.00000000       0.00000000 s 
O       22.86570507      18.02461845       7.38060000      11.72573407       0.00018082      -0.00010439       0.00000000 s 
O       21.35887493      20.63452481       7.38060000      11.72436111       0.00015068      -0.00005220       0.00000000 s 
O       19.85192425      23.24443116       7.38060000              inf       0.00000000       0.00000000       0.00000000 s 
O       18.34512425      25.85428532       7.38060000              inf       0.00000000       0.00000000       0.00000000 s 
O       16.83832425      28.46413947       7.38060000              inf       0.00000000       0.00000000       0.00000000 s 
O       15.33152425      31.07399363       7.38060000              inf       0.00000000       0.00000000       0.00000000 s 
Cu       6.29084480      20.63442041      10.10010000       0.00000000       0.00000000       0.00000000       0.00000000 a1
N       12.34974787      19.40867631      10.10010000       0.00000000       0.00000000       0.00000000       0.00000000 a2
H       14.42108556      19.31258148      10.10010000       0.00000000       0.00000000       0.00000000       0.00000000 a2
H       10.27450757      19.34235992      10.10010000       0.00000000       0.00000000       0.00000000       0.00000000 a2
C       13.49500628      18.73235870      10.10010000       0.00000000       0.00000000       0.00000000       0.00000000 a2
C       11.19151591      18.74934885      10.10010000       0.00000000       0.00000000       0.00000000       0.00000000 a2
C       13.53034074      17.32875304      10.10010000       0.00000000       0.00000000       0.00000000       0.00000000 a2
C       11.13519173      17.34921430      10.10010000       0.00000000       0.00000000       0.00000000       0.00000000 a2
H       14.50926349      16.85430765      10.10010000       0.00000000       0.00000000       0.00000000       0.00000000 a2
C       12.32918005      16.59141704      10.10010000       0.00000000       0.00000000       0.00000000       0.00000000 a2
H       10.14856922      16.88956678      10.10010000       0.00000000       0.00000000       0.00000000       0.00000000 a2
C       12.31958173      15.11108167      10.10010000       0.00000000       0.00000000       0.00000000       0.00000000 a2
H       14.46675666      14.91907470      10.10010000       0.00000000       0.00000000       0.00000000       0.00000000 a2
H       10.17314513      14.93752637      10.10010000       0.00000000       0.00000000       0.00000000       0.00000000 a2
C       13.52664908      14.37776485      10.10010000       0.00000000       0.00000000       0.00000000       0.00000000 a2
C       11.11040487      14.39091851      10.10010000       0.00000000       0.00000000       0.00000000       0.00000000 a2
H       16.16776812      13.95721295      10.10010000       0.00000000       0.00000000       0.00000000       0.00000000 a2
H        8.46316822      13.98169338      10.10010000       0.00000000       0.00000000       0.00000000       0.00000000 a2
C       16.07326162      12.87459325      10.10010000       0.00000000       0.00000000       0.00000000       0.00000000 a2
C       13.54837713      12.97470725      10.10010000       0.00000000       0.00000000       0.00000000       0.00000000 a2
C       11.08066064      12.98274560      10.10010000       0.00000000       0.00000000       0.00000000       0.00000000 a2
C        8.55556520      12.89761216      10.10010000       0.00000000       0.00000000       0.00000000       0.00000000 a2
H       18.22992939      12.61645257      10.10010000       0.00000000       0.00000000       0.00000000       0.00000000 a2
C       14.82221078      12.22111186      10.10010000       0.00000000       0.00000000       0.00000000       0.00000000 a2
C       17.25554210      12.12465165      10.10010000       0.00000000       0.00000000       0.00000000       0.00000000 a2
C       12.31061627      12.30039923      10.10010000       0.00000000       0.00000000       0.00000000       0.00000000 a2
C        9.79997104      12.24102505      10.10010000       0.00000000       0.00000000       0.00000000       0.00000000 a2
H        6.39404553      12.64604832      10.10010000       0.00000000       0.00000000       0.00000000       0.00000000 a2
C        7.36801091      12.14949747      10.10010000       0.00000000       0.00000000       0.00000000       0.00000000 a2
N       17.24330689      10.79247770      10.10010000       0.00000000       0.00000000       0.00000000       0.00000000 a2
C       14.85501382      10.81348702      10.10010000       0.00000000       0.00000000       0.00000000       0.00000000 a2
H       12.30586985      11.21540456      10.10010000       0.00000000       0.00000000       0.00000000       0.00000000 a2
C        9.76105040      10.82828490      10.10010000       0.00000000       0.00000000       0.00000000       0.00000000 a2
N        7.37433947      10.82061193      10.10010000       0.00000000       0.00000000       0.00000000       0.00000000 a2
C       16.08676255      10.14082321      10.10010000       0.00000000       0.00000000       0.00000000       0.00000000 a2
C        8.53025096      10.15982295      10.10010000       0.00000000       0.00000000       0.00000000       0.00000000 a2
H       13.95308854      10.20567809      10.10010000       0.00000000       0.00000000       0.00000000       0.00000000 a2
H       10.66086616      10.21864906      10.10010000       0.00000000       0.00000000       0.00000000       0.00000000 a2
H       16.12853104       9.04760750      10.10010000       0.00000000       0.00000000       0.00000000       0.00000000 a2
H        8.48299771       9.06916490      10.10010000       0.00000000       0.00000000       0.00000000       0.00000000 a2
