184
Lattice="36.16319999999999 0.0 0.0 -18.081599999999995 31.318249882114287 0.0 0.0 0.0 30.0" Properties=species:S:1:pos:R:3:remoteness:R:1:shift:R:3:adsorption:S:1 size="_JSON [[12, 0], [0, 12]]" mass_center_dist=15.95187427771636 min_atom_dist=11.084945733128786 s1=cu_atop s2=tpb_atop s1idx=1 s2idx=4 pbc="T T T"
O       -1.24327575       2.36559791       7.38060000              inf       0.00000000       0.00000000       0.00000000 s 
O       -2.75007575       4.97545206       7.38060000              inf       0.00000000       0.00000000       0.00000000 s 
O       -4.25687575       7.58530622       7.38060000              inf       0.00000000       0.00000000       0.00000000 s 
O       -5.76367575      10.19516038       7.38060000              inf       0.00000000       0.00000000       0.00000000 s 
O       -7.27047575      12.80501453       7.38060000              inf       0.00000000       0.00000000       0.00000000 s 
O       -8.77723054      15.41479039       7.38060000      10.78913708       0.00004520      -0.00007830       0.00000000 s 
O      -10.28406068      18.02469675       7.38060000      11.19992230       0.00001507      -0.00002610       0.00000000 s 
O      -11.79078534      20.63452481       7.38060000      10.78784708       0.00009041      -0.00005220       0.00000000 s 
O      -13.29767575      23.24443116       7.38060000              inf       0.00000000       0.00000000       0.00000000 s 
O      -14.80447575      25.85428532       7.38060000              inf       0.00000000       0.00000000       0.00000000 s 
O      -16.31127575      28.46413947       7.38060000              inf       0.00000000       0.00000000       0.00000000 s 
O      -17.81807575      31.07399363       7.38060000              inf       0.00000000       0.00000000       0.00000000 s 
O        1.77032425       2.36559791       7.38060000              inf       0.00000000       0.00000000       0.00000000 s 
O        0.26352425       4.97545206       7.38060000              inf       0.00000000       0.00000000       0.00000000 s 
O       -1.24327575       7.58530622       7.38060000              inf       0.00000000       0.00000000       0.00000000 s 
O       -2.75007575      10.19516038       7.38060000              inf       0.00000000       0.00000000       0.00000000 s 
O       -4.25674014      12.80488404       7.38060000       9.44600961       0.00013561      -0.00013049       0.00000000 s 
O       -5.76357027      15.41479039       7.38060000       8.42694687       0.00010548      -0.00007830       0.00000000 s 
O       -7.27040041      18.02469675       7.38060000       8.42401722       0.00007534      -0.00002610       0.00000000 s 
O       -8.77712507      20.63442041       7.38060000       9.43806608       0.00015068      -0.00015659       0.00000000 s 
O      -10.28395520      23.24432677       7.38060000      11.19620674       0.00012054      -0.00010439       0.00000000 s 
O      -11.79087575      25.85428532       7.38060000              inf       0.00000000       0.00000000       0.00000000 s 
O      -13.29767575      28.46413947       7.38060000              inf       0.00000000       0.00000000       0.00000000 s 
O      -14.80447575      31.07399363       7.38060000              inf       0.00000000       0.00000000       0.00000000 s 
O        4.78392425       2.36559791       7.38060000              inf       0.00000000       0.00000000       0.00000000 s 
O        3.27712425       4.97545206       7.38060000              inf       0.00000000       0.00000000       0.00000000 s 
O        1.77032425       7.58530622       7.38060000              inf       0.00000000       0.00000000       0.00000000 s 
O        0.26364480      10.19516038       7.38060000      10.79526691       0.00012054       0.00000000       0.00000000 s 
O       -1.24307986      12.80488404       7.38060000       8.43098434       0.00019588      -0.00013049       0.00000000 s 
O       -2.74991000      15.41479039       7.38060000       6.61707524       0.00016575      -0.00007830       0.00000000 s 
O       -4.25674014      18.02469675       7.38060000       5.88677917       0.00013561      -0.00002610       0.00000000 s 
O       -5.76346480      20.63442041       7.38060000       6.60951449       0.00021095      -0.00015659       0.00000000 s 
O       -7.27029493      23.24432677       7.38060000       8.41911442       0.00018082      -0.00010439       0.00000000 s 
O       -8.77712507      25.85423312       7.38060000      10.78153931       0.00015068      -0.00005220       0.00000000 s 
O      -10.28407575      28.46413947       7.38060000              inf       0.00000000       0.00000000       0.00000000 s 
O      -11.79087575      31.07399363       7.38060000              inf       0.00000000       0.00000000       0.00000000 s 
O        7.79752425       2.36559791       7.38060000              inf       0.00000000       0.00000000       0.00000000 s 
O        6.29072425       4.97545206       7.38060000              inf       0.00000000       0.00000000       0.00000000 s 
O        4.78392425       7.58530622       7.38060000              inf       0.00000000       0.00000000       0.00000000 s 
O        3.27712425      10.19516038       7.38060000              inf       0.00000000       0.00000000       0.00000000 s 
O        1.77058041      12.80488404       7.38060000       8.43209302       0.00025616      -0.00013049       0.00000000 s 
O        0.26375027      15.41479039       7.38060000       5.89255737       0.00022602      -0.00007830       0.00000000 s 
O       -1.24307986      18.02469675       7.38060000       4.06307377       0.00019588      -0.00002610       0.00000000 s 
O       -2.74980452      20.63442041       7.38060000       4.05691616       0.00027122      -0.00015659       0.00000000 s 
O       -4.25663466      23.24432677       7.38060000       5.87981516       0.00024109      -0.00010439       0.00000000 s 
O       -5.76346480      25.85423312       7.38060000       8.41725492       0.00021095      -0.00005220       0.00000000 s 
O       -7.27029493      28.46413947       7.38060000      11.19341015       0.00018082       0.00000000       0.00000000 s 
O       -8.77727575      31.07399363       7.38060000              inf       0.00000000       0.00000000       0.00000000 s 
O       10.81112425       2.36559791       7.38060000              inf       0.00000000       0.00000000       0.00000000 s 
O        9.30432425       4.97545206       7.38060000              inf       0.00000000       0.00000000       0.00000000 s 
O        7.79752425       7.58530622       7.38060000              inf       0.00000000       0.00000000       0.00000000 s 
O        6.29076946      10.19508208       7.38060000      10.78784708       0.00004520      -0.00007830       0.00000000 s 
O        4.78402973      12.80488404       7.38060000       9.44887700       0.00010548      -0.00013049       0.00000000 s 
O        3.27719959      15.41479039       7.38060000       6.61980391       0.00007534      -0.00007830       0.00000000 s 
O        1.77036946      18.02469675       7.38060000       4.06529548       0.00004520      -0.00002610       0.00000000 s 
O        0.26364480      20.63442041       7.38060000       2.71951298       0.00012054      -0.00015659       0.00000000 s 
O       -1.24318534      23.24432677       7.38060000       4.05313408       0.00009041      -0.00010439       0.00000000 s 
O       -2.75001548      25.85423312       7.38060000       6.60487225       0.00006027      -0.00005220       0.00000000 s 
O       -4.25684561      28.46413947       7.38060000       9.43319010       0.00003014       0.00000000       0.00000000 s 
O       -5.76367575      31.07399363       7.38060000              inf       0.00000000       0.00000000       0.00000000 s 
O       13.82472425       2.36559791       7.38060000              inf       0.00000000       0.00000000       0.00000000 s 
O       12.31798452       4.97545206       7.38060000      11.20071331       0.00006027      -0.00000000       0.00000000 s 
O       10.81125986       7.58517573       7.38060000       9.44093216       0.00013561      -0.00013049       0.00000000 s 
O        9.30442973      10.19508208       7.38060000       8.42422336       0.00010548      -0.00007830       0.00000000 s 
O        7.79759959      12.80498844       7.38060000       8.42426109       0.00007534      -0.00002610       0.00000000 s 
O        6.29085986      15.41479039       7.38060000       8.43123199       0.00013561      -0.00007830       0.00000000 s 
O        4.78402973      18.02469675       7.38060000       5.89137914       0.00010548      -0.00002610       0.00000000 s 
O        3.27730507      20.63442041       7.38060000       4.06152179       0.00018082      -0.00015659       0.00000000 s 
O        1.77047493      23.24432677       7.38060000       4.05536139       0.00015068      -0.00010439       0.00000000 s 
O        0.26364480      25.85423312       7.38060000       5.87879659       0.00012054      -0.00005220       0.00000000 s 
O       -1.24318534      28.46413947       7.38060000       8.41658120       0.00009041       0.00000000       0.00000000 s 
O       -2.74991000      31.07386314       7.38060000      11.19273330       0.00016575      -0.00013049       0.00000000 s 
O       16.83832425       2.36559791       7.38060000              inf       0.00000000       0.00000000       0.00000000 s 
O       15.33164480       4.97545206       7.38060000      10.78767029       0.00012054       0.00000000       0.00000000 s 
O       13.82492014       7.58517573       7.38060000       8.42422336       0.00019588      -0.00013049       0.00000000 s 
O       12.31809000      10.19508208       7.38060000       6.61224094       0.00016575      -0.00007830       0.00000000 s 
O       10.81125986      12.80498844       7.38060000       5.88559409       0.00013561      -0.00002610       0.00000000 s 
O        9.30453520      15.41471210       7.38060000       6.61224094       0.00021095      -0.00015659       0.00000000 s 
O        7.79770507      18.02461845       7.38060000       8.42422336       0.00018082      -0.00010439       0.00000000 s 
O        6.29096534      20.63442041       7.38060000       6.61516924       0.00024109      -0.00015659       0.00000000 s 
O        4.78413520      23.24432677       7.38060000       5.88458262       0.00021095      -0.00010439       0.00000000 s 
O        3.27730507      25.85423312       7.38060000       6.60760605       0.00018082      -0.00005220       0.00000000 s 
O        1.77047493      28.46413947       7.38060000       8.41765402       0.00015068       0.00000000       0.00000000 s 
O        0.26375027      31.07386314       7.38060000      10.78025168       0.00022602      -0.00013049       0.00000000 s 
O       19.85192425       2.36559791       7.38060000              inf       0.00000000       0.00000000       0.00000000 s 
O       18.34530507       4.97545206       7.38060000      11.20071331       0.00018082       0.00000000       0.00000000 s 
O       16.83858041       7.58517573       7.38060000       8.42426109       0.00025616      -0.00013049       0.00000000 s 
O       15.33175027      10.19508208       7.38060000       5.88559409       0.00022602      -0.00007830       0.00000000 s 
O       13.82492014      12.80498844       7.38060000       4.05913255       0.00019588      -0.00002610       0.00000000 s 
O       12.31819548      15.41471210       7.38060000       4.05913255       0.00027122      -0.00015659       0.00000000 s 
O       10.81136534      18.02461845       7.38060000       5.88559409       0.00024109      -0.00010439       0.00000000 s 
O        9.30453520      20.63452481       7.38060000       8.42426109       0.00021095      -0.00005220       0.00000000 s 
O        7.79758452      23.24432677       7.38060000       8.42447540       0.00006027      -0.00010439       0.00000000 s 
O        6.29075439      25.85423312       7.38060000       8.42154489       0.00003014      -0.00005220       0.00000000 s 
O        4.78392425      28.46413947       7.38060000       9.43596033       0.00000000      -0.00000000       0.00000000 s 
O        3.27719959      31.07386314       7.38060000      11.19434668       0.00007534      -0.00013049       0.00000000 s 
O       22.86552425       2.36559791       7.38060000              inf       0.00000000       0.00000000       0.00000000 s 
O       21.35872425       4.97545206       7.38060000              inf       0.00000000       0.00000000       0.00000000 s 
O       19.85202973       7.58517573       7.38060000       9.44093216       0.00010548      -0.00013049       0.00000000 s 
O       18.34519959      10.19508208       7.38060000       6.61224094       0.00007534      -0.00007830       0.00000000 s 
O       16.83836946      12.80498844       7.38060000       4.05913255       0.00004520      -0.00002610       0.00000000 s 
O       15.33164480      15.41471210       7.38060000       2.71950000       0.00012054      -0.00015659       0.00000000 s 
O       13.82481466      18.02461845       7.38060000       4.05928916       0.00009041      -0.00010439       0.00000000 s 
O       12.31798452      20.63452481       7.38060000       6.61243323       0.00006027      -0.00005220       0.00000000 s 
O       10.81115439      23.24443116       7.38060000       9.44113417       0.00003014       0.00000000       0.00000000 s 
O        9.30441466      25.85423312       7.38060000      10.78656332       0.00009041      -0.00005220       0.00000000 s 
O        7.79758452      28.46413947       7.38060000      11.19744297       0.00006027       0.00000000       0.00000000 s 
O        6.29072425      31.07399363       7.38060000              inf       0.00000000       0.00000000       0.00000000 s 
O       25.87912425       2.36559791       7.38060000              inf       0.00000000       0.00000000       0.00000000 s 
O       24.37232425       4.97545206       7.38060000              inf       0.00000000       0.00000000       0.00000000 s 
O       22.86552425       7.58530622       7.38060000              inf       0.00000000       0.00000000       0.00000000 s 
O       21.35885986      10.19508208       7.38060000       8.42422336       0.00013561      -0.00007830       0.00000000 s 
O       19.85202973      12.80498844       7.38060000       5.88559409       0.00010548      -0.00002610       0.00000000 s 
O       18.34530507      15.41471210       7.38060000       4.05928916       0.00018082      -0.00015659       0.00000000 s 
O       16.83847493      18.02461845       7.38060000       4.05928916       0.00015068      -0.00010439       0.00000000 s 
O       15.33164480      20.63452481       7.38060000       5.88575611       0.00012054      -0.00005220       0.00000000 s 
O       13.82481466      23.24443116       7.38060000       8.42441202       0.00009041       0.00000000       0.00000000 s 
O       12.31809000      25.85415483       7.38060000      11.20085520       0.00016575      -0.00013049       0.00000000 s 
O       10.81112425      28.46413947       7.38060000              inf       0.00000000       0.00000000       0.00000000 s 
O        9.30432425      31.07399363       7.38060000              inf       0.00000000       0.00000000       0.00000000 s 
O       28.89272425       2.36559791       7.38060000              inf       0.00000000       0.00000000       0.00000000 s 
O       27.38592425       4.97545206       7.38060000              inf       0.00000000       0.00000000       0.00000000 s 
O       25.87912425       7.58530622       7.38060000              inf       0.00000000       0.00000000       0.00000000 s 
O       24.37252014      10.19508208       7.38060000      10.78784708       0.00019588      -0.00007830       0.00000000 s 
O       22.86569000      12.80498844       7.38060000       8.42426109       0.00016575      -0.00002610       0.00000000 s 
O       21.35896534      15.41471210       7.38060000       6.61243323       0.00024109      -0.00015659       0.00000000 s 
O       19.85213520      18.02461845       7.38060000       5.88575611       0.00021095      -0.00010439       0.00000000 s 
O       18.34530507      20.63452481       7.38060000       6.61243323       0.00018082      -0.00005220       0.00000000 s 
O       16.83847493      23.24443116       7.38060000       8.42441202       0.00015068       0.00000000       0.00000000 s 
O       15.33175027      25.85415483       7.38060000      10.78784708       0.00022602      -0.00013049       0.00000000 s 
O       13.82472425      28.46413947       7.38060000              inf       0.00000000       0.00000000       0.00000000 s 
O       12.31792425      31.07399363       7.38060000              inf       0.00000000       0.00000000       0.00000000 s 
O       31.90632425       2.36559791       7.38060000              inf       0.00000000       0.00000000       0.00000000 s 
O       30.39952425       4.97545206       7.38060000              inf       0.00000000       0.00000000       0.00000000 s 
O       28.89272425       7.58530622       7.38060000              inf       0.00000000       0.00000000       0.00000000 s 
O       27.38592425      10.19516038       7.38060000              inf       0.00000000       0.00000000       0.00000000 s 
O       25.87913932      12.80498844       7.38060000      11.20071331       0.00001507      -0.00002610       0.00000000 s 
O       24.37241466      15.41471210       7.38060000       9.44093216       0.00009041      -0.00015659       0.00000000 s 
O       22.86558452      18.02461845       7.38060000       8.42422336       0.00006027      -0.00010439       0.00000000 s 
O       21.35875439      20.63452481       7.38060000       8.42426109       0.00003014      -0.00005220       0.00000000 s 
O       19.85192425      23.24443116       7.38060000       9.44103316       0.00000000       0.00000000       0.00000000 s 
O       18.34519959      25.85415483       7.38060000      11.20085520       0.00007534      -0.00013049       0.00000000 s 
O       16.83832425      28.46413947       7.38060000              inf       0.00000000       0.00000000       0.00000000 s 
O       15.33152425      31.07399363       7.38060000              inf       0.00000000       0.00000000       0.00000000 s 
Cu      15.33164480      15.41471210      10.10010000       0.00000000       0.00000000       0.00000000       0.00000000 a1
N        0.22968152      14.91513382      10.10010000       0.00000000       0.00000000       0.00000000       0.00000000 a2
H       -1.84155069      15.01104596      10.10010000       0.00000000       0.00000000       0.00000000       0.00000000 a2
H        2.30513278      14.98145021      10.10010000       0.00000000       0.00000000       0.00000000       0.00000000 a2
C       -0.91526046      15.59126873      10.10010000       0.00000000       0.00000000       0.00000000       0.00000000 a2
C        1.38791348      15.57446127      10.10010000       0.00000000       0.00000000       0.00000000       0.00000000 a2
C       -0.95091134      16.99505709      10.10010000       0.00000000       0.00000000       0.00000000       0.00000000 a2
C        1.44444862      16.97459583      10.10010000       0.00000000       0.00000000       0.00000000       0.00000000 a2
H       -1.92962315      17.46950247      10.10010000       0.00000000       0.00000000       0.00000000       0.00000000 a2
C        0.25046030      17.73239308      10.10010000       0.00000000       0.00000000       0.00000000       0.00000000 a2
H        2.43107112      17.43424334      10.10010000       0.00000000       0.00000000       0.00000000       0.00000000 a2
C        0.25984766      19.21272846      10.10010000       0.00000000       0.00000000       0.00000000       0.00000000 a2
H       -1.88711632      19.40473543      10.10010000       0.00000000       0.00000000       0.00000000       0.00000000 a2
H        2.40628426      19.38628376      10.10010000       0.00000000       0.00000000       0.00000000       0.00000000 a2
C       -0.94700873      19.94604528      10.10010000       0.00000000       0.00000000       0.00000000       0.00000000 a2
C        1.46923548      19.93289162      10.10010000       0.00000000       0.00000000       0.00000000       0.00000000 a2
H       -3.58833872      20.36659718      10.10010000       0.00000000       0.00000000       0.00000000       0.00000000 a2
H        4.11626117      20.34211675      10.10010000       0.00000000       0.00000000       0.00000000       0.00000000 a2
C       -3.49362128      21.44921688      10.10010000       0.00000000       0.00000000       0.00000000       0.00000000 a2
C       -0.96873679      21.34910288      10.10010000       0.00000000       0.00000000       0.00000000       0.00000000 a2
C        1.49876876      21.34106452      10.10010000       0.00000000       0.00000000       0.00000000       0.00000000 a2
C        4.02407515      21.42619797      10.10010000       0.00000000       0.00000000       0.00000000       0.00000000 a2
H       -5.65028905      21.70735756      10.10010000       0.00000000       0.00000000       0.00000000       0.00000000 a2
C       -2.24257044      22.10269826      10.10010000       0.00000000       0.00000000       0.00000000       0.00000000 a2
C       -4.67590176      22.19915847      10.10010000       0.00000000       0.00000000       0.00000000       0.00000000 a2
C        0.26902407      22.02341089      10.10010000       0.00000000       0.00000000       0.00000000       0.00000000 a2
C        2.77966930      22.08278508      10.10010000       0.00000000       0.00000000       0.00000000       0.00000000 a2
H        6.18559482      21.67776181      10.10010000       0.00000000       0.00000000       0.00000000       0.00000000 a2
C        5.21141848      22.17431266      10.10010000       0.00000000       0.00000000       0.00000000       0.00000000 a2
N       -4.66387750      23.53133243      10.10010000       0.00000000       0.00000000       0.00000000       0.00000000 a2
C       -2.27537348      23.51032310      10.10010000       0.00000000       0.00000000       0.00000000       0.00000000 a2
H        0.27377049      23.10840556      10.10010000       0.00000000       0.00000000       0.00000000       0.00000000 a2
C        2.81837899      23.49552523      10.10010000       0.00000000       0.00000000       0.00000000       0.00000000 a2
N        5.20530087      23.50319820      10.10010000       0.00000000       0.00000000       0.00000000       0.00000000 a2
C       -3.50733316      24.18298691      10.10010000       0.00000000       0.00000000       0.00000000       0.00000000 a2
C        4.04938939      24.16398717      10.10010000       0.00000000       0.00000000       0.00000000       0.00000000 a2
H       -1.37344820      24.11813204      10.10010000       0.00000000       0.00000000       0.00000000       0.00000000 a2
H        1.91856324      24.10516106      10.10010000       0.00000000       0.00000000       0.00000000       0.00000000 a2
H       -3.54889070      25.27620262      10.10010000       0.00000000       0.00000000       0.00000000       0.00000000 a2
H        4.09643168      25.25464523      10.10010000       0.00000000       0.00000000       0.00000000       0.00000000 a2
