222
Lattice="36.16319999999999 0.0 0.0 -18.081599999999995 31.318249882114287 0.0 0.0 0.0 30.0" Properties=species:S:1:pos:R:3:remoteness:R:1:shift:R:3:adsorption:S:1 size="_JSON [[12, 0], [0, 12]]" mass_center_dist=12.18044638997193 min_atom_dist=0.7291288416326028 s1=tpb_atop s2=tpb_hollow_up s1idx=4 s2idx=8 pbc="T T T"
O       -1.24327575       2.36559791       7.38060000              inf       0.00000000       0.00000000       0.00000000 s 
O       -2.75007575       4.97545206       7.38060000              inf       0.00000000       0.00000000       0.00000000 s 
O       -4.25687575       7.58530622       7.38060000              inf       0.00000000       0.00000000       0.00000000 s 
O       -5.76367575      10.19516038       7.38060000              inf       0.00000000       0.00000000       0.00000000 s 
O       -7.27047575      12.80501453       7.38060000              inf       0.00000000       0.00000000       0.00000000 s 
O       -8.77727575      15.41486869       7.38060000              inf       0.00000000       0.00000000       0.00000000 s 
O      -10.28407575      18.02472285       7.38060000              inf       0.00000000       0.00000000       0.00000000 s 
O      -11.79087575      20.63457700       7.38060000              inf       0.00000000       0.00000000       0.00000000 s 
O      -13.29767575      23.24443116       7.38060000              inf       0.00000000       0.00000000       0.00000000 s 
O      -14.80447575      25.85428532       7.38060000              inf       0.00000000       0.00000000       0.00000000 s 
O      -16.31118534      28.46408728       7.38060000      10.78656332       0.00009041      -0.00005220       0.00000000 s 
O      -17.81801548      31.07399363       7.38060000      11.19744297       0.00006027       0.00000000       0.00000000 s 
O        1.77032425       2.36559791       7.38060000              inf       0.00000000       0.00000000       0.00000000 s 
O        0.26352425       4.97545206       7.38060000              inf       0.00000000       0.00000000       0.00000000 s 
O       -1.24327575       7.58530622       7.38060000              inf       0.00000000       0.00000000       0.00000000 s 
O       -2.75007575      10.19516038       7.38060000              inf       0.00000000       0.00000000       0.00000000 s 
O       -4.25687575      12.80501453       7.38060000              inf       0.00000000       0.00000000       0.00000000 s 
O       -5.76367575      15.41486869       7.38060000              inf       0.00000000       0.00000000       0.00000000 s 
O       -7.27047575      18.02472285       7.38060000              inf       0.00000000       0.00000000       0.00000000 s 
O       -8.77727575      20.63457700       7.38060000              inf       0.00000000       0.00000000       0.00000000 s 
O      -10.28407575      23.24443116       7.38060000              inf       0.00000000       0.00000000       0.00000000 s 
O      -11.79087575      25.85428532       7.38060000              inf       0.00000000       0.00000000       0.00000000 s 
O      -13.29767575      28.46413947       7.38060000              inf       0.00000000       0.00000000       0.00000000 s 
O      -14.80447575      31.07399363       7.38060000              inf       0.00000000       0.00000000       0.00000000 s 
O        4.78392425       2.36559791       7.38060000              inf       0.00000000       0.00000000       0.00000000 s 
O        3.27725986       4.97532157       7.38060000      10.06654360       0.00013561      -0.00013049       0.00000000 s 
O        1.77042973       7.58522792       7.38060000      10.06494431       0.00010548      -0.00007830       0.00000000 s 
O        0.26352425      10.19516038       7.38060000              inf       0.00000000       0.00000000       0.00000000 s 
O       -1.24327575      12.80501453       7.38060000              inf       0.00000000       0.00000000       0.00000000 s 
O       -2.75007575      15.41486869       7.38060000              inf       0.00000000       0.00000000       0.00000000 s 
O       -4.25687575      18.02472285       7.38060000              inf       0.00000000       0.00000000       0.00000000 s 
O       -5.76367575      20.63457700       7.38060000              inf       0.00000000       0.00000000       0.00000000 s 
O       -7.27047575      23.24443116       7.38060000              inf       0.00000000       0.00000000       0.00000000 s 
O       -8.77727575      25.85428532       7.38060000              inf       0.00000000       0.00000000       0.00000000 s 
O      -10.28407575      28.46413947       7.38060000              inf       0.00000000       0.00000000       0.00000000 s 
O      -11.79087575      31.07399363       7.38060000              inf       0.00000000       0.00000000       0.00000000 s 
O        7.79764480       2.36559791       7.38060000       9.60617260       0.00012054       0.00000000       0.00000000 s 
O        6.29092014       4.97532157       7.38060000       8.06241008       0.00019588      -0.00013049       0.00000000 s 
O        4.78409000       7.58522792       7.38060000       7.47583520       0.00016575      -0.00007830       0.00000000 s 
O        3.27725986      10.19513428       7.38060000       8.05841572       0.00013561      -0.00002610       0.00000000 s 
O        1.77053520      12.80485794       7.38060000       9.59946726       0.00021095      -0.00015659       0.00000000 s 
O        0.26352425      15.41486869       7.38060000              inf       0.00000000       0.00000000       0.00000000 s 
O       -1.24327575      18.02472285       7.38060000              inf       0.00000000       0.00000000       0.00000000 s 
O       -2.75007575      20.63457700       7.38060000              inf       0.00000000       0.00000000       0.00000000 s 
O       -4.25687575      23.24443116       7.38060000              inf       0.00000000       0.00000000       0.00000000 s 
O       -5.76367575      25.85428532       7.38060000              inf       0.00000000       0.00000000       0.00000000 s 
O       -7.27047575      28.46413947       7.38060000              inf       0.00000000       0.00000000       0.00000000 s 
O       -8.77727575      31.07399363       7.38060000              inf       0.00000000       0.00000000       0.00000000 s 
O       10.81130507       2.36559791       7.38060000       9.12093840       0.00018082       0.00000000       0.00000000 s 
O        9.30458041       4.97532157       7.38060000       6.84353045       0.00025616      -0.00013049       0.00000000 s 
O        7.79775027       7.58522792       7.38060000       5.35139386       0.00022602      -0.00007830       0.00000000 s 
O        6.29092014      10.19513428       7.38060000       5.34838481       0.00019588      -0.00002610       0.00000000 s 
O        4.78419548      12.80485794       7.38060000       6.83633055       0.00027122      -0.00015659       0.00000000 s 
O        3.27736534      15.41476430       7.38060000       9.11210956       0.00024109      -0.00010439       0.00000000 s 
O        1.77036946      18.02464455       7.38060000      10.78913708       0.00004520      -0.00007830       0.00000000 s 
O        0.26353932      20.63455091       7.38060000      11.19992230       0.00001507      -0.00002610       0.00000000 s 
O       -1.24327575      23.24443116       7.38060000              inf       0.00000000       0.00000000       0.00000000 s 
O       -2.75007575      25.85428532       7.38060000              inf       0.00000000       0.00000000       0.00000000 s 
O       -4.25687575      28.46413947       7.38060000              inf       0.00000000       0.00000000       0.00000000 s 
O       -5.76367575      31.07399363       7.38060000              inf       0.00000000       0.00000000       0.00000000 s 
O       13.82475439       2.36559791       7.38060000       9.60559773       0.00003014       0.00000000       0.00000000 s 
O       12.31802973       4.97532157       7.38060000       6.84317344       0.00010548      -0.00013049       0.00000000 s 
O       10.81119959       7.58522792       7.38060000       4.42165326       0.00007534      -0.00007830       0.00000000 s 
O        9.30436946      10.19513428       7.38060000       3.23068240       0.00004520      -0.00002610       0.00000000 s 
O        7.79764480      12.80485794       7.38060000       4.41436602       0.00012054      -0.00015659       0.00000000 s 
O        6.29081466      15.41476430       7.38060000       6.83375739       0.00009041      -0.00010439       0.00000000 s 
O        4.78402973      18.02464455       7.38060000       8.42694687       0.00010548      -0.00007830       0.00000000 s 
O        3.27719959      20.63455091       7.38060000       8.42401722       0.00007534      -0.00002610       0.00000000 s 
O        1.77047493      23.24427457       7.38060000       9.43806608       0.00015068      -0.00015659       0.00000000 s 
O        0.26364480      25.85418092       7.38060000      11.19620674       0.00012054      -0.00010439       0.00000000 s 
O       -1.24327575      28.46413947       7.38060000              inf       0.00000000       0.00000000       0.00000000 s 
O       -2.75007575      31.07399363       7.38060000              inf       0.00000000       0.00000000       0.00000000 s 
O       16.83832425       2.36559791       7.38060000              inf       0.00000000       0.00000000       0.00000000 s 
O       15.33169000       4.97532157       7.38060000       8.06150091       0.00016575      -0.00013049       0.00000000 s 
O       13.82485986       7.58522792       7.38060000       5.35048067       0.00013561      -0.00007830       0.00000000 s 
O       12.31802973      10.19513428       7.38060000       3.22982762       0.00010548      -0.00002610       0.00000000 s 
O       10.81130507      12.80485794       7.38060000       3.22483991       0.00018082      -0.00015659       0.00000000 s 
O        9.30447493      15.41476430       7.38060000       5.34144709       0.00015068      -0.00010439       0.00000000 s 
O        7.79769000      18.02464455       7.38060000       6.61707524       0.00016575      -0.00007830       0.00000000 s 
O        6.29085986      20.63455091       7.38060000       5.88677917       0.00013561      -0.00002610       0.00000000 s 
O        4.78413520      23.24427457       7.38060000       6.60951449       0.00021095      -0.00015659       0.00000000 s 
O        3.27730507      25.85418092       7.38060000       8.41911442       0.00018082      -0.00010439       0.00000000 s 
O        1.77047493      28.46408728       7.38060000      10.78153931       0.00015068      -0.00005220       0.00000000 s 
O        0.26352425      31.07399363       7.38060000              inf       0.00000000       0.00000000       0.00000000 s 
O       19.85192425       2.36559791       7.38060000              inf       0.00000000       0.00000000       0.00000000 s 
O       18.34535027       4.97532157       7.38060000      10.06532997       0.00022602      -0.00013049       0.00000000 s 
O       16.83852014       7.58522792       7.38060000       7.47452780       0.00019588      -0.00007830       0.00000000 s 
O       15.33169000      10.19513428       7.38060000       5.34701417       0.00016575      -0.00002610       0.00000000 s 
O       13.82496534      12.80485794       7.38060000       4.41325890       0.00024109      -0.00015659       0.00000000 s 
O       12.31813520      15.41476430       7.38060000       5.34098964       0.00021095      -0.00010439       0.00000000 s 
O       10.81135027      18.02464455       7.38060000       5.89255737       0.00022602      -0.00007830       0.00000000 s 
O        9.30452014      20.63455091       7.38060000       4.06307377       0.00019588      -0.00002610       0.00000000 s 
O        7.79779548      23.24427457       7.38060000       4.05691616       0.00027122      -0.00015659       0.00000000 s 
O        6.29096534      25.85418092       7.38060000       5.87981516       0.00024109      -0.00010439       0.00000000 s 
O        4.78413520      28.46408728       7.38060000       8.41725492       0.00021095      -0.00005220       0.00000000 s 
O        3.27730507      31.07399363       7.38060000      11.19341015       0.00018082       0.00000000       0.00000000 s 
O       22.86552425       2.36559791       7.38060000              inf       0.00000000       0.00000000       0.00000000 s 
O       21.35872425       4.97545206       7.38060000              inf       0.00000000       0.00000000       0.00000000 s 
O       19.85196946       7.58522792       7.38060000      10.06329820       0.00004520      -0.00007830       0.00000000 s 
O       18.34513932      10.19513428       7.38060000       8.05670236       0.00001507      -0.00002610       0.00000000 s 
O       16.83841466      12.80485794       7.38060000       6.83490085       0.00009041      -0.00015659       0.00000000 s 
O       15.33158452      15.41476430       7.38060000       6.83254516       0.00006027      -0.00010439       0.00000000 s 
O       13.82479959      18.02464455       7.38060000       6.61980391       0.00007534      -0.00007830       0.00000000 s 
O       12.31796946      20.63455091       7.38060000       4.06529548       0.00004520      -0.00002610       0.00000000 s 
O       10.81124480      23.24427457       7.38060000       2.71951298       0.00012054      -0.00015659       0.00000000 s 
O        9.30441466      25.85418092       7.38060000       4.05313408       0.00009041      -0.00010439       0.00000000 s 
O        7.79758452      28.46408728       7.38060000       6.60487225       0.00006027      -0.00005220       0.00000000 s 
O        6.29075439      31.07399363       7.38060000       9.43319010       0.00003014       0.00000000       0.00000000 s 
O       25.87929000       2.36546741       7.38060000      11.19273330       0.00016575      -0.00013049       0.00000000 s 
O       24.37232425       4.97545206       7.38060000              inf       0.00000000       0.00000000       0.00000000 s 
O       22.86552425       7.58530622       7.38060000              inf       0.00000000       0.00000000       0.00000000 s 
O       21.35879959      10.19513428       7.38060000      10.92687277       0.00007534      -0.00002610       0.00000000 s 
O       19.85207493      12.80485794       7.38060000       9.59794003       0.00015068      -0.00015659       0.00000000 s 
O       18.34524480      15.41476430       7.38060000       9.11076881       0.00012054      -0.00010439       0.00000000 s 
O       16.83845986      18.02464455       7.38060000       8.43123199       0.00013561      -0.00007830       0.00000000 s 
O       15.33162973      20.63455091       7.38060000       5.89137914       0.00010548      -0.00002610       0.00000000 s 
O       13.82490507      23.24427457       7.38060000       4.06152179       0.00018082      -0.00015659       0.00000000 s 
O       12.31807493      25.85418092       7.38060000       4.05536139       0.00015068      -0.00010439       0.00000000 s 
O       10.81124480      28.46408728       7.38060000       5.87879659       0.00012054      -0.00005220       0.00000000 s 
O        9.30441466      31.07399363       7.38060000       8.41658120       0.00009041       0.00000000       0.00000000 s 
O       28.89295027       2.36546741       7.38060000      10.78025168       0.00022602      -0.00013049       0.00000000 s 
O       27.38592425       4.97545206       7.38060000              inf       0.00000000       0.00000000       0.00000000 s 
O       25.87912425       7.58530622       7.38060000              inf       0.00000000       0.00000000       0.00000000 s 
O       24.37232425      10.19516038       7.38060000              inf       0.00000000       0.00000000       0.00000000 s 
O       22.86552425      12.80501453       7.38060000              inf       0.00000000       0.00000000       0.00000000 s 
O       21.35890507      15.41476430       7.38060000      11.72573407       0.00018082      -0.00010439       0.00000000 s 
O       19.85212014      18.02464455       7.38060000      10.79415761       0.00019588      -0.00007830       0.00000000 s 
O       18.34529000      20.63455091       7.38060000       8.42937516       0.00016575      -0.00002610       0.00000000 s 
O       16.83856534      23.24427457       7.38060000       6.61516924       0.00024109      -0.00015659       0.00000000 s 
O       15.33173520      25.85418092       7.38060000       5.88458262       0.00021095      -0.00010439       0.00000000 s 
O       13.82490507      28.46408728       7.38060000       6.60760605       0.00018082      -0.00005220       0.00000000 s 
O       12.31807493      31.07399363       7.38060000       8.41765402       0.00015068       0.00000000       0.00000000 s 
O       31.90639959       2.36546741       7.38060000      11.19434668       0.00007534      -0.00013049       0.00000000 s 
O       30.39952425       4.97545206       7.38060000              inf       0.00000000       0.00000000       0.00000000 s 
O       28.89272425       7.58530622       7.38060000              inf       0.00000000       0.00000000       0.00000000 s 
O       27.38592425      10.19516038       7.38060000              inf       0.00000000       0.00000000       0.00000000 s 
O       25.87912425      12.80501453       7.38060000              inf       0.00000000       0.00000000       0.00000000 s 
O       24.37232425      15.41486869       7.38060000              inf       0.00000000       0.00000000       0.00000000 s 
O       22.86552425      18.02472285       7.38060000              inf       0.00000000       0.00000000       0.00000000 s 
O       21.35872425      20.63457700       7.38060000              inf       0.00000000       0.00000000       0.00000000 s 
O       19.85201466      23.24427457       7.38060000       9.44380483       0.00009041      -0.00015659       0.00000000 s 
O       18.34518452      25.85418092       7.38060000       8.42447540       0.00006027      -0.00010439       0.00000000 s 
O       16.83835439      28.46408728       7.38060000       8.42154489       0.00003014      -0.00005220       0.00000000 s 
O       15.33152425      31.07399363       7.38060000       9.43596033       0.00000000      -0.00000000       0.00000000 s 
N       10.77728152      17.52498797      10.10010000       0.00000000       0.00000000       0.00000000       0.00000000 a1
H        8.70604931      17.62090011      10.10010000       0.00000000       0.00000000       0.00000000       0.00000000 a1
H       12.85273278      17.59130437      10.10010000       0.00000000       0.00000000       0.00000000       0.00000000 a1
C        9.63233954      18.20112289      10.10010000       0.00000000       0.00000000       0.00000000       0.00000000 a1
C       11.93551348      18.18431543      10.10010000       0.00000000       0.00000000       0.00000000       0.00000000 a1
C        9.59668866      19.60491124      10.10010000       0.00000000       0.00000000       0.00000000       0.00000000 a1
C       11.99204862      19.58444999      10.10010000       0.00000000       0.00000000       0.00000000       0.00000000 a1
H        8.61797685      20.07935663      10.10010000       0.00000000       0.00000000       0.00000000       0.00000000 a1
C       10.79806030      20.34224724      10.10010000       0.00000000       0.00000000       0.00000000       0.00000000 a1
H       12.97867112      20.04409750      10.10010000       0.00000000       0.00000000       0.00000000       0.00000000 a1
C       10.80744766      21.82258262      10.10010000       0.00000000       0.00000000       0.00000000       0.00000000 a1
H        8.66048368      22.01458959      10.10010000       0.00000000       0.00000000       0.00000000       0.00000000 a1
H       12.95388426      21.99613792      10.10010000       0.00000000       0.00000000       0.00000000       0.00000000 a1
C        9.60059127      22.55589944      10.10010000       0.00000000       0.00000000       0.00000000       0.00000000 a1
C       12.01683548      22.54274577      10.10010000       0.00000000       0.00000000       0.00000000       0.00000000 a1
H        6.95926128      22.97645134      10.10010000       0.00000000       0.00000000       0.00000000       0.00000000 a1
H       14.66386117      22.95197090      10.10010000       0.00000000       0.00000000       0.00000000       0.00000000 a1
C        7.05397872      24.05907104      10.10010000       0.00000000       0.00000000       0.00000000       0.00000000 a1
C        9.57886321      23.95895703      10.10010000       0.00000000       0.00000000       0.00000000       0.00000000 a1
C       12.04636876      23.95091868      10.10010000       0.00000000       0.00000000       0.00000000       0.00000000 a1
C       14.57167515      24.03605212      10.10010000       0.00000000       0.00000000       0.00000000       0.00000000 a1
H        4.89731095      24.31721171      10.10010000       0.00000000       0.00000000       0.00000000       0.00000000 a1
C        8.30502956      24.71255242      10.10010000       0.00000000       0.00000000       0.00000000       0.00000000 a1
C        5.87169824      24.80901263      10.10010000       0.00000000       0.00000000       0.00000000       0.00000000 a1
C       10.81662407      24.63326505      10.10010000       0.00000000       0.00000000       0.00000000       0.00000000 a1
C       13.32726930      24.69263923      10.10010000       0.00000000       0.00000000       0.00000000       0.00000000 a1
H       16.73319482      24.28761597      10.10010000       0.00000000       0.00000000       0.00000000       0.00000000 a1
C       15.75901848      24.78416682      10.10010000       0.00000000       0.00000000       0.00000000       0.00000000 a1
N        5.88372250      26.14118659      10.10010000       0.00000000       0.00000000       0.00000000       0.00000000 a1
C        8.27222652      26.12017726      10.10010000       0.00000000       0.00000000       0.00000000       0.00000000 a1
H       10.82137049      25.71825972      10.10010000       0.00000000       0.00000000       0.00000000       0.00000000 a1
C       13.36597899      26.10537939      10.10010000       0.00000000       0.00000000       0.00000000       0.00000000 a1
N       15.75290087      26.11305236      10.10010000       0.00000000       0.00000000       0.00000000       0.00000000 a1
C        7.04026684      26.79284107      10.10010000       0.00000000       0.00000000       0.00000000       0.00000000 a1
C       14.59698939      26.77384133      10.10010000       0.00000000       0.00000000       0.00000000       0.00000000 a1
H        9.17415180      26.72798619      10.10010000       0.00000000       0.00000000       0.00000000       0.00000000 a1
H       12.46616324      26.71501522      10.10010000       0.00000000       0.00000000       0.00000000       0.00000000 a1
H        6.99870930      27.88605678      10.10010000       0.00000000       0.00000000       0.00000000       0.00000000 a1
H       14.64403168      27.86449938      10.10010000       0.00000000       0.00000000       0.00000000       0.00000000 a1
N       10.84294787      16.79882215      10.10010000       0.00000000       0.00000000       0.00000000       0.00000000 a2
H       12.91428556      16.70272732      10.10010000       0.00000000       0.00000000       0.00000000       0.00000000 a2
H        8.76770757      16.73250576      10.10010000       0.00000000       0.00000000       0.00000000       0.00000000 a2
C       11.98820628      16.12250455      10.10010000       0.00000000       0.00000000       0.00000000       0.00000000 a2
C        9.68471591      16.13949470      10.10010000       0.00000000       0.00000000       0.00000000       0.00000000 a2
C       12.02354074      14.71889888      10.10010000       0.00000000       0.00000000       0.00000000       0.00000000 a2
C        9.62839173      14.73936014      10.10010000       0.00000000       0.00000000       0.00000000       0.00000000 a2
H       13.00246349      14.24445350      10.10010000       0.00000000       0.00000000       0.00000000       0.00000000 a2
C       10.82238005      13.98156289      10.10010000       0.00000000       0.00000000       0.00000000       0.00000000 a2
H        8.64176922      14.27971263      10.10010000       0.00000000       0.00000000       0.00000000       0.00000000 a2
C       10.81278173      12.50122751      10.10010000       0.00000000       0.00000000       0.00000000       0.00000000 a2
H       12.95995666      12.30922054      10.10010000       0.00000000       0.00000000       0.00000000       0.00000000 a2
H        8.66634513      12.32767221      10.10010000       0.00000000       0.00000000       0.00000000       0.00000000 a2
C       12.01984908      11.76791069      10.10010000       0.00000000       0.00000000       0.00000000       0.00000000 a2
C        9.60360487      11.78106435      10.10010000       0.00000000       0.00000000       0.00000000       0.00000000 a2
H       14.66096812      11.34735879      10.10010000       0.00000000       0.00000000       0.00000000       0.00000000 a2
H        6.95636822      11.37183922      10.10010000       0.00000000       0.00000000       0.00000000       0.00000000 a2
C       14.56646162      10.26473909      10.10010000       0.00000000       0.00000000       0.00000000       0.00000000 a2
C       12.04157713      10.36485309      10.10010000       0.00000000       0.00000000       0.00000000       0.00000000 a2
C        9.57386064      10.37289144      10.10010000       0.00000000       0.00000000       0.00000000       0.00000000 a2
C        7.04876520      10.28775800      10.10010000       0.00000000       0.00000000       0.00000000       0.00000000 a2
H       16.72312939      10.00659841      10.10010000       0.00000000       0.00000000       0.00000000       0.00000000 a2
C       13.31541078       9.61125771      10.10010000       0.00000000       0.00000000       0.00000000       0.00000000 a2
C       15.74874210       9.51479750      10.10010000       0.00000000       0.00000000       0.00000000       0.00000000 a2
C       10.80381627       9.69054508      10.10010000       0.00000000       0.00000000       0.00000000       0.00000000 a2
C        8.29317104       9.63117089      10.10010000       0.00000000       0.00000000       0.00000000       0.00000000 a2
H        4.88724553      10.03619416      10.10010000       0.00000000       0.00000000       0.00000000       0.00000000 a2
C        5.86121091       9.53964331      10.10010000       0.00000000       0.00000000       0.00000000       0.00000000 a2
N       15.73650689       8.18262354      10.10010000       0.00000000       0.00000000       0.00000000       0.00000000 a2
C       13.34821382       8.20363287      10.10010000       0.00000000       0.00000000       0.00000000       0.00000000 a2
H       10.79906985       8.60555041      10.10010000       0.00000000       0.00000000       0.00000000       0.00000000 a2
C        8.25425040       8.21843074      10.10010000       0.00000000       0.00000000       0.00000000       0.00000000 a2
N        5.86753947       8.21075777      10.10010000       0.00000000       0.00000000       0.00000000       0.00000000 a2
C       14.57996255       7.53096906      10.10010000       0.00000000       0.00000000       0.00000000       0.00000000 a2
C        7.02345096       7.54996879      10.10010000       0.00000000       0.00000000       0.00000000       0.00000000 a2
H       12.44628854       7.59582393      10.10010000       0.00000000       0.00000000       0.00000000       0.00000000 a2
H        9.15406616       7.60879491      10.10010000       0.00000000       0.00000000       0.00000000       0.00000000 a2
H       14.62173104       6.43775335      10.10010000       0.00000000       0.00000000       0.00000000       0.00000000 a2
H        6.97619771       6.45931074      10.10010000       0.00000000       0.00000000       0.00000000       0.00000000 a2
