222
Lattice="36.16319999999999 0.0 0.0 -18.081599999999995 31.318249882114287 0.0 0.0 0.0 30.0" Properties=species:S:1:pos:R:3:remoteness:R:1:shift:R:3:adsorption:S:1 size="_JSON [[12, 0], [0, 12]]" mass_center_dist=15.946472302047237 min_atom_dist=5.397095393838559 s1=tpb_hollow_up s2=tpb_hollow_up s1idx=8 s2idx=8 pbc="T T T"
O       -1.24327575       2.36559791       7.38060000              inf       0.00000000       0.00000000       0.00000000 s 
O       -2.75007575       4.97545206       7.38060000              inf       0.00000000       0.00000000       0.00000000 s 
O       -4.25687575       7.58530622       7.38060000              inf       0.00000000       0.00000000       0.00000000 s 
O       -5.76367575      10.19516038       7.38060000              inf       0.00000000       0.00000000       0.00000000 s 
O       -7.27040041      12.80498844       7.38060000      10.92687277       0.00007534      -0.00002610       0.00000000 s 
O       -8.77712507      15.41471210       7.38060000       9.59794003       0.00015068      -0.00015659       0.00000000 s 
O      -10.28395520      18.02461845       7.38060000       9.11076881       0.00012054      -0.00010439       0.00000000 s 
O      -11.79078534      20.63452481       7.38060000       9.59458494       0.00009041      -0.00005220       0.00000000 s 
O      -13.29761548      23.24443116       7.38060000      10.92109467       0.00006027       0.00000000       0.00000000 s 
O      -14.80447575      25.85428532       7.38060000              inf       0.00000000       0.00000000       0.00000000 s 
O      -16.31127575      28.46413947       7.38060000              inf       0.00000000       0.00000000       0.00000000 s 
O      -17.81807575      31.07399363       7.38060000              inf       0.00000000       0.00000000       0.00000000 s 
O        1.77032425       2.36559791       7.38060000              inf       0.00000000       0.00000000       0.00000000 s 
O        0.26352425       4.97545206       7.38060000              inf       0.00000000       0.00000000       0.00000000 s 
O       -1.24327575       7.58530622       7.38060000              inf       0.00000000       0.00000000       0.00000000 s 
O       -2.75007575      10.19516038       7.38060000              inf       0.00000000       0.00000000       0.00000000 s 
O       -4.25674014      12.80488404       7.38060000      10.06654360       0.00013561      -0.00013049       0.00000000 s 
O       -5.76357027      15.41479039       7.38060000      10.06494431       0.00010548      -0.00007830       0.00000000 s 
O       -7.27029493      18.02461845       7.38060000      11.72573407       0.00018082      -0.00010439       0.00000000 s 
O       -8.77712507      20.63452481       7.38060000      11.72436111       0.00015068      -0.00005220       0.00000000 s 
O      -10.28407575      23.24443116       7.38060000              inf       0.00000000       0.00000000       0.00000000 s 
O      -11.79087575      25.85428532       7.38060000              inf       0.00000000       0.00000000       0.00000000 s 
O      -13.29767575      28.46413947       7.38060000              inf       0.00000000       0.00000000       0.00000000 s 
O      -14.80447575      31.07399363       7.38060000              inf       0.00000000       0.00000000       0.00000000 s 
O        4.78392425       2.36559791       7.38060000              inf       0.00000000       0.00000000       0.00000000 s 
O        3.27712425       4.97545206       7.38060000              inf       0.00000000       0.00000000       0.00000000 s 
O        1.77032425       7.58530622       7.38060000              inf       0.00000000       0.00000000       0.00000000 s 
O        0.26364480      10.19516038       7.38060000       9.60617260       0.00012054       0.00000000       0.00000000 s 
O       -1.24307986      12.80488404       7.38060000       8.06241008       0.00019588      -0.00013049       0.00000000 s 
O       -2.74991000      15.41479039       7.38060000       7.47583520       0.00016575      -0.00007830       0.00000000 s 
O       -4.25674014      18.02469675       7.38060000       8.05841572       0.00013561      -0.00002610       0.00000000 s 
O       -5.76346480      20.63442041       7.38060000       9.59946726       0.00021095      -0.00015659       0.00000000 s 
O       -7.27047575      23.24443116       7.38060000              inf       0.00000000       0.00000000       0.00000000 s 
O       -8.77727575      25.85428532       7.38060000              inf       0.00000000       0.00000000       0.00000000 s 
O      -10.28407575      28.46413947       7.38060000              inf       0.00000000       0.00000000       0.00000000 s 
O      -11.79087575      31.07399363       7.38060000              inf       0.00000000       0.00000000       0.00000000 s 
O        7.79752425       2.36559791       7.38060000              inf       0.00000000       0.00000000       0.00000000 s 
O        6.29072425       4.97545206       7.38060000              inf       0.00000000       0.00000000       0.00000000 s 
O        4.78392425       7.58530622       7.38060000              inf       0.00000000       0.00000000       0.00000000 s 
O        3.27730507      10.19516038       7.38060000       9.12093840       0.00018082       0.00000000       0.00000000 s 
O        1.77058041      12.80488404       7.38060000       6.84353045       0.00025616      -0.00013049       0.00000000 s 
O        0.26375027      15.41479039       7.38060000       5.35139386       0.00022602      -0.00007830       0.00000000 s 
O       -1.24307986      18.02469675       7.38060000       5.34838481       0.00019588      -0.00002610       0.00000000 s 
O       -2.74980452      20.63442041       7.38060000       6.83633055       0.00027122      -0.00015659       0.00000000 s 
O       -4.25663466      23.24432677       7.38060000       9.11210956       0.00024109      -0.00010439       0.00000000 s 
O       -5.76346480      25.85423312       7.38060000      11.72561138       0.00021095      -0.00005220       0.00000000 s 
O       -7.27047575      28.46413947       7.38060000              inf       0.00000000       0.00000000       0.00000000 s 
O       -8.77727575      31.07399363       7.38060000              inf       0.00000000       0.00000000       0.00000000 s 
O       10.81112425       2.36559791       7.38060000              inf       0.00000000       0.00000000       0.00000000 s 
O        9.30432425       4.97545206       7.38060000              inf       0.00000000       0.00000000       0.00000000 s 
O        7.79752425       7.58530622       7.38060000              inf       0.00000000       0.00000000       0.00000000 s 
O        6.29075439      10.19516038       7.38060000       9.60559773       0.00003014       0.00000000       0.00000000 s 
O        4.78402973      12.80488404       7.38060000       6.84317344       0.00010548      -0.00013049       0.00000000 s 
O        3.27719959      15.41479039       7.38060000       4.42165326       0.00007534      -0.00007830       0.00000000 s 
O        1.77036946      18.02469675       7.38060000       3.23068240       0.00004520      -0.00002610       0.00000000 s 
O        0.26364480      20.63442041       7.38060000       4.41436602       0.00012054      -0.00015659       0.00000000 s 
O       -1.24318534      23.24432677       7.38060000       6.83375739       0.00009041      -0.00010439       0.00000000 s 
O       -2.75001548      25.85423312       7.38060000       9.59573599       0.00006027      -0.00005220       0.00000000 s 
O       -4.25687575      28.46413947       7.38060000              inf       0.00000000       0.00000000       0.00000000 s 
O       -5.76367575      31.07399363       7.38060000              inf       0.00000000       0.00000000       0.00000000 s 
O       13.82472425       2.36559791       7.38060000              inf       0.00000000       0.00000000       0.00000000 s 
O       12.31792425       4.97545206       7.38060000              inf       0.00000000       0.00000000       0.00000000 s 
O       10.81125986       7.58517573       7.38060000      10.06654360       0.00013561      -0.00013049       0.00000000 s 
O        9.30442973      10.19508208       7.38060000      10.06494431       0.00010548      -0.00007830       0.00000000 s 
O        7.79769000      12.80488404       7.38060000       8.06150091       0.00016575      -0.00013049       0.00000000 s 
O        6.29085986      15.41479039       7.38060000       5.35048067       0.00013561      -0.00007830       0.00000000 s 
O        4.78402973      18.02469675       7.38060000       3.22982762       0.00010548      -0.00002610       0.00000000 s 
O        3.27730507      20.63442041       7.38060000       3.22483991       0.00018082      -0.00015659       0.00000000 s 
O        1.77047493      23.24432677       7.38060000       5.34144709       0.00015068      -0.00010439       0.00000000 s 
O        0.26364480      25.85423312       7.38060000       8.05151029       0.00012054      -0.00005220       0.00000000 s 
O       -1.24318534      28.46413947       7.38060000      10.92185311       0.00009041       0.00000000       0.00000000 s 
O       -2.75007575      31.07399363       7.38060000              inf       0.00000000       0.00000000       0.00000000 s 
O       16.83832425       2.36559791       7.38060000              inf       0.00000000       0.00000000       0.00000000 s 
O       15.33164480       4.97545206       7.38060000       9.60617260       0.00012054       0.00000000       0.00000000 s 
O       13.82492014       7.58517573       7.38060000       8.06241008       0.00019588      -0.00013049       0.00000000 s 
O       12.31809000      10.19508208       7.38060000       7.47583520       0.00016575      -0.00007830       0.00000000 s 
O       10.81125986      12.80498844       7.38060000       8.05841572       0.00013561      -0.00002610       0.00000000 s 
O        9.30452014      15.41479039       7.38060000       7.47452780       0.00019588      -0.00007830       0.00000000 s 
O        7.79769000      18.02469675       7.38060000       5.34701417       0.00016575      -0.00002610       0.00000000 s 
O        6.29096534      20.63442041       7.38060000       4.41325890       0.00024109      -0.00015659       0.00000000 s 
O        4.78413520      23.24432677       7.38060000       5.34098964       0.00021095      -0.00010439       0.00000000 s 
O        3.27730507      25.85423312       7.38060000       7.46590806       0.00018082      -0.00005220       0.00000000 s 
O        1.77047493      28.46413947       7.38060000      10.05572933       0.00015068       0.00000000       0.00000000 s 
O        0.26352425      31.07399363       7.38060000              inf       0.00000000       0.00000000       0.00000000 s 
O       19.85192425       2.36559791       7.38060000              inf       0.00000000       0.00000000       0.00000000 s 
O       18.34530507       4.97545206       7.38060000       9.12093840       0.00018082       0.00000000       0.00000000 s 
O       16.83858041       7.58517573       7.38060000       6.84353045       0.00025616      -0.00013049       0.00000000 s 
O       15.33175027      10.19508208       7.38060000       5.35139386       0.00022602      -0.00007830       0.00000000 s 
O       13.82492014      12.80498844       7.38060000       5.34838481       0.00019588      -0.00002610       0.00000000 s 
O       12.31819548      15.41471210       7.38060000       6.83633055       0.00027122      -0.00015659       0.00000000 s 
O       10.81113932      18.02469675       7.38060000       8.05670236       0.00001507      -0.00002610       0.00000000 s 
O        9.30441466      20.63442041       7.38060000       6.83490085       0.00009041      -0.00015659       0.00000000 s 
O        7.79758452      23.24432677       7.38060000       6.83254516       0.00006027      -0.00010439       0.00000000 s 
O        6.29075439      25.85423312       7.38060000       8.05082441       0.00003014      -0.00005220       0.00000000 s 
O        4.78392425      28.46413947       7.38060000      10.05545476       0.00000000       0.00000000       0.00000000 s 
O        3.27719959      31.07386314       7.38060000      12.47270683       0.00007534      -0.00013049       0.00000000 s 
O       22.86552425       2.36559791       7.38060000              inf       0.00000000       0.00000000       0.00000000 s 
O       21.35875439       4.97545206       7.38060000       9.60559773       0.00003014       0.00000000       0.00000000 s 
O       19.85202973       7.58517573       7.38060000       6.84317344       0.00010548      -0.00013049       0.00000000 s 
O       18.34519959      10.19508208       7.38060000       4.42165326       0.00007534      -0.00007830       0.00000000 s 
O       16.83836946      12.80498844       7.38060000       3.23068240       0.00004520      -0.00002610       0.00000000 s 
O       15.33164480      15.41471210       7.38060000       4.41436602       0.00012054      -0.00015659       0.00000000 s 
O       13.82481466      18.02461845       7.38060000       6.83375739       0.00009041      -0.00010439       0.00000000 s 
O       12.31798452      20.63452481       7.38060000       9.59573599       0.00006027      -0.00005220       0.00000000 s 
O       10.81124480      23.24432677       7.38060000       9.11076881       0.00012054      -0.00010439       0.00000000 s 
O        9.30441466      25.85423312       7.38060000       9.59458494       0.00009041      -0.00005220       0.00000000 s 
O        7.79758452      28.46413947       7.38060000      10.92109467       0.00006027       0.00000000       0.00000000 s 
O        6.29072425      31.07399363       7.38060000              inf       0.00000000       0.00000000       0.00000000 s 
O       25.87912425       2.36559791       7.38060000              inf       0.00000000       0.00000000       0.00000000 s 
O       24.37232425       4.97545206       7.38060000              inf       0.00000000       0.00000000       0.00000000 s 
O       22.86569000       7.58517573       7.38060000       8.06150091       0.00016575      -0.00013049       0.00000000 s 
O       21.35885986      10.19508208       7.38060000       5.35048067       0.00013561      -0.00007830       0.00000000 s 
O       19.85202973      12.80498844       7.38060000       3.22982762       0.00010548      -0.00002610       0.00000000 s 
O       18.34530507      15.41471210       7.38060000       3.22483991       0.00018082      -0.00015659       0.00000000 s 
O       16.83847493      18.02461845       7.38060000       5.34144709       0.00015068      -0.00010439       0.00000000 s 
O       15.33164480      20.63452481       7.38060000       8.05151029       0.00012054      -0.00005220       0.00000000 s 
O       13.82481466      23.24443116       7.38060000      10.92185311       0.00009041       0.00000000       0.00000000 s 
O       12.31807493      25.85423312       7.38060000      11.72436111       0.00015068      -0.00005220       0.00000000 s 
O       10.81112425      28.46413947       7.38060000              inf       0.00000000       0.00000000       0.00000000 s 
O        9.30432425      31.07399363       7.38060000              inf       0.00000000       0.00000000       0.00000000 s 
O       28.89272425       2.36559791       7.38060000              inf       0.00000000       0.00000000       0.00000000 s 
O       27.38592425       4.97545206       7.38060000              inf       0.00000000       0.00000000       0.00000000 s 
O       25.87935027       7.58517573       7.38060000      10.06532997       0.00022602      -0.00013049       0.00000000 s 
O       24.37252014      10.19508208       7.38060000       7.47452780       0.00019588      -0.00007830       0.00000000 s 
O       22.86569000      12.80498844       7.38060000       5.34701417       0.00016575      -0.00002610       0.00000000 s 
O       21.35896534      15.41471210       7.38060000       4.41325890       0.00024109      -0.00015659       0.00000000 s 
O       19.85213520      18.02461845       7.38060000       5.34098964       0.00021095      -0.00010439       0.00000000 s 
O       18.34530507      20.63452481       7.38060000       7.46590806       0.00018082      -0.00005220       0.00000000 s 
O       16.83847493      23.24443116       7.38060000      10.05572933       0.00015068       0.00000000       0.00000000 s 
O       15.33152425      25.85428532       7.38060000              inf       0.00000000       0.00000000       0.00000000 s 
O       13.82472425      28.46413947       7.38060000              inf       0.00000000       0.00000000       0.00000000 s 
O       12.31792425      31.07399363       7.38060000              inf       0.00000000       0.00000000       0.00000000 s 
O       31.90632425       2.36559791       7.38060000              inf       0.00000000       0.00000000       0.00000000 s 
O       30.39952425       4.97545206       7.38060000              inf       0.00000000       0.00000000       0.00000000 s 
O       28.89272425       7.58530622       7.38060000              inf       0.00000000       0.00000000       0.00000000 s 
O       27.38596946      10.19508208       7.38060000      10.06329820       0.00004520      -0.00007830       0.00000000 s 
O       25.87913932      12.80498844       7.38060000       8.05670236       0.00001507      -0.00002610       0.00000000 s 
O       24.37241466      15.41471210       7.38060000       6.83490085       0.00009041      -0.00015659       0.00000000 s 
O       22.86558452      18.02461845       7.38060000       6.83254516       0.00006027      -0.00010439       0.00000000 s 
O       21.35875439      20.63452481       7.38060000       8.05082441       0.00003014      -0.00005220       0.00000000 s 
O       19.85192425      23.24443116       7.38060000      10.05545476       0.00000000       0.00000000       0.00000000 s 
O       18.34519959      25.85415483       7.38060000      12.47270683       0.00007534      -0.00013049       0.00000000 s 
O       16.83832425      28.46413947       7.38060000              inf       0.00000000       0.00000000       0.00000000 s 
O       15.33152425      31.07399363       7.38060000              inf       0.00000000       0.00000000       0.00000000 s 
N       18.37694787      19.40867631      10.10010000       0.00000000       0.00000000       0.00000000       0.00000000 a1
H       20.44828556      19.31258148      10.10010000       0.00000000       0.00000000       0.00000000       0.00000000 a1
H       16.30170757      19.34235992      10.10010000       0.00000000       0.00000000       0.00000000       0.00000000 a1
C       19.52220628      18.73235870      10.10010000       0.00000000       0.00000000       0.00000000       0.00000000 a1
C       17.21871591      18.74934885      10.10010000       0.00000000       0.00000000       0.00000000       0.00000000 a1
C       19.55754074      17.32875304      10.10010000       0.00000000       0.00000000       0.00000000       0.00000000 a1
C       17.16239173      17.34921430      10.10010000       0.00000000       0.00000000       0.00000000       0.00000000 a1
H       20.53646349      16.85430765      10.10010000       0.00000000       0.00000000       0.00000000       0.00000000 a1
C       18.35638005      16.59141704      10.10010000       0.00000000       0.00000000       0.00000000       0.00000000 a1
H       16.17576922      16.88956678      10.10010000       0.00000000       0.00000000       0.00000000       0.00000000 a1
C       18.34678173      15.11108167      10.10010000       0.00000000       0.00000000       0.00000000       0.00000000 a1
H       20.49395666      14.91907470      10.10010000       0.00000000       0.00000000       0.00000000       0.00000000 a1
H       16.20034513      14.93752637      10.10010000       0.00000000       0.00000000       0.00000000       0.00000000 a1
C       19.55384908      14.37776485      10.10010000       0.00000000       0.00000000       0.00000000       0.00000000 a1
C       17.13760487      14.39091851      10.10010000       0.00000000       0.00000000       0.00000000       0.00000000 a1
H       22.19496812      13.95721295      10.10010000       0.00000000       0.00000000       0.00000000       0.00000000 a1
H       14.49036822      13.98169338      10.10010000       0.00000000       0.00000000       0.00000000       0.00000000 a1
C       22.10046162      12.87459325      10.10010000       0.00000000       0.00000000       0.00000000       0.00000000 a1
C       19.57557713      12.97470725      10.10010000       0.00000000       0.00000000       0.00000000       0.00000000 a1
C       17.10786064      12.98274560      10.10010000       0.00000000       0.00000000       0.00000000       0.00000000 a1
C       14.58276520      12.89761216      10.10010000       0.00000000       0.00000000       0.00000000       0.00000000 a1
H       24.25712939      12.61645257      10.10010000       0.00000000       0.00000000       0.00000000       0.00000000 a1
C       20.84941078      12.22111186      10.10010000       0.00000000       0.00000000       0.00000000       0.00000000 a1
C       23.28274210      12.12465165      10.10010000       0.00000000       0.00000000       0.00000000       0.00000000 a1
C       18.33781627      12.30039923      10.10010000       0.00000000       0.00000000       0.00000000       0.00000000 a1
C       15.82717104      12.24102505      10.10010000       0.00000000       0.00000000       0.00000000       0.00000000 a1
H       12.42124553      12.64604832      10.10010000       0.00000000       0.00000000       0.00000000       0.00000000 a1
C       13.39521091      12.14949747      10.10010000       0.00000000       0.00000000       0.00000000       0.00000000 a1
N       23.27050689      10.79247770      10.10010000       0.00000000       0.00000000       0.00000000       0.00000000 a1
C       20.88221382      10.81348702      10.10010000       0.00000000       0.00000000       0.00000000       0.00000000 a1
H       18.33306985      11.21540456      10.10010000       0.00000000       0.00000000       0.00000000       0.00000000 a1
C       15.78825040      10.82828490      10.10010000       0.00000000       0.00000000       0.00000000       0.00000000 a1
N       13.40153947      10.82061193      10.10010000       0.00000000       0.00000000       0.00000000       0.00000000 a1
C       22.11396255      10.14082321      10.10010000       0.00000000       0.00000000       0.00000000       0.00000000 a1
C       14.55745096      10.15982295      10.10010000       0.00000000       0.00000000       0.00000000       0.00000000 a1
H       19.98028854      10.20567809      10.10010000       0.00000000       0.00000000       0.00000000       0.00000000 a1
H       16.68806616      10.21864906      10.10010000       0.00000000       0.00000000       0.00000000       0.00000000 a1
H       22.15573104       9.04760750      10.10010000       0.00000000       0.00000000       0.00000000       0.00000000 a1
H       14.51019771       9.06916490      10.10010000       0.00000000       0.00000000       0.00000000       0.00000000 a1
N        3.30894787      24.62838462      10.10010000       0.00000000       0.00000000       0.00000000       0.00000000 a2
H        5.38028556      24.53228979      10.10010000       0.00000000       0.00000000       0.00000000       0.00000000 a2
H        1.23370757      24.56206823      10.10010000       0.00000000       0.00000000       0.00000000       0.00000000 a2
C        4.45420628      23.95206702      10.10010000       0.00000000       0.00000000       0.00000000       0.00000000 a2
C        2.15071591      23.96905717      10.10010000       0.00000000       0.00000000       0.00000000       0.00000000 a2
C        4.48954074      22.54846135      10.10010000       0.00000000       0.00000000       0.00000000       0.00000000 a2
C        2.09439173      22.56892261      10.10010000       0.00000000       0.00000000       0.00000000       0.00000000 a2
H        5.46846349      22.07401597      10.10010000       0.00000000       0.00000000       0.00000000       0.00000000 a2
C        3.28838005      21.81112536      10.10010000       0.00000000       0.00000000       0.00000000       0.00000000 a2
H        1.10776922      22.10927510      10.10010000       0.00000000       0.00000000       0.00000000       0.00000000 a2
C        3.27878173      20.33078998      10.10010000       0.00000000       0.00000000       0.00000000       0.00000000 a2
H        5.42595666      20.13878301      10.10010000       0.00000000       0.00000000       0.00000000       0.00000000 a2
H        1.13234513      20.15723468      10.10010000       0.00000000       0.00000000       0.00000000       0.00000000 a2
C        4.48584908      19.59747316      10.10010000       0.00000000       0.00000000       0.00000000       0.00000000 a2
C        2.06960487      19.61062682      10.10010000       0.00000000       0.00000000       0.00000000       0.00000000 a2
H        7.12696812      19.17692126      10.10010000       0.00000000       0.00000000       0.00000000       0.00000000 a2
H       -0.57763178      19.20140169      10.10010000       0.00000000       0.00000000       0.00000000       0.00000000 a2
C        7.03246162      18.09430156      10.10010000       0.00000000       0.00000000       0.00000000       0.00000000 a2
C        4.50757713      18.19441556      10.10010000       0.00000000       0.00000000       0.00000000       0.00000000 a2
C        2.03986064      18.20245392      10.10010000       0.00000000       0.00000000       0.00000000       0.00000000 a2
C       -0.48523480      18.11732047      10.10010000       0.00000000       0.00000000       0.00000000       0.00000000 a2
H        9.18912939      17.83616088      10.10010000       0.00000000       0.00000000       0.00000000       0.00000000 a2
C        5.78141078      17.44082018      10.10010000       0.00000000       0.00000000       0.00000000       0.00000000 a2
C        8.21474210      17.34435997      10.10010000       0.00000000       0.00000000       0.00000000       0.00000000 a2
C        3.26981627      17.52010755      10.10010000       0.00000000       0.00000000       0.00000000       0.00000000 a2
C        0.75917104      17.46073336      10.10010000       0.00000000       0.00000000       0.00000000       0.00000000 a2
H       -2.64675447      17.86575663      10.10010000       0.00000000       0.00000000       0.00000000       0.00000000 a2
C       -1.67278909      17.36920578      10.10010000       0.00000000       0.00000000       0.00000000       0.00000000 a2
N        8.20250689      16.01218601      10.10010000       0.00000000       0.00000000       0.00000000       0.00000000 a2
C        5.81421382      16.03319534      10.10010000       0.00000000       0.00000000       0.00000000       0.00000000 a2
H        3.26506985      16.43511288      10.10010000       0.00000000       0.00000000       0.00000000       0.00000000 a2
C        0.72025040      16.04799321      10.10010000       0.00000000       0.00000000       0.00000000       0.00000000 a2
N       -1.66646053      16.04032024      10.10010000       0.00000000       0.00000000       0.00000000       0.00000000 a2
C        7.04596255      15.36053153      10.10010000       0.00000000       0.00000000       0.00000000       0.00000000 a2
C       -0.51054904      15.37953127      10.10010000       0.00000000       0.00000000       0.00000000       0.00000000 a2
H        4.91228854      15.42538640      10.10010000       0.00000000       0.00000000       0.00000000       0.00000000 a2
H        1.62006616      15.43835738      10.10010000       0.00000000       0.00000000       0.00000000       0.00000000 a2
H        7.08773104      14.26731582      10.10010000       0.00000000       0.00000000       0.00000000       0.00000000 a2
H       -0.55780229      14.28887321      10.10010000       0.00000000       0.00000000       0.00000000       0.00000000 a2
