146
Lattice="36.16319999999999 0.0 0.0 -18.081599999999995 31.318249882114287 0.0 0.0 0.0 30.0" Properties=species:S:1:pos:R:3:remoteness:R:1:shift:R:3:adsorption:S:1 size="_JSON [[12, 0], [0, 12]]" mass_center_dist=6.027199999999999 min_atom_dist=6.027199999999999 s1=cu_atop s2=cu_atop s1idx=1 s2idx=1 pbc="T T T"
O       -1.24327575       2.36559791       7.38060000              inf       0.00000000       0.00000000       0.00000000 s 
O       -2.75007575       4.97545206       7.38060000              inf       0.00000000       0.00000000       0.00000000 s 
O       -4.25687575       7.58530622       7.38060000              inf       0.00000000       0.00000000       0.00000000 s 
O       -5.76367575      10.19516038       7.38060000              inf       0.00000000       0.00000000       0.00000000 s 
O       -7.27047575      12.80501453       7.38060000              inf       0.00000000       0.00000000       0.00000000 s 
O       -8.77727575      15.41486869       7.38060000              inf       0.00000000       0.00000000       0.00000000 s 
O      -10.28407575      18.02472285       7.38060000              inf       0.00000000       0.00000000       0.00000000 s 
O      -11.79087575      20.63457700       7.38060000              inf       0.00000000       0.00000000       0.00000000 s 
O      -13.29767575      23.24443116       7.38060000              inf       0.00000000       0.00000000       0.00000000 s 
O      -14.80447575      25.85428532       7.38060000              inf       0.00000000       0.00000000       0.00000000 s 
O      -16.31127575      28.46413947       7.38060000              inf       0.00000000       0.00000000       0.00000000 s 
O      -17.81807575      31.07399363       7.38060000              inf       0.00000000       0.00000000       0.00000000 s 
O        1.77032425       2.36559791       7.38060000              inf       0.00000000       0.00000000       0.00000000 s 
O        0.26352425       4.97545206       7.38060000              inf       0.00000000       0.00000000       0.00000000 s 
O       -1.24327575       7.58530622       7.38060000              inf       0.00000000       0.00000000       0.00000000 s 
O       -2.75007575      10.19516038       7.38060000              inf       0.00000000       0.00000000       0.00000000 s 
O       -4.25683054      12.80493624       7.38060000      10.78784708       0.00004520      -0.00007830       0.00000000 s 
O       -5.76367575      15.41486869       7.38060000              inf       0.00000000       0.00000000       0.00000000 s 
O       -7.27047575      18.02472285       7.38060000              inf       0.00000000       0.00000000       0.00000000 s 
O       -8.77727575      20.63457700       7.38060000              inf       0.00000000       0.00000000       0.00000000 s 
O      -10.28407575      23.24443116       7.38060000              inf       0.00000000       0.00000000       0.00000000 s 
O      -11.79087575      25.85428532       7.38060000              inf       0.00000000       0.00000000       0.00000000 s 
O      -13.29767575      28.46413947       7.38060000              inf       0.00000000       0.00000000       0.00000000 s 
O      -14.80447575      31.07399363       7.38060000              inf       0.00000000       0.00000000       0.00000000 s 
O        4.78392425       2.36559791       7.38060000              inf       0.00000000       0.00000000       0.00000000 s 
O        3.27712425       4.97545206       7.38060000              inf       0.00000000       0.00000000       0.00000000 s 
O        1.77038452       7.58530622       7.38060000      11.20071331       0.00006027       0.00000000       0.00000000 s 
O        0.26365986      10.19502988       7.38060000       9.44093216       0.00013561      -0.00013049       0.00000000 s 
O       -1.24317027      12.80493624       7.38060000       8.42422336       0.00010548      -0.00007830       0.00000000 s 
O       -2.75000041      15.41484259       7.38060000       8.42426109       0.00007534      -0.00002610       0.00000000 s 
O       -4.25672507      18.02456626       7.38060000       9.44093216       0.00015068      -0.00015659       0.00000000 s 
O       -5.76367575      20.63457700       7.38060000              inf       0.00000000       0.00000000       0.00000000 s 
O       -7.27047575      23.24443116       7.38060000              inf       0.00000000       0.00000000       0.00000000 s 
O       -8.77727575      25.85428532       7.38060000              inf       0.00000000       0.00000000       0.00000000 s 
O      -10.28407575      28.46413947       7.38060000              inf       0.00000000       0.00000000       0.00000000 s 
O      -11.79087575      31.07399363       7.38060000              inf       0.00000000       0.00000000       0.00000000 s 
O        7.79752425       2.36559791       7.38060000              inf       0.00000000       0.00000000       0.00000000 s 
O        6.29072425       4.97545206       7.38060000              inf       0.00000000       0.00000000       0.00000000 s 
O        4.78404480       7.58530622       7.38060000      10.78767029       0.00012054       0.00000000       0.00000000 s 
O        3.27732014      10.19502988       7.38060000       8.42422336       0.00019588      -0.00013049       0.00000000 s 
O        1.77049000      12.80493624       7.38060000       6.61224094       0.00016575      -0.00007830       0.00000000 s 
O        0.26365986      15.41484259       7.38060000       5.88559409       0.00013561      -0.00002610       0.00000000 s 
O       -1.24306480      18.02456626       7.38060000       6.61224094       0.00021095      -0.00015659       0.00000000 s 
O       -2.74989493      20.63447261       7.38060000       8.42422336       0.00018082      -0.00010439       0.00000000 s 
O       -4.25672507      23.24437896       7.38060000      10.78784708       0.00015068      -0.00005220       0.00000000 s 
O       -5.76367575      25.85428532       7.38060000              inf       0.00000000       0.00000000       0.00000000 s 
O       -7.27047575      28.46413947       7.38060000              inf       0.00000000       0.00000000       0.00000000 s 
O       -8.77727575      31.07399363       7.38060000              inf       0.00000000       0.00000000       0.00000000 s 
O       10.81112425       2.36559791       7.38060000              inf       0.00000000       0.00000000       0.00000000 s 
O        9.30432425       4.97545206       7.38060000              inf       0.00000000       0.00000000       0.00000000 s 
O        7.79758452       7.58530622       7.38060000      11.20071331       0.00006027       0.00000000       0.00000000 s 
O        6.29098041      10.19502988       7.38060000       8.42426109       0.00025616      -0.00013049       0.00000000 s 
O        4.78415027      12.80493624       7.38060000       5.88559409       0.00022602      -0.00007830       0.00000000 s 
O        3.27732014      15.41484259       7.38060000       4.05913255       0.00019588      -0.00002610       0.00000000 s 
O        1.77059548      18.02456626       7.38060000       4.05913255       0.00027122      -0.00015659       0.00000000 s 
O        0.26376534      20.63447261       7.38060000       5.88559409       0.00024109      -0.00010439       0.00000000 s 
O       -1.24306480      23.24437896       7.38060000       8.42426109       0.00021095      -0.00005220       0.00000000 s 
O       -2.75007575      25.85428532       7.38060000              inf       0.00000000       0.00000000       0.00000000 s 
O       -4.25687575      28.46413947       7.38060000              inf       0.00000000       0.00000000       0.00000000 s 
O       -5.76367575      31.07399363       7.38060000              inf       0.00000000       0.00000000       0.00000000 s 
O       13.82472425       2.36559791       7.38060000              inf       0.00000000       0.00000000       0.00000000 s 
O       12.31792425       4.97545206       7.38060000              inf       0.00000000       0.00000000       0.00000000 s 
O       10.81124480       7.58530622       7.38060000      10.78767029       0.00012054       0.00000000       0.00000000 s 
O        9.30452014      10.19502988       7.38060000       8.42422336       0.00019588      -0.00013049       0.00000000 s 
O        7.79769000      12.80493624       7.38060000       6.61224094       0.00016575      -0.00007830       0.00000000 s 
O        6.29076946      15.41484259       7.38060000       4.05913255       0.00004520      -0.00002610       0.00000000 s 
O        4.78404480      18.02456626       7.38060000       2.71950000       0.00012054      -0.00015659       0.00000000 s 
O        3.27721466      20.63447261       7.38060000       4.05928916       0.00009041      -0.00010439       0.00000000 s 
O        1.77038452      23.24437896       7.38060000       6.61243323       0.00006027      -0.00005220       0.00000000 s 
O        0.26355439      25.85428532       7.38060000       9.44113417       0.00003014       0.00000000       0.00000000 s 
O       -1.24327575      28.46413947       7.38060000              inf       0.00000000       0.00000000       0.00000000 s 
O       -2.75007575      31.07399363       7.38060000              inf       0.00000000       0.00000000       0.00000000 s 
O       16.83832425       2.36559791       7.38060000              inf       0.00000000       0.00000000       0.00000000 s 
O       15.33152425       4.97545206       7.38060000              inf       0.00000000       0.00000000       0.00000000 s 
O       13.82490507       7.58530622       7.38060000      11.20071331       0.00018082       0.00000000       0.00000000 s 
O       12.31818041      10.19502988       7.38060000       8.42426109       0.00025616      -0.00013049       0.00000000 s 
O       10.81135027      12.80493624       7.38060000       5.88559409       0.00022602      -0.00007830       0.00000000 s 
O        9.30452014      15.41484259       7.38060000       4.05913255       0.00019588      -0.00002610       0.00000000 s 
O        7.79779548      18.02456626       7.38060000       4.05913255       0.00027122      -0.00015659       0.00000000 s 
O        6.29087493      20.63447261       7.38060000       4.05928916       0.00015068      -0.00010439       0.00000000 s 
O        4.78404480      23.24437896       7.38060000       5.88575611       0.00012054      -0.00005220       0.00000000 s 
O        3.27721466      25.85428532       7.38060000       8.42441202       0.00009041       0.00000000       0.00000000 s 
O        1.77049000      28.46400898       7.38060000      11.20085520       0.00016575      -0.00013049       0.00000000 s 
O        0.26352425      31.07399363       7.38060000              inf       0.00000000       0.00000000       0.00000000 s 
O       19.85192425       2.36559791       7.38060000              inf       0.00000000       0.00000000       0.00000000 s 
O       18.34512425       4.97545206       7.38060000              inf       0.00000000       0.00000000       0.00000000 s 
O       16.83832425       7.58530622       7.38060000              inf       0.00000000       0.00000000       0.00000000 s 
O       15.33162973      10.19502988       7.38060000       9.44093216       0.00010548      -0.00013049       0.00000000 s 
O       13.82479959      12.80493624       7.38060000       6.61224094       0.00007534      -0.00007830       0.00000000 s 
O       12.31796946      15.41484259       7.38060000       4.05913255       0.00004520      -0.00002610       0.00000000 s 
O       10.81124480      18.02456626       7.38060000       2.71950000       0.00012054      -0.00015659       0.00000000 s 
O        9.30441466      20.63447261       7.38060000       4.05928916       0.00009041      -0.00010439       0.00000000 s 
O        7.79770507      23.24437896       7.38060000       6.61243323       0.00018082      -0.00005220       0.00000000 s 
O        6.29087493      25.85428532       7.38060000       8.42441202       0.00015068       0.00000000       0.00000000 s 
O        4.78415027      28.46400898       7.38060000      10.78784708       0.00022602      -0.00013049       0.00000000 s 
O        3.27712425      31.07399363       7.38060000              inf       0.00000000       0.00000000       0.00000000 s 
O       22.86552425       2.36559791       7.38060000              inf       0.00000000       0.00000000       0.00000000 s 
O       21.35872425       4.97545206       7.38060000              inf       0.00000000       0.00000000       0.00000000 s 
O       19.85192425       7.58530622       7.38060000              inf       0.00000000       0.00000000       0.00000000 s 
O       18.34512425      10.19516038       7.38060000              inf       0.00000000       0.00000000       0.00000000 s 
O       16.83845986      12.80493624       7.38060000       8.42422336       0.00013561      -0.00007830       0.00000000 s 
O       15.33162973      15.41484259       7.38060000       5.88559409       0.00010548      -0.00002610       0.00000000 s 
O       13.82490507      18.02456626       7.38060000       4.05928916       0.00018082      -0.00015659       0.00000000 s 
O       12.31807493      20.63447261       7.38060000       4.05928916       0.00015068      -0.00010439       0.00000000 s 
O       10.81124480      23.24437896       7.38060000       5.88575611       0.00012054      -0.00005220       0.00000000 s 
O        9.30441466      25.85428532       7.38060000       8.42441202       0.00009041       0.00000000       0.00000000 s 
O        7.79759959      28.46400898       7.38060000      11.20085520       0.00007534      -0.00013049       0.00000000 s 
O        6.29072425      31.07399363       7.38060000              inf       0.00000000       0.00000000       0.00000000 s 
O       25.87912425       2.36559791       7.38060000              inf       0.00000000       0.00000000       0.00000000 s 
O       24.37232425       4.97545206       7.38060000              inf       0.00000000       0.00000000       0.00000000 s 
O       22.86552425       7.58530622       7.38060000              inf       0.00000000       0.00000000       0.00000000 s 
O       21.35872425      10.19516038       7.38060000              inf       0.00000000       0.00000000       0.00000000 s 
O       19.85212014      12.80493624       7.38060000      10.78784708       0.00019588      -0.00007830       0.00000000 s 
O       18.34529000      15.41484259       7.38060000       8.42426109       0.00016575      -0.00002610       0.00000000 s 
O       16.83856534      18.02456626       7.38060000       6.61243323       0.00024109      -0.00015659       0.00000000 s 
O       15.33173520      20.63447261       7.38060000       5.88575611       0.00021095      -0.00010439       0.00000000 s 
O       13.82490507      23.24437896       7.38060000       6.61243323       0.00018082      -0.00005220       0.00000000 s 
O       12.31807493      25.85428532       7.38060000       8.42441202       0.00015068       0.00000000       0.00000000 s 
O       10.81135027      28.46400898       7.38060000      10.78784708       0.00022602      -0.00013049       0.00000000 s 
O        9.30432425      31.07399363       7.38060000              inf       0.00000000       0.00000000       0.00000000 s 
O       28.89272425       2.36559791       7.38060000              inf       0.00000000       0.00000000       0.00000000 s 
O       27.38592425       4.97545206       7.38060000              inf       0.00000000       0.00000000       0.00000000 s 
O       25.87912425       7.58530622       7.38060000              inf       0.00000000       0.00000000       0.00000000 s 
O       24.37232425      10.19516038       7.38060000              inf       0.00000000       0.00000000       0.00000000 s 
O       22.86552425      12.80501453       7.38060000              inf       0.00000000       0.00000000       0.00000000 s 
O       21.35873932      15.41484259       7.38060000      11.20071331       0.00001507      -0.00002610       0.00000000 s 
O       19.85201466      18.02456626       7.38060000       9.44093216       0.00009041      -0.00015659       0.00000000 s 
O       18.34518452      20.63447261       7.38060000       8.42422336       0.00006027      -0.00010439       0.00000000 s 
O       16.83835439      23.24437896       7.38060000       8.42426109       0.00003014      -0.00005220       0.00000000 s 
O       15.33152425      25.85428532       7.38060000       9.44103316       0.00000000       0.00000000       0.00000000 s 
O       13.82479959      28.46400898       7.38060000      11.20085520       0.00007534      -0.00013049       0.00000000 s 
O       12.31792425      31.07399363       7.38060000              inf       0.00000000       0.00000000       0.00000000 s 
O       31.90632425       2.36559791       7.38060000              inf       0.00000000       0.00000000       0.00000000 s 
O       30.39952425       4.97545206       7.38060000              inf       0.00000000       0.00000000       0.00000000 s 
O       28.89272425       7.58530622       7.38060000              inf       0.00000000       0.00000000       0.00000000 s 
O       27.38592425      10.19516038       7.38060000              inf       0.00000000       0.00000000       0.00000000 s 
O       25.87912425      12.80501453       7.38060000              inf       0.00000000       0.00000000       0.00000000 s 
O       24.37232425      15.41486869       7.38060000              inf       0.00000000       0.00000000       0.00000000 s 
O       22.86552425      18.02472285       7.38060000              inf       0.00000000       0.00000000       0.00000000 s 
O       21.35884480      20.63447261       7.38060000      11.20085520       0.00012054      -0.00010439       0.00000000 s 
O       19.85201466      23.24437896       7.38060000      10.78784708       0.00009041      -0.00005220       0.00000000 s 
O       18.34512425      25.85428532       7.38060000              inf       0.00000000       0.00000000       0.00000000 s 
O       16.83832425      28.46413947       7.38060000              inf       0.00000000       0.00000000       0.00000000 s 
O       15.33152425      31.07399363       7.38060000              inf       0.00000000       0.00000000       0.00000000 s 
Cu      10.81124480      18.02456626      10.10010000       0.00000000       0.00000000       0.00000000       0.00000000 a1
Cu       4.78404480      18.02456626      10.10010000       0.00000000       0.00000000       0.00000000       0.00000000 a2
