222
Lattice="36.16319999999999 0.0 0.0 -18.081599999999995 31.318249882114287 0.0 0.0 0.0 30.0" Properties=species:S:1:pos:R:3:remoteness:R:1:shift:R:3:adsorption:S:1 size="_JSON [[12, 0], [0, 12]]" mass_center_dist=11.413057184914797 min_atom_dist=2.5710697228283466 s1=tpb_atop s2=tpb_hollow_up s1idx=4 s2idx=8 pbc="T T T"
O       -1.24327575       2.36559791       7.38060000              inf       0.00000000       0.00000000       0.00000000 s 
O       -2.75007575       4.97545206       7.38060000              inf       0.00000000       0.00000000       0.00000000 s 
O       -4.25687575       7.58530622       7.38060000              inf       0.00000000       0.00000000       0.00000000 s 
O       -5.76367575      10.19516038       7.38060000              inf       0.00000000       0.00000000       0.00000000 s 
O       -7.27047575      12.80501453       7.38060000              inf       0.00000000       0.00000000       0.00000000 s 
O       -8.77727575      15.41486869       7.38060000              inf       0.00000000       0.00000000       0.00000000 s 
O      -10.28389493      18.02461845       7.38060000      11.72573407       0.00018082      -0.00010439       0.00000000 s 
O      -11.79072507      20.63452481       7.38060000      11.72436111       0.00015068      -0.00005220       0.00000000 s 
O      -13.29767575      23.24443116       7.38060000              inf       0.00000000       0.00000000       0.00000000 s 
O      -14.80447575      25.85428532       7.38060000              inf       0.00000000       0.00000000       0.00000000 s 
O      -16.31127575      28.46413947       7.38060000              inf       0.00000000       0.00000000       0.00000000 s 
O      -17.81807575      31.07399363       7.38060000              inf       0.00000000       0.00000000       0.00000000 s 
O        1.77032425       2.36559791       7.38060000              inf       0.00000000       0.00000000       0.00000000 s 
O        0.26352425       4.97545206       7.38060000              inf       0.00000000       0.00000000       0.00000000 s 
O       -1.24327575       7.58530622       7.38060000              inf       0.00000000       0.00000000       0.00000000 s 
O       -2.75007575      10.19516038       7.38060000              inf       0.00000000       0.00000000       0.00000000 s 
O       -4.25687575      12.80501453       7.38060000              inf       0.00000000       0.00000000       0.00000000 s 
O       -5.76367575      15.41486869       7.38060000              inf       0.00000000       0.00000000       0.00000000 s 
O       -7.27047575      18.02472285       7.38060000              inf       0.00000000       0.00000000       0.00000000 s 
O       -8.77727575      20.63457700       7.38060000              inf       0.00000000       0.00000000       0.00000000 s 
O      -10.28407575      23.24443116       7.38060000              inf       0.00000000       0.00000000       0.00000000 s 
O      -11.79087575      25.85428532       7.38060000              inf       0.00000000       0.00000000       0.00000000 s 
O      -13.29767575      28.46413947       7.38060000              inf       0.00000000       0.00000000       0.00000000 s 
O      -14.80447575      31.07399363       7.38060000              inf       0.00000000       0.00000000       0.00000000 s 
O        4.78392425       2.36559791       7.38060000              inf       0.00000000       0.00000000       0.00000000 s 
O        3.27712425       4.97545206       7.38060000              inf       0.00000000       0.00000000       0.00000000 s 
O        1.77032425       7.58530622       7.38060000              inf       0.00000000       0.00000000       0.00000000 s 
O        0.26352425      10.19516038       7.38060000              inf       0.00000000       0.00000000       0.00000000 s 
O       -1.24327575      12.80501453       7.38060000              inf       0.00000000       0.00000000       0.00000000 s 
O       -2.75003054      15.41479039       7.38060000      10.78913708       0.00004520      -0.00007830       0.00000000 s 
O       -4.25686068      18.02469675       7.38060000      11.19992230       0.00001507      -0.00002610       0.00000000 s 
O       -5.76367575      20.63457700       7.38060000              inf       0.00000000       0.00000000       0.00000000 s 
O       -7.27047575      23.24443116       7.38060000              inf       0.00000000       0.00000000       0.00000000 s 
O       -8.77727575      25.85428532       7.38060000              inf       0.00000000       0.00000000       0.00000000 s 
O      -10.28407575      28.46413947       7.38060000              inf       0.00000000       0.00000000       0.00000000 s 
O      -11.79087575      31.07399363       7.38060000              inf       0.00000000       0.00000000       0.00000000 s 
O        7.79752425       2.36559791       7.38060000              inf       0.00000000       0.00000000       0.00000000 s 
O        6.29072425       4.97545206       7.38060000              inf       0.00000000       0.00000000       0.00000000 s 
O        4.78392425       7.58530622       7.38060000              inf       0.00000000       0.00000000       0.00000000 s 
O        3.27712425      10.19516038       7.38060000              inf       0.00000000       0.00000000       0.00000000 s 
O        1.77045986      12.80488404       7.38060000       9.44600961       0.00013561      -0.00013049       0.00000000 s 
O        0.26362973      15.41479039       7.38060000       8.42694687       0.00010548      -0.00007830       0.00000000 s 
O       -1.24320041      18.02469675       7.38060000       8.42401722       0.00007534      -0.00002610       0.00000000 s 
O       -2.74992507      20.63442041       7.38060000       9.43806608       0.00015068      -0.00015659       0.00000000 s 
O       -4.25675520      23.24432677       7.38060000      11.19620674       0.00012054      -0.00010439       0.00000000 s 
O       -5.76367575      25.85428532       7.38060000              inf       0.00000000       0.00000000       0.00000000 s 
O       -7.27047575      28.46413947       7.38060000              inf       0.00000000       0.00000000       0.00000000 s 
O       -8.77727575      31.07399363       7.38060000              inf       0.00000000       0.00000000       0.00000000 s 
O       10.81112425       2.36559791       7.38060000              inf       0.00000000       0.00000000       0.00000000 s 
O        9.30432425       4.97545206       7.38060000              inf       0.00000000       0.00000000       0.00000000 s 
O        7.79765986       7.58517573       7.38060000      10.06654360       0.00013561      -0.00013049       0.00000000 s 
O        6.29082973      10.19508208       7.38060000      10.06494431       0.00010548      -0.00007830       0.00000000 s 
O        4.78412014      12.80488404       7.38060000       8.43098434       0.00019588      -0.00013049       0.00000000 s 
O        3.27729000      15.41479039       7.38060000       6.61707524       0.00016575      -0.00007830       0.00000000 s 
O        1.77045986      18.02469675       7.38060000       5.88677917       0.00013561      -0.00002610       0.00000000 s 
O        0.26373520      20.63442041       7.38060000       6.60951449       0.00021095      -0.00015659       0.00000000 s 
O       -1.24309493      23.24432677       7.38060000       8.41911442       0.00018082      -0.00010439       0.00000000 s 
O       -2.74992507      25.85423312       7.38060000      10.78153931       0.00015068      -0.00005220       0.00000000 s 
O       -4.25687575      28.46413947       7.38060000              inf       0.00000000       0.00000000       0.00000000 s 
O       -5.76367575      31.07399363       7.38060000              inf       0.00000000       0.00000000       0.00000000 s 
O       13.82472425       2.36559791       7.38060000              inf       0.00000000       0.00000000       0.00000000 s 
O       12.31804480       4.97545206       7.38060000       9.60617260       0.00012054       0.00000000       0.00000000 s 
O       10.81132014       7.58517573       7.38060000       8.06241008       0.00019588      -0.00013049       0.00000000 s 
O        9.30449000      10.19508208       7.38060000       7.47583520       0.00016575      -0.00007830       0.00000000 s 
O        7.79765986      12.80498844       7.38060000       8.05841572       0.00013561      -0.00002610       0.00000000 s 
O        6.29095027      15.41479039       7.38060000       5.89255737       0.00022602      -0.00007830       0.00000000 s 
O        4.78412014      18.02469675       7.38060000       4.06307377       0.00019588      -0.00002610       0.00000000 s 
O        3.27739548      20.63442041       7.38060000       4.05691616       0.00027122      -0.00015659       0.00000000 s 
O        1.77056534      23.24432677       7.38060000       5.87981516       0.00024109      -0.00010439       0.00000000 s 
O        0.26373520      25.85423312       7.38060000       8.41725492       0.00021095      -0.00005220       0.00000000 s 
O       -1.24309493      28.46413947       7.38060000      11.19341015       0.00018082       0.00000000       0.00000000 s 
O       -2.75007575      31.07399363       7.38060000              inf       0.00000000       0.00000000       0.00000000 s 
O       16.83832425       2.36559791       7.38060000              inf       0.00000000       0.00000000       0.00000000 s 
O       15.33170507       4.97545206       7.38060000       9.12093840       0.00018082       0.00000000       0.00000000 s 
O       13.82498041       7.58517573       7.38060000       6.84353045       0.00025616      -0.00013049       0.00000000 s 
O       12.31815027      10.19508208       7.38060000       5.35139386       0.00022602      -0.00007830       0.00000000 s 
O       10.81132014      12.80498844       7.38060000       5.34838481       0.00019588      -0.00002610       0.00000000 s 
O        9.30439959      15.41479039       7.38060000       6.61980391       0.00007534      -0.00007830       0.00000000 s 
O        7.79756946      18.02469675       7.38060000       4.06529548       0.00004520      -0.00002610       0.00000000 s 
O        6.29084480      20.63442041       7.38060000       2.71951298       0.00012054      -0.00015659       0.00000000 s 
O        4.78401466      23.24432677       7.38060000       4.05313408       0.00009041      -0.00010439       0.00000000 s 
O        3.27718452      25.85423312       7.38060000       6.60487225       0.00006027      -0.00005220       0.00000000 s 
O        1.77035439      28.46413947       7.38060000       9.43319010       0.00003014       0.00000000       0.00000000 s 
O        0.26352425      31.07399363       7.38060000              inf       0.00000000       0.00000000       0.00000000 s 
O       19.85192425       2.36559791       7.38060000              inf       0.00000000       0.00000000       0.00000000 s 
O       18.34515439       4.97545206       7.38060000       9.60559773       0.00003014       0.00000000       0.00000000 s 
O       16.83842973       7.58517573       7.38060000       6.84317344       0.00010548      -0.00013049       0.00000000 s 
O       15.33159959      10.19508208       7.38060000       4.42165326       0.00007534      -0.00007830       0.00000000 s 
O       13.82476946      12.80498844       7.38060000       3.23068240       0.00004520      -0.00002610       0.00000000 s 
O       12.31804480      15.41471210       7.38060000       4.41436602       0.00012054      -0.00015659       0.00000000 s 
O       10.81122973      18.02469675       7.38060000       5.89137914       0.00010548      -0.00002610       0.00000000 s 
O        9.30450507      20.63442041       7.38060000       4.06152179       0.00018082      -0.00015659       0.00000000 s 
O        7.79767493      23.24432677       7.38060000       4.05536139       0.00015068      -0.00010439       0.00000000 s 
O        6.29084480      25.85423312       7.38060000       5.87879659       0.00012054      -0.00005220       0.00000000 s 
O        4.78401466      28.46413947       7.38060000       8.41658120       0.00009041       0.00000000       0.00000000 s 
O        3.27729000      31.07386314       7.38060000      11.19273330       0.00016575      -0.00013049       0.00000000 s 
O       22.86552425       2.36559791       7.38060000              inf       0.00000000       0.00000000       0.00000000 s 
O       21.35872425       4.97545206       7.38060000              inf       0.00000000       0.00000000       0.00000000 s 
O       19.85209000       7.58517573       7.38060000       8.06150091       0.00016575      -0.00013049       0.00000000 s 
O       18.34525986      10.19508208       7.38060000       5.35048067       0.00013561      -0.00007830       0.00000000 s 
O       16.83842973      12.80498844       7.38060000       3.22982762       0.00010548      -0.00002610       0.00000000 s 
O       15.33170507      15.41471210       7.38060000       3.22483991       0.00018082      -0.00015659       0.00000000 s 
O       13.82487493      18.02461845       7.38060000       5.34144709       0.00015068      -0.00010439       0.00000000 s 
O       12.31816534      20.63442041       7.38060000       6.61516924       0.00024109      -0.00015659       0.00000000 s 
O       10.81133520      23.24432677       7.38060000       5.88458262       0.00021095      -0.00010439       0.00000000 s 
O        9.30450507      25.85423312       7.38060000       6.60760605       0.00018082      -0.00005220       0.00000000 s 
O        7.79767493      28.46413947       7.38060000       8.41765402       0.00015068       0.00000000       0.00000000 s 
O        6.29095027      31.07386314       7.38060000      10.78025168       0.00022602      -0.00013049       0.00000000 s 
O       25.87912425       2.36559791       7.38060000              inf       0.00000000       0.00000000       0.00000000 s 
O       24.37232425       4.97545206       7.38060000              inf       0.00000000       0.00000000       0.00000000 s 
O       22.86575027       7.58517573       7.38060000      10.06532997       0.00022602      -0.00013049       0.00000000 s 
O       21.35892014      10.19508208       7.38060000       7.47452780       0.00019588      -0.00007830       0.00000000 s 
O       19.85209000      12.80498844       7.38060000       5.34701417       0.00016575      -0.00002610       0.00000000 s 
O       18.34536534      15.41471210       7.38060000       4.41325890       0.00024109      -0.00015659       0.00000000 s 
O       16.83853520      18.02461845       7.38060000       5.34098964       0.00021095      -0.00010439       0.00000000 s 
O       15.33170507      20.63452481       7.38060000       7.46590806       0.00018082      -0.00005220       0.00000000 s 
O       13.82478452      23.24432677       7.38060000       8.42447540       0.00006027      -0.00010439       0.00000000 s 
O       12.31795439      25.85423312       7.38060000       8.42154489       0.00003014      -0.00005220       0.00000000 s 
O       10.81112425      28.46413947       7.38060000       9.43596033       0.00000000      -0.00000000       0.00000000 s 
O        9.30439959      31.07386314       7.38060000      11.19434668       0.00007534      -0.00013049       0.00000000 s 
O       28.89272425       2.36559791       7.38060000              inf       0.00000000       0.00000000       0.00000000 s 
O       27.38592425       4.97545206       7.38060000              inf       0.00000000       0.00000000       0.00000000 s 
O       25.87912425       7.58530622       7.38060000              inf       0.00000000       0.00000000       0.00000000 s 
O       24.37236946      10.19508208       7.38060000      10.06329820       0.00004520      -0.00007830       0.00000000 s 
O       22.86553932      12.80498844       7.38060000       8.05670236       0.00001507      -0.00002610       0.00000000 s 
O       21.35881466      15.41471210       7.38060000       6.83490085       0.00009041      -0.00015659       0.00000000 s 
O       19.85198452      18.02461845       7.38060000       6.83254516       0.00006027      -0.00010439       0.00000000 s 
O       18.34515439      20.63452481       7.38060000       8.05082441       0.00003014      -0.00005220       0.00000000 s 
O       16.83832425      23.24443116       7.38060000      10.05545476       0.00000000       0.00000000       0.00000000 s 
O       15.33161466      25.85423312       7.38060000      10.78656332       0.00009041      -0.00005220       0.00000000 s 
O       13.82478452      28.46413947       7.38060000      11.19744297       0.00006027       0.00000000       0.00000000 s 
O       12.31792425      31.07399363       7.38060000              inf       0.00000000       0.00000000       0.00000000 s 
O       31.90632425       2.36559791       7.38060000              inf       0.00000000       0.00000000       0.00000000 s 
O       30.39952425       4.97545206       7.38060000              inf       0.00000000       0.00000000       0.00000000 s 
O       28.89272425       7.58530622       7.38060000              inf       0.00000000       0.00000000       0.00000000 s 
O       27.38592425      10.19516038       7.38060000              inf       0.00000000       0.00000000       0.00000000 s 
O       25.87919959      12.80498844       7.38060000      10.92687277       0.00007534      -0.00002610       0.00000000 s 
O       24.37247493      15.41471210       7.38060000       9.59794003       0.00015068      -0.00015659       0.00000000 s 
O       22.86564480      18.02461845       7.38060000       9.11076881       0.00012054      -0.00010439       0.00000000 s 
O       21.35881466      20.63452481       7.38060000       9.59458494       0.00009041      -0.00005220       0.00000000 s 
O       19.85198452      23.24443116       7.38060000      10.92109467       0.00006027       0.00000000       0.00000000 s 
O       18.34512425      25.85428532       7.38060000              inf       0.00000000       0.00000000       0.00000000 s 
O       16.83832425      28.46413947       7.38060000              inf       0.00000000       0.00000000       0.00000000 s 
O       15.33152425      31.07399363       7.38060000              inf       0.00000000       0.00000000       0.00000000 s 
N        6.25688152      14.91513382      10.10010000       0.00000000       0.00000000       0.00000000       0.00000000 a1
H        4.18564931      15.01104596      10.10010000       0.00000000       0.00000000       0.00000000       0.00000000 a1
H        8.33233278      14.98145021      10.10010000       0.00000000       0.00000000       0.00000000       0.00000000 a1
C        5.11193954      15.59126873      10.10010000       0.00000000       0.00000000       0.00000000       0.00000000 a1
C        7.41511348      15.57446127      10.10010000       0.00000000       0.00000000       0.00000000       0.00000000 a1
C        5.07628866      16.99505709      10.10010000       0.00000000       0.00000000       0.00000000       0.00000000 a1
C        7.47164862      16.97459583      10.10010000       0.00000000       0.00000000       0.00000000       0.00000000 a1
H        4.09757685      17.46950247      10.10010000       0.00000000       0.00000000       0.00000000       0.00000000 a1
C        6.27766030      17.73239308      10.10010000       0.00000000       0.00000000       0.00000000       0.00000000 a1
H        8.45827112      17.43424334      10.10010000       0.00000000       0.00000000       0.00000000       0.00000000 a1
C        6.28704766      19.21272846      10.10010000       0.00000000       0.00000000       0.00000000       0.00000000 a1
H        4.14008368      19.40473543      10.10010000       0.00000000       0.00000000       0.00000000       0.00000000 a1
H        8.43348426      19.38628376      10.10010000       0.00000000       0.00000000       0.00000000       0.00000000 a1
C        5.08019127      19.94604528      10.10010000       0.00000000       0.00000000       0.00000000       0.00000000 a1
C        7.49643548      19.93289162      10.10010000       0.00000000       0.00000000       0.00000000       0.00000000 a1
H        2.43886128      20.36659718      10.10010000       0.00000000       0.00000000       0.00000000       0.00000000 a1
H       10.14346117      20.34211675      10.10010000       0.00000000       0.00000000       0.00000000       0.00000000 a1
C        2.53357872      21.44921688      10.10010000       0.00000000       0.00000000       0.00000000       0.00000000 a1
C        5.05846321      21.34910288      10.10010000       0.00000000       0.00000000       0.00000000       0.00000000 a1
C        7.52596876      21.34106452      10.10010000       0.00000000       0.00000000       0.00000000       0.00000000 a1
C       10.05127515      21.42619797      10.10010000       0.00000000       0.00000000       0.00000000       0.00000000 a1
H        0.37691095      21.70735756      10.10010000       0.00000000       0.00000000       0.00000000       0.00000000 a1
C        3.78462956      22.10269826      10.10010000       0.00000000       0.00000000       0.00000000       0.00000000 a1
C        1.35129824      22.19915847      10.10010000       0.00000000       0.00000000       0.00000000       0.00000000 a1
C        6.29622407      22.02341089      10.10010000       0.00000000       0.00000000       0.00000000       0.00000000 a1
C        8.80686930      22.08278508      10.10010000       0.00000000       0.00000000       0.00000000       0.00000000 a1
H       12.21279482      21.67776181      10.10010000       0.00000000       0.00000000       0.00000000       0.00000000 a1
C       11.23861848      22.17431266      10.10010000       0.00000000       0.00000000       0.00000000       0.00000000 a1
N        1.36332250      23.53133243      10.10010000       0.00000000       0.00000000       0.00000000       0.00000000 a1
C        3.75182652      23.51032310      10.10010000       0.00000000       0.00000000       0.00000000       0.00000000 a1
H        6.30097049      23.10840556      10.10010000       0.00000000       0.00000000       0.00000000       0.00000000 a1
C        8.84557899      23.49552523      10.10010000       0.00000000       0.00000000       0.00000000       0.00000000 a1
N       11.23250087      23.50319820      10.10010000       0.00000000       0.00000000       0.00000000       0.00000000 a1
C        2.51986684      24.18298691      10.10010000       0.00000000       0.00000000       0.00000000       0.00000000 a1
C       10.07658939      24.16398717      10.10010000       0.00000000       0.00000000       0.00000000       0.00000000 a1
H        4.65375180      24.11813204      10.10010000       0.00000000       0.00000000       0.00000000       0.00000000 a1
H        7.94576324      24.10516106      10.10010000       0.00000000       0.00000000       0.00000000       0.00000000 a1
H        2.47830930      25.27620262      10.10010000       0.00000000       0.00000000       0.00000000       0.00000000 a1
H       10.12363168      25.25464523      10.10010000       0.00000000       0.00000000       0.00000000       0.00000000 a1
N       15.36334787      19.40867631      10.10010000       0.00000000       0.00000000       0.00000000       0.00000000 a2
H       17.43468556      19.31258148      10.10010000       0.00000000       0.00000000       0.00000000       0.00000000 a2
H       13.28810757      19.34235992      10.10010000       0.00000000       0.00000000       0.00000000       0.00000000 a2
C       16.50860628      18.73235870      10.10010000       0.00000000       0.00000000       0.00000000       0.00000000 a2
C       14.20511591      18.74934885      10.10010000       0.00000000       0.00000000       0.00000000       0.00000000 a2
C       16.54394074      17.32875304      10.10010000       0.00000000       0.00000000       0.00000000       0.00000000 a2
C       14.14879173      17.34921430      10.10010000       0.00000000       0.00000000       0.00000000       0.00000000 a2
H       17.52286349      16.85430765      10.10010000       0.00000000       0.00000000       0.00000000       0.00000000 a2
C       15.34278005      16.59141704      10.10010000       0.00000000       0.00000000       0.00000000       0.00000000 a2
H       13.16216922      16.88956678      10.10010000       0.00000000       0.00000000       0.00000000       0.00000000 a2
C       15.33318173      15.11108167      10.10010000       0.00000000       0.00000000       0.00000000       0.00000000 a2
H       17.48035666      14.91907470      10.10010000       0.00000000       0.00000000       0.00000000       0.00000000 a2
H       13.18674513      14.93752637      10.10010000       0.00000000       0.00000000       0.00000000       0.00000000 a2
C       16.54024908      14.37776485      10.10010000       0.00000000       0.00000000       0.00000000       0.00000000 a2
C       14.12400487      14.39091851      10.10010000       0.00000000       0.00000000       0.00000000       0.00000000 a2
H       19.18136812      13.95721295      10.10010000       0.00000000       0.00000000       0.00000000       0.00000000 a2
H       11.47676822      13.98169338      10.10010000       0.00000000       0.00000000       0.00000000       0.00000000 a2
C       19.08686162      12.87459325      10.10010000       0.00000000       0.00000000       0.00000000       0.00000000 a2
C       16.56197713      12.97470725      10.10010000       0.00000000       0.00000000       0.00000000       0.00000000 a2
C       14.09426064      12.98274560      10.10010000       0.00000000       0.00000000       0.00000000       0.00000000 a2
C       11.56916520      12.89761216      10.10010000       0.00000000       0.00000000       0.00000000       0.00000000 a2
H       21.24352939      12.61645257      10.10010000       0.00000000       0.00000000       0.00000000       0.00000000 a2
C       17.83581078      12.22111186      10.10010000       0.00000000       0.00000000       0.00000000       0.00000000 a2
C       20.26914210      12.12465165      10.10010000       0.00000000       0.00000000       0.00000000       0.00000000 a2
C       15.32421627      12.30039923      10.10010000       0.00000000       0.00000000       0.00000000       0.00000000 a2
C       12.81357104      12.24102505      10.10010000       0.00000000       0.00000000       0.00000000       0.00000000 a2
H        9.40764553      12.64604832      10.10010000       0.00000000       0.00000000       0.00000000       0.00000000 a2
C       10.38161091      12.14949747      10.10010000       0.00000000       0.00000000       0.00000000       0.00000000 a2
N       20.25690689      10.79247770      10.10010000       0.00000000       0.00000000       0.00000000       0.00000000 a2
C       17.86861382      10.81348702      10.10010000       0.00000000       0.00000000       0.00000000       0.00000000 a2
H       15.31946985      11.21540456      10.10010000       0.00000000       0.00000000       0.00000000       0.00000000 a2
C       12.77465040      10.82828490      10.10010000       0.00000000       0.00000000       0.00000000       0.00000000 a2
N       10.38793947      10.82061193      10.10010000       0.00000000       0.00000000       0.00000000       0.00000000 a2
C       19.10036255      10.14082321      10.10010000       0.00000000       0.00000000       0.00000000       0.00000000 a2
C       11.54385096      10.15982295      10.10010000       0.00000000       0.00000000       0.00000000       0.00000000 a2
H       16.96668854      10.20567809      10.10010000       0.00000000       0.00000000       0.00000000       0.00000000 a2
H       13.67446616      10.21864906      10.10010000       0.00000000       0.00000000       0.00000000       0.00000000 a2
H       19.14213104       9.04760750      10.10010000       0.00000000       0.00000000       0.00000000       0.00000000 a2
H       11.49659771       9.06916490      10.10010000       0.00000000       0.00000000       0.00000000       0.00000000 a2
