222
Lattice="36.16319999999999 0.0 0.0 -18.081599999999995 31.318249882114287 0.0 0.0 0.0 30.0" Properties=species:S:1:pos:R:3:remoteness:R:1:shift:R:3:adsorption:S:1 size="_JSON [[12, 0], [0, 12]]" mass_center_dist=14.245304307450082 min_atom_dist=3.7249700320985135 s1=tpb_atop s2=tpb_hollow_down s1idx=4 s2idx=6 pbc="T T T"
O       -1.24327575       2.36559791       7.38060000              inf       0.00000000       0.00000000       0.00000000 s 
O       -2.75007575       4.97545206       7.38060000              inf       0.00000000       0.00000000       0.00000000 s 
O       -4.25687575       7.58530622       7.38060000              inf       0.00000000       0.00000000       0.00000000 s 
O       -5.76367575      10.19516038       7.38060000              inf       0.00000000       0.00000000       0.00000000 s 
O       -7.27047575      12.80501453       7.38060000              inf       0.00000000       0.00000000       0.00000000 s 
O       -8.77727575      15.41486869       7.38060000              inf       0.00000000       0.00000000       0.00000000 s 
O      -10.28389493      18.02461845       7.38060000      11.72607078       0.00018082      -0.00010439       0.00000000 s 
O      -11.79072507      20.63452481       7.38060000      11.72471811       0.00015068      -0.00005220       0.00000000 s 
O      -13.29767575      23.24443116       7.38060000              inf       0.00000000       0.00000000       0.00000000 s 
O      -14.80447575      25.85428532       7.38060000              inf       0.00000000       0.00000000       0.00000000 s 
O      -16.31127575      28.46413947       7.38060000              inf       0.00000000       0.00000000       0.00000000 s 
O      -17.81807575      31.07399363       7.38060000              inf       0.00000000       0.00000000       0.00000000 s 
O        1.77032425       2.36559791       7.38060000              inf       0.00000000       0.00000000       0.00000000 s 
O        0.26352425       4.97545206       7.38060000              inf       0.00000000       0.00000000       0.00000000 s 
O       -1.24327575       7.58530622       7.38060000              inf       0.00000000       0.00000000       0.00000000 s 
O       -2.75007575      10.19516038       7.38060000              inf       0.00000000       0.00000000       0.00000000 s 
O       -4.25687575      12.80501453       7.38060000              inf       0.00000000       0.00000000       0.00000000 s 
O       -5.76367575      15.41486869       7.38060000              inf       0.00000000       0.00000000       0.00000000 s 
O       -7.27047575      18.02472285       7.38060000              inf       0.00000000       0.00000000       0.00000000 s 
O       -8.77727575      20.63457700       7.38060000              inf       0.00000000       0.00000000       0.00000000 s 
O      -10.28407575      23.24443116       7.38060000              inf       0.00000000       0.00000000       0.00000000 s 
O      -11.79087575      25.85428532       7.38060000              inf       0.00000000       0.00000000       0.00000000 s 
O      -13.29767575      28.46413947       7.38060000              inf       0.00000000       0.00000000       0.00000000 s 
O      -14.80447575      31.07399363       7.38060000              inf       0.00000000       0.00000000       0.00000000 s 
O        4.78392425       2.36559791       7.38060000              inf       0.00000000       0.00000000       0.00000000 s 
O        3.27712425       4.97545206       7.38060000              inf       0.00000000       0.00000000       0.00000000 s 
O        1.77032425       7.58530622       7.38060000              inf       0.00000000       0.00000000       0.00000000 s 
O        0.26352425      10.19516038       7.38060000              inf       0.00000000       0.00000000       0.00000000 s 
O       -1.24327575      12.80501453       7.38060000              inf       0.00000000       0.00000000       0.00000000 s 
O       -2.75007575      15.41486869       7.38060000              inf       0.00000000       0.00000000       0.00000000 s 
O       -4.25683054      18.02464455       7.38060000      10.78913708       0.00004520      -0.00007830       0.00000000 s 
O       -5.76366068      20.63455091       7.38060000      11.19992230       0.00001507      -0.00002610       0.00000000 s 
O       -7.27047575      23.24443116       7.38060000              inf       0.00000000       0.00000000       0.00000000 s 
O       -8.77727575      25.85428532       7.38060000              inf       0.00000000       0.00000000       0.00000000 s 
O      -10.28407575      28.46413947       7.38060000              inf       0.00000000       0.00000000       0.00000000 s 
O      -11.79087575      31.07399363       7.38060000              inf       0.00000000       0.00000000       0.00000000 s 
O        7.79752425       2.36559791       7.38060000              inf       0.00000000       0.00000000       0.00000000 s 
O        6.29072425       4.97545206       7.38060000              inf       0.00000000       0.00000000       0.00000000 s 
O        4.78392425       7.58530622       7.38060000              inf       0.00000000       0.00000000       0.00000000 s 
O        3.27712425      10.19516038       7.38060000              inf       0.00000000       0.00000000       0.00000000 s 
O        1.77032425      12.80501453       7.38060000              inf       0.00000000       0.00000000       0.00000000 s 
O        0.26365986      15.41473820       7.38060000       9.44600961       0.00013561      -0.00013049       0.00000000 s 
O       -1.24317027      18.02464455       7.38060000       8.42694687       0.00010548      -0.00007830       0.00000000 s 
O       -2.75000041      20.63455091       7.38060000       8.42401722       0.00007534      -0.00002610       0.00000000 s 
O       -4.25672507      23.24427457       7.38060000       9.43806608       0.00015068      -0.00015659       0.00000000 s 
O       -5.76355520      25.85418092       7.38060000      11.19620674       0.00012054      -0.00010439       0.00000000 s 
O       -7.27047575      28.46413947       7.38060000              inf       0.00000000       0.00000000       0.00000000 s 
O       -8.77727575      31.07399363       7.38060000              inf       0.00000000       0.00000000       0.00000000 s 
O       10.81112425       2.36559791       7.38060000              inf       0.00000000       0.00000000       0.00000000 s 
O        9.30432425       4.97545206       7.38060000              inf       0.00000000       0.00000000       0.00000000 s 
O        7.79765986       7.58517573       7.38060000      10.06618962       0.00013561      -0.00013049       0.00000000 s 
O        6.29082973      10.19508208       7.38060000      10.06461387       0.00010548      -0.00007830       0.00000000 s 
O        4.78404480      12.80501453       7.38060000      10.79526691       0.00012054       0.00000000       0.00000000 s 
O        3.27732014      15.41473820       7.38060000       8.43098434       0.00019588      -0.00013049       0.00000000 s 
O        1.77049000      18.02464455       7.38060000       6.61707524       0.00016575      -0.00007830       0.00000000 s 
O        0.26365986      20.63455091       7.38060000       5.88677917       0.00013561      -0.00002610       0.00000000 s 
O       -1.24306480      23.24427457       7.38060000       6.60951449       0.00021095      -0.00015659       0.00000000 s 
O       -2.74989493      25.85418092       7.38060000       8.41911442       0.00018082      -0.00010439       0.00000000 s 
O       -4.25672507      28.46408728       7.38060000      10.78153931       0.00015068      -0.00005220       0.00000000 s 
O       -5.76367575      31.07399363       7.38060000              inf       0.00000000       0.00000000       0.00000000 s 
O       13.82472425       2.36559791       7.38060000              inf       0.00000000       0.00000000       0.00000000 s 
O       12.31804480       4.97545206       7.38060000       9.60586231       0.00012054       0.00000000       0.00000000 s 
O       10.81132014       7.58517573       7.38060000       8.06206983       0.00019588      -0.00013049       0.00000000 s 
O        9.30449000      10.19508208       7.38060000       7.47550002       0.00016575      -0.00007830       0.00000000 s 
O        7.79765986      12.80498844       7.38060000       8.05813426       0.00013561      -0.00002610       0.00000000 s 
O        6.29098041      15.41473820       7.38060000       8.43209302       0.00025616      -0.00013049       0.00000000 s 
O        4.78415027      18.02464455       7.38060000       5.89255737       0.00022602      -0.00007830       0.00000000 s 
O        3.27732014      20.63455091       7.38060000       4.06307377       0.00019588      -0.00002610       0.00000000 s 
O        1.77059548      23.24427457       7.38060000       4.05691616       0.00027122      -0.00015659       0.00000000 s 
O        0.26376534      25.85418092       7.38060000       5.87981516       0.00024109      -0.00010439       0.00000000 s 
O       -1.24306480      28.46408728       7.38060000       8.41725492       0.00021095      -0.00005220       0.00000000 s 
O       -2.74989493      31.07399363       7.38060000      11.19341015       0.00018082       0.00000000       0.00000000 s 
O       16.83832425       2.36559791       7.38060000              inf       0.00000000       0.00000000       0.00000000 s 
O       15.33170507       4.97545206       7.38060000       9.12070152       0.00018082      -0.00000000       0.00000000 s 
O       13.82498041       7.58517573       7.38060000       6.84324945       0.00025616      -0.00013049       0.00000000 s 
O       12.31815027      10.19508208       7.38060000       5.35107890       0.00022602      -0.00007830       0.00000000 s 
O       10.81132014      12.80498844       7.38060000       5.34811408       0.00019588      -0.00002610       0.00000000 s 
O        9.30459548      15.41471210       7.38060000       6.83615350       0.00027122      -0.00015659       0.00000000 s 
O        7.79759959      18.02464455       7.38060000       6.61980391       0.00007534      -0.00007830       0.00000000 s 
O        6.29076946      20.63455091       7.38060000       4.06529548       0.00004520      -0.00002610       0.00000000 s 
O        4.78404480      23.24427457       7.38060000       2.71951298       0.00012054      -0.00015659       0.00000000 s 
O        3.27721466      25.85418092       7.38060000       4.05313408       0.00009041      -0.00010439       0.00000000 s 
O        1.77038452      28.46408728       7.38060000       6.60487225       0.00006027      -0.00005220       0.00000000 s 
O        0.26355439      31.07399363       7.38060000       9.43319010       0.00003014       0.00000000       0.00000000 s 
O       19.85209000       2.36546741       7.38060000      11.19273330       0.00016575      -0.00013049       0.00000000 s 
O       18.34515439       4.97545206       7.38060000       9.60545819       0.00003014       0.00000000       0.00000000 s 
O       16.83842973       7.58517573       7.38060000       6.84301227       0.00010548      -0.00013049       0.00000000 s 
O       15.33159959      10.19508208       7.38060000       4.42145755       0.00007534      -0.00007830       0.00000000 s 
O       13.82476946      12.80498844       7.38060000       3.23048808       0.00004520      -0.00002610       0.00000000 s 
O       12.31804480      15.41471210       7.38060000       4.41427761       0.00012054      -0.00015659       0.00000000 s 
O       10.81121466      18.02461845       7.38060000       6.83373504       0.00009041      -0.00010439       0.00000000 s 
O        9.30442973      20.63455091       7.38060000       5.89137914       0.00010548      -0.00002610       0.00000000 s 
O        7.79770507      23.24427457       7.38060000       4.06152179       0.00018082      -0.00015659       0.00000000 s 
O        6.29087493      25.85418092       7.38060000       4.05536139       0.00015068      -0.00010439       0.00000000 s 
O        4.78404480      28.46408728       7.38060000       5.87879659       0.00012054      -0.00005220       0.00000000 s 
O        3.27721466      31.07399363       7.38060000       8.41658120       0.00009041       0.00000000       0.00000000 s 
O       22.86575027       2.36546741       7.38060000      10.78025168       0.00022602      -0.00013049       0.00000000 s 
O       21.35872425       4.97545206       7.38060000              inf       0.00000000       0.00000000       0.00000000 s 
O       19.85209000       7.58517573       7.38060000       8.06146584       0.00016575      -0.00013049       0.00000000 s 
O       18.34525986      10.19508208       7.38060000       5.35047223       0.00013561      -0.00007830       0.00000000 s 
O       16.83842973      12.80498844       7.38060000       3.22988719       0.00010548      -0.00002610       0.00000000 s 
O       15.33170507      15.41471210       7.38060000       3.22497323       0.00018082      -0.00015659       0.00000000 s 
O       13.82487493      18.02461845       7.38060000       5.34157205       0.00015068      -0.00010439       0.00000000 s 
O       12.31804480      20.63452481       7.38060000       8.05162269       0.00012054      -0.00005220       0.00000000 s 
O       10.81136534      23.24427457       7.38060000       6.61516924       0.00024109      -0.00015659       0.00000000 s 
O        9.30453520      25.85418092       7.38060000       5.88458262       0.00021095      -0.00010439       0.00000000 s 
O        7.79770507      28.46408728       7.38060000       6.60760605       0.00018082      -0.00005220       0.00000000 s 
O        6.29087493      31.07399363       7.38060000       8.41765402       0.00015068       0.00000000       0.00000000 s 
O       25.87919959       2.36546741       7.38060000      11.19434668       0.00007534      -0.00013049       0.00000000 s 
O       24.37232425       4.97545206       7.38060000              inf       0.00000000       0.00000000       0.00000000 s 
O       22.86575027       7.58517573       7.38060000      10.06538337       0.00022602      -0.00013049       0.00000000 s 
O       21.35892014      10.19508208       7.38060000       7.47463149       0.00019588      -0.00007830       0.00000000 s 
O       19.85209000      12.80498844       7.38060000       5.34720354       0.00016575      -0.00002610       0.00000000 s 
O       18.34536534      15.41471210       7.38060000       4.41354215       0.00024109      -0.00015659       0.00000000 s 
O       16.83853520      18.02461845       7.38060000       5.34126817       0.00021095      -0.00010439       0.00000000 s 
O       15.33170507      20.63452481       7.38060000       7.46613913       0.00018082      -0.00005220       0.00000000 s 
O       13.82481466      23.24427457       7.38060000       9.44380483       0.00009041      -0.00015659       0.00000000 s 
O       12.31798452      25.85418092       7.38060000       8.42447540       0.00006027      -0.00010439       0.00000000 s 
O       10.81115439      28.46408728       7.38060000       8.42154489       0.00003014      -0.00005220       0.00000000 s 
O        9.30432425      31.07399363       7.38060000       9.43596033      -0.00000000      -0.00000000       0.00000000 s 
O       28.89272425       2.36559791       7.38060000              inf       0.00000000       0.00000000       0.00000000 s 
O       27.38592425       4.97545206       7.38060000              inf       0.00000000       0.00000000       0.00000000 s 
O       25.87912425       7.58530622       7.38060000              inf       0.00000000       0.00000000       0.00000000 s 
O       24.37236946      10.19508208       7.38060000      10.06345671       0.00004520      -0.00007830       0.00000000 s 
O       22.86553932      12.80498844       7.38060000       8.05692983       0.00001507      -0.00002610       0.00000000 s 
O       21.35881466      15.41471210       7.38060000       6.83520373       0.00009041      -0.00015659       0.00000000 s 
O       19.85198452      18.02461845       7.38060000       6.83288292       0.00006027      -0.00010439       0.00000000 s 
O       18.34515439      20.63452481       7.38060000       8.05114056       0.00003014      -0.00005220       0.00000000 s 
O       16.83832425      23.24443116       7.38060000      10.05573150       0.00000000       0.00000000       0.00000000 s 
O       15.33159959      25.85415483       7.38060000      12.47294899       0.00007534      -0.00013049       0.00000000 s 
O       13.82481466      28.46408728       7.38060000      10.78656332       0.00009041      -0.00005220       0.00000000 s 
O       12.31798452      31.07399363       7.38060000      11.19744297       0.00006027       0.00000000       0.00000000 s 
O       31.90632425       2.36559791       7.38060000              inf       0.00000000       0.00000000       0.00000000 s 
O       30.39952425       4.97545206       7.38060000              inf       0.00000000       0.00000000       0.00000000 s 
O       28.89272425       7.58530622       7.38060000              inf       0.00000000       0.00000000       0.00000000 s 
O       27.38592425      10.19516038       7.38060000              inf       0.00000000       0.00000000       0.00000000 s 
O       25.87919959      12.80498844       7.38060000      10.92711555       0.00007534      -0.00002610       0.00000000 s 
O       24.37247493      15.41471210       7.38060000       9.59824117       0.00015068      -0.00015659       0.00000000 s 
O       22.86564480      18.02461845       7.38060000       9.11111213       0.00012054      -0.00010439       0.00000000 s 
O       21.35881466      20.63452481       7.38060000       9.59493571       0.00009041      -0.00005220       0.00000000 s 
O       19.85198452      23.24443116       7.38060000      10.92142458       0.00006027       0.00000000       0.00000000 s 
O       18.34512425      25.85428532       7.38060000              inf       0.00000000       0.00000000       0.00000000 s 
O       16.83832425      28.46413947       7.38060000              inf       0.00000000       0.00000000       0.00000000 s 
O       15.33152425      31.07399363       7.38060000              inf       0.00000000       0.00000000       0.00000000 s 
N        4.75008152      17.52498797      10.10010000       0.00000000       0.00000000       0.00000000       0.00000000 a1
H        2.67884931      17.62090011      10.10010000       0.00000000       0.00000000       0.00000000       0.00000000 a1
H        6.82553278      17.59130437      10.10010000       0.00000000       0.00000000       0.00000000       0.00000000 a1
C        3.60513954      18.20112289      10.10010000       0.00000000       0.00000000       0.00000000       0.00000000 a1
C        5.90831348      18.18431543      10.10010000       0.00000000       0.00000000       0.00000000       0.00000000 a1
C        3.56948866      19.60491124      10.10010000       0.00000000       0.00000000       0.00000000       0.00000000 a1
C        5.96484862      19.58444999      10.10010000       0.00000000       0.00000000       0.00000000       0.00000000 a1
H        2.59077685      20.07935663      10.10010000       0.00000000       0.00000000       0.00000000       0.00000000 a1
C        4.77086030      20.34224724      10.10010000       0.00000000       0.00000000       0.00000000       0.00000000 a1
H        6.95147112      20.04409750      10.10010000       0.00000000       0.00000000       0.00000000       0.00000000 a1
C        4.78024766      21.82258262      10.10010000       0.00000000       0.00000000       0.00000000       0.00000000 a1
H        2.63328368      22.01458959      10.10010000       0.00000000       0.00000000       0.00000000       0.00000000 a1
H        6.92668426      21.99613792      10.10010000       0.00000000       0.00000000       0.00000000       0.00000000 a1
C        3.57339127      22.55589944      10.10010000       0.00000000       0.00000000       0.00000000       0.00000000 a1
C        5.98963548      22.54274577      10.10010000       0.00000000       0.00000000       0.00000000       0.00000000 a1
H        0.93206128      22.97645134      10.10010000       0.00000000       0.00000000       0.00000000       0.00000000 a1
H        8.63666117      22.95197090      10.10010000       0.00000000       0.00000000       0.00000000       0.00000000 a1
C        1.02677872      24.05907104      10.10010000       0.00000000       0.00000000       0.00000000       0.00000000 a1
C        3.55166321      23.95895703      10.10010000       0.00000000       0.00000000       0.00000000       0.00000000 a1
C        6.01916876      23.95091868      10.10010000       0.00000000       0.00000000       0.00000000       0.00000000 a1
C        8.54447515      24.03605212      10.10010000       0.00000000       0.00000000       0.00000000       0.00000000 a1
H       -1.12988905      24.31721171      10.10010000       0.00000000       0.00000000       0.00000000       0.00000000 a1
C        2.27782956      24.71255242      10.10010000       0.00000000       0.00000000       0.00000000       0.00000000 a1
C       -0.15550176      24.80901263      10.10010000       0.00000000       0.00000000       0.00000000       0.00000000 a1
C        4.78942407      24.63326505      10.10010000       0.00000000       0.00000000       0.00000000       0.00000000 a1
C        7.30006930      24.69263923      10.10010000       0.00000000       0.00000000       0.00000000       0.00000000 a1
H       10.70599482      24.28761597      10.10010000       0.00000000       0.00000000       0.00000000       0.00000000 a1
C        9.73181848      24.78416682      10.10010000       0.00000000       0.00000000       0.00000000       0.00000000 a1
N       -0.14347750      26.14118659      10.10010000       0.00000000       0.00000000       0.00000000       0.00000000 a1
C        2.24502652      26.12017726      10.10010000       0.00000000       0.00000000       0.00000000       0.00000000 a1
H        4.79417049      25.71825972      10.10010000       0.00000000       0.00000000       0.00000000       0.00000000 a1
C        7.33877899      26.10537939      10.10010000       0.00000000       0.00000000       0.00000000       0.00000000 a1
N        9.72570087      26.11305236      10.10010000       0.00000000       0.00000000       0.00000000       0.00000000 a1
C        1.01306684      26.79284107      10.10010000       0.00000000       0.00000000       0.00000000       0.00000000 a1
C        8.56978939      26.77384133      10.10010000       0.00000000       0.00000000       0.00000000       0.00000000 a1
H        3.14695180      26.72798619      10.10010000       0.00000000       0.00000000       0.00000000       0.00000000 a1
H        6.43896324      26.71501522      10.10010000       0.00000000       0.00000000       0.00000000       0.00000000 a1
H        0.97150930      27.88605678      10.10010000       0.00000000       0.00000000       0.00000000       0.00000000 a1
H        8.61683168      27.86449938      10.10010000       0.00000000       0.00000000       0.00000000       0.00000000 a1
N       15.30153893       7.95402642      10.10010000       0.00000000       0.00000000       0.00000000       0.00000000 a2
H       13.22999029       8.05012125      10.10010000       0.00000000       0.00000000       0.00000000       0.00000000 a2
H       17.37677923       8.02034281      10.10010000       0.00000000       0.00000000       0.00000000       0.00000000 a2
C       14.15628052       8.63034402      10.10010000       0.00000000       0.00000000       0.00000000       0.00000000 a2
C       16.45945446       8.61353656      10.10010000       0.00000000       0.00000000       0.00000000       0.00000000 a2
C       14.12062964      10.03413238      10.10010000       0.00000000       0.00000000       0.00000000       0.00000000 a2
C       16.51598960      10.01367112      10.10010000       0.00000000       0.00000000       0.00000000       0.00000000 a2
H       13.14191783      10.50857776      10.10010000       0.00000000       0.00000000       0.00000000       0.00000000 a2
C       15.32200128      10.77146837      10.10010000       0.00000000       0.00000000       0.00000000       0.00000000 a2
H       17.50261210      10.47331863      10.10010000       0.00000000       0.00000000       0.00000000       0.00000000 a2
C       15.33149412      12.25162106      10.10010000       0.00000000       0.00000000       0.00000000       0.00000000 a2
H       13.18453014      12.44362803      10.10010000       0.00000000       0.00000000       0.00000000       0.00000000 a2
H       17.47793072      12.42517636      10.10010000       0.00000000       0.00000000       0.00000000       0.00000000 a2
C       14.12453225      12.98512057      10.10010000       0.00000000       0.00000000       0.00000000       0.00000000 a2
C       16.54088193      12.97178421      10.10010000       0.00000000       0.00000000       0.00000000       0.00000000 a2
H       11.48320226      13.40567247      10.10010000       0.00000000       0.00000000       0.00000000       0.00000000 a2
H       19.18780215      13.38119204      10.10010000       0.00000000       0.00000000       0.00000000       0.00000000 a2
C       11.57802518      14.48810948      10.10010000       0.00000000       0.00000000       0.00000000       0.00000000 a2
C       14.10280419      14.38817816      10.10010000       0.00000000       0.00000000       0.00000000       0.00000000 a2
C       16.57041521      14.37995712      10.10010000       0.00000000       0.00000000       0.00000000       0.00000000 a2
C       19.09561613      14.46527326      10.10010000       0.00000000       0.00000000       0.00000000       0.00000000 a2
H        9.42125193      14.74643284      10.10010000       0.00000000       0.00000000       0.00000000       0.00000000 a2
C       12.82897054      15.14177355      10.10010000       0.00000000       0.00000000       0.00000000       0.00000000 a2
C       10.39574470      15.23805107      10.10010000       0.00000000       0.00000000       0.00000000       0.00000000 a2
C       15.34056505      15.06248618      10.10010000       0.00000000       0.00000000       0.00000000       0.00000000 a2
C       17.85121028      15.12186036      10.10010000       0.00000000       0.00000000       0.00000000       0.00000000 a2
H       21.25724127      14.71665441      10.10010000       0.00000000       0.00000000       0.00000000       0.00000000 a2
C       20.28306494      15.21320526      10.10010000       0.00000000       0.00000000       0.00000000       0.00000000 a2
N       10.40787444      16.57040772      10.10010000       0.00000000       0.00000000       0.00000000       0.00000000 a2
C       12.79616750      16.54939839      10.10010000       0.00000000       0.00000000       0.00000000       0.00000000 a2
H       15.34541695      16.14729816      10.10010000       0.00000000       0.00000000       0.00000000       0.00000000 a2
C       17.88991997      16.53460052      10.10010000       0.00000000       0.00000000       0.00000000       0.00000000 a2
N       20.27684185      16.54227349      10.10010000       0.00000000       0.00000000       0.00000000       0.00000000 a2
C       11.56420782      17.22206220      10.10010000       0.00000000       0.00000000       0.00000000       0.00000000 a2
C       19.12103584      17.20287977      10.10010000       0.00000000       0.00000000       0.00000000       0.00000000 a2
H       13.69809278      17.15720733      10.10010000       0.00000000       0.00000000       0.00000000       0.00000000 a2
H       16.99010422      17.14423635      10.10010000       0.00000000       0.00000000       0.00000000       0.00000000 a2
H       11.52265028      18.31527791      10.10010000       0.00000000       0.00000000       0.00000000       0.00000000 a2
H       19.16797266      18.29372052      10.10010000       0.00000000       0.00000000       0.00000000       0.00000000 a2
