184
Lattice="36.16319999999999 0.0 0.0 -18.081599999999995 31.318249882114287 0.0 0.0 0.0 30.0" Properties=species:S:1:pos:R:3:remoteness:R:1:shift:R:3:adsorption:S:1 size="_JSON [[12, 0], [0, 12]]" mass_center_dist=6.965999138017164 min_atom_dist=1.239104770060422 s1=cu_hollow s2=tpb_hollow_down s1idx=2 s2idx=7 pbc="T T T"
O       -1.24327575       2.36559791       7.38060000              inf       0.00000000       0.00000000       0.00000000 s 
O       -2.75007575       4.97545206       7.38060000              inf       0.00000000       0.00000000       0.00000000 s 
O       -4.25687575       7.58530622       7.38060000              inf       0.00000000       0.00000000       0.00000000 s 
O       -5.76367575      10.19516038       7.38060000              inf       0.00000000       0.00000000       0.00000000 s 
O       -7.27047575      12.80501453       7.38060000              inf       0.00000000       0.00000000       0.00000000 s 
O       -8.77727575      15.41486869       7.38060000              inf       0.00000000       0.00000000       0.00000000 s 
O      -10.28407575      18.02472285       7.38060000              inf       0.00000000       0.00000000       0.00000000 s 
O      -11.79087575      20.63457700       7.38060000              inf       0.00000000       0.00000000       0.00000000 s 
O      -13.29752507      23.24437896       7.38060000      11.72896791       0.00015068      -0.00005220       0.00000000 s 
O      -14.80447575      25.85428532       7.38060000              inf       0.00000000       0.00000000       0.00000000 s 
O      -16.31127575      28.46413947       7.38060000              inf       0.00000000       0.00000000       0.00000000 s 
O      -17.81807575      31.07399363       7.38060000              inf       0.00000000       0.00000000       0.00000000 s 
O        1.77032425       2.36559791       7.38060000              inf       0.00000000       0.00000000       0.00000000 s 
O        0.26352425       4.97545206       7.38060000              inf       0.00000000       0.00000000       0.00000000 s 
O       -1.24327575       7.58530622       7.38060000              inf       0.00000000       0.00000000       0.00000000 s 
O       -2.75007575      10.19516038       7.38060000              inf       0.00000000       0.00000000       0.00000000 s 
O       -4.25687575      12.80501453       7.38060000              inf       0.00000000       0.00000000       0.00000000 s 
O       -5.76367575      15.41486869       7.38060000              inf       0.00000000       0.00000000       0.00000000 s 
O       -7.27047575      18.02472285       7.38060000              inf       0.00000000       0.00000000       0.00000000 s 
O       -8.77727575      20.63457700       7.38060000              inf       0.00000000       0.00000000       0.00000000 s 
O      -10.28407575      23.24443116       7.38060000              inf       0.00000000       0.00000000       0.00000000 s 
O      -11.79087575      25.85428532       7.38060000              inf       0.00000000       0.00000000       0.00000000 s 
O      -13.29767575      28.46413947       7.38060000              inf       0.00000000       0.00000000       0.00000000 s 
O      -14.80447575      31.07399363       7.38060000              inf       0.00000000       0.00000000       0.00000000 s 
O        4.78392425       2.36559791       7.38060000              inf       0.00000000       0.00000000       0.00000000 s 
O        3.27712425       4.97545206       7.38060000              inf       0.00000000       0.00000000       0.00000000 s 
O        1.77032425       7.58530622       7.38060000              inf       0.00000000       0.00000000       0.00000000 s 
O        0.26352425      10.19516038       7.38060000              inf       0.00000000       0.00000000       0.00000000 s 
O       -1.24327575      12.80501453       7.38060000              inf       0.00000000       0.00000000       0.00000000 s 
O       -2.74992507      15.41502528       7.38060000      11.72554868       0.00015068       0.00015659       0.00000000 s 
O       -4.25687575      18.02472285       7.38060000              inf       0.00000000       0.00000000       0.00000000 s 
O       -5.76367575      20.63457700       7.38060000              inf       0.00000000       0.00000000       0.00000000 s 
O       -7.27047575      23.24443116       7.38060000              inf       0.00000000       0.00000000       0.00000000 s 
O       -8.77727575      25.85428532       7.38060000              inf       0.00000000       0.00000000       0.00000000 s 
O      -10.28407575      28.46413947       7.38060000              inf       0.00000000       0.00000000       0.00000000 s 
O      -11.79087575      31.07399363       7.38060000              inf       0.00000000       0.00000000       0.00000000 s 
O        7.79752425       2.36559791       7.38060000              inf       0.00000000       0.00000000       0.00000000 s 
O        6.29072425       4.97545206       7.38060000              inf       0.00000000       0.00000000       0.00000000 s 
O        4.78392425       7.58530622       7.38060000              inf       0.00000000       0.00000000       0.00000000 s 
O        3.27712425      10.19516038       7.38060000              inf       0.00000000       0.00000000       0.00000000 s 
O        1.77056534      12.80511893       7.38060000       9.59925573       0.00024109       0.00010439       0.00000000 s 
O        0.26373520      15.41502528       7.38060000       9.11200280       0.00021095       0.00015659       0.00000000 s 
O       -1.24320041      18.02474895       7.38060000       9.59574483       0.00007534       0.00002610       0.00000000 s 
O       -2.75003054      20.63465530       7.38060000      10.92195772       0.00004520       0.00007830       0.00000000 s 
O       -4.25687575      23.24443116       7.38060000              inf       0.00000000       0.00000000       0.00000000 s 
O       -5.76367575      25.85428532       7.38060000              inf       0.00000000       0.00000000       0.00000000 s 
O       -7.27047575      28.46413947       7.38060000              inf       0.00000000       0.00000000       0.00000000 s 
O       -8.77727575      31.07399363       7.38060000              inf       0.00000000       0.00000000       0.00000000 s 
O       10.81112425       2.36559791       7.38060000              inf       0.00000000       0.00000000       0.00000000 s 
O        9.30432425       4.97545206       7.38060000              inf       0.00000000       0.00000000       0.00000000 s 
O        7.79758452       7.58530622       7.38060000      10.92723166       0.00006027       0.00000000       0.00000000 s 
O        6.29085986      10.19502988       7.38060000      10.06187690       0.00013561      -0.00013049       0.00000000 s 
O        4.78401466      12.80511893       7.38060000       8.05813426       0.00009041       0.00010439       0.00000000 s 
O        3.27739548      15.41502528       7.38060000       6.83615350       0.00027122       0.00015659       0.00000000 s 
O        1.77045986      18.02474895       7.38060000       6.83373504       0.00013561       0.00002610       0.00000000 s 
O        0.26362973      20.63465530       7.38060000       8.05162269       0.00010548       0.00007830       0.00000000 s 
O       -1.24320041      23.24456165       7.38060000      10.05592451       0.00007534       0.00013049       0.00000000 s 
O       -2.74992507      25.85428532       7.38060000      12.47294899       0.00015068      -0.00000000       0.00000000 s 
O       -4.25687575      28.46413947       7.38060000              inf       0.00000000       0.00000000       0.00000000 s 
O       -5.76367575      31.07399363       7.38060000              inf       0.00000000       0.00000000       0.00000000 s 
O       13.82472425       2.36559791       7.38060000              inf       0.00000000       0.00000000       0.00000000 s 
O       12.31792425       4.97545206       7.38060000              inf       0.00000000       0.00000000       0.00000000 s 
O       10.81124480       7.58530622       7.38060000       9.59992618       0.00012054       0.00000000       0.00000000 s 
O        9.30452014      10.19502988       7.38060000       8.05692530       0.00019588      -0.00013049       0.00000000 s 
O        7.79769000      12.80493624       7.38060000       7.47203194       0.00016575      -0.00007830       0.00000000 s 
O        6.29084480      15.41502528       7.38060000       5.34811408       0.00012054       0.00015659       0.00000000 s 
O        4.78412014      18.02474895       7.38060000       4.41427761       0.00019588       0.00002610       0.00000000 s 
O        3.27729000      20.63465530       7.38060000       5.34157205       0.00016575       0.00007830       0.00000000 s 
O        1.77045986      23.24456165       7.38060000       7.46613913       0.00013561       0.00013049       0.00000000 s 
O        0.26352425      25.85428532       7.38060000      10.05573150      -0.00000000       0.00000000       0.00000000 s 
O       -1.24327575      28.46413947       7.38060000              inf       0.00000000       0.00000000       0.00000000 s 
O       -2.75007575      31.07399363       7.38060000              inf       0.00000000       0.00000000       0.00000000 s 
O       16.83832425       2.36559791       7.38060000              inf       0.00000000       0.00000000       0.00000000 s 
O       15.33152425       4.97545206       7.38060000              inf       0.00000000       0.00000000       0.00000000 s 
O       13.82490507       7.58530622       7.38060000       9.11466238       0.00018082       0.00000000       0.00000000 s 
O       12.31818041      10.19502988       7.38060000       6.83747177       0.00025616      -0.00013049       0.00000000 s 
O       10.81135027      12.80493624       7.38060000       5.34659593       0.00022602      -0.00007830       0.00000000 s 
O        9.30452014      15.41484259       7.38060000       5.34653648       0.00019588      -0.00002610       0.00000000 s 
O        7.79756946      18.02474895       7.38060000       3.23048808       0.00004520       0.00002610       0.00000000 s 
O        6.29095027      20.63465530       7.38060000       3.22497323       0.00022602       0.00007830       0.00000000 s 
O        4.78412014      23.24456165       7.38060000       5.34126817       0.00019588       0.00013049       0.00000000 s 
O        3.27718452      25.85428532       7.38060000       8.05114056       0.00006027      -0.00000000       0.00000000 s 
O        1.77035439      28.46419167       7.38060000      10.92142458       0.00003014       0.00005220       0.00000000 s 
O        0.26352425      31.07399363       7.38060000              inf       0.00000000       0.00000000       0.00000000 s 
O       19.85192425       2.36559791       7.38060000              inf       0.00000000       0.00000000       0.00000000 s 
O       18.34512425       4.97545206       7.38060000              inf       0.00000000       0.00000000       0.00000000 s 
O       16.83835439       7.58530622       7.38060000       9.59992618       0.00003014       0.00000000       0.00000000 s 
O       15.33162973      10.19502988       7.38060000       6.83751826       0.00010548      -0.00013049       0.00000000 s 
O       13.82479959      12.80493624       7.38060000       4.41647045       0.00007534      -0.00007830       0.00000000 s 
O       12.31796946      15.41484259       7.38060000       3.22847688       0.00004520      -0.00002610       0.00000000 s 
O       10.81124480      18.02456626       7.38060000       4.41632651       0.00012054      -0.00015659       0.00000000 s 
O        9.30439959      20.63465530       7.38060000       3.22988719       0.00007534       0.00007830       0.00000000 s 
O        7.79778041      23.24456165       7.38060000       4.41354215       0.00025616       0.00013049       0.00000000 s 
O        6.29084480      25.85428532       7.38060000       6.83288292       0.00012054      -0.00000000       0.00000000 s 
O        4.78401466      28.46419167       7.38060000       9.59493571       0.00009041       0.00005220       0.00000000 s 
O        3.27712425      31.07399363       7.38060000              inf       0.00000000       0.00000000       0.00000000 s 
O       22.86552425       2.36559791       7.38060000              inf       0.00000000       0.00000000       0.00000000 s 
O       21.35872425       4.97545206       7.38060000              inf       0.00000000       0.00000000       0.00000000 s 
O       19.85201466       7.58530622       7.38060000      10.92723166       0.00009041       0.00000000       0.00000000 s 
O       18.34529000      10.19502988       7.38060000       8.05704365       0.00016575      -0.00013049       0.00000000 s 
O       16.83845986      12.80493624       7.38060000       5.34671483       0.00013561      -0.00007830       0.00000000 s 
O       15.33162973      15.41484259       7.38060000       3.22847688       0.00010548      -0.00002610       0.00000000 s 
O       13.82490507      18.02456626       7.38060000       3.22837843       0.00018082      -0.00015659       0.00000000 s 
O       12.31807493      20.63447261       7.38060000       5.34653648       0.00015068      -0.00010439       0.00000000 s 
O       10.81122973      23.24456165       7.38060000       5.34720354       0.00010548       0.00013049       0.00000000 s 
O        9.30450507      25.85428532       7.38060000       6.83520373       0.00018082      -0.00000000       0.00000000 s 
O        7.79767493      28.46419167       7.38060000       9.11111213       0.00015068       0.00005220       0.00000000 s 
O        6.29084480      31.07409803       7.38060000      11.72471811       0.00012054       0.00010439       0.00000000 s 
O       25.87912425       2.36559791       7.38060000              inf       0.00000000       0.00000000       0.00000000 s 
O       24.37232425       4.97545206       7.38060000              inf       0.00000000       0.00000000       0.00000000 s 
O       22.86552425       7.58530622       7.38060000              inf       0.00000000       0.00000000       0.00000000 s 
O       21.35895027      10.19502988       7.38060000      10.06203485       0.00022602      -0.00013049       0.00000000 s 
O       19.85212014      12.80493624       7.38060000       7.47220210       0.00019588      -0.00007830       0.00000000 s 
O       18.34529000      15.41484259       7.38060000       5.34671483       0.00016575      -0.00002610       0.00000000 s 
O       16.83856534      18.02456626       7.38060000       4.41647045       0.00024109      -0.00015659       0.00000000 s 
O       15.33173520      20.63447261       7.38060000       5.34659593       0.00021095      -0.00010439       0.00000000 s 
O       13.82490507      23.24437896       7.38060000       7.47203194       0.00018082      -0.00005220       0.00000000 s 
O       12.31795439      25.85428532       7.38060000       8.05692983       0.00003014       0.00000000       0.00000000 s 
O       10.81133520      28.46419167       7.38060000       9.59824117       0.00021095       0.00005220       0.00000000 s 
O        9.30450507      31.07409803       7.38060000      11.72607078       0.00018082       0.00010439       0.00000000 s 
O       28.89272425       2.36559791       7.38060000              inf       0.00000000       0.00000000       0.00000000 s 
O       27.38592425       4.97545206       7.38060000              inf       0.00000000       0.00000000       0.00000000 s 
O       25.87912425       7.58530622       7.38060000              inf       0.00000000       0.00000000       0.00000000 s 
O       24.37232425      10.19516038       7.38060000              inf       0.00000000       0.00000000       0.00000000 s 
O       22.86556946      12.80493624       7.38060000      10.06184531       0.00004520      -0.00007830       0.00000000 s 
O       21.35873932      15.41484259       7.38060000       8.05684639       0.00001507      -0.00002610       0.00000000 s 
O       19.85201466      18.02456626       7.38060000       6.83737879       0.00009041      -0.00015659       0.00000000 s 
O       18.34518452      20.63447261       7.38060000       6.83733230       0.00006027      -0.00010439       0.00000000 s 
O       16.83835439      23.24437896       7.38060000       8.05684639       0.00003014      -0.00005220       0.00000000 s 
O       15.33152425      25.85428532       7.38060000      10.06184531       0.00000000       0.00000000       0.00000000 s 
O       13.82478452      28.46419167       7.38060000      10.92711555       0.00006027       0.00005220       0.00000000 s 
O       12.31792425      31.07399363       7.38060000              inf       0.00000000       0.00000000       0.00000000 s 
O       31.90632425       2.36559791       7.38060000              inf       0.00000000       0.00000000       0.00000000 s 
O       30.39952425       4.97545206       7.38060000              inf       0.00000000       0.00000000       0.00000000 s 
O       28.89272425       7.58530622       7.38060000              inf       0.00000000       0.00000000       0.00000000 s 
O       27.38592425      10.19516038       7.38060000              inf       0.00000000       0.00000000       0.00000000 s 
O       25.87912425      12.80501453       7.38060000              inf       0.00000000       0.00000000       0.00000000 s 
O       24.37232425      15.41486869       7.38060000              inf       0.00000000       0.00000000       0.00000000 s 
O       22.86567493      18.02456626       7.38060000       9.59999241       0.00015068      -0.00015659       0.00000000 s 
O       21.35884480      20.63447261       7.38060000       9.11466238       0.00012054      -0.00010439       0.00000000 s 
O       19.85201466      23.24437896       7.38060000       9.59992618       0.00009041      -0.00005220       0.00000000 s 
O       18.34512425      25.85428532       7.38060000              inf       0.00000000       0.00000000       0.00000000 s 
O       16.83832425      28.46413947       7.38060000              inf       0.00000000       0.00000000       0.00000000 s 
O       15.33152425      31.07399363       7.38060000              inf       0.00000000       0.00000000       0.00000000 s 
Cu      13.82479959      16.28481138      10.10010000       0.00000000       0.00000000       0.00000000       0.00000000 a1
N       12.73701054      16.87818782      10.10010000       0.00000000       0.00000000       0.00000000       0.00000000 a2
H       11.61801565      15.13222149      10.10010000       0.00000000       0.00000000       0.00000000       0.00000000 a2
H       13.71719900      18.70855683      10.10010000       0.00000000       0.00000000       0.00000000       0.00000000 a2
C       11.57867310      16.22452375      10.10010000       0.00000000       0.00000000       0.00000000       0.00000000 a2
C       12.74481576      18.21072715      10.10010000       0.00000000       0.00000000       0.00000000       0.00000000 a2
C       10.34513128      16.89554335      10.10010000       0.00000000       0.00000000       0.00000000       0.00000000 a2
C       11.56053123      18.95975530      10.10010000       0.00000000       0.00000000       0.00000000       0.00000000 a2
H        9.44489362      16.28517676      10.10010000       0.00000000       0.00000000       0.00000000       0.00000000 a2
C       10.30726540      18.30462971      10.10010000       0.00000000       0.00000000       0.00000000       0.00000000 a2
H       11.65577606      20.04401921      10.10010000       0.00000000       0.00000000       0.00000000       0.00000000 a2
C        9.03016199      19.05292709      10.10010000       0.00000000       0.00000000       0.00000000       0.00000000 a2
H        7.79039709      17.28960523      10.10010000       0.00000000       0.00000000       0.00000000       0.00000000 a2
H        9.95307699      20.99857336      10.10010000       0.00000000       0.00000000       0.00000000       0.00000000 a2
C        7.79145185      18.37441721      10.10010000       0.00000000       0.00000000       0.00000000       0.00000000 a2
C        9.01117631      20.46036924      10.10010000       0.00000000       0.00000000       0.00000000       0.00000000 a2
H        6.10657822      16.29723428      10.10010000       0.00000000       0.00000000       0.00000000       0.00000000 a2
H        9.98007885      22.95737330      10.10010000       0.00000000       0.00000000       0.00000000       0.00000000 a2
C        5.21657174      16.92057185      10.10010000       0.00000000       0.00000000       0.00000000       0.00000000 a2
C        6.56550430      19.05712895      10.10010000       0.00000000       0.00000000       0.00000000       0.00000000 a2
C        7.80642944      21.19003226      10.10010000       0.00000000       0.00000000       0.00000000       0.00000000 a2
C        8.99514396      23.41957847      10.10010000       0.00000000       0.00000000       0.00000000       0.00000000 a2
H        3.91447052      15.18191311      10.10010000       0.00000000       0.00000000       0.00000000       0.00000000 a2
C        5.27595472      18.33075435      10.10010000       0.00000000       0.00000000       0.00000000       0.00000000 a2
C        3.97596302      16.27165771      10.10010000       0.00000000       0.00000000       0.00000000       0.00000000 a2
C        6.60041686      20.46621531      10.10010000       0.00000000       0.00000000       0.00000000       0.00000000 a2
C        7.80431992      22.67018495      10.10010000       0.00000000       0.00000000       0.00000000       0.00000000 a2
H        9.85825407      25.41729134      10.10010000       0.00000000       0.00000000       0.00000000       0.00000000 a2
C        8.94114025      24.82190531      10.10010000       0.00000000       0.00000000       0.00000000       0.00000000 a2
N        2.82817319      16.94834070      10.10010000       0.00000000       0.00000000       0.00000000       0.00000000 a2
C        4.04051434      19.00615850      10.10010000       0.00000000       0.00000000       0.00000000       0.00000000 a2
H        5.66336807      21.01282317      10.10010000       0.00000000       0.00000000       0.00000000       0.00000000 a2
C        6.60020590      23.41007860      10.10010000       0.00000000       0.00000000       0.00000000       0.00000000 a2
N        7.78702186      25.48105007      10.10010000       0.00000000       0.00000000       0.00000000       0.00000000 a2
C        2.84199055      18.27558203      10.10010000       0.00000000       0.00000000       0.00000000       0.00000000 a2
C        6.63701703      24.81039585      10.10010000       0.00000000       0.00000000       0.00000000       0.00000000 a2
H        3.96509900      20.09115317      10.10010000       0.00000000       0.00000000       0.00000000       0.00000000 a2
H        5.62233791      22.93563322      10.10010000       0.00000000       0.00000000       0.00000000       0.00000000 a2
H        1.87445920      18.78619999      10.10010000       0.00000000       0.00000000       0.00000000       0.00000000 a2
H        5.71578964      25.39646470      10.10010000       0.00000000       0.00000000       0.00000000       0.00000000 a2
