222
Lattice="36.16319999999999 0.0 0.0 -18.081599999999995 31.318249882114287 0.0 0.0 0.0 30.0" Properties=species:S:1:pos:R:3:remoteness:R:1:shift:R:3:adsorption:S:1 size="_JSON [[12, 0], [0, 12]]" mass_center_dist=7.586631367045971 min_atom_dist=0.3472505609309651 s1=tpb_atop s2=tpb_hollow_up s1idx=4 s2idx=8 pbc="T T T"
O       -1.24327575       2.36559791       7.38060000              inf       0.00000000       0.00000000       0.00000000 s 
O       -2.75007575       4.97545206       7.38060000              inf       0.00000000       0.00000000       0.00000000 s 
O       -4.25687575       7.58530622       7.38060000              inf       0.00000000       0.00000000       0.00000000 s 
O       -5.76367575      10.19516038       7.38060000              inf       0.00000000       0.00000000       0.00000000 s 
O       -7.27047575      12.80501453       7.38060000              inf       0.00000000       0.00000000       0.00000000 s 
O       -8.77727575      15.41486869       7.38060000              inf       0.00000000       0.00000000       0.00000000 s 
O      -10.28407575      18.02472285       7.38060000              inf       0.00000000       0.00000000       0.00000000 s 
O      -11.79087575      20.63457700       7.38060000              inf       0.00000000       0.00000000       0.00000000 s 
O      -13.29767575      23.24443116       7.38060000              inf       0.00000000       0.00000000       0.00000000 s 
O      -14.80447575      25.85428532       7.38060000              inf       0.00000000       0.00000000       0.00000000 s 
O      -16.31127575      28.46413947       7.38060000              inf       0.00000000       0.00000000       0.00000000 s 
O      -17.81807575      31.07399363       7.38060000              inf       0.00000000       0.00000000       0.00000000 s 
O        1.77032425       2.36559791       7.38060000              inf       0.00000000       0.00000000       0.00000000 s 
O        0.26352425       4.97545206       7.38060000              inf       0.00000000       0.00000000       0.00000000 s 
O       -1.24327575       7.58530622       7.38060000              inf       0.00000000       0.00000000       0.00000000 s 
O       -2.75007575      10.19516038       7.38060000              inf       0.00000000       0.00000000       0.00000000 s 
O       -4.25687575      12.80501453       7.38060000              inf       0.00000000       0.00000000       0.00000000 s 
O       -5.76367575      15.41486869       7.38060000              inf       0.00000000       0.00000000       0.00000000 s 
O       -7.27047575      18.02472285       7.38060000              inf       0.00000000       0.00000000       0.00000000 s 
O       -8.77727575      20.63457700       7.38060000              inf       0.00000000       0.00000000       0.00000000 s 
O      -10.28407575      23.24443116       7.38060000              inf       0.00000000       0.00000000       0.00000000 s 
O      -11.79087575      25.85428532       7.38060000              inf       0.00000000       0.00000000       0.00000000 s 
O      -13.29767575      28.46413947       7.38060000              inf       0.00000000       0.00000000       0.00000000 s 
O      -14.80447575      31.07399363       7.38060000              inf       0.00000000       0.00000000       0.00000000 s 
O        4.78392425       2.36559791       7.38060000              inf       0.00000000       0.00000000       0.00000000 s 
O        3.27712425       4.97545206       7.38060000              inf       0.00000000       0.00000000       0.00000000 s 
O        1.77032425       7.58530622       7.38060000              inf       0.00000000       0.00000000       0.00000000 s 
O        0.26352425      10.19516038       7.38060000              inf       0.00000000       0.00000000       0.00000000 s 
O       -1.24327575      12.80501453       7.38060000              inf       0.00000000       0.00000000       0.00000000 s 
O       -2.75007575      15.41486869       7.38060000              inf       0.00000000       0.00000000       0.00000000 s 
O       -4.25687575      18.02472285       7.38060000              inf       0.00000000       0.00000000       0.00000000 s 
O       -5.76367575      20.63457700       7.38060000              inf       0.00000000       0.00000000       0.00000000 s 
O       -7.27047575      23.24443116       7.38060000              inf       0.00000000       0.00000000       0.00000000 s 
O       -8.77727575      25.85428532       7.38060000              inf       0.00000000       0.00000000       0.00000000 s 
O      -10.28407575      28.46413947       7.38060000              inf       0.00000000       0.00000000       0.00000000 s 
O      -11.79087575      31.07399363       7.38060000              inf       0.00000000       0.00000000       0.00000000 s 
O        7.79752425       2.36559791       7.38060000              inf       0.00000000       0.00000000       0.00000000 s 
O        6.29072425       4.97545206       7.38060000              inf       0.00000000       0.00000000       0.00000000 s 
O        4.78405986       7.58517573       7.38060000      10.06654360       0.00013561      -0.00013049       0.00000000 s 
O        3.27722973      10.19508208       7.38060000      10.06494431       0.00010548      -0.00007830       0.00000000 s 
O        1.77032425      12.80501453       7.38060000              inf       0.00000000       0.00000000       0.00000000 s 
O        0.26356946      15.41479039       7.38060000      10.78913708       0.00004520      -0.00007830       0.00000000 s 
O       -1.24326068      18.02469675       7.38060000      11.19992230       0.00001507      -0.00002610       0.00000000 s 
O       -2.75007575      20.63457700       7.38060000              inf       0.00000000       0.00000000       0.00000000 s 
O       -4.25687575      23.24443116       7.38060000              inf       0.00000000       0.00000000       0.00000000 s 
O       -5.76367575      25.85428532       7.38060000              inf       0.00000000       0.00000000       0.00000000 s 
O       -7.27047575      28.46413947       7.38060000              inf       0.00000000       0.00000000       0.00000000 s 
O       -8.77727575      31.07399363       7.38060000              inf       0.00000000       0.00000000       0.00000000 s 
O       10.81112425       2.36559791       7.38060000              inf       0.00000000       0.00000000       0.00000000 s 
O        9.30444480       4.97545206       7.38060000       9.60617260       0.00012054       0.00000000       0.00000000 s 
O        7.79772014       7.58517573       7.38060000       8.06241008       0.00019588      -0.00013049       0.00000000 s 
O        6.29089000      10.19508208       7.38060000       7.47583520       0.00016575      -0.00007830       0.00000000 s 
O        4.78405986      12.80498844       7.38060000       8.05841572       0.00013561      -0.00002610       0.00000000 s 
O        3.27722973      15.41479039       7.38060000       8.42694687       0.00010548      -0.00007830       0.00000000 s 
O        1.77039959      18.02469675       7.38060000       8.42401722       0.00007534      -0.00002610       0.00000000 s 
O        0.26367493      20.63442041       7.38060000       9.43806608       0.00015068      -0.00015659       0.00000000 s 
O       -1.24315520      23.24432677       7.38060000      11.19620674       0.00012054      -0.00010439       0.00000000 s 
O       -2.75007575      25.85428532       7.38060000              inf       0.00000000       0.00000000       0.00000000 s 
O       -4.25687575      28.46413947       7.38060000              inf       0.00000000       0.00000000       0.00000000 s 
O       -5.76367575      31.07399363       7.38060000              inf       0.00000000       0.00000000       0.00000000 s 
O       13.82472425       2.36559791       7.38060000              inf       0.00000000       0.00000000       0.00000000 s 
O       12.31810507       4.97545206       7.38060000       9.12093840       0.00018082       0.00000000       0.00000000 s 
O       10.81138041       7.58517573       7.38060000       6.84353045       0.00025616      -0.00013049       0.00000000 s 
O        9.30455027      10.19508208       7.38060000       5.35139386       0.00022602      -0.00007830       0.00000000 s 
O        7.79772014      12.80498844       7.38060000       5.34838481       0.00019588      -0.00002610       0.00000000 s 
O        6.29089000      15.41479039       7.38060000       6.61707524       0.00016575      -0.00007830       0.00000000 s 
O        4.78405986      18.02469675       7.38060000       5.88677917       0.00013561      -0.00002610       0.00000000 s 
O        3.27733520      20.63442041       7.38060000       6.60951449       0.00021095      -0.00015659       0.00000000 s 
O        1.77050507      23.24432677       7.38060000       8.41911442       0.00018082      -0.00010439       0.00000000 s 
O        0.26367493      25.85423312       7.38060000      10.78153931       0.00015068      -0.00005220       0.00000000 s 
O       -1.24327575      28.46413947       7.38060000              inf       0.00000000       0.00000000       0.00000000 s 
O       -2.75007575      31.07399363       7.38060000              inf       0.00000000       0.00000000       0.00000000 s 
O       16.83832425       2.36559791       7.38060000              inf       0.00000000       0.00000000       0.00000000 s 
O       15.33155439       4.97545206       7.38060000       9.60559773       0.00003014       0.00000000       0.00000000 s 
O       13.82482973       7.58517573       7.38060000       6.84317344       0.00010548      -0.00013049       0.00000000 s 
O       12.31799959      10.19508208       7.38060000       4.42165326       0.00007534      -0.00007830       0.00000000 s 
O       10.81116946      12.80498844       7.38060000       3.23068240       0.00004520      -0.00002610       0.00000000 s 
O        9.30444480      15.41471210       7.38060000       4.41436602       0.00012054      -0.00015659       0.00000000 s 
O        7.79772014      18.02469675       7.38060000       4.06307377       0.00019588      -0.00002610       0.00000000 s 
O        6.29099548      20.63442041       7.38060000       4.05691616       0.00027122      -0.00015659       0.00000000 s 
O        4.78416534      23.24432677       7.38060000       5.87981516       0.00024109      -0.00010439       0.00000000 s 
O        3.27733520      25.85423312       7.38060000       8.41725492       0.00021095      -0.00005220       0.00000000 s 
O        1.77050507      28.46413947       7.38060000      11.19341015       0.00018082       0.00000000       0.00000000 s 
O        0.26352425      31.07399363       7.38060000              inf       0.00000000       0.00000000       0.00000000 s 
O       19.85192425       2.36559791       7.38060000              inf       0.00000000       0.00000000       0.00000000 s 
O       18.34512425       4.97545206       7.38060000              inf       0.00000000       0.00000000       0.00000000 s 
O       16.83849000       7.58517573       7.38060000       8.06150091       0.00016575      -0.00013049       0.00000000 s 
O       15.33165986      10.19508208       7.38060000       5.35048067       0.00013561      -0.00007830       0.00000000 s 
O       13.82482973      12.80498844       7.38060000       3.22982762       0.00010548      -0.00002610       0.00000000 s 
O       12.31810507      15.41471210       7.38060000       3.22483991       0.00018082      -0.00015659       0.00000000 s 
O       10.81116946      18.02469675       7.38060000       4.06529548       0.00004520      -0.00002610       0.00000000 s 
O        9.30444480      20.63442041       7.38060000       2.71951298       0.00012054      -0.00015659       0.00000000 s 
O        7.79761466      23.24432677       7.38060000       4.05313408       0.00009041      -0.00010439       0.00000000 s 
O        6.29078452      25.85423312       7.38060000       6.60487225       0.00006027      -0.00005220       0.00000000 s 
O        4.78395439      28.46413947       7.38060000       9.43319010       0.00003014       0.00000000       0.00000000 s 
O        3.27712425      31.07399363       7.38060000              inf       0.00000000       0.00000000       0.00000000 s 
O       22.86552425       2.36559791       7.38060000              inf       0.00000000       0.00000000       0.00000000 s 
O       21.35872425       4.97545206       7.38060000              inf       0.00000000       0.00000000       0.00000000 s 
O       19.85215027       7.58517573       7.38060000      10.06532997       0.00022602      -0.00013049       0.00000000 s 
O       18.34532014      10.19508208       7.38060000       7.47452780       0.00019588      -0.00007830       0.00000000 s 
O       16.83849000      12.80498844       7.38060000       5.34701417       0.00016575      -0.00002610       0.00000000 s 
O       15.33176534      15.41471210       7.38060000       4.41325890       0.00024109      -0.00015659       0.00000000 s 
O       13.82493520      18.02461845       7.38060000       5.34098964       0.00021095      -0.00010439       0.00000000 s 
O       12.31810507      20.63442041       7.38060000       4.06152179       0.00018082      -0.00015659       0.00000000 s 
O       10.81127493      23.24432677       7.38060000       4.05536139       0.00015068      -0.00010439       0.00000000 s 
O        9.30444480      25.85423312       7.38060000       5.87879659       0.00012054      -0.00005220       0.00000000 s 
O        7.79761466      28.46413947       7.38060000       8.41658120       0.00009041       0.00000000       0.00000000 s 
O        6.29089000      31.07386314       7.38060000      11.19273330       0.00016575      -0.00013049       0.00000000 s 
O       25.87912425       2.36559791       7.38060000              inf       0.00000000       0.00000000       0.00000000 s 
O       24.37232425       4.97545206       7.38060000              inf       0.00000000       0.00000000       0.00000000 s 
O       22.86552425       7.58530622       7.38060000              inf       0.00000000       0.00000000       0.00000000 s 
O       21.35876946      10.19508208       7.38060000      10.06329820       0.00004520      -0.00007830       0.00000000 s 
O       19.85193932      12.80498844       7.38060000       8.05670236       0.00001507      -0.00002610       0.00000000 s 
O       18.34521466      15.41471210       7.38060000       6.83490085       0.00009041      -0.00015659       0.00000000 s 
O       16.83838452      18.02461845       7.38060000       6.83254516       0.00006027      -0.00010439       0.00000000 s 
O       15.33176534      20.63442041       7.38060000       6.61516924       0.00024109      -0.00015659       0.00000000 s 
O       13.82493520      23.24432677       7.38060000       5.88458262       0.00021095      -0.00010439       0.00000000 s 
O       12.31810507      25.85423312       7.38060000       6.60760605       0.00018082      -0.00005220       0.00000000 s 
O       10.81127493      28.46413947       7.38060000       8.41765402       0.00015068       0.00000000       0.00000000 s 
O        9.30455027      31.07386314       7.38060000      10.78025168       0.00022602      -0.00013049       0.00000000 s 
O       28.89272425       2.36559791       7.38060000              inf       0.00000000       0.00000000       0.00000000 s 
O       27.38592425       4.97545206       7.38060000              inf       0.00000000       0.00000000       0.00000000 s 
O       25.87912425       7.58530622       7.38060000              inf       0.00000000       0.00000000       0.00000000 s 
O       24.37232425      10.19516038       7.38060000              inf       0.00000000       0.00000000       0.00000000 s 
O       22.86559959      12.80498844       7.38060000      10.92687277       0.00007534      -0.00002610       0.00000000 s 
O       21.35887493      15.41471210       7.38060000       9.59794003       0.00015068      -0.00015659       0.00000000 s 
O       19.85204480      18.02461845       7.38060000       9.11076881       0.00012054      -0.00010439       0.00000000 s 
O       18.34521466      20.63442041       7.38060000       9.44380483       0.00009041      -0.00015659       0.00000000 s 
O       16.83838452      23.24432677       7.38060000       8.42447540       0.00006027      -0.00010439       0.00000000 s 
O       15.33155439      25.85423312       7.38060000       8.42154489       0.00003014      -0.00005220       0.00000000 s 
O       13.82472425      28.46413947       7.38060000       9.43596033       0.00000000      -0.00000000       0.00000000 s 
O       12.31799959      31.07386314       7.38060000      11.19434668       0.00007534      -0.00013049       0.00000000 s 
O       31.90632425       2.36559791       7.38060000              inf       0.00000000       0.00000000       0.00000000 s 
O       30.39952425       4.97545206       7.38060000              inf       0.00000000       0.00000000       0.00000000 s 
O       28.89272425       7.58530622       7.38060000              inf       0.00000000       0.00000000       0.00000000 s 
O       27.38592425      10.19516038       7.38060000              inf       0.00000000       0.00000000       0.00000000 s 
O       25.87912425      12.80501453       7.38060000              inf       0.00000000       0.00000000       0.00000000 s 
O       24.37232425      15.41486869       7.38060000              inf       0.00000000       0.00000000       0.00000000 s 
O       22.86570507      18.02461845       7.38060000      11.72573407       0.00018082      -0.00010439       0.00000000 s 
O       21.35887493      20.63452481       7.38060000      11.72436111       0.00015068      -0.00005220       0.00000000 s 
O       19.85192425      23.24443116       7.38060000              inf       0.00000000       0.00000000       0.00000000 s 
O       18.34521466      25.85423312       7.38060000      10.78656332       0.00009041      -0.00005220       0.00000000 s 
O       16.83838452      28.46413947       7.38060000      11.19744297       0.00006027       0.00000000       0.00000000 s 
O       15.33152425      31.07399363       7.38060000              inf       0.00000000       0.00000000       0.00000000 s 
N        9.27048152      14.91513382      10.10010000       0.00000000       0.00000000       0.00000000       0.00000000 a1
H        7.19924931      15.01104596      10.10010000       0.00000000       0.00000000       0.00000000       0.00000000 a1
H       11.34593278      14.98145021      10.10010000       0.00000000       0.00000000       0.00000000       0.00000000 a1
C        8.12553954      15.59126873      10.10010000       0.00000000       0.00000000       0.00000000       0.00000000 a1
C       10.42871348      15.57446127      10.10010000       0.00000000       0.00000000       0.00000000       0.00000000 a1
C        8.08988866      16.99505709      10.10010000       0.00000000       0.00000000       0.00000000       0.00000000 a1
C       10.48524862      16.97459583      10.10010000       0.00000000       0.00000000       0.00000000       0.00000000 a1
H        7.11117685      17.46950247      10.10010000       0.00000000       0.00000000       0.00000000       0.00000000 a1
C        9.29126030      17.73239308      10.10010000       0.00000000       0.00000000       0.00000000       0.00000000 a1
H       11.47187112      17.43424334      10.10010000       0.00000000       0.00000000       0.00000000       0.00000000 a1
C        9.30064766      19.21272846      10.10010000       0.00000000       0.00000000       0.00000000       0.00000000 a1
H        7.15368368      19.40473543      10.10010000       0.00000000       0.00000000       0.00000000       0.00000000 a1
H       11.44708426      19.38628376      10.10010000       0.00000000       0.00000000       0.00000000       0.00000000 a1
C        8.09379127      19.94604528      10.10010000       0.00000000       0.00000000       0.00000000       0.00000000 a1
C       10.51003548      19.93289162      10.10010000       0.00000000       0.00000000       0.00000000       0.00000000 a1
H        5.45246128      20.36659718      10.10010000       0.00000000       0.00000000       0.00000000       0.00000000 a1
H       13.15706117      20.34211675      10.10010000       0.00000000       0.00000000       0.00000000       0.00000000 a1
C        5.54717872      21.44921688      10.10010000       0.00000000       0.00000000       0.00000000       0.00000000 a1
C        8.07206321      21.34910288      10.10010000       0.00000000       0.00000000       0.00000000       0.00000000 a1
C       10.53956876      21.34106452      10.10010000       0.00000000       0.00000000       0.00000000       0.00000000 a1
C       13.06487515      21.42619797      10.10010000       0.00000000       0.00000000       0.00000000       0.00000000 a1
H        3.39051095      21.70735756      10.10010000       0.00000000       0.00000000       0.00000000       0.00000000 a1
C        6.79822956      22.10269826      10.10010000       0.00000000       0.00000000       0.00000000       0.00000000 a1
C        4.36489824      22.19915847      10.10010000       0.00000000       0.00000000       0.00000000       0.00000000 a1
C        9.30982407      22.02341089      10.10010000       0.00000000       0.00000000       0.00000000       0.00000000 a1
C       11.82046930      22.08278508      10.10010000       0.00000000       0.00000000       0.00000000       0.00000000 a1
H       15.22639482      21.67776181      10.10010000       0.00000000       0.00000000       0.00000000       0.00000000 a1
C       14.25221848      22.17431266      10.10010000       0.00000000       0.00000000       0.00000000       0.00000000 a1
N        4.37692250      23.53133243      10.10010000       0.00000000       0.00000000       0.00000000       0.00000000 a1
C        6.76542652      23.51032310      10.10010000       0.00000000       0.00000000       0.00000000       0.00000000 a1
H        9.31457049      23.10840556      10.10010000       0.00000000       0.00000000       0.00000000       0.00000000 a1
C       11.85917899      23.49552523      10.10010000       0.00000000       0.00000000       0.00000000       0.00000000 a1
N       14.24610087      23.50319820      10.10010000       0.00000000       0.00000000       0.00000000       0.00000000 a1
C        5.53346684      24.18298691      10.10010000       0.00000000       0.00000000       0.00000000       0.00000000 a1
C       13.09018939      24.16398717      10.10010000       0.00000000       0.00000000       0.00000000       0.00000000 a1
H        7.66735180      24.11813204      10.10010000       0.00000000       0.00000000       0.00000000       0.00000000 a1
H       10.95936324      24.10516106      10.10010000       0.00000000       0.00000000       0.00000000       0.00000000 a1
H        5.49190930      25.27620262      10.10010000       0.00000000       0.00000000       0.00000000       0.00000000 a1
H       13.13723168      25.25464523      10.10010000       0.00000000       0.00000000       0.00000000       0.00000000 a1
N       12.34974787      19.40867631      10.10010000       0.00000000       0.00000000       0.00000000       0.00000000 a2
H       14.42108556      19.31258148      10.10010000       0.00000000       0.00000000       0.00000000       0.00000000 a2
H       10.27450757      19.34235992      10.10010000       0.00000000       0.00000000       0.00000000       0.00000000 a2
C       13.49500628      18.73235870      10.10010000       0.00000000       0.00000000       0.00000000       0.00000000 a2
C       11.19151591      18.74934885      10.10010000       0.00000000       0.00000000       0.00000000       0.00000000 a2
C       13.53034074      17.32875304      10.10010000       0.00000000       0.00000000       0.00000000       0.00000000 a2
C       11.13519173      17.34921430      10.10010000       0.00000000       0.00000000       0.00000000       0.00000000 a2
H       14.50926349      16.85430765      10.10010000       0.00000000       0.00000000       0.00000000       0.00000000 a2
C       12.32918005      16.59141704      10.10010000       0.00000000       0.00000000       0.00000000       0.00000000 a2
H       10.14856922      16.88956678      10.10010000       0.00000000       0.00000000       0.00000000       0.00000000 a2
C       12.31958173      15.11108167      10.10010000       0.00000000       0.00000000       0.00000000       0.00000000 a2
H       14.46675666      14.91907470      10.10010000       0.00000000       0.00000000       0.00000000       0.00000000 a2
H       10.17314513      14.93752637      10.10010000       0.00000000       0.00000000       0.00000000       0.00000000 a2
C       13.52664908      14.37776485      10.10010000       0.00000000       0.00000000       0.00000000       0.00000000 a2
C       11.11040487      14.39091851      10.10010000       0.00000000       0.00000000       0.00000000       0.00000000 a2
H       16.16776812      13.95721295      10.10010000       0.00000000       0.00000000       0.00000000       0.00000000 a2
H        8.46316822      13.98169338      10.10010000       0.00000000       0.00000000       0.00000000       0.00000000 a2
C       16.07326162      12.87459325      10.10010000       0.00000000       0.00000000       0.00000000       0.00000000 a2
C       13.54837713      12.97470725      10.10010000       0.00000000       0.00000000       0.00000000       0.00000000 a2
C       11.08066064      12.98274560      10.10010000       0.00000000       0.00000000       0.00000000       0.00000000 a2
C        8.55556520      12.89761216      10.10010000       0.00000000       0.00000000       0.00000000       0.00000000 a2
H       18.22992939      12.61645257      10.10010000       0.00000000       0.00000000       0.00000000       0.00000000 a2
C       14.82221078      12.22111186      10.10010000       0.00000000       0.00000000       0.00000000       0.00000000 a2
C       17.25554210      12.12465165      10.10010000       0.00000000       0.00000000       0.00000000       0.00000000 a2
C       12.31061627      12.30039923      10.10010000       0.00000000       0.00000000       0.00000000       0.00000000 a2
C        9.79997104      12.24102505      10.10010000       0.00000000       0.00000000       0.00000000       0.00000000 a2
H        6.39404553      12.64604832      10.10010000       0.00000000       0.00000000       0.00000000       0.00000000 a2
C        7.36801091      12.14949747      10.10010000       0.00000000       0.00000000       0.00000000       0.00000000 a2
N       17.24330689      10.79247770      10.10010000       0.00000000       0.00000000       0.00000000       0.00000000 a2
C       14.85501382      10.81348702      10.10010000       0.00000000       0.00000000       0.00000000       0.00000000 a2
H       12.30586985      11.21540456      10.10010000       0.00000000       0.00000000       0.00000000       0.00000000 a2
C        9.76105040      10.82828490      10.10010000       0.00000000       0.00000000       0.00000000       0.00000000 a2
N        7.37433947      10.82061193      10.10010000       0.00000000       0.00000000       0.00000000       0.00000000 a2
C       16.08676255      10.14082321      10.10010000       0.00000000       0.00000000       0.00000000       0.00000000 a2
C        8.53025096      10.15982295      10.10010000       0.00000000       0.00000000       0.00000000       0.00000000 a2
H       13.95308854      10.20567809      10.10010000       0.00000000       0.00000000       0.00000000       0.00000000 a2
H       10.66086616      10.21864906      10.10010000       0.00000000       0.00000000       0.00000000       0.00000000 a2
H       16.12853104       9.04760750      10.10010000       0.00000000       0.00000000       0.00000000       0.00000000 a2
H        8.48299771       9.06916490      10.10010000       0.00000000       0.00000000       0.00000000       0.00000000 a2
