222
Lattice="36.16319999999999 0.0 0.0 -18.081599999999995 31.318249882114287 0.0 0.0 0.0 30.0" Properties=species:S:1:pos:R:3:remoteness:R:1:shift:R:3:adsorption:S:1 size="_JSON [[12, 0], [0, 12]]" mass_center_dist=14.244698922584966 min_atom_dist=3.644744339063306 s1=tpb_atop s2=tpb_hollow_up s1idx=4 s2idx=9 pbc="T T T"
O       -1.24327575       2.36559791       7.38060000              inf       0.00000000       0.00000000       0.00000000 s 
O       -2.75007575       4.97545206       7.38060000              inf       0.00000000       0.00000000       0.00000000 s 
O       -4.25687575       7.58530622       7.38060000              inf       0.00000000       0.00000000       0.00000000 s 
O       -5.76367575      10.19516038       7.38060000              inf       0.00000000       0.00000000       0.00000000 s 
O       -7.27047575      12.80501453       7.38060000              inf       0.00000000       0.00000000       0.00000000 s 
O       -8.77727575      15.41486869       7.38060000              inf       0.00000000       0.00000000       0.00000000 s 
O      -10.28407575      18.02472285       7.38060000              inf       0.00000000       0.00000000       0.00000000 s 
O      -11.79087575      20.63457700       7.38060000              inf       0.00000000       0.00000000       0.00000000 s 
O      -13.29767575      23.24443116       7.38060000              inf       0.00000000       0.00000000       0.00000000 s 
O      -14.80447575      25.85428532       7.38060000              inf       0.00000000       0.00000000       0.00000000 s 
O      -16.31127575      28.46413947       7.38060000              inf       0.00000000       0.00000000       0.00000000 s 
O      -17.81807575      31.07399363       7.38060000              inf       0.00000000       0.00000000       0.00000000 s 
O        1.77032425       2.36559791       7.38060000              inf       0.00000000       0.00000000       0.00000000 s 
O        0.26352425       4.97545206       7.38060000              inf       0.00000000       0.00000000       0.00000000 s 
O       -1.24312507       7.58546281       7.38060000      11.72561138       0.00015068       0.00015659       0.00000000 s 
O       -2.75007575      10.19516038       7.38060000              inf       0.00000000       0.00000000       0.00000000 s 
O       -4.25687575      12.80501453       7.38060000              inf       0.00000000       0.00000000       0.00000000 s 
O       -5.76367575      15.41486869       7.38060000              inf       0.00000000       0.00000000       0.00000000 s 
O       -7.27047575      18.02472285       7.38060000              inf       0.00000000       0.00000000       0.00000000 s 
O       -8.77727575      20.63457700       7.38060000              inf       0.00000000       0.00000000       0.00000000 s 
O      -10.28407575      23.24443116       7.38060000              inf       0.00000000       0.00000000       0.00000000 s 
O      -11.79087575      25.85428532       7.38060000              inf       0.00000000       0.00000000       0.00000000 s 
O      -13.29767575      28.46413947       7.38060000              inf       0.00000000       0.00000000       0.00000000 s 
O      -14.80447575      31.07399363       7.38060000              inf       0.00000000       0.00000000       0.00000000 s 
O        4.78392425       2.36559791       7.38060000              inf       0.00000000       0.00000000       0.00000000 s 
O        3.27736534       4.97555646       7.38060000       9.59946726       0.00024109       0.00010439       0.00000000 s 
O        1.77053520       7.58546281       7.38060000       9.11210956       0.00021095       0.00015659       0.00000000 s 
O        0.26359959      10.19518648       7.38060000       9.59573599       0.00007534       0.00002610       0.00000000 s 
O       -1.24323054      12.80509283       7.38060000      10.92185311       0.00004520       0.00007830       0.00000000 s 
O       -2.75007575      15.41486869       7.38060000              inf       0.00000000       0.00000000       0.00000000 s 
O       -4.25687575      18.02472285       7.38060000              inf       0.00000000       0.00000000       0.00000000 s 
O       -5.76367575      20.63457700       7.38060000              inf       0.00000000       0.00000000       0.00000000 s 
O       -7.27047575      23.24443116       7.38060000              inf       0.00000000       0.00000000       0.00000000 s 
O       -8.77727575      25.85428532       7.38060000              inf       0.00000000       0.00000000       0.00000000 s 
O      -10.28407575      28.46413947       7.38060000              inf       0.00000000       0.00000000       0.00000000 s 
O      -11.79087575      31.07399363       7.38060000              inf       0.00000000       0.00000000       0.00000000 s 
O        7.79764480       2.36565010       7.38060000      10.06494431       0.00012054       0.00005220       0.00000000 s 
O        6.29081466       4.97555646       7.38060000       8.05841572       0.00009041       0.00010439       0.00000000 s 
O        4.78419548       7.58546281       7.38060000       6.83633055       0.00027122       0.00015659       0.00000000 s 
O        3.27725986      10.19518648       7.38060000       6.83375739       0.00013561       0.00002610       0.00000000 s 
O        1.77042973      12.80509283       7.38060000       8.05151029       0.00010548       0.00007830       0.00000000 s 
O        0.26359959      15.41499918       7.38060000      10.05572933       0.00007534       0.00013049       0.00000000 s 
O       -1.24312507      18.02472285       7.38060000      12.47270683       0.00015068      -0.00000000       0.00000000 s 
O       -2.75003054      20.63449871       7.38060000      10.78913708       0.00004520      -0.00007830       0.00000000 s 
O       -4.25686068      23.24440506       7.38060000      11.19992230       0.00001507      -0.00002610       0.00000000 s 
O       -5.76367575      25.85428532       7.38060000              inf       0.00000000       0.00000000       0.00000000 s 
O       -7.27047575      28.46413947       7.38060000              inf       0.00000000       0.00000000       0.00000000 s 
O       -8.77727575      31.07399363       7.38060000              inf       0.00000000       0.00000000       0.00000000 s 
O       10.81130507       2.36565010       7.38060000      10.06654360       0.00018082       0.00005220       0.00000000 s 
O        9.30447493       4.97555646       7.38060000       7.47583520       0.00015068       0.00010439       0.00000000 s 
O        7.79764480       7.58546281       7.38060000       5.34838481       0.00012054       0.00015659       0.00000000 s 
O        6.29092014      10.19518648       7.38060000       4.41436602       0.00019588       0.00002610       0.00000000 s 
O        4.78409000      12.80509283       7.38060000       5.34144709       0.00016575       0.00007830       0.00000000 s 
O        3.27725986      15.41499918       7.38060000       7.46590806       0.00013561       0.00013049       0.00000000 s 
O        1.77045986      18.02459235       7.38060000       9.44600961       0.00013561      -0.00013049       0.00000000 s 
O        0.26362973      20.63449871       7.38060000       8.42694687       0.00010548      -0.00007830       0.00000000 s 
O       -1.24320041      23.24440506       7.38060000       8.42401722       0.00007534      -0.00002610       0.00000000 s 
O       -2.74992507      25.85412873       7.38060000       9.43806608       0.00015068      -0.00015659       0.00000000 s 
O       -4.25675520      28.46403508       7.38060000      11.19620674       0.00012054      -0.00010439       0.00000000 s 
O       -5.76367575      31.07399363       7.38060000              inf       0.00000000       0.00000000       0.00000000 s 
O       13.82472425       2.36559791       7.38060000              inf       0.00000000       0.00000000       0.00000000 s 
O       12.31813520       4.97555646       7.38060000       8.06241008       0.00021095       0.00010439       0.00000000 s 
O       10.81130507       7.58546281       7.38060000       5.35139386       0.00018082       0.00015659       0.00000000 s 
O        9.30436946      10.19518648       7.38060000       3.23068240       0.00004520       0.00002610       0.00000000 s 
O        7.79775027      12.80509283       7.38060000       3.22483991       0.00022602       0.00007830       0.00000000 s 
O        6.29092014      15.41499918       7.38060000       5.34098964       0.00019588       0.00013049       0.00000000 s 
O        4.78398452      18.02472285       7.38060000       8.05082441       0.00006027      -0.00000000       0.00000000 s 
O        3.27729000      20.63449871       7.38060000       6.61707524       0.00016575      -0.00007830       0.00000000 s 
O        1.77045986      23.24440506       7.38060000       5.88677917       0.00013561      -0.00002610       0.00000000 s 
O        0.26373520      25.85412873       7.38060000       6.60951449       0.00021095      -0.00015659       0.00000000 s 
O       -1.24309493      28.46403508       7.38060000       8.41911442       0.00018082      -0.00010439       0.00000000 s 
O       -2.74992507      31.07394143       7.38060000      10.78153931       0.00015068      -0.00005220       0.00000000 s 
O       16.83850507       2.36559791       7.38060000      11.19341015       0.00018082      -0.00000000       0.00000000 s 
O       15.33158452       4.97555646       7.38060000       9.60617260       0.00006027       0.00010439       0.00000000 s 
O       13.82496534       7.58546281       7.38060000       6.84353045       0.00024109       0.00015659       0.00000000 s 
O       12.31802973      10.19518648       7.38060000       4.42165326       0.00010548       0.00002610       0.00000000 s 
O       10.81119959      12.80509283       7.38060000       3.22982762       0.00007534       0.00007830       0.00000000 s 
O        9.30458041      15.41499918       7.38060000       4.41325890       0.00025616       0.00013049       0.00000000 s 
O        7.79764480      18.02472285       7.38060000       6.83254516       0.00012054      -0.00000000       0.00000000 s 
O        6.29095027      20.63449871       7.38060000       5.89255737       0.00022602      -0.00007830       0.00000000 s 
O        4.78412014      23.24440506       7.38060000       4.06307377       0.00019588      -0.00002610       0.00000000 s 
O        3.27739548      25.85412873       7.38060000       4.05691616       0.00027122      -0.00015659       0.00000000 s 
O        1.77056534      28.46403508       7.38060000       5.87981516       0.00024109      -0.00010439       0.00000000 s 
O        0.26373520      31.07394143       7.38060000       8.41725492       0.00021095      -0.00005220       0.00000000 s 
O       19.85195439       2.36559791       7.38060000       9.43319010       0.00003014      -0.00000000       0.00000000 s 
O       18.34512425       4.97545206       7.38060000              inf       0.00000000       0.00000000       0.00000000 s 
O       16.83841466       7.58546281       7.38060000       9.12093840       0.00009041       0.00015659       0.00000000 s 
O       15.33169000      10.19518648       7.38060000       6.84317344       0.00016575       0.00002610       0.00000000 s 
O       13.82485986      12.80509283       7.38060000       5.35048067       0.00013561       0.00007830       0.00000000 s 
O       12.31802973      15.41499918       7.38060000       5.34701417       0.00010548       0.00013049       0.00000000 s 
O       10.81130507      18.02472285       7.38060000       6.83490085       0.00018082      -0.00000000       0.00000000 s 
O        9.30439959      20.63449871       7.38060000       6.61980391       0.00007534      -0.00007830       0.00000000 s 
O        7.79756946      23.24440506       7.38060000       4.06529548       0.00004520      -0.00002610       0.00000000 s 
O        6.29084480      25.85412873       7.38060000       2.71951298       0.00012054      -0.00015659       0.00000000 s 
O        4.78401466      28.46403508       7.38060000       4.05313408       0.00009041      -0.00010439       0.00000000 s 
O        3.27718452      31.07394143       7.38060000       6.60487225       0.00006027      -0.00005220       0.00000000 s 
O       22.86561466       2.36559791       7.38060000       8.41658120       0.00009041      -0.00000000       0.00000000 s 
O       21.35889000       4.97532157       7.38060000      11.19273330       0.00016575      -0.00013049       0.00000000 s 
O       19.85192425       7.58530622       7.38060000              inf       0.00000000       0.00000000       0.00000000 s 
O       18.34513932      10.19518648       7.38060000       9.60559773       0.00001507       0.00002610       0.00000000 s 
O       16.83852014      12.80509283       7.38060000       8.06150091       0.00019588       0.00007830       0.00000000 s 
O       15.33169000      15.41499918       7.38060000       7.47452780       0.00016575       0.00013049       0.00000000 s 
O       13.82475439      18.02472285       7.38060000       8.05670236       0.00003014       0.00000000       0.00000000 s 
O       12.31805986      20.63449871       7.38060000       8.43123199       0.00013561      -0.00007830       0.00000000 s 
O       10.81122973      23.24440506       7.38060000       5.89137914       0.00010548      -0.00002610       0.00000000 s 
O        9.30450507      25.85412873       7.38060000       4.06152179       0.00018082      -0.00015659       0.00000000 s 
O        7.79767493      28.46403508       7.38060000       4.05536139       0.00015068      -0.00010439       0.00000000 s 
O        6.29084480      31.07394143       7.38060000       5.87879659       0.00012054      -0.00005220       0.00000000 s 
O       25.87927493       2.36559791       7.38060000       8.41765402       0.00015068      -0.00000000       0.00000000 s 
O       24.37255027       4.97532157       7.38060000      10.78025168       0.00022602      -0.00013049       0.00000000 s 
O       22.86552425       7.58530622       7.38060000              inf       0.00000000       0.00000000       0.00000000 s 
O       21.35872425      10.19516038       7.38060000              inf       0.00000000       0.00000000       0.00000000 s 
O       19.85192425      12.80501453       7.38060000              inf       0.00000000       0.00000000       0.00000000 s 
O       18.34535027      15.41499918       7.38060000      10.06532997       0.00022602       0.00013049       0.00000000 s 
O       16.83841466      18.02472285       7.38060000      10.06329820       0.00009041      -0.00000000       0.00000000 s 
O       15.33172014      20.63449871       7.38060000      10.79415761       0.00019588      -0.00007830       0.00000000 s 
O       13.82489000      23.24440506       7.38060000       8.42937516       0.00016575      -0.00002610       0.00000000 s 
O       12.31816534      25.85412873       7.38060000       6.61516924       0.00024109      -0.00015659       0.00000000 s 
O       10.81133520      28.46403508       7.38060000       5.88458262       0.00021095      -0.00010439       0.00000000 s 
O        9.30450507      31.07394143       7.38060000       6.60760605       0.00018082      -0.00005220       0.00000000 s 
O       28.89272425       2.36559791       7.38060000       9.43596033       0.00000000      -0.00000000       0.00000000 s 
O       27.38599959       4.97532157       7.38060000      11.19434668       0.00007534      -0.00013049       0.00000000 s 
O       25.87912425       7.58530622       7.38060000              inf       0.00000000       0.00000000       0.00000000 s 
O       24.37232425      10.19516038       7.38060000              inf       0.00000000       0.00000000       0.00000000 s 
O       22.86552425      12.80501453       7.38060000              inf       0.00000000       0.00000000       0.00000000 s 
O       21.35872425      15.41486869       7.38060000              inf       0.00000000       0.00000000       0.00000000 s 
O       19.85192425      18.02472285       7.38060000              inf       0.00000000       0.00000000       0.00000000 s 
O       18.34512425      20.63457700       7.38060000              inf       0.00000000       0.00000000       0.00000000 s 
O       16.83832425      23.24443116       7.38060000              inf       0.00000000       0.00000000       0.00000000 s 
O       15.33161466      25.85412873       7.38060000       9.44380483       0.00009041      -0.00015659       0.00000000 s 
O       13.82478452      28.46403508       7.38060000       8.42447540       0.00006027      -0.00010439       0.00000000 s 
O       12.31795439      31.07394143       7.38060000       8.42154489       0.00003014      -0.00005220       0.00000000 s 
O       31.90638452       2.36559791       7.38060000      11.19744297       0.00006027       0.00000000       0.00000000 s 
O       30.39952425       4.97545206       7.38060000              inf       0.00000000       0.00000000       0.00000000 s 
O       28.89272425       7.58530622       7.38060000              inf       0.00000000       0.00000000       0.00000000 s 
O       27.38592425      10.19516038       7.38060000              inf       0.00000000       0.00000000       0.00000000 s 
O       25.87912425      12.80501453       7.38060000              inf       0.00000000       0.00000000       0.00000000 s 
O       24.37232425      15.41486869       7.38060000              inf       0.00000000       0.00000000       0.00000000 s 
O       22.86552425      18.02472285       7.38060000              inf       0.00000000       0.00000000       0.00000000 s 
O       21.35872425      20.63457700       7.38060000              inf       0.00000000       0.00000000       0.00000000 s 
O       19.85192425      23.24443116       7.38060000              inf       0.00000000       0.00000000       0.00000000 s 
O       18.34512425      25.85428532       7.38060000              inf       0.00000000       0.00000000       0.00000000 s 
O       16.83832425      28.46413947       7.38060000              inf       0.00000000       0.00000000       0.00000000 s 
O       15.33161466      31.07394143       7.38060000      10.78656332       0.00009041      -0.00005220       0.00000000 s 
N        6.25688152      20.13484213      10.10010000       0.00000000       0.00000000       0.00000000       0.00000000 a1
H        4.18564931      20.23075427      10.10010000       0.00000000       0.00000000       0.00000000       0.00000000 a1
H        8.33233278      20.20115852      10.10010000       0.00000000       0.00000000       0.00000000       0.00000000 a1
C        5.11193954      20.81097705      10.10010000       0.00000000       0.00000000       0.00000000       0.00000000 a1
C        7.41511348      20.79416959      10.10010000       0.00000000       0.00000000       0.00000000       0.00000000 a1
C        5.07628866      22.21476540      10.10010000       0.00000000       0.00000000       0.00000000       0.00000000 a1
C        7.47164862      22.19430414      10.10010000       0.00000000       0.00000000       0.00000000       0.00000000 a1
H        4.09757685      22.68921079      10.10010000       0.00000000       0.00000000       0.00000000       0.00000000 a1
C        6.27766030      22.95210140      10.10010000       0.00000000       0.00000000       0.00000000       0.00000000 a1
H        8.45827112      22.65395166      10.10010000       0.00000000       0.00000000       0.00000000       0.00000000 a1
C        6.28704766      24.43243677      10.10010000       0.00000000       0.00000000       0.00000000       0.00000000 a1
H        4.14008368      24.62444374      10.10010000       0.00000000       0.00000000       0.00000000       0.00000000 a1
H        8.43348426      24.60599207      10.10010000       0.00000000       0.00000000       0.00000000       0.00000000 a1
C        5.08019127      25.16575359      10.10010000       0.00000000       0.00000000       0.00000000       0.00000000 a1
C        7.49643548      25.15259993      10.10010000       0.00000000       0.00000000       0.00000000       0.00000000 a1
H        2.43886128      25.58630549      10.10010000       0.00000000       0.00000000       0.00000000       0.00000000 a1
H       10.14346117      25.56182506      10.10010000       0.00000000       0.00000000       0.00000000       0.00000000 a1
C        2.53357872      26.66892519      10.10010000       0.00000000       0.00000000       0.00000000       0.00000000 a1
C        5.05846321      26.56881119      10.10010000       0.00000000       0.00000000       0.00000000       0.00000000 a1
C        7.52596876      26.56077284      10.10010000       0.00000000       0.00000000       0.00000000       0.00000000 a1
C       10.05127515      26.64590628      10.10010000       0.00000000       0.00000000       0.00000000       0.00000000 a1
H        0.37691095      26.92706587      10.10010000       0.00000000       0.00000000       0.00000000       0.00000000 a1
C        3.78462956      27.32240658      10.10010000       0.00000000       0.00000000       0.00000000       0.00000000 a1
C        1.35129824      27.41886679      10.10010000       0.00000000       0.00000000       0.00000000       0.00000000 a1
C        6.29622407      27.24311921      10.10010000       0.00000000       0.00000000       0.00000000       0.00000000 a1
C        8.80686930      27.30249339      10.10010000       0.00000000       0.00000000       0.00000000       0.00000000 a1
H       12.21279482      26.89747012      10.10010000       0.00000000       0.00000000       0.00000000       0.00000000 a1
C       11.23861848      27.39402097      10.10010000       0.00000000       0.00000000       0.00000000       0.00000000 a1
N        1.36332250      28.75104074      10.10010000       0.00000000       0.00000000       0.00000000       0.00000000 a1
C        3.75182652      28.73003142      10.10010000       0.00000000       0.00000000       0.00000000       0.00000000 a1
H        6.30097049      28.32811388      10.10010000       0.00000000       0.00000000       0.00000000       0.00000000 a1
C        8.84557899      28.71523354      10.10010000       0.00000000       0.00000000       0.00000000       0.00000000 a1
N       11.23250087      28.72290651      10.10010000       0.00000000       0.00000000       0.00000000       0.00000000 a1
C        2.51986684      29.40269523      10.10010000       0.00000000       0.00000000       0.00000000       0.00000000 a1
C       10.07658939      29.38369549      10.10010000       0.00000000       0.00000000       0.00000000       0.00000000 a1
H        4.65375180      29.33784035      10.10010000       0.00000000       0.00000000       0.00000000       0.00000000 a1
H        7.94576324      29.32486938      10.10010000       0.00000000       0.00000000       0.00000000       0.00000000 a1
H        2.47830930      30.49591094      10.10010000       0.00000000       0.00000000       0.00000000       0.00000000 a1
H       10.12363168      30.47435354      10.10010000       0.00000000       0.00000000       0.00000000       0.00000000 a1
N        4.35469720      14.82947840      10.10010000       0.00000000       0.00000000       0.00000000       0.00000000 a2
H        5.47358661      16.57526205      10.10010000       0.00000000       0.00000000       0.00000000       0.00000000 a2
H        3.37450874      12.99910939      10.10010000       0.00000000       0.00000000       0.00000000       0.00000000 a2
C        5.51303464      15.48314248      10.10010000       0.00000000       0.00000000       0.00000000       0.00000000 a2
C        4.34657555      13.49675638      10.10010000       0.00000000       0.00000000       0.00000000       0.00000000 a2
C        6.74626003      14.81194018      10.10010000       0.00000000       0.00000000       0.00000000       0.00000000 a2
C        5.53096556      12.74791092      10.10010000       0.00000000       0.00000000       0.00000000       0.00000000 a2
H        7.64660316      15.42248946      10.10010000       0.00000000       0.00000000       0.00000000       0.00000000 a2
C        6.78423139      13.40303652      10.10010000       0.00000000       0.00000000       0.00000000       0.00000000 a2
H        5.43572073      11.66364702      10.10010000       0.00000000       0.00000000       0.00000000       0.00000000 a2
C        8.06144027      12.65455644      10.10010000       0.00000000       0.00000000       0.00000000       0.00000000 a2
H        9.30131065      14.41806099      10.10010000       0.00000000       0.00000000       0.00000000       0.00000000 a2
H        7.13852527      10.70891017      10.10010000       0.00000000       0.00000000       0.00000000       0.00000000 a2
C        9.30004494      13.33324902      10.10010000       0.00000000       0.00000000       0.00000000       0.00000000 a2
C        8.08053143      11.24729698      10.10010000       0.00000000       0.00000000       0.00000000       0.00000000 a2
H       10.98481309      15.41024925      10.10010000       0.00000000       0.00000000       0.00000000       0.00000000 a2
H        7.11131246       8.75011023      10.10010000       0.00000000       0.00000000       0.00000000       0.00000000 a2
C       11.87513600      14.78709437      10.10010000       0.00000000       0.00000000       0.00000000       0.00000000 a2
C       10.52599249      12.65053727      10.10010000       0.00000000       0.00000000       0.00000000       0.00000000 a2
C        9.28517282      10.51745127      10.10010000       0.00000000       0.00000000       0.00000000       0.00000000 a2
C        8.09635283       8.28808775      10.10010000       0.00000000       0.00000000       0.00000000       0.00000000 a2
H       13.17702627      16.52575311      10.10010000       0.00000000       0.00000000       0.00000000       0.00000000 a2
C       11.81554206      13.37691188      10.10010000       0.00000000       0.00000000       0.00000000       0.00000000 a2
C       13.11574472      15.43600851      10.10010000       0.00000000       0.00000000       0.00000000       0.00000000 a2
C       10.49107993      11.24145091      10.10010000       0.00000000       0.00000000       0.00000000       0.00000000 a2
C        9.28717687       9.03748127      10.10010000       0.00000000       0.00000000       0.00000000       0.00000000 a2
H        7.23345367       6.29037488      10.10010000       0.00000000       0.00000000       0.00000000       0.00000000 a2
C        8.15046202       6.88557822      10.10010000       0.00000000       0.00000000       0.00000000       0.00000000 a2
N       14.26332360      14.75932552      10.10010000       0.00000000       0.00000000       0.00000000       0.00000000 a2
C       13.05098245      12.70150772      10.10010000       0.00000000       0.00000000       0.00000000       0.00000000 a2
H       11.42833967      10.69484305      10.10010000       0.00000000       0.00000000       0.00000000       0.00000000 a2
C       10.49118541       8.29740493      10.10010000       0.00000000       0.00000000       0.00000000       0.00000000 a2
N        9.30447493       6.22661615      10.10010000       0.00000000       0.00000000       0.00000000       0.00000000 a2
C       14.24940076      13.43190150      10.10010000       0.00000000       0.00000000       0.00000000       0.00000000 a2
C       10.45469071       6.89727037      10.10010000       0.00000000       0.00000000       0.00000000       0.00000000 a2
H       13.12639779      11.61651305      10.10010000       0.00000000       0.00000000       0.00000000       0.00000000 a2
H       11.46905340       8.77185031      10.10010000       0.00000000       0.00000000       0.00000000       0.00000000 a2
H       15.21703759      12.92146623      10.10010000       0.00000000       0.00000000       0.00000000       0.00000000 a2
H       11.37560167       6.31101883      10.10010000       0.00000000       0.00000000       0.00000000       0.00000000 a2
