222
Lattice="36.16319999999999 0.0 0.0 -18.081599999999995 31.318249882114287 0.0 0.0 0.0 30.0" Properties=species:S:1:pos:R:3:remoteness:R:1:shift:R:3:adsorption:S:1 size="_JSON [[12, 0], [0, 12]]" mass_center_dist=13.143290674137265 min_atom_dist=4.085560321730806 s1=tpb_atop s2=tpb_atop s1idx=4 s2idx=5 pbc="T T T"
O       -1.24327575       2.36559791       7.38060000              inf       0.00000000       0.00000000       0.00000000 s 
O       -2.75007575       4.97545206       7.38060000              inf       0.00000000       0.00000000       0.00000000 s 
O       -4.25672507       7.58535842       7.38060000      11.19620674       0.00015068       0.00005220       0.00000000 s 
O       -5.76355520      10.19526477       7.38060000      10.78153931       0.00012054       0.00010439       0.00000000 s 
O       -7.27038534      12.80517112       7.38060000      11.19341015       0.00009041       0.00015659       0.00000000 s 
O       -8.77727575      15.41486869       7.38060000              inf       0.00000000       0.00000000       0.00000000 s 
O      -10.28407575      18.02472285       7.38060000              inf       0.00000000       0.00000000       0.00000000 s 
O      -11.79078534      20.63442041       7.38060000       9.44380483       0.00009041      -0.00015659       0.00000000 s 
O      -13.29761548      23.24432677       7.38060000       8.42447540       0.00006027      -0.00010439       0.00000000 s 
O      -14.80444561      25.85423312       7.38060000       8.42154489       0.00003014      -0.00005220       0.00000000 s 
O      -16.31127575      28.46413947       7.38060000       9.43596033       0.00000000       0.00000000       0.00000000 s 
O      -17.81800041      31.07386314       7.38060000      11.19434668       0.00007534      -0.00013049       0.00000000 s 
O        1.77032425       2.36559791       7.38060000              inf       0.00000000       0.00000000       0.00000000 s 
O        0.26355439       4.97545206       7.38060000      11.19992230       0.00003014       0.00000000       0.00000000 s 
O       -1.24306480       7.58535842       7.38060000       9.43806608       0.00021095       0.00005220       0.00000000 s 
O       -2.74989493      10.19526477       7.38060000       8.41911442       0.00018082       0.00010439       0.00000000 s 
O       -4.25672507      12.80517112       7.38060000       8.41725492       0.00015068       0.00015659       0.00000000 s 
O       -5.76366068      15.41489479       7.38060000       9.43319010       0.00001507       0.00002610       0.00000000 s 
O       -7.27027986      18.02480114       7.38060000      11.19273330       0.00019588       0.00007830       0.00000000 s 
O       -8.77727575      20.63457700       7.38060000              inf       0.00000000       0.00000000       0.00000000 s 
O      -10.28407575      23.24443116       7.38060000              inf       0.00000000       0.00000000       0.00000000 s 
O      -11.79078534      25.85423312       7.38060000      10.78656332       0.00009041      -0.00005220       0.00000000 s 
O      -13.29761548      28.46413947       7.38060000      11.19744297       0.00006027       0.00000000       0.00000000 s 
O      -14.80447575      31.07399363       7.38060000              inf       0.00000000       0.00000000       0.00000000 s 
O        4.78392425       2.36559791       7.38060000              inf       0.00000000       0.00000000       0.00000000 s 
O        3.27721466       4.97545206       7.38060000      10.78913708       0.00009041      -0.00000000       0.00000000 s 
O        1.77038452       7.58535842       7.38060000       8.42401722       0.00006027       0.00005220       0.00000000 s 
O        0.26376534      10.19526477       7.38060000       6.60951449       0.00024109       0.00010439       0.00000000 s 
O       -1.24306480      12.80517112       7.38060000       5.87981516       0.00021095       0.00015659       0.00000000 s 
O       -2.75000041      15.41489479       7.38060000       6.60487225       0.00007534       0.00002610       0.00000000 s 
O       -4.25683054      18.02480114       7.38060000       8.41658120       0.00004520       0.00007830       0.00000000 s 
O       -5.76344973      20.63470750       7.38060000      10.78025168       0.00022602       0.00013049       0.00000000 s 
O       -7.27047575      23.24443116       7.38060000              inf       0.00000000       0.00000000       0.00000000 s 
O       -8.77727575      25.85428532       7.38060000              inf       0.00000000       0.00000000       0.00000000 s 
O      -10.28407575      28.46413947       7.38060000              inf       0.00000000       0.00000000       0.00000000 s 
O      -11.79087575      31.07399363       7.38060000              inf       0.00000000       0.00000000       0.00000000 s 
O        7.79752425       2.36559791       7.38060000              inf       0.00000000       0.00000000       0.00000000 s 
O        6.29072425       4.97545206       7.38060000              inf       0.00000000       0.00000000       0.00000000 s 
O        4.78404480       7.58535842       7.38060000       8.42694687       0.00012054       0.00005220       0.00000000 s 
O        3.27721466      10.19526477       7.38060000       5.88677917       0.00009041       0.00010439       0.00000000 s 
O        1.77059548      12.80517112       7.38060000       4.05691616       0.00027122       0.00015659       0.00000000 s 
O        0.26365986      15.41489479       7.38060000       4.05313408       0.00013561       0.00002610       0.00000000 s 
O       -1.24317027      18.02480114       7.38060000       5.87879659       0.00010548       0.00007830       0.00000000 s 
O       -2.75000041      20.63470750       7.38060000       8.41765402       0.00007534       0.00013049       0.00000000 s 
O       -4.25672507      23.24443116       7.38060000      11.19434668       0.00015068      -0.00000000       0.00000000 s 
O       -5.76367575      25.85428532       7.38060000              inf       0.00000000       0.00000000       0.00000000 s 
O       -7.27047575      28.46413947       7.38060000              inf       0.00000000       0.00000000       0.00000000 s 
O       -8.77727575      31.07399363       7.38060000              inf       0.00000000       0.00000000       0.00000000 s 
O       10.81112425       2.36559791       7.38060000              inf       0.00000000       0.00000000       0.00000000 s 
O        9.30432425       4.97545206       7.38060000              inf       0.00000000       0.00000000       0.00000000 s 
O        7.79770507       7.58535842       7.38060000       9.44600961       0.00018082       0.00005220       0.00000000 s 
O        6.29087493      10.19526477       7.38060000       6.61707524       0.00015068       0.00010439       0.00000000 s 
O        4.78404480      12.80517112       7.38060000       4.06307377       0.00012054       0.00015659       0.00000000 s 
O        3.27732014      15.41489479       7.38060000       2.71951298       0.00019588       0.00002610       0.00000000 s 
O        1.77049000      18.02480114       7.38060000       4.05536139       0.00016575       0.00007830       0.00000000 s 
O        0.26365986      20.63470750       7.38060000       6.60760605       0.00013561       0.00013049       0.00000000 s 
O       -1.24327575      23.24443116       7.38060000       9.43596033       0.00000000       0.00000000       0.00000000 s 
O       -2.75007575      25.85428532       7.38060000              inf       0.00000000       0.00000000       0.00000000 s 
O       -4.25687575      28.46413947       7.38060000              inf       0.00000000       0.00000000       0.00000000 s 
O       -5.76367575      31.07399363       7.38060000              inf       0.00000000       0.00000000       0.00000000 s 
O       13.82472425       2.36559791       7.38060000              inf       0.00000000       0.00000000       0.00000000 s 
O       12.31792425       4.97545206       7.38060000              inf       0.00000000       0.00000000       0.00000000 s 
O       10.81112425       7.58530622       7.38060000              inf       0.00000000       0.00000000       0.00000000 s 
O        9.30453520      10.19526477       7.38060000       8.43098434       0.00021095       0.00010439       0.00000000 s 
O        7.79770507      12.80517112       7.38060000       5.89255737       0.00018082       0.00015659       0.00000000 s 
O        6.29076946      15.41489479       7.38060000       4.06529548       0.00004520       0.00002610       0.00000000 s 
O        4.78415027      18.02480114       7.38060000       4.06152179       0.00022602       0.00007830       0.00000000 s 
O        3.27732014      20.63470750       7.38060000       5.88458262       0.00019588       0.00013049       0.00000000 s 
O        1.77038452      23.24443116       7.38060000       8.42154489       0.00006027      -0.00000000       0.00000000 s 
O        0.26355439      25.85433752       7.38060000      11.19744297       0.00003014       0.00005220       0.00000000 s 
O       -1.24327575      28.46413947       7.38060000              inf       0.00000000       0.00000000       0.00000000 s 
O       -2.75007575      31.07399363       7.38060000              inf       0.00000000       0.00000000       0.00000000 s 
O       16.83832425       2.36559791       7.38060000              inf       0.00000000       0.00000000       0.00000000 s 
O       15.33152425       4.97545206       7.38060000              inf       0.00000000       0.00000000       0.00000000 s 
O       13.82472425       7.58530622       7.38060000              inf       0.00000000       0.00000000       0.00000000 s 
O       12.31798452      10.19526477       7.38060000      10.79526691       0.00006027       0.00010439       0.00000000 s 
O       10.81136534      12.80517112       7.38060000       8.43209302       0.00024109       0.00015659       0.00000000 s 
O        9.30442973      15.41489479       7.38060000       6.61980391       0.00010548       0.00002610       0.00000000 s 
O        7.79759959      18.02480114       7.38060000       5.89137914       0.00007534       0.00007830       0.00000000 s 
O        6.29098041      20.63470750       7.38060000       6.61516924       0.00025616       0.00013049       0.00000000 s 
O        4.78404480      23.24443116       7.38060000       8.42447540       0.00012054      -0.00000000       0.00000000 s 
O        3.27721466      25.85433751       7.38060000      10.78656332       0.00009041       0.00005220       0.00000000 s 
O        1.77032425      28.46413947       7.38060000              inf       0.00000000       0.00000000       0.00000000 s 
O        0.26352425      31.07399363       7.38060000              inf       0.00000000       0.00000000       0.00000000 s 
O       19.85192425       2.36559791       7.38060000              inf       0.00000000       0.00000000       0.00000000 s 
O       18.34512425       4.97545206       7.38060000              inf       0.00000000       0.00000000       0.00000000 s 
O       16.83832425       7.58530622       7.38060000              inf       0.00000000       0.00000000       0.00000000 s 
O       15.33164480      10.19516038       7.38060000      10.79526691       0.00012054       0.00000000       0.00000000 s 
O       13.82492014      12.80488404       7.38060000       8.43098434       0.00019588      -0.00013049       0.00000000 s 
O       12.31809000      15.41479039       7.38060000       6.61707524       0.00016575      -0.00007830       0.00000000 s 
O       10.81125986      18.02469675       7.38060000       5.88677917       0.00013561      -0.00002610       0.00000000 s 
O        9.30453520      20.63442041       7.38060000       6.60951449       0.00021095      -0.00015659       0.00000000 s 
O        7.79770507      23.24432677       7.38060000       8.41911442       0.00018082      -0.00010439       0.00000000 s 
O        6.29087493      25.85423312       7.38060000      10.78153931       0.00015068      -0.00005220       0.00000000 s 
O        4.78392425      28.46413947       7.38060000              inf       0.00000000       0.00000000       0.00000000 s 
O        3.27712425      31.07399363       7.38060000              inf       0.00000000       0.00000000       0.00000000 s 
O       22.86552425       2.36559791       7.38060000              inf       0.00000000       0.00000000       0.00000000 s 
O       21.35872425       4.97545206       7.38060000              inf       0.00000000       0.00000000       0.00000000 s 
O       19.85192425       7.58530622       7.38060000              inf       0.00000000       0.00000000       0.00000000 s 
O       18.34512425      10.19516038       7.38060000              inf       0.00000000       0.00000000       0.00000000 s 
O       16.83858041      12.80488404       7.38060000       8.43209302       0.00025616      -0.00013049       0.00000000 s 
O       15.33175027      15.41479039       7.38060000       5.89255737       0.00022602      -0.00007830       0.00000000 s 
O       13.82492014      18.02469675       7.38060000       4.06307377       0.00019588      -0.00002610       0.00000000 s 
O       12.31819548      20.63442041       7.38060000       4.05691616       0.00027122      -0.00015659       0.00000000 s 
O       10.81136534      23.24432677       7.38060000       5.87981516       0.00024109      -0.00010439       0.00000000 s 
O        9.30453520      25.85423312       7.38060000       8.41725492       0.00021095      -0.00005220       0.00000000 s 
O        7.79770507      28.46413947       7.38060000      11.19341015       0.00018082       0.00000000       0.00000000 s 
O        6.29072425      31.07399363       7.38060000              inf       0.00000000       0.00000000       0.00000000 s 
O       25.87912425       2.36559791       7.38060000              inf       0.00000000       0.00000000       0.00000000 s 
O       24.37232425       4.97545206       7.38060000              inf       0.00000000       0.00000000       0.00000000 s 
O       22.86552425       7.58530622       7.38060000              inf       0.00000000       0.00000000       0.00000000 s 
O       21.35872425      10.19516038       7.38060000              inf       0.00000000       0.00000000       0.00000000 s 
O       19.85202973      12.80488404       7.38060000       9.44887700       0.00010548      -0.00013049       0.00000000 s 
O       18.34519959      15.41479039       7.38060000       6.61980391       0.00007534      -0.00007830       0.00000000 s 
O       16.83836946      18.02469675       7.38060000       4.06529548       0.00004520      -0.00002610       0.00000000 s 
O       15.33164480      20.63442041       7.38060000       2.71951298       0.00012054      -0.00015659       0.00000000 s 
O       13.82481466      23.24432677       7.38060000       4.05313408       0.00009041      -0.00010439       0.00000000 s 
O       12.31798452      25.85423312       7.38060000       6.60487225       0.00006027      -0.00005220       0.00000000 s 
O       10.81115439      28.46413947       7.38060000       9.43319010       0.00003014       0.00000000       0.00000000 s 
O        9.30432425      31.07399363       7.38060000              inf       0.00000000       0.00000000       0.00000000 s 
O       28.89272425       2.36559791       7.38060000              inf       0.00000000       0.00000000       0.00000000 s 
O       27.38592425       4.97545206       7.38060000              inf       0.00000000       0.00000000       0.00000000 s 
O       25.87912425       7.58530622       7.38060000              inf       0.00000000       0.00000000       0.00000000 s 
O       24.37232425      10.19516038       7.38060000              inf       0.00000000       0.00000000       0.00000000 s 
O       22.86552425      12.80501453       7.38060000              inf       0.00000000       0.00000000       0.00000000 s 
O       21.35885986      15.41479039       7.38060000       8.43123199       0.00013561      -0.00007830       0.00000000 s 
O       19.85202973      18.02469675       7.38060000       5.89137914       0.00010548      -0.00002610       0.00000000 s 
O       18.34530507      20.63442041       7.38060000       4.06152179       0.00018082      -0.00015659       0.00000000 s 
O       16.83847493      23.24432677       7.38060000       4.05536139       0.00015068      -0.00010439       0.00000000 s 
O       15.33164480      25.85423312       7.38060000       5.87879659       0.00012054      -0.00005220       0.00000000 s 
O       13.82481466      28.46413947       7.38060000       8.41658120       0.00009041       0.00000000       0.00000000 s 
O       12.31809000      31.07386314       7.38060000      11.19273330       0.00016575      -0.00013049       0.00000000 s 
O       31.90632425       2.36559791       7.38060000              inf       0.00000000       0.00000000       0.00000000 s 
O       30.39952425       4.97545206       7.38060000              inf       0.00000000       0.00000000       0.00000000 s 
O       28.89272425       7.58530622       7.38060000              inf       0.00000000       0.00000000       0.00000000 s 
O       27.38592425      10.19516038       7.38060000              inf       0.00000000       0.00000000       0.00000000 s 
O       25.87912425      12.80501453       7.38060000              inf       0.00000000       0.00000000       0.00000000 s 
O       24.37252014      15.41479039       7.38060000      10.79415761       0.00019588      -0.00007830       0.00000000 s 
O       22.86569000      18.02469675       7.38060000       8.42937516       0.00016575      -0.00002610       0.00000000 s 
O       21.35896534      20.63442041       7.38060000       6.61516924       0.00024109      -0.00015659       0.00000000 s 
O       19.85213520      23.24432677       7.38060000       5.88458262       0.00021095      -0.00010439       0.00000000 s 
O       18.34530507      25.85423312       7.38060000       6.60760605       0.00018082      -0.00005220       0.00000000 s 
O       16.83847493      28.46413947       7.38060000       8.41765402       0.00015068       0.00000000       0.00000000 s 
O       15.33175027      31.07386314       7.38060000      10.78025168       0.00022602      -0.00013049       0.00000000 s 
N       15.29768152      14.91513382      10.10010000       0.00000000       0.00000000       0.00000000       0.00000000 a1
H       13.22644931      15.01104596      10.10010000       0.00000000       0.00000000       0.00000000       0.00000000 a1
H       17.37313278      14.98145021      10.10010000       0.00000000       0.00000000       0.00000000       0.00000000 a1
C       14.15273954      15.59126873      10.10010000       0.00000000       0.00000000       0.00000000       0.00000000 a1
C       16.45591348      15.57446127      10.10010000       0.00000000       0.00000000       0.00000000       0.00000000 a1
C       14.11708866      16.99505709      10.10010000       0.00000000       0.00000000       0.00000000       0.00000000 a1
C       16.51244862      16.97459583      10.10010000       0.00000000       0.00000000       0.00000000       0.00000000 a1
H       13.13837685      17.46950247      10.10010000       0.00000000       0.00000000       0.00000000       0.00000000 a1
C       15.31846030      17.73239308      10.10010000       0.00000000       0.00000000       0.00000000       0.00000000 a1
H       17.49907112      17.43424334      10.10010000       0.00000000       0.00000000       0.00000000       0.00000000 a1
C       15.32784766      19.21272846      10.10010000       0.00000000       0.00000000       0.00000000       0.00000000 a1
H       13.18088368      19.40473543      10.10010000       0.00000000       0.00000000       0.00000000       0.00000000 a1
H       17.47428426      19.38628376      10.10010000       0.00000000       0.00000000       0.00000000       0.00000000 a1
C       14.12099127      19.94604528      10.10010000       0.00000000       0.00000000       0.00000000       0.00000000 a1
C       16.53723548      19.93289162      10.10010000       0.00000000       0.00000000       0.00000000       0.00000000 a1
H       11.47966128      20.36659718      10.10010000       0.00000000       0.00000000       0.00000000       0.00000000 a1
H       19.18426117      20.34211675      10.10010000       0.00000000       0.00000000       0.00000000       0.00000000 a1
C       11.57437872      21.44921688      10.10010000       0.00000000       0.00000000       0.00000000       0.00000000 a1
C       14.09926321      21.34910288      10.10010000       0.00000000       0.00000000       0.00000000       0.00000000 a1
C       16.56676876      21.34106452      10.10010000       0.00000000       0.00000000       0.00000000       0.00000000 a1
C       19.09207515      21.42619797      10.10010000       0.00000000       0.00000000       0.00000000       0.00000000 a1
H        9.41771095      21.70735756      10.10010000       0.00000000       0.00000000       0.00000000       0.00000000 a1
C       12.82542956      22.10269826      10.10010000       0.00000000       0.00000000       0.00000000       0.00000000 a1
C       10.39209824      22.19915847      10.10010000       0.00000000       0.00000000       0.00000000       0.00000000 a1
C       15.33702407      22.02341089      10.10010000       0.00000000       0.00000000       0.00000000       0.00000000 a1
C       17.84766930      22.08278508      10.10010000       0.00000000       0.00000000       0.00000000       0.00000000 a1
H       21.25359482      21.67776181      10.10010000       0.00000000       0.00000000       0.00000000       0.00000000 a1
C       20.27941848      22.17431266      10.10010000       0.00000000       0.00000000       0.00000000       0.00000000 a1
N       10.40412250      23.53133243      10.10010000       0.00000000       0.00000000       0.00000000       0.00000000 a1
C       12.79262652      23.51032310      10.10010000       0.00000000       0.00000000       0.00000000       0.00000000 a1
H       15.34177049      23.10840556      10.10010000       0.00000000       0.00000000       0.00000000       0.00000000 a1
C       17.88637899      23.49552523      10.10010000       0.00000000       0.00000000       0.00000000       0.00000000 a1
N       20.27330087      23.50319820      10.10010000       0.00000000       0.00000000       0.00000000       0.00000000 a1
C       11.56066684      24.18298691      10.10010000       0.00000000       0.00000000       0.00000000       0.00000000 a1
C       19.11738939      24.16398717      10.10010000       0.00000000       0.00000000       0.00000000       0.00000000 a1
H       13.69455180      24.11813204      10.10010000       0.00000000       0.00000000       0.00000000       0.00000000 a1
H       16.98656324      24.10516106      10.10010000       0.00000000       0.00000000       0.00000000       0.00000000 a1
H       11.51910930      25.27620262      10.10010000       0.00000000       0.00000000       0.00000000       0.00000000 a1
H       19.16443168      25.25464523      10.10010000       0.00000000       0.00000000       0.00000000       0.00000000 a1
N        8.21338598      12.52583843      10.10010000       0.00000000       0.00000000       0.00000000       0.00000000 a2
H        7.09470753      10.78005479      10.10010000       0.00000000       0.00000000       0.00000000       0.00000000 a2
H        9.19367993      14.35639014      10.10010000       0.00000000       0.00000000       0.00000000       0.00000000 a2
C        7.05536498      11.87235705      10.10010000       0.00000000       0.00000000       0.00000000       0.00000000 a2
C        8.22150764      13.85856046      10.10010000       0.00000000       0.00000000       0.00000000       0.00000000 a2
C        5.82182316      12.54337665      10.10010000       0.00000000       0.00000000       0.00000000       0.00000000 a2
C        7.03722311      14.60758860      10.10010000       0.00000000       0.00000000       0.00000000       0.00000000 a2
H        4.92158550      11.93301006      10.10010000       0.00000000       0.00000000       0.00000000       0.00000000 a2
C        5.78395728      13.95246301      10.10010000       0.00000000       0.00000000       0.00000000       0.00000000 a2
H        7.13246794      15.69185251      10.10010000       0.00000000       0.00000000       0.00000000       0.00000000 a2
C        4.50664292      14.70076040      10.10010000       0.00000000       0.00000000       0.00000000       0.00000000 a2
H        3.26687801      12.93743853      10.10010000       0.00000000       0.00000000       0.00000000       0.00000000 a2
H        5.42955792      16.64640667      10.10010000       0.00000000       0.00000000       0.00000000       0.00000000 a2
C        3.26814372      14.02225051      10.10010000       0.00000000       0.00000000       0.00000000       0.00000000 a2
C        4.48765724      16.10820255      10.10010000       0.00000000       0.00000000       0.00000000       0.00000000 a2
H        1.58327010      11.94506759      10.10010000       0.00000000       0.00000000       0.00000000       0.00000000 a2
H        5.45677072      18.60520661      10.10010000       0.00000000       0.00000000       0.00000000       0.00000000 a2
C        0.69305266      12.56840516      10.10010000       0.00000000       0.00000000       0.00000000       0.00000000 a2
C        2.04219618      14.70496226      10.10010000       0.00000000       0.00000000       0.00000000       0.00000000 a2
C        3.28291036      16.83786557      10.10010000       0.00000000       0.00000000       0.00000000       0.00000000 a2
C        4.47183584      19.06741178      10.10010000       0.00000000       0.00000000       0.00000000       0.00000000 a2
H       -0.60883761      10.82974642      10.10010000       0.00000000       0.00000000       0.00000000       0.00000000 a2
C        0.75264660      13.97858765      10.10010000       0.00000000       0.00000000       0.00000000       0.00000000 a2
C       -0.54755605      11.91949102      10.10010000       0.00000000       0.00000000       0.00000000       0.00000000 a2
C        2.07710873      16.11404862      10.10010000       0.00000000       0.00000000       0.00000000       0.00000000 a2
C        3.28101180      18.31801826      10.10010000       0.00000000       0.00000000       0.00000000       0.00000000 a2
H        5.33473499      21.06512464      10.10010000       0.00000000       0.00000000       0.00000000       0.00000000 a2
C        4.41762117      20.46973862      10.10010000       0.00000000       0.00000000       0.00000000       0.00000000 a2
N       -1.69524041      12.59599131      10.10010000       0.00000000       0.00000000       0.00000000       0.00000000 a2
C       -0.48279379      14.65399181      10.10010000       0.00000000       0.00000000       0.00000000       0.00000000 a2
H        1.13984900      16.66065647      10.10010000       0.00000000       0.00000000       0.00000000       0.00000000 a2
C        2.07689778      19.05791191      10.10010000       0.00000000       0.00000000       0.00000000       0.00000000 a2
N        3.26371373      21.12888338      10.10010000       0.00000000       0.00000000       0.00000000       0.00000000 a2
C       -1.68131758      13.92341534      10.10010000       0.00000000       0.00000000       0.00000000       0.00000000 a2
C        2.11349795      20.45822916      10.10010000       0.00000000       0.00000000       0.00000000       0.00000000 a2
H       -0.55820913      15.73898648      10.10010000       0.00000000       0.00000000       0.00000000       0.00000000 a2
H        1.09902978      18.58346652      10.10010000       0.00000000       0.00000000       0.00000000       0.00000000 a2
H       -2.64884892      14.43403330      10.10010000       0.00000000       0.00000000       0.00000000       0.00000000 a2
H        1.19248152      21.04429801      10.10010000       0.00000000       0.00000000       0.00000000       0.00000000 a2
