184
Lattice="36.16319999999999 0.0 0.0 -18.081599999999995 31.318249882114287 0.0 0.0 0.0 30.0" Properties=species:S:1:pos:R:3:remoteness:R:1:shift:R:3:adsorption:S:1 size="_JSON [[12, 0], [0, 12]]" mass_center_dist=13.921820495582432 min_atom_dist=10.078840858342227 s1=cu_hollow s2=tpb_hollow_down s1idx=2 s2idx=7 pbc="T T T"
O       -1.24320041       2.36546741       7.38060000      12.47912395       0.00007534      -0.00013049       0.00000000 s 
O       -2.75007575       4.97545206       7.38060000              inf       0.00000000       0.00000000       0.00000000 s 
O       -4.25687575       7.58530622       7.38060000              inf       0.00000000       0.00000000       0.00000000 s 
O       -5.76352507      10.19531697       7.38060000      11.72554868       0.00015068       0.00015659       0.00000000 s 
O       -7.27047575      12.80501453       7.38060000              inf       0.00000000       0.00000000       0.00000000 s 
O       -8.77727575      15.41486869       7.38060000              inf       0.00000000       0.00000000       0.00000000 s 
O      -10.28403054      18.02464455       7.38060000      10.06184531       0.00004520      -0.00007830       0.00000000 s 
O      -11.79086068      20.63455091       7.38060000       8.05684639       0.00001507      -0.00002610       0.00000000 s 
O      -13.29758534      23.24427457       7.38060000       6.83737879       0.00009041      -0.00015659       0.00000000 s 
O      -14.80441548      25.85418092       7.38060000       6.83733230       0.00006027      -0.00010439       0.00000000 s 
O      -16.31124561      28.46408728       7.38060000       8.05684639       0.00003014      -0.00005220       0.00000000 s 
O      -17.81807575      31.07399363       7.38060000      10.06184531       0.00000000       0.00000000       0.00000000 s 
O        1.77032425       2.36559791       7.38060000              inf       0.00000000       0.00000000       0.00000000 s 
O        0.26352425       4.97545206       7.38060000              inf       0.00000000       0.00000000       0.00000000 s 
O       -1.24303466       7.58541061       7.38060000       9.59925573       0.00024109       0.00010439       0.00000000 s 
O       -2.74986480      10.19531697       7.38060000       9.11200280       0.00021095       0.00015659       0.00000000 s 
O       -4.25680041      12.80504063       7.38060000       9.59574483       0.00007534       0.00002610       0.00000000 s 
O       -5.76363054      15.41494699       7.38060000      10.92195772       0.00004520       0.00007830       0.00000000 s 
O       -7.27047575      18.02472285       7.38060000              inf       0.00000000       0.00000000       0.00000000 s 
O       -8.77727575      20.63457700       7.38060000              inf       0.00000000       0.00000000       0.00000000 s 
O      -10.28392507      23.24427457       7.38060000       9.59999241       0.00015068      -0.00015659       0.00000000 s 
O      -11.79075520      25.85418092       7.38060000       9.11466238       0.00012054      -0.00010439       0.00000000 s 
O      -13.29758534      28.46408728       7.38060000       9.59992618       0.00009041      -0.00005220       0.00000000 s 
O      -14.80447575      31.07399363       7.38060000              inf       0.00000000       0.00000000       0.00000000 s 
O        4.78392425       2.36559791       7.38060000              inf       0.00000000       0.00000000       0.00000000 s 
O        3.27724480       4.97550426       7.38060000      10.06461387       0.00012054       0.00005220       0.00000000 s 
O        1.77041466       7.58541061       7.38060000       8.05813426       0.00009041       0.00010439       0.00000000 s 
O        0.26379548      10.19531697       7.38060000       6.83615350       0.00027122       0.00015659       0.00000000 s 
O       -1.24314014      12.80504063       7.38060000       6.83373504       0.00013561       0.00002610       0.00000000 s 
O       -2.74997027      15.41494699       7.38060000       8.05162269       0.00010548       0.00007830       0.00000000 s 
O       -4.25680041      18.02485334       7.38060000      10.05592451       0.00007534       0.00013049       0.00000000 s 
O       -5.76352507      20.63457700       7.38060000      12.47294899       0.00015068      -0.00000000       0.00000000 s 
O       -7.27047575      23.24443116       7.38060000              inf       0.00000000       0.00000000       0.00000000 s 
O       -8.77727575      25.85428532       7.38060000              inf       0.00000000       0.00000000       0.00000000 s 
O      -10.28392507      28.46408728       7.38060000      11.72896791       0.00015068      -0.00005220       0.00000000 s 
O      -11.79087575      31.07399363       7.38060000              inf       0.00000000       0.00000000       0.00000000 s 
O        7.79752425       2.36559791       7.38060000              inf       0.00000000       0.00000000       0.00000000 s 
O        6.29090507       4.97550426       7.38060000      10.06618962       0.00018082       0.00005220       0.00000000 s 
O        4.78407493       7.58541061       7.38060000       7.47550002       0.00015068       0.00010439       0.00000000 s 
O        3.27724480      10.19531697       7.38060000       5.34811408       0.00012054       0.00015659       0.00000000 s 
O        1.77052014      12.80504063       7.38060000       4.41427761       0.00019588       0.00002610       0.00000000 s 
O        0.26369000      15.41494699       7.38060000       5.34157205       0.00016575       0.00007830       0.00000000 s 
O       -1.24314014      18.02485334       7.38060000       7.46613913       0.00013561       0.00013049       0.00000000 s 
O       -2.75007575      20.63457700       7.38060000      10.05573150       0.00000000       0.00000000       0.00000000 s 
O       -4.25687575      23.24443116       7.38060000              inf       0.00000000       0.00000000       0.00000000 s 
O       -5.76367575      25.85428532       7.38060000              inf       0.00000000       0.00000000       0.00000000 s 
O       -7.27047575      28.46413947       7.38060000              inf       0.00000000       0.00000000       0.00000000 s 
O       -8.77727575      31.07399363       7.38060000              inf       0.00000000       0.00000000       0.00000000 s 
O       10.81112425       2.36559791       7.38060000              inf       0.00000000       0.00000000       0.00000000 s 
O        9.30432425       4.97545206       7.38060000              inf       0.00000000       0.00000000       0.00000000 s 
O        7.79773520       7.58541061       7.38060000       8.06206983       0.00021095       0.00010439       0.00000000 s 
O        6.29090507      10.19531697       7.38060000       5.35107890       0.00018082       0.00015659       0.00000000 s 
O        4.78396946      12.80504063       7.38060000       3.23048808       0.00004520       0.00002610       0.00000000 s 
O        3.27735027      15.41494699       7.38060000       3.22497323       0.00022602       0.00007830       0.00000000 s 
O        1.77052014      18.02485334       7.38060000       5.34126817       0.00019588       0.00013049       0.00000000 s 
O        0.26358452      20.63457700       7.38060000       8.05114056       0.00006027      -0.00000000       0.00000000 s 
O       -1.24324561      23.24448336       7.38060000      10.92142458       0.00003014       0.00005220       0.00000000 s 
O       -2.75007575      25.85428532       7.38060000              inf       0.00000000       0.00000000       0.00000000 s 
O       -4.25687575      28.46413947       7.38060000              inf       0.00000000       0.00000000       0.00000000 s 
O       -5.76367575      31.07399363       7.38060000              inf       0.00000000       0.00000000       0.00000000 s 
O       13.82472425       2.36559791       7.38060000              inf       0.00000000       0.00000000       0.00000000 s 
O       12.31792425       4.97545206       7.38060000              inf       0.00000000       0.00000000       0.00000000 s 
O       10.81118452       7.58541061       7.38060000       9.60586231       0.00006027       0.00010439       0.00000000 s 
O        9.30456534      10.19531697       7.38060000       6.84324945       0.00024109       0.00015659       0.00000000 s 
O        7.79762973      12.80504063       7.38060000       4.42145755       0.00010548       0.00002610       0.00000000 s 
O        6.29079959      15.41494699       7.38060000       3.22988719       0.00007534       0.00007830       0.00000000 s 
O        4.78418041      18.02485334       7.38060000       4.41354215       0.00025616       0.00013049       0.00000000 s 
O        3.27724480      20.63457700       7.38060000       6.83288292       0.00012054      -0.00000000       0.00000000 s 
O        1.77041466      23.24448336       7.38060000       9.59493571       0.00009041       0.00005220       0.00000000 s 
O        0.26352425      25.85428532       7.38060000              inf       0.00000000       0.00000000       0.00000000 s 
O       -1.24327575      28.46413947       7.38060000              inf       0.00000000       0.00000000       0.00000000 s 
O       -2.75007575      31.07399363       7.38060000              inf       0.00000000       0.00000000       0.00000000 s 
O       16.83832425       2.36559791       7.38060000              inf       0.00000000       0.00000000       0.00000000 s 
O       15.33152425       4.97545206       7.38060000              inf       0.00000000       0.00000000       0.00000000 s 
O       13.82472425       7.58530622       7.38060000              inf       0.00000000       0.00000000       0.00000000 s 
O       12.31801466      10.19531697       7.38060000       9.12070152       0.00009041       0.00015659       0.00000000 s 
O       10.81129000      12.80504063       7.38060000       6.84301227       0.00016575       0.00002610       0.00000000 s 
O        9.30445986      15.41494699       7.38060000       5.35047223       0.00013561       0.00007830       0.00000000 s 
O        7.79762973      18.02485334       7.38060000       5.34720354       0.00010548       0.00013049       0.00000000 s 
O        6.29090507      20.63457700       7.38060000       6.83520373       0.00018082      -0.00000000       0.00000000 s 
O        4.78407493      23.24448336       7.38060000       9.11111213       0.00015068       0.00005220       0.00000000 s 
O        3.27724480      25.85438971       7.38060000      11.72471811       0.00012054       0.00010439       0.00000000 s 
O        1.77032425      28.46413947       7.38060000              inf       0.00000000       0.00000000       0.00000000 s 
O        0.26352425      31.07399363       7.38060000              inf       0.00000000       0.00000000       0.00000000 s 
O       19.85192425       2.36559791       7.38060000              inf       0.00000000       0.00000000       0.00000000 s 
O       18.34512425       4.97545206       7.38060000              inf       0.00000000       0.00000000       0.00000000 s 
O       16.83832425       7.58530622       7.38060000              inf       0.00000000       0.00000000       0.00000000 s 
O       15.33152425      10.19516038       7.38060000              inf       0.00000000       0.00000000       0.00000000 s 
O       13.82484480      12.80501453       7.38060000       9.59992618       0.00012054       0.00000000       0.00000000 s 
O       12.31812014      15.41473820       7.38060000       8.05692530       0.00019588      -0.00013049       0.00000000 s 
O       10.81129000      18.02464455       7.38060000       7.47203194       0.00016575      -0.00007830       0.00000000 s 
O        9.30445986      20.63455091       7.38060000       8.05684639       0.00013561      -0.00002610       0.00000000 s 
O        7.79773520      23.24448336       7.38060000       9.59824117       0.00021095       0.00005220       0.00000000 s 
O        6.29090507      25.85438971       7.38060000      11.72607078       0.00018082       0.00010439       0.00000000 s 
O        4.78392425      28.46413947       7.38060000              inf       0.00000000       0.00000000       0.00000000 s 
O        3.27712425      31.07399363       7.38060000              inf       0.00000000       0.00000000       0.00000000 s 
O       22.86552425       2.36559791       7.38060000              inf       0.00000000       0.00000000       0.00000000 s 
O       21.35872425       4.97545206       7.38060000              inf       0.00000000       0.00000000       0.00000000 s 
O       19.85192425       7.58530622       7.38060000              inf       0.00000000       0.00000000       0.00000000 s 
O       18.34512425      10.19516038       7.38060000              inf       0.00000000       0.00000000       0.00000000 s 
O       16.83850507      12.80501453       7.38060000       9.11466238       0.00018082       0.00000000       0.00000000 s 
O       15.33178041      15.41473820       7.38060000       6.83747177       0.00025616      -0.00013049       0.00000000 s 
O       13.82495027      18.02464455       7.38060000       5.34659593       0.00022602      -0.00007830       0.00000000 s 
O       12.31812014      20.63455091       7.38060000       5.34653648       0.00019588      -0.00002610       0.00000000 s 
O       10.81139548      23.24427457       7.38060000       6.83719284       0.00027122      -0.00015659       0.00000000 s 
O        9.30456534      25.85418092       7.38060000       9.11448801       0.00024109      -0.00010439       0.00000000 s 
O        7.79773520      28.46408728       7.38060000      11.72880530       0.00021095      -0.00005220       0.00000000 s 
O        6.29072425      31.07399363       7.38060000              inf       0.00000000       0.00000000       0.00000000 s 
O       25.87912425       2.36559791       7.38060000              inf       0.00000000       0.00000000       0.00000000 s 
O       24.37232425       4.97545206       7.38060000              inf       0.00000000       0.00000000       0.00000000 s 
O       22.86552425       7.58530622       7.38060000              inf       0.00000000       0.00000000       0.00000000 s 
O       21.35872425      10.19516038       7.38060000              inf       0.00000000       0.00000000       0.00000000 s 
O       19.85195439      12.80501453       7.38060000       9.59992618       0.00003014       0.00000000       0.00000000 s 
O       18.34522973      15.41473820       7.38060000       6.83751826       0.00010548      -0.00013049       0.00000000 s 
O       16.83839959      18.02464455       7.38060000       4.41647045       0.00007534      -0.00007830       0.00000000 s 
O       15.33156946      20.63455091       7.38060000       3.22847688       0.00004520      -0.00002610       0.00000000 s 
O       13.82484480      23.24427457       7.38060000       4.41632651       0.00012054      -0.00015659       0.00000000 s 
O       12.31801466      25.85418092       7.38060000       6.83733230       0.00009041      -0.00010439       0.00000000 s 
O       10.81118452      28.46408728       7.38060000       9.59992618       0.00006027      -0.00005220       0.00000000 s 
O        9.30432425      31.07399363       7.38060000              inf       0.00000000       0.00000000       0.00000000 s 
O       28.89272425       2.36559791       7.38060000              inf       0.00000000       0.00000000       0.00000000 s 
O       27.38592425       4.97545206       7.38060000              inf       0.00000000       0.00000000       0.00000000 s 
O       25.87912425       7.58530622       7.38060000              inf       0.00000000       0.00000000       0.00000000 s 
O       24.37232425      10.19516038       7.38060000              inf       0.00000000       0.00000000       0.00000000 s 
O       22.86561466      12.80501453       7.38060000      10.92723166       0.00009041       0.00000000       0.00000000 s 
O       21.35889000      15.41473820       7.38060000       8.05704365       0.00016575      -0.00013049       0.00000000 s 
O       19.85205986      18.02464455       7.38060000       5.34671483       0.00013561      -0.00007830       0.00000000 s 
O       18.34522973      20.63455091       7.38060000       3.22847688       0.00010548      -0.00002610       0.00000000 s 
O       16.83850507      23.24427457       7.38060000       3.22837843       0.00018082      -0.00015659       0.00000000 s 
O       15.33167493      25.85418092       7.38060000       5.34653648       0.00015068      -0.00010439       0.00000000 s 
O       13.82484480      28.46408728       7.38060000       8.05684639       0.00012054      -0.00005220       0.00000000 s 
O       12.31792425      31.07399363       7.38060000              inf       0.00000000       0.00000000       0.00000000 s 
O       31.90632425       2.36559791       7.38060000              inf       0.00000000       0.00000000       0.00000000 s 
O       30.39952425       4.97545206       7.38060000              inf       0.00000000       0.00000000       0.00000000 s 
O       28.89272425       7.58530622       7.38060000              inf       0.00000000       0.00000000       0.00000000 s 
O       27.38592425      10.19516038       7.38060000              inf       0.00000000       0.00000000       0.00000000 s 
O       25.87912425      12.80501453       7.38060000              inf       0.00000000       0.00000000       0.00000000 s 
O       24.37255027      15.41473820       7.38060000      10.06203485       0.00022602      -0.00013049       0.00000000 s 
O       22.86572014      18.02464455       7.38060000       7.47220210       0.00019588      -0.00007830       0.00000000 s 
O       21.35889000      20.63455091       7.38060000       5.34671483       0.00016575      -0.00002610       0.00000000 s 
O       19.85216534      23.24427457       7.38060000       4.41647045       0.00024109      -0.00015659       0.00000000 s 
O       18.34533520      25.85418092       7.38060000       5.34659593       0.00021095      -0.00010439       0.00000000 s 
O       16.83850507      28.46408728       7.38060000       7.47203194       0.00018082      -0.00005220       0.00000000 s 
O       15.33167493      31.07399363       7.38060000      10.06184531       0.00015068       0.00000000       0.00000000 s 
Cu      16.83839959      21.50451969      10.10010000       0.00000000       0.00000000       0.00000000       0.00000000 a1
N        9.72341054      11.65847950      10.10010000       0.00000000       0.00000000       0.00000000       0.00000000 a2
H        8.60441565       9.91251317      10.10010000       0.00000000       0.00000000       0.00000000       0.00000000 a2
H       10.70359900      13.48884852      10.10010000       0.00000000       0.00000000       0.00000000       0.00000000 a2
C        8.56507310      11.00481543      10.10010000       0.00000000       0.00000000       0.00000000       0.00000000 a2
C        9.73121576      12.99101884      10.10010000       0.00000000       0.00000000       0.00000000       0.00000000 a2
C        7.33153128      11.67583503      10.10010000       0.00000000       0.00000000       0.00000000       0.00000000 a2
C        8.54693123      13.74004698      10.10010000       0.00000000       0.00000000       0.00000000       0.00000000 a2
H        6.43129362      11.06546844      10.10010000       0.00000000       0.00000000       0.00000000       0.00000000 a2
C        7.29366540      13.08492139      10.10010000       0.00000000       0.00000000       0.00000000       0.00000000 a2
H        8.64217606      14.82431089      10.10010000       0.00000000       0.00000000       0.00000000       0.00000000 a2
C        6.01656199      13.83321878      10.10010000       0.00000000       0.00000000       0.00000000       0.00000000 a2
H        4.77679709      12.06989691      10.10010000       0.00000000       0.00000000       0.00000000       0.00000000 a2
H        6.93947699      15.77886505      10.10010000       0.00000000       0.00000000       0.00000000       0.00000000 a2
C        4.77785185      13.15470889      10.10010000       0.00000000       0.00000000       0.00000000       0.00000000 a2
C        5.99757631      15.24066093      10.10010000       0.00000000       0.00000000       0.00000000       0.00000000 a2
H        3.09297822      11.07752597      10.10010000       0.00000000       0.00000000       0.00000000       0.00000000 a2
H        6.96647885      17.73766499      10.10010000       0.00000000       0.00000000       0.00000000       0.00000000 a2
C        2.20297174      11.70086354      10.10010000       0.00000000       0.00000000       0.00000000       0.00000000 a2
C        3.55190430      13.83742064      10.10010000       0.00000000       0.00000000       0.00000000       0.00000000 a2
C        4.79282944      15.97032395      10.10010000       0.00000000       0.00000000       0.00000000       0.00000000 a2
C        5.98154396      18.19987016      10.10010000       0.00000000       0.00000000       0.00000000       0.00000000 a2
H        0.90087052       9.96220479      10.10010000       0.00000000       0.00000000       0.00000000       0.00000000 a2
C        2.26235472      13.11104603      10.10010000       0.00000000       0.00000000       0.00000000       0.00000000 a2
C        0.96236302      11.05194940      10.10010000       0.00000000       0.00000000       0.00000000       0.00000000 a2
C        3.58681686      15.24650700      10.10010000       0.00000000       0.00000000       0.00000000       0.00000000 a2
C        4.79071992      17.45047664      10.10010000       0.00000000       0.00000000       0.00000000       0.00000000 a2
H        6.84465407      20.19758302      10.10010000       0.00000000       0.00000000       0.00000000       0.00000000 a2
C        5.92754025      19.60219700      10.10010000       0.00000000       0.00000000       0.00000000       0.00000000 a2
N       -0.18542681      11.72863238      10.10010000       0.00000000       0.00000000       0.00000000       0.00000000 a2
C        1.02691434      13.78645019      10.10010000       0.00000000       0.00000000       0.00000000       0.00000000 a2
H        2.64976807      15.79311485      10.10010000       0.00000000       0.00000000       0.00000000       0.00000000 a2
C        3.58660590      18.19037029      10.10010000       0.00000000       0.00000000       0.00000000       0.00000000 a2
N        4.77342186      20.26134176      10.10010000       0.00000000       0.00000000       0.00000000       0.00000000 a2
C       -0.17160945      13.05587372      10.10010000       0.00000000       0.00000000       0.00000000       0.00000000 a2
C        3.62341703      19.59068754      10.10010000       0.00000000       0.00000000       0.00000000       0.00000000 a2
H        0.95149900      14.87144486      10.10010000       0.00000000       0.00000000       0.00000000       0.00000000 a2
H        2.60873791      17.71592490      10.10010000       0.00000000       0.00000000       0.00000000       0.00000000 a2
H       -1.13914080      13.56649168      10.10010000       0.00000000       0.00000000       0.00000000       0.00000000 a2
H        2.70218964      20.17675639      10.10010000       0.00000000       0.00000000       0.00000000       0.00000000 a2
