184
Lattice="36.16319999999999 0.0 0.0 -18.081599999999995 31.318249882114287 0.0 0.0 0.0 30.0" Properties=species:S:1:pos:R:3:remoteness:R:1:shift:R:3:adsorption:S:1 size="_JSON [[12, 0], [0, 12]]" mass_center_dist=13.132525553310105 min_atom_dist=8.783273772430602 s1=cu_hollow s2=tpb_hollow_up s1idx=2 s2idx=8 pbc="T T T"
O       -1.24327575       2.36559791       7.38060000              inf       0.00000000       0.00000000       0.00000000 s 
O       -2.75007575       4.97545206       7.38060000              inf       0.00000000       0.00000000       0.00000000 s 
O       -4.25687575       7.58530622       7.38060000              inf       0.00000000       0.00000000       0.00000000 s 
O       -5.76367575      10.19516038       7.38060000              inf       0.00000000       0.00000000       0.00000000 s 
O       -7.27047575      12.80501453       7.38060000              inf       0.00000000       0.00000000       0.00000000 s 
O       -8.77723054      15.41479039       7.38060000      10.06184531       0.00004520      -0.00007830       0.00000000 s 
O      -10.28406068      18.02469675       7.38060000       8.05684639       0.00001507      -0.00002610       0.00000000 s 
O      -11.79078534      20.63442041       7.38060000       6.83737879       0.00009041      -0.00015659       0.00000000 s 
O      -13.29761548      23.24432677       7.38060000       6.83733230       0.00006027      -0.00010439       0.00000000 s 
O      -14.80444561      25.85423312       7.38060000       8.05684639       0.00003014      -0.00005220       0.00000000 s 
O      -16.31127575      28.46413947       7.38060000      10.06184531       0.00000000       0.00000000       0.00000000 s 
O      -17.81800041      31.07386314       7.38060000      12.47912395       0.00007534      -0.00013049       0.00000000 s 
O        1.77032425       2.36559791       7.38060000              inf       0.00000000       0.00000000       0.00000000 s 
O        0.26352425       4.97545206       7.38060000              inf       0.00000000       0.00000000       0.00000000 s 
O       -1.24314014       7.58517573       7.38060000      10.06654360       0.00013561      -0.00013049       0.00000000 s 
O       -2.74997027      10.19508208       7.38060000      10.06494431       0.00010548      -0.00007830       0.00000000 s 
O       -4.25687575      12.80501453       7.38060000              inf       0.00000000       0.00000000       0.00000000 s 
O       -5.76367575      15.41486869       7.38060000              inf       0.00000000       0.00000000       0.00000000 s 
O       -7.27047575      18.02472285       7.38060000              inf       0.00000000       0.00000000       0.00000000 s 
O       -8.77712507      20.63442041       7.38060000       9.59999241       0.00015068      -0.00015659       0.00000000 s 
O      -10.28395520      23.24432677       7.38060000       9.11466238       0.00012054      -0.00010439       0.00000000 s 
O      -11.79078534      25.85423312       7.38060000       9.59992618       0.00009041      -0.00005220       0.00000000 s 
O      -13.29767575      28.46413947       7.38060000              inf       0.00000000       0.00000000       0.00000000 s 
O      -14.80447575      31.07399363       7.38060000              inf       0.00000000       0.00000000       0.00000000 s 
O        4.78392425       2.36559791       7.38060000              inf       0.00000000       0.00000000       0.00000000 s 
O        3.27724480       4.97545206       7.38060000       9.60617260       0.00012054      -0.00000000       0.00000000 s 
O        1.77052014       7.58517573       7.38060000       8.06241008       0.00019588      -0.00013049       0.00000000 s 
O        0.26369000      10.19508208       7.38060000       7.47583520       0.00016575      -0.00007830       0.00000000 s 
O       -1.24314014      12.80498844       7.38060000       8.05841572       0.00013561      -0.00002610       0.00000000 s 
O       -2.74986480      15.41471210       7.38060000       9.59946726       0.00021095      -0.00015659       0.00000000 s 
O       -4.25687575      18.02472285       7.38060000              inf       0.00000000       0.00000000       0.00000000 s 
O       -5.76367575      20.63457700       7.38060000              inf       0.00000000       0.00000000       0.00000000 s 
O       -7.27047575      23.24443116       7.38060000              inf       0.00000000       0.00000000       0.00000000 s 
O       -8.77712507      25.85423312       7.38060000      11.72896791       0.00015068      -0.00005220       0.00000000 s 
O      -10.28407575      28.46413947       7.38060000              inf       0.00000000       0.00000000       0.00000000 s 
O      -11.79087575      31.07399363       7.38060000              inf       0.00000000       0.00000000       0.00000000 s 
O        7.79752425       2.36559791       7.38060000              inf       0.00000000       0.00000000       0.00000000 s 
O        6.29090507       4.97545206       7.38060000       9.12093840       0.00018082       0.00000000       0.00000000 s 
O        4.78418041       7.58517573       7.38060000       6.84353045       0.00025616      -0.00013049       0.00000000 s 
O        3.27735027      10.19508208       7.38060000       5.35139386       0.00022602      -0.00007830       0.00000000 s 
O        1.77052014      12.80498844       7.38060000       5.34838481       0.00019588      -0.00002610       0.00000000 s 
O        0.26379548      15.41471210       7.38060000       6.83633055       0.00027122      -0.00015659       0.00000000 s 
O       -1.24303466      18.02461845       7.38060000       9.11210956       0.00024109      -0.00010439       0.00000000 s 
O       -2.74986480      20.63452481       7.38060000      11.72561138       0.00021095      -0.00005220       0.00000000 s 
O       -4.25687575      23.24443116       7.38060000              inf       0.00000000       0.00000000       0.00000000 s 
O       -5.76367575      25.85428532       7.38060000              inf       0.00000000       0.00000000       0.00000000 s 
O       -7.27047575      28.46413947       7.38060000              inf       0.00000000       0.00000000       0.00000000 s 
O       -8.77727575      31.07399363       7.38060000              inf       0.00000000       0.00000000       0.00000000 s 
O       10.81112425       2.36559791       7.38060000              inf       0.00000000       0.00000000       0.00000000 s 
O        9.30435439       4.97545206       7.38060000       9.60559773       0.00003014       0.00000000       0.00000000 s 
O        7.79762973       7.58517573       7.38060000       6.84317344       0.00010548      -0.00013049       0.00000000 s 
O        6.29079959      10.19508208       7.38060000       4.42165326       0.00007534      -0.00007830       0.00000000 s 
O        4.78396946      12.80498844       7.38060000       3.23068240       0.00004520      -0.00002610       0.00000000 s 
O        3.27724480      15.41471210       7.38060000       4.41436602       0.00012054      -0.00015659       0.00000000 s 
O        1.77041466      18.02461845       7.38060000       6.83375739       0.00009041      -0.00010439       0.00000000 s 
O        0.26358452      20.63452481       7.38060000       9.59573599       0.00006027      -0.00005220       0.00000000 s 
O       -1.24327575      23.24443116       7.38060000              inf       0.00000000       0.00000000       0.00000000 s 
O       -2.75007575      25.85428532       7.38060000              inf       0.00000000       0.00000000       0.00000000 s 
O       -4.25687575      28.46413947       7.38060000              inf       0.00000000       0.00000000       0.00000000 s 
O       -5.76367575      31.07399363       7.38060000              inf       0.00000000       0.00000000       0.00000000 s 
O       13.82472425       2.36559791       7.38060000              inf       0.00000000       0.00000000       0.00000000 s 
O       12.31792425       4.97545206       7.38060000              inf       0.00000000       0.00000000       0.00000000 s 
O       10.81129000       7.58517573       7.38060000       8.06150091       0.00016575      -0.00013049       0.00000000 s 
O        9.30445986      10.19508208       7.38060000       5.35048067       0.00013561      -0.00007830       0.00000000 s 
O        7.79762973      12.80498844       7.38060000       3.22982762       0.00010548      -0.00002610       0.00000000 s 
O        6.29090507      15.41471210       7.38060000       3.22483991       0.00018082      -0.00015659       0.00000000 s 
O        4.78407493      18.02461845       7.38060000       5.34144709       0.00015068      -0.00010439       0.00000000 s 
O        3.27724480      20.63452481       7.38060000       8.05151029       0.00012054      -0.00005220       0.00000000 s 
O        1.77041466      23.24443116       7.38060000      10.92185311       0.00009041       0.00000000       0.00000000 s 
O        0.26352425      25.85428532       7.38060000              inf       0.00000000       0.00000000       0.00000000 s 
O       -1.24327575      28.46413947       7.38060000              inf       0.00000000       0.00000000       0.00000000 s 
O       -2.75007575      31.07399363       7.38060000              inf       0.00000000       0.00000000       0.00000000 s 
O       16.83832425       2.36559791       7.38060000              inf       0.00000000       0.00000000       0.00000000 s 
O       15.33152425       4.97545206       7.38060000              inf       0.00000000       0.00000000       0.00000000 s 
O       13.82495027       7.58517573       7.38060000      10.06532997       0.00022602      -0.00013049       0.00000000 s 
O       12.31812014      10.19508208       7.38060000       7.47452780       0.00019588      -0.00007830       0.00000000 s 
O       10.81129000      12.80498844       7.38060000       5.34701417       0.00016575      -0.00002610       0.00000000 s 
O        9.30456534      15.41471210       7.38060000       4.41325890       0.00024109      -0.00015659       0.00000000 s 
O        7.79773520      18.02461845       7.38060000       5.34098964       0.00021095      -0.00010439       0.00000000 s 
O        6.29090507      20.63452481       7.38060000       7.46590806       0.00018082      -0.00005220       0.00000000 s 
O        4.78407493      23.24443116       7.38060000      10.05572933       0.00015068       0.00000000       0.00000000 s 
O        3.27712425      25.85428532       7.38060000              inf       0.00000000       0.00000000       0.00000000 s 
O        1.77032425      28.46413947       7.38060000              inf       0.00000000       0.00000000       0.00000000 s 
O        0.26352425      31.07399363       7.38060000              inf       0.00000000       0.00000000       0.00000000 s 
O       19.85192425       2.36559791       7.38060000              inf       0.00000000       0.00000000       0.00000000 s 
O       18.34512425       4.97545206       7.38060000              inf       0.00000000       0.00000000       0.00000000 s 
O       16.83832425       7.58530622       7.38060000              inf       0.00000000       0.00000000       0.00000000 s 
O       15.33164480      10.19516038       7.38060000       9.59992618       0.00012054       0.00000000       0.00000000 s 
O       13.82473932      12.80498844       7.38060000       8.05670236       0.00001507      -0.00002610       0.00000000 s 
O       12.31801466      15.41471210       7.38060000       6.83490085       0.00009041      -0.00015659       0.00000000 s 
O       10.81118452      18.02461845       7.38060000       6.83254516       0.00006027      -0.00010439       0.00000000 s 
O        9.30435439      20.63452481       7.38060000       8.05082441       0.00003014      -0.00005220       0.00000000 s 
O        7.79752425      23.24443116       7.38060000      10.05545476       0.00000000       0.00000000       0.00000000 s 
O        6.29079959      25.85415483       7.38060000      12.47270683       0.00007534      -0.00013049       0.00000000 s 
O        4.78392425      28.46413947       7.38060000              inf       0.00000000       0.00000000       0.00000000 s 
O        3.27712425      31.07399363       7.38060000              inf       0.00000000       0.00000000       0.00000000 s 
O       22.86552425       2.36559791       7.38060000              inf       0.00000000       0.00000000       0.00000000 s 
O       21.35872425       4.97545206       7.38060000              inf       0.00000000       0.00000000       0.00000000 s 
O       19.85192425       7.58530622       7.38060000              inf       0.00000000       0.00000000       0.00000000 s 
O       18.34530507      10.19516038       7.38060000       9.11466238       0.00018082       0.00000000       0.00000000 s 
O       16.83858041      12.80488404       7.38060000       6.83747177       0.00025616      -0.00013049       0.00000000 s 
O       15.33175027      15.41479039       7.38060000       5.34659593       0.00022602      -0.00007830       0.00000000 s 
O       13.82492014      18.02469675       7.38060000       5.34653648       0.00019588      -0.00002610       0.00000000 s 
O       12.31819548      20.63442041       7.38060000       6.83719284       0.00027122      -0.00015659       0.00000000 s 
O       10.81136534      23.24432677       7.38060000       9.11448801       0.00024109      -0.00010439       0.00000000 s 
O        9.30453520      25.85423312       7.38060000      11.72880530       0.00021095      -0.00005220       0.00000000 s 
O        7.79752425      28.46413947       7.38060000              inf       0.00000000       0.00000000       0.00000000 s 
O        6.29072425      31.07399363       7.38060000              inf       0.00000000       0.00000000       0.00000000 s 
O       25.87912425       2.36559791       7.38060000              inf       0.00000000       0.00000000       0.00000000 s 
O       24.37232425       4.97545206       7.38060000              inf       0.00000000       0.00000000       0.00000000 s 
O       22.86552425       7.58530622       7.38060000              inf       0.00000000       0.00000000       0.00000000 s 
O       21.35875439      10.19516038       7.38060000       9.59992618       0.00003014       0.00000000       0.00000000 s 
O       19.85202973      12.80488404       7.38060000       6.83751826       0.00010548      -0.00013049       0.00000000 s 
O       18.34519959      15.41479039       7.38060000       4.41647045       0.00007534      -0.00007830       0.00000000 s 
O       16.83836946      18.02469675       7.38060000       3.22847688       0.00004520      -0.00002610       0.00000000 s 
O       15.33164480      20.63442041       7.38060000       4.41632651       0.00012054      -0.00015659       0.00000000 s 
O       13.82481466      23.24432677       7.38060000       6.83733230       0.00009041      -0.00010439       0.00000000 s 
O       12.31798452      25.85423312       7.38060000       9.59992618       0.00006027      -0.00005220       0.00000000 s 
O       10.81112425      28.46413947       7.38060000              inf       0.00000000       0.00000000       0.00000000 s 
O        9.30432425      31.07399363       7.38060000              inf       0.00000000       0.00000000       0.00000000 s 
O       28.89272425       2.36559791       7.38060000              inf       0.00000000       0.00000000       0.00000000 s 
O       27.38592425       4.97545206       7.38060000              inf       0.00000000       0.00000000       0.00000000 s 
O       25.87912425       7.58530622       7.38060000              inf       0.00000000       0.00000000       0.00000000 s 
O       24.37241466      10.19516038       7.38060000      10.92723166       0.00009041       0.00000000       0.00000000 s 
O       22.86569000      12.80488404       7.38060000       8.05704365       0.00016575      -0.00013049       0.00000000 s 
O       21.35885986      15.41479039       7.38060000       5.34671483       0.00013561      -0.00007830       0.00000000 s 
O       19.85202973      18.02469675       7.38060000       3.22847688       0.00010548      -0.00002610       0.00000000 s 
O       18.34530507      20.63442041       7.38060000       3.22837843       0.00018082      -0.00015659       0.00000000 s 
O       16.83847493      23.24432677       7.38060000       5.34653648       0.00015068      -0.00010439       0.00000000 s 
O       15.33164480      25.85423312       7.38060000       8.05684639       0.00012054      -0.00005220       0.00000000 s 
O       13.82472425      28.46413947       7.38060000              inf       0.00000000       0.00000000       0.00000000 s 
O       12.31792425      31.07399363       7.38060000              inf       0.00000000       0.00000000       0.00000000 s 
O       31.90632425       2.36559791       7.38060000              inf       0.00000000       0.00000000       0.00000000 s 
O       30.39952425       4.97545206       7.38060000              inf       0.00000000       0.00000000       0.00000000 s 
O       28.89272425       7.58530622       7.38060000              inf       0.00000000       0.00000000       0.00000000 s 
O       27.38592425      10.19516038       7.38060000              inf       0.00000000       0.00000000       0.00000000 s 
O       25.87935027      12.80488404       7.38060000      10.06203485       0.00022602      -0.00013049       0.00000000 s 
O       24.37252014      15.41479039       7.38060000       7.47220210       0.00019588      -0.00007830       0.00000000 s 
O       22.86569000      18.02469675       7.38060000       5.34671483       0.00016575      -0.00002610       0.00000000 s 
O       21.35896534      20.63442041       7.38060000       4.41647045       0.00024109      -0.00015659       0.00000000 s 
O       19.85213520      23.24432677       7.38060000       5.34659593       0.00021095      -0.00010439       0.00000000 s 
O       18.34530507      25.85423312       7.38060000       7.47203194       0.00018082      -0.00005220       0.00000000 s 
O       16.83847493      28.46413947       7.38060000      10.06184531       0.00015068       0.00000000       0.00000000 s 
O       15.33152425      31.07399363       7.38060000              inf       0.00000000       0.00000000       0.00000000 s 
Cu      18.34519959      18.89466553      10.10010000       0.00000000       0.00000000       0.00000000       0.00000000 a1
N        6.32254787      19.40867631      10.10010000       0.00000000       0.00000000       0.00000000       0.00000000 a2
H        8.39388556      19.31258148      10.10010000       0.00000000       0.00000000       0.00000000       0.00000000 a2
H        4.24730757      19.34235992      10.10010000       0.00000000       0.00000000       0.00000000       0.00000000 a2
C        7.46780628      18.73235870      10.10010000       0.00000000       0.00000000       0.00000000       0.00000000 a2
C        5.16431591      18.74934885      10.10010000       0.00000000       0.00000000       0.00000000       0.00000000 a2
C        7.50314074      17.32875304      10.10010000       0.00000000       0.00000000       0.00000000       0.00000000 a2
C        5.10799173      17.34921430      10.10010000       0.00000000       0.00000000       0.00000000       0.00000000 a2
H        8.48206349      16.85430765      10.10010000       0.00000000       0.00000000       0.00000000       0.00000000 a2
C        6.30198005      16.59141704      10.10010000       0.00000000       0.00000000       0.00000000       0.00000000 a2
H        4.12136922      16.88956678      10.10010000       0.00000000       0.00000000       0.00000000       0.00000000 a2
C        6.29238173      15.11108167      10.10010000       0.00000000       0.00000000       0.00000000       0.00000000 a2
H        8.43955666      14.91907470      10.10010000       0.00000000       0.00000000       0.00000000       0.00000000 a2
H        4.14594513      14.93752637      10.10010000       0.00000000       0.00000000       0.00000000       0.00000000 a2
C        7.49944908      14.37776485      10.10010000       0.00000000       0.00000000       0.00000000       0.00000000 a2
C        5.08320487      14.39091851      10.10010000       0.00000000       0.00000000       0.00000000       0.00000000 a2
H       10.14056812      13.95721295      10.10010000       0.00000000       0.00000000       0.00000000       0.00000000 a2
H        2.43596822      13.98169338      10.10010000       0.00000000       0.00000000       0.00000000       0.00000000 a2
C       10.04606162      12.87459325      10.10010000       0.00000000       0.00000000       0.00000000       0.00000000 a2
C        7.52117713      12.97470725      10.10010000       0.00000000       0.00000000       0.00000000       0.00000000 a2
C        5.05346064      12.98274560      10.10010000       0.00000000       0.00000000       0.00000000       0.00000000 a2
C        2.52836520      12.89761216      10.10010000       0.00000000       0.00000000       0.00000000       0.00000000 a2
H       12.20272939      12.61645257      10.10010000       0.00000000       0.00000000       0.00000000       0.00000000 a2
C        8.79501078      12.22111186      10.10010000       0.00000000       0.00000000       0.00000000       0.00000000 a2
C       11.22834210      12.12465165      10.10010000       0.00000000       0.00000000       0.00000000       0.00000000 a2
C        6.28341627      12.30039923      10.10010000       0.00000000       0.00000000       0.00000000       0.00000000 a2
C        3.77277104      12.24102505      10.10010000       0.00000000       0.00000000       0.00000000       0.00000000 a2
H        0.36684553      12.64604832      10.10010000       0.00000000       0.00000000       0.00000000       0.00000000 a2
C        1.34081091      12.14949747      10.10010000       0.00000000       0.00000000       0.00000000       0.00000000 a2
N       11.21610689      10.79247770      10.10010000       0.00000000       0.00000000       0.00000000       0.00000000 a2
C        8.82781382      10.81348702      10.10010000       0.00000000       0.00000000       0.00000000       0.00000000 a2
H        6.27866985      11.21540456      10.10010000       0.00000000       0.00000000       0.00000000       0.00000000 a2
C        3.73385040      10.82828490      10.10010000       0.00000000       0.00000000       0.00000000       0.00000000 a2
N        1.34713947      10.82061193      10.10010000       0.00000000       0.00000000       0.00000000       0.00000000 a2
C       10.05956255      10.14082321      10.10010000       0.00000000       0.00000000       0.00000000       0.00000000 a2
C        2.50305096      10.15982295      10.10010000       0.00000000       0.00000000       0.00000000       0.00000000 a2
H        7.92588854      10.20567809      10.10010000       0.00000000       0.00000000       0.00000000       0.00000000 a2
H        4.63366616      10.21864906      10.10010000       0.00000000       0.00000000       0.00000000       0.00000000 a2
H       10.10133104       9.04760750      10.10010000       0.00000000       0.00000000       0.00000000       0.00000000 a2
H        2.45579771       9.06916490      10.10010000       0.00000000       0.00000000       0.00000000       0.00000000 a2
