222
Lattice="36.16319999999999 0.0 0.0 -18.081599999999995 31.318249882114287 0.0 0.0 0.0 30.0" Properties=species:S:1:pos:R:3:remoteness:R:1:shift:R:3:adsorption:S:1 size="_JSON [[12, 0], [0, 12]]" mass_center_dist=15.659124941065812 min_atom_dist=5.654906844678417 s1=tpb_atop s2=tpb_atop s1idx=4 s2idx=4 pbc="T T T"
O       -1.24320041       2.36546741       7.38060000      11.19434668       0.00007534      -0.00013049       0.00000000 s 
O       -2.75007575       4.97545206       7.38060000              inf       0.00000000       0.00000000       0.00000000 s 
O       -4.25674014       7.58517573       7.38060000       9.44600961       0.00013561      -0.00013049       0.00000000 s 
O       -5.76357027      10.19508208       7.38060000       8.42694687       0.00010548      -0.00007830       0.00000000 s 
O       -7.27040041      12.80498844       7.38060000       8.42401722       0.00007534      -0.00002610       0.00000000 s 
O       -8.77712507      15.41471210       7.38060000       9.43806608       0.00015068      -0.00015659       0.00000000 s 
O      -10.28395520      18.02461845       7.38060000      11.19620674       0.00012054      -0.00010439       0.00000000 s 
O      -11.79087575      20.63457700       7.38060000              inf       0.00000000       0.00000000       0.00000000 s 
O      -13.29758534      23.24427457       7.38060000       9.44380483       0.00009041      -0.00015659       0.00000000 s 
O      -14.80441548      25.85418092       7.38060000       8.42447540       0.00006027      -0.00010439       0.00000000 s 
O      -16.31124561      28.46408728       7.38060000       8.42154489       0.00003014      -0.00005220       0.00000000 s 
O      -17.81807575      31.07399363       7.38060000       9.43596033       0.00000000       0.00000000       0.00000000 s 
O        1.77032425       2.36559791       7.38060000              inf       0.00000000       0.00000000       0.00000000 s 
O        0.26364480       4.97545206       7.38060000      10.79526691       0.00012054       0.00000000       0.00000000 s 
O       -1.24307986       7.58517573       7.38060000       8.43098434       0.00019588      -0.00013049       0.00000000 s 
O       -2.74991000      10.19508208       7.38060000       6.61707524       0.00016575      -0.00007830       0.00000000 s 
O       -4.25674014      12.80498844       7.38060000       5.88677917       0.00013561      -0.00002610       0.00000000 s 
O       -5.76346480      15.41471210       7.38060000       6.60951449       0.00021095      -0.00015659       0.00000000 s 
O       -7.27029493      18.02461845       7.38060000       8.41911442       0.00018082      -0.00010439       0.00000000 s 
O       -8.77712507      20.63452481       7.38060000      10.78153931       0.00015068      -0.00005220       0.00000000 s 
O      -10.28407575      23.24443116       7.38060000              inf       0.00000000       0.00000000       0.00000000 s 
O      -11.79087575      25.85428532       7.38060000              inf       0.00000000       0.00000000       0.00000000 s 
O      -13.29758534      28.46408728       7.38060000      10.78656332       0.00009041      -0.00005220       0.00000000 s 
O      -14.80441548      31.07399363       7.38060000      11.19744297       0.00006027       0.00000000       0.00000000 s 
O        4.78392425       2.36559791       7.38060000              inf       0.00000000       0.00000000       0.00000000 s 
O        3.27712425       4.97545206       7.38060000              inf       0.00000000       0.00000000       0.00000000 s 
O        1.77058041       7.58517573       7.38060000       8.43209302       0.00025616      -0.00013049       0.00000000 s 
O        0.26375027      10.19508208       7.38060000       5.89255737       0.00022602      -0.00007830       0.00000000 s 
O       -1.24307986      12.80498844       7.38060000       4.06307377       0.00019588      -0.00002610       0.00000000 s 
O       -2.74980452      15.41471210       7.38060000       4.05691616       0.00027122      -0.00015659       0.00000000 s 
O       -4.25663466      18.02461845       7.38060000       5.87981516       0.00024109      -0.00010439       0.00000000 s 
O       -5.76346480      20.63452481       7.38060000       8.41725492       0.00021095      -0.00005220       0.00000000 s 
O       -7.27029493      23.24443116       7.38060000      11.19341015       0.00018082       0.00000000       0.00000000 s 
O       -8.77727575      25.85428532       7.38060000              inf       0.00000000       0.00000000       0.00000000 s 
O      -10.28407575      28.46413947       7.38060000              inf       0.00000000       0.00000000       0.00000000 s 
O      -11.79087575      31.07399363       7.38060000              inf       0.00000000       0.00000000       0.00000000 s 
O        7.79752425       2.36559791       7.38060000              inf       0.00000000       0.00000000       0.00000000 s 
O        6.29072425       4.97545206       7.38060000              inf       0.00000000       0.00000000       0.00000000 s 
O        4.78402973       7.58517573       7.38060000       9.44887700       0.00010548      -0.00013049       0.00000000 s 
O        3.27719959      10.19508208       7.38060000       6.61980391       0.00007534      -0.00007830       0.00000000 s 
O        1.77036946      12.80498844       7.38060000       4.06529548       0.00004520      -0.00002610       0.00000000 s 
O        0.26364480      15.41471210       7.38060000       2.71951298       0.00012054      -0.00015659       0.00000000 s 
O       -1.24318534      18.02461845       7.38060000       4.05313408       0.00009041      -0.00010439       0.00000000 s 
O       -2.75001548      20.63452481       7.38060000       6.60487225       0.00006027      -0.00005220       0.00000000 s 
O       -4.25684561      23.24443116       7.38060000       9.43319010       0.00003014       0.00000000       0.00000000 s 
O       -5.76367575      25.85428532       7.38060000              inf       0.00000000       0.00000000       0.00000000 s 
O       -7.27047575      28.46413947       7.38060000              inf       0.00000000       0.00000000       0.00000000 s 
O       -8.77727575      31.07399363       7.38060000              inf       0.00000000       0.00000000       0.00000000 s 
O       10.81112425       2.36559791       7.38060000              inf       0.00000000       0.00000000       0.00000000 s 
O        9.30432425       4.97545206       7.38060000              inf       0.00000000       0.00000000       0.00000000 s 
O        7.79752425       7.58530622       7.38060000              inf       0.00000000       0.00000000       0.00000000 s 
O        6.29085986      10.19508208       7.38060000       8.43123199       0.00013561      -0.00007830       0.00000000 s 
O        4.78402973      12.80498844       7.38060000       5.89137914       0.00010548      -0.00002610       0.00000000 s 
O        3.27730507      15.41471210       7.38060000       4.06152179       0.00018082      -0.00015659       0.00000000 s 
O        1.77047493      18.02461845       7.38060000       4.05536139       0.00015068      -0.00010439       0.00000000 s 
O        0.26364480      20.63452481       7.38060000       5.87879659       0.00012054      -0.00005220       0.00000000 s 
O       -1.24318534      23.24443116       7.38060000       8.41658120       0.00009041       0.00000000       0.00000000 s 
O       -2.74991000      25.85415483       7.38060000      11.19273330       0.00016575      -0.00013049       0.00000000 s 
O       -4.25687575      28.46413947       7.38060000              inf       0.00000000       0.00000000       0.00000000 s 
O       -5.76367575      31.07399363       7.38060000              inf       0.00000000       0.00000000       0.00000000 s 
O       13.82472425       2.36559791       7.38060000              inf       0.00000000       0.00000000       0.00000000 s 
O       12.31792425       4.97545206       7.38060000              inf       0.00000000       0.00000000       0.00000000 s 
O       10.81112425       7.58530622       7.38060000              inf       0.00000000       0.00000000       0.00000000 s 
O        9.30452014      10.19508208       7.38060000      10.79415761       0.00019588      -0.00007830       0.00000000 s 
O        7.79769000      12.80498844       7.38060000       8.42937516       0.00016575      -0.00002610       0.00000000 s 
O        6.29096534      15.41471210       7.38060000       6.61516924       0.00024109      -0.00015659       0.00000000 s 
O        4.78413520      18.02461845       7.38060000       5.88458262       0.00021095      -0.00010439       0.00000000 s 
O        3.27730507      20.63452481       7.38060000       6.60760605       0.00018082      -0.00005220       0.00000000 s 
O        1.77047493      23.24443116       7.38060000       8.41765402       0.00015068       0.00000000       0.00000000 s 
O        0.26375027      25.85415483       7.38060000      10.78025168       0.00022602      -0.00013049       0.00000000 s 
O       -1.24327575      28.46413947       7.38060000              inf       0.00000000       0.00000000       0.00000000 s 
O       -2.75007575      31.07399363       7.38060000              inf       0.00000000       0.00000000       0.00000000 s 
O       16.83832425       2.36559791       7.38060000              inf       0.00000000       0.00000000       0.00000000 s 
O       15.33152425       4.97545206       7.38060000              inf       0.00000000       0.00000000       0.00000000 s 
O       13.82472425       7.58530622       7.38060000              inf       0.00000000       0.00000000       0.00000000 s 
O       12.31792425      10.19516038       7.38060000              inf       0.00000000       0.00000000       0.00000000 s 
O       10.81112425      12.80501453       7.38060000              inf       0.00000000       0.00000000       0.00000000 s 
O        9.30441466      15.41471210       7.38060000       9.44380483       0.00009041      -0.00015659       0.00000000 s 
O        7.79758452      18.02461845       7.38060000       8.42447540       0.00006027      -0.00010439       0.00000000 s 
O        6.29075439      20.63452481       7.38060000       8.42154489       0.00003014      -0.00005220       0.00000000 s 
O        4.78392425      23.24443116       7.38060000       9.43596033       0.00000000      -0.00000000       0.00000000 s 
O        3.27719959      25.85415483       7.38060000      11.19434668       0.00007534      -0.00013049       0.00000000 s 
O        1.77032425      28.46413947       7.38060000              inf       0.00000000       0.00000000       0.00000000 s 
O        0.26352425      31.07399363       7.38060000              inf       0.00000000       0.00000000       0.00000000 s 
O       19.85192425       2.36559791       7.38060000              inf       0.00000000       0.00000000       0.00000000 s 
O       18.34512425       4.97545206       7.38060000              inf       0.00000000       0.00000000       0.00000000 s 
O       16.83832425       7.58530622       7.38060000              inf       0.00000000       0.00000000       0.00000000 s 
O       15.33152425      10.19516038       7.38060000              inf       0.00000000       0.00000000       0.00000000 s 
O       13.82484480      12.80501453       7.38060000      10.79526691       0.00012054       0.00000000       0.00000000 s 
O       12.31812014      15.41473820       7.38060000       8.43098434       0.00019588      -0.00013049       0.00000000 s 
O       10.81129000      18.02464455       7.38060000       6.61707524       0.00016575      -0.00007830       0.00000000 s 
O        9.30445986      20.63455091       7.38060000       5.88677917       0.00013561      -0.00002610       0.00000000 s 
O        7.79773520      23.24427457       7.38060000       6.60951449       0.00021095      -0.00015659       0.00000000 s 
O        6.29090507      25.85418092       7.38060000       8.41911442       0.00018082      -0.00010439       0.00000000 s 
O        4.78407493      28.46408728       7.38060000      10.78153931       0.00015068      -0.00005220       0.00000000 s 
O        3.27712425      31.07399363       7.38060000              inf       0.00000000       0.00000000       0.00000000 s 
O       22.86552425       2.36559791       7.38060000              inf       0.00000000       0.00000000       0.00000000 s 
O       21.35872425       4.97545206       7.38060000              inf       0.00000000       0.00000000       0.00000000 s 
O       19.85192425       7.58530622       7.38060000              inf       0.00000000       0.00000000       0.00000000 s 
O       18.34512425      10.19516038       7.38060000              inf       0.00000000       0.00000000       0.00000000 s 
O       16.83832425      12.80501453       7.38060000              inf       0.00000000       0.00000000       0.00000000 s 
O       15.33178041      15.41473820       7.38060000       8.43209302       0.00025616      -0.00013049       0.00000000 s 
O       13.82495027      18.02464455       7.38060000       5.89255737       0.00022602      -0.00007830       0.00000000 s 
O       12.31812014      20.63455091       7.38060000       4.06307377       0.00019588      -0.00002610       0.00000000 s 
O       10.81139548      23.24427457       7.38060000       4.05691616       0.00027122      -0.00015659       0.00000000 s 
O        9.30456534      25.85418092       7.38060000       5.87981516       0.00024109      -0.00010439       0.00000000 s 
O        7.79773520      28.46408728       7.38060000       8.41725492       0.00021095      -0.00005220       0.00000000 s 
O        6.29090507      31.07399363       7.38060000      11.19341015       0.00018082       0.00000000       0.00000000 s 
O       25.87912425       2.36559791       7.38060000              inf       0.00000000       0.00000000       0.00000000 s 
O       24.37232425       4.97545206       7.38060000              inf       0.00000000       0.00000000       0.00000000 s 
O       22.86552425       7.58530622       7.38060000              inf       0.00000000       0.00000000       0.00000000 s 
O       21.35872425      10.19516038       7.38060000              inf       0.00000000       0.00000000       0.00000000 s 
O       19.85192425      12.80501453       7.38060000              inf       0.00000000       0.00000000       0.00000000 s 
O       18.34522973      15.41473820       7.38060000       9.44887700       0.00010548      -0.00013049       0.00000000 s 
O       16.83839959      18.02464455       7.38060000       6.61980391       0.00007534      -0.00007830       0.00000000 s 
O       15.33156946      20.63455091       7.38060000       4.06529548       0.00004520      -0.00002610       0.00000000 s 
O       13.82484480      23.24427457       7.38060000       2.71951298       0.00012054      -0.00015659       0.00000000 s 
O       12.31801466      25.85418092       7.38060000       4.05313408       0.00009041      -0.00010439       0.00000000 s 
O       10.81118452      28.46408728       7.38060000       6.60487225       0.00006027      -0.00005220       0.00000000 s 
O        9.30435439      31.07399363       7.38060000       9.43319010       0.00003014       0.00000000       0.00000000 s 
O       28.89289000       2.36546741       7.38060000      11.19273330       0.00016575      -0.00013049       0.00000000 s 
O       27.38592425       4.97545206       7.38060000              inf       0.00000000       0.00000000       0.00000000 s 
O       25.87912425       7.58530622       7.38060000              inf       0.00000000       0.00000000       0.00000000 s 
O       24.37232425      10.19516038       7.38060000              inf       0.00000000       0.00000000       0.00000000 s 
O       22.86552425      12.80501453       7.38060000              inf       0.00000000       0.00000000       0.00000000 s 
O       21.35872425      15.41486869       7.38060000              inf       0.00000000       0.00000000       0.00000000 s 
O       19.85205986      18.02464455       7.38060000       8.43123199       0.00013561      -0.00007830       0.00000000 s 
O       18.34522973      20.63455091       7.38060000       5.89137914       0.00010548      -0.00002610       0.00000000 s 
O       16.83850507      23.24427457       7.38060000       4.06152179       0.00018082      -0.00015659       0.00000000 s 
O       15.33167493      25.85418092       7.38060000       4.05536139       0.00015068      -0.00010439       0.00000000 s 
O       13.82484480      28.46408728       7.38060000       5.87879659       0.00012054      -0.00005220       0.00000000 s 
O       12.31801466      31.07399363       7.38060000       8.41658120       0.00009041       0.00000000       0.00000000 s 
O       31.90655027       2.36546741       7.38060000      10.78025168       0.00022602      -0.00013049       0.00000000 s 
O       30.39952425       4.97545206       7.38060000              inf       0.00000000       0.00000000       0.00000000 s 
O       28.89272425       7.58530622       7.38060000              inf       0.00000000       0.00000000       0.00000000 s 
O       27.38596946      10.19508208       7.38060000      10.78913708       0.00004520      -0.00007830       0.00000000 s 
O       25.87913932      12.80498844       7.38060000      11.19992230       0.00001507      -0.00002610       0.00000000 s 
O       24.37232425      15.41486869       7.38060000              inf       0.00000000       0.00000000       0.00000000 s 
O       22.86572014      18.02464455       7.38060000      10.79415761       0.00019588      -0.00007830       0.00000000 s 
O       21.35889000      20.63455091       7.38060000       8.42937516       0.00016575      -0.00002610       0.00000000 s 
O       19.85216534      23.24427457       7.38060000       6.61516924       0.00024109      -0.00015659       0.00000000 s 
O       18.34533520      25.85418092       7.38060000       5.88458262       0.00021095      -0.00010439       0.00000000 s 
O       16.83850507      28.46408728       7.38060000       6.60760605       0.00018082      -0.00005220       0.00000000 s 
O       15.33167493      31.07399363       7.38060000       8.41765402       0.00015068       0.00000000       0.00000000 s 
N       13.79088152      17.52498797      10.10010000       0.00000000       0.00000000       0.00000000       0.00000000 a1
H       11.71964931      17.62090011      10.10010000       0.00000000       0.00000000       0.00000000       0.00000000 a1
H       15.86633278      17.59130437      10.10010000       0.00000000       0.00000000       0.00000000       0.00000000 a1
C       12.64593954      18.20112289      10.10010000       0.00000000       0.00000000       0.00000000       0.00000000 a1
C       14.94911348      18.18431543      10.10010000       0.00000000       0.00000000       0.00000000       0.00000000 a1
C       12.61028866      19.60491124      10.10010000       0.00000000       0.00000000       0.00000000       0.00000000 a1
C       15.00564862      19.58444999      10.10010000       0.00000000       0.00000000       0.00000000       0.00000000 a1
H       11.63157685      20.07935663      10.10010000       0.00000000       0.00000000       0.00000000       0.00000000 a1
C       13.81166030      20.34224724      10.10010000       0.00000000       0.00000000       0.00000000       0.00000000 a1
H       15.99227112      20.04409750      10.10010000       0.00000000       0.00000000       0.00000000       0.00000000 a1
C       13.82104766      21.82258262      10.10010000       0.00000000       0.00000000       0.00000000       0.00000000 a1
H       11.67408368      22.01458959      10.10010000       0.00000000       0.00000000       0.00000000       0.00000000 a1
H       15.96748426      21.99613792      10.10010000       0.00000000       0.00000000       0.00000000       0.00000000 a1
C       12.61419127      22.55589944      10.10010000       0.00000000       0.00000000       0.00000000       0.00000000 a1
C       15.03043548      22.54274577      10.10010000       0.00000000       0.00000000       0.00000000       0.00000000 a1
H        9.97286128      22.97645134      10.10010000       0.00000000       0.00000000       0.00000000       0.00000000 a1
H       17.67746117      22.95197090      10.10010000       0.00000000       0.00000000       0.00000000       0.00000000 a1
C       10.06757872      24.05907104      10.10010000       0.00000000       0.00000000       0.00000000       0.00000000 a1
C       12.59246321      23.95895703      10.10010000       0.00000000       0.00000000       0.00000000       0.00000000 a1
C       15.05996876      23.95091868      10.10010000       0.00000000       0.00000000       0.00000000       0.00000000 a1
C       17.58527515      24.03605212      10.10010000       0.00000000       0.00000000       0.00000000       0.00000000 a1
H        7.91091095      24.31721171      10.10010000       0.00000000       0.00000000       0.00000000       0.00000000 a1
C       11.31862956      24.71255242      10.10010000       0.00000000       0.00000000       0.00000000       0.00000000 a1
C        8.88529824      24.80901263      10.10010000       0.00000000       0.00000000       0.00000000       0.00000000 a1
C       13.83022407      24.63326505      10.10010000       0.00000000       0.00000000       0.00000000       0.00000000 a1
C       16.34086930      24.69263923      10.10010000       0.00000000       0.00000000       0.00000000       0.00000000 a1
H       19.74679482      24.28761597      10.10010000       0.00000000       0.00000000       0.00000000       0.00000000 a1
C       18.77261848      24.78416682      10.10010000       0.00000000       0.00000000       0.00000000       0.00000000 a1
N        8.89732250      26.14118659      10.10010000       0.00000000       0.00000000       0.00000000       0.00000000 a1
C       11.28582652      26.12017726      10.10010000       0.00000000       0.00000000       0.00000000       0.00000000 a1
H       13.83497049      25.71825972      10.10010000       0.00000000       0.00000000       0.00000000       0.00000000 a1
C       16.37957899      26.10537939      10.10010000       0.00000000       0.00000000       0.00000000       0.00000000 a1
N       18.76650087      26.11305236      10.10010000       0.00000000       0.00000000       0.00000000       0.00000000 a1
C       10.05386684      26.79284107      10.10010000       0.00000000       0.00000000       0.00000000       0.00000000 a1
C       17.61058939      26.77384133      10.10010000       0.00000000       0.00000000       0.00000000       0.00000000 a1
H       12.18775180      26.72798619      10.10010000       0.00000000       0.00000000       0.00000000       0.00000000 a1
H       15.47976324      26.71501522      10.10010000       0.00000000       0.00000000       0.00000000       0.00000000 a1
H       10.01230930      27.88605678      10.10010000       0.00000000       0.00000000       0.00000000       0.00000000 a1
H       17.65763168      27.86449938      10.10010000       0.00000000       0.00000000       0.00000000       0.00000000 a1
N        0.22968152       9.69542550      10.10010000       0.00000000       0.00000000       0.00000000       0.00000000 a2
H       -1.84155069       9.79133764      10.10010000       0.00000000       0.00000000       0.00000000       0.00000000 a2
H        2.30513278       9.76174190      10.10010000       0.00000000       0.00000000       0.00000000       0.00000000 a2
C       -0.91526046      10.37156042      10.10010000       0.00000000       0.00000000       0.00000000       0.00000000 a2
C        1.38791348      10.35475296      10.10010000       0.00000000       0.00000000       0.00000000       0.00000000 a2
C       -0.95091134      11.77534877      10.10010000       0.00000000       0.00000000       0.00000000       0.00000000 a2
C        1.44444862      11.75488752      10.10010000       0.00000000       0.00000000       0.00000000       0.00000000 a2
H       -1.92962315      12.24979416      10.10010000       0.00000000       0.00000000       0.00000000       0.00000000 a2
C        0.25046030      12.51268477      10.10010000       0.00000000       0.00000000       0.00000000       0.00000000 a2
H        2.43107112      12.21453503      10.10010000       0.00000000       0.00000000       0.00000000       0.00000000 a2
C        0.25984766      13.99302015      10.10010000       0.00000000       0.00000000       0.00000000       0.00000000 a2
H       -1.88711632      14.18502712      10.10010000       0.00000000       0.00000000       0.00000000       0.00000000 a2
H        2.40628426      14.16657545      10.10010000       0.00000000       0.00000000       0.00000000       0.00000000 a2
C       -0.94700873      14.72633697      10.10010000       0.00000000       0.00000000       0.00000000       0.00000000 a2
C        1.46923548      14.71318330      10.10010000       0.00000000       0.00000000       0.00000000       0.00000000 a2
H       -3.58833872      15.14688887      10.10010000       0.00000000       0.00000000       0.00000000       0.00000000 a2
H        4.11626117      15.12240843      10.10010000       0.00000000       0.00000000       0.00000000       0.00000000 a2
C       -3.49362128      16.22950857      10.10010000       0.00000000       0.00000000       0.00000000       0.00000000 a2
C       -0.96873679      16.12939456      10.10010000       0.00000000       0.00000000       0.00000000       0.00000000 a2
C        1.49876876      16.12135621      10.10010000       0.00000000       0.00000000       0.00000000       0.00000000 a2
C        4.02407515      16.20648965      10.10010000       0.00000000       0.00000000       0.00000000       0.00000000 a2
H       -5.65028905      16.48764924      10.10010000       0.00000000       0.00000000       0.00000000       0.00000000 a2
C       -2.24257044      16.88298995      10.10010000       0.00000000       0.00000000       0.00000000       0.00000000 a2
C       -4.67590176      16.97945016      10.10010000       0.00000000       0.00000000       0.00000000       0.00000000 a2
C        0.26902407      16.80370258      10.10010000       0.00000000       0.00000000       0.00000000       0.00000000 a2
C        2.77966930      16.86307676      10.10010000       0.00000000       0.00000000       0.00000000       0.00000000 a2
H        6.18559482      16.45805350      10.10010000       0.00000000       0.00000000       0.00000000       0.00000000 a2
C        5.21141848      16.95460435      10.10010000       0.00000000       0.00000000       0.00000000       0.00000000 a2
N       -4.66387750      18.31162411      10.10010000       0.00000000       0.00000000       0.00000000       0.00000000 a2
C       -2.27537348      18.29061479      10.10010000       0.00000000       0.00000000       0.00000000       0.00000000 a2
H        0.27377049      17.88869725      10.10010000       0.00000000       0.00000000       0.00000000       0.00000000 a2
C        2.81837899      18.27581692      10.10010000       0.00000000       0.00000000       0.00000000       0.00000000 a2
N        5.20530087      18.28348989      10.10010000       0.00000000       0.00000000       0.00000000       0.00000000 a2
C       -3.50733316      18.96327860      10.10010000       0.00000000       0.00000000       0.00000000       0.00000000 a2
C        4.04938939      18.94427886      10.10010000       0.00000000       0.00000000       0.00000000       0.00000000 a2
H       -1.37344820      18.89842372      10.10010000       0.00000000       0.00000000       0.00000000       0.00000000 a2
H        1.91856324      18.88545275      10.10010000       0.00000000       0.00000000       0.00000000       0.00000000 a2
H       -3.54889070      20.05649431      10.10010000       0.00000000       0.00000000       0.00000000       0.00000000 a2
H        4.09643168      20.03493691      10.10010000       0.00000000       0.00000000       0.00000000       0.00000000 a2
