222
Lattice="36.16319999999999 0.0 0.0 -18.081599999999995 31.318249882114287 0.0 0.0 0.0 30.0" Properties=species:S:1:pos:R:3:remoteness:R:1:shift:R:3:adsorption:S:1 size="_JSON [[12, 0], [0, 12]]" mass_center_dist=4.608598677977096 min_atom_dist=0.4996058593423902 s1=tpb_hollow_down s2=tpb_hollow_down s1idx=6 s2idx=7 pbc="T T T"
O       -1.24327575       2.36559791       7.38060000              inf       0.00000000       0.00000000       0.00000000 s 
O       -2.75007575       4.97545206       7.38060000              inf       0.00000000       0.00000000       0.00000000 s 
O       -4.25687575       7.58530622       7.38060000              inf       0.00000000       0.00000000       0.00000000 s 
O       -5.76367575      10.19516038       7.38060000              inf       0.00000000       0.00000000       0.00000000 s 
O       -7.27047575      12.80501453       7.38060000              inf       0.00000000       0.00000000       0.00000000 s 
O       -8.77727575      15.41486869       7.38060000              inf       0.00000000       0.00000000       0.00000000 s 
O      -10.28407575      18.02472285       7.38060000              inf       0.00000000       0.00000000       0.00000000 s 
O      -11.79069493      20.63447261       7.38060000      11.72607078       0.00018082      -0.00010439       0.00000000 s 
O      -13.29752507      23.24437896       7.38060000      11.72471811       0.00015068      -0.00005220       0.00000000 s 
O      -14.80447575      25.85428532       7.38060000              inf       0.00000000       0.00000000       0.00000000 s 
O      -16.31127575      28.46413947       7.38060000              inf       0.00000000       0.00000000       0.00000000 s 
O      -17.81807575      31.07399363       7.38060000              inf       0.00000000       0.00000000       0.00000000 s 
O        1.77032425       2.36559791       7.38060000              inf       0.00000000       0.00000000       0.00000000 s 
O        0.26352425       4.97545206       7.38060000              inf       0.00000000       0.00000000       0.00000000 s 
O       -1.24327575       7.58530622       7.38060000              inf       0.00000000       0.00000000       0.00000000 s 
O       -2.75007575      10.19516038       7.38060000              inf       0.00000000       0.00000000       0.00000000 s 
O       -4.25687575      12.80501453       7.38060000              inf       0.00000000       0.00000000       0.00000000 s 
O       -5.76367575      15.41486869       7.38060000              inf       0.00000000       0.00000000       0.00000000 s 
O       -7.27047575      18.02472285       7.38060000              inf       0.00000000       0.00000000       0.00000000 s 
O       -8.77727575      20.63457700       7.38060000              inf       0.00000000       0.00000000       0.00000000 s 
O      -10.28407575      23.24443116       7.38060000              inf       0.00000000       0.00000000       0.00000000 s 
O      -11.79087575      25.85428532       7.38060000              inf       0.00000000       0.00000000       0.00000000 s 
O      -13.29767575      28.46413947       7.38060000              inf       0.00000000       0.00000000       0.00000000 s 
O      -14.80447575      31.07399363       7.38060000              inf       0.00000000       0.00000000       0.00000000 s 
O        4.78392425       2.36559791       7.38060000              inf       0.00000000       0.00000000       0.00000000 s 
O        3.27712425       4.97545206       7.38060000              inf       0.00000000       0.00000000       0.00000000 s 
O        1.77032425       7.58530622       7.38060000              inf       0.00000000       0.00000000       0.00000000 s 
O        0.26352425      10.19516038       7.38060000              inf       0.00000000       0.00000000       0.00000000 s 
O       -1.24312507      12.80517112       7.38060000      11.72554868       0.00015068       0.00015659       0.00000000 s 
O       -2.75007575      15.41486869       7.38060000              inf       0.00000000       0.00000000       0.00000000 s 
O       -4.25687575      18.02472285       7.38060000              inf       0.00000000       0.00000000       0.00000000 s 
O       -5.76367575      20.63457700       7.38060000              inf       0.00000000       0.00000000       0.00000000 s 
O       -7.27047575      23.24443116       7.38060000              inf       0.00000000       0.00000000       0.00000000 s 
O       -8.77727575      25.85428532       7.38060000              inf       0.00000000       0.00000000       0.00000000 s 
O      -10.28407575      28.46413947       7.38060000              inf       0.00000000       0.00000000       0.00000000 s 
O      -11.79087575      31.07399363       7.38060000              inf       0.00000000       0.00000000       0.00000000 s 
O        7.79752425       2.36559791       7.38060000              inf       0.00000000       0.00000000       0.00000000 s 
O        6.29072425       4.97545206       7.38060000              inf       0.00000000       0.00000000       0.00000000 s 
O        4.78392425       7.58530622       7.38060000              inf       0.00000000       0.00000000       0.00000000 s 
O        3.27736534      10.19526477       7.38060000       9.59925573       0.00024109       0.00010439       0.00000000 s 
O        1.77053520      12.80517112       7.38060000       9.11200280       0.00021095       0.00015659       0.00000000 s 
O        0.26359959      15.41489479       7.38060000       9.59574483       0.00007534       0.00002610       0.00000000 s 
O       -1.24323054      18.02480114       7.38060000      10.92195772       0.00004520       0.00007830       0.00000000 s 
O       -2.75007575      20.63457700       7.38060000              inf       0.00000000       0.00000000       0.00000000 s 
O       -4.25687575      23.24443116       7.38060000              inf       0.00000000       0.00000000       0.00000000 s 
O       -5.76367575      25.85428532       7.38060000              inf       0.00000000       0.00000000       0.00000000 s 
O       -7.27047575      28.46413947       7.38060000              inf       0.00000000       0.00000000       0.00000000 s 
O       -8.77727575      31.07399363       7.38060000              inf       0.00000000       0.00000000       0.00000000 s 
O       10.81112425       2.36559791       7.38060000              inf       0.00000000       0.00000000       0.00000000 s 
O        9.30432425       4.97545206       7.38060000              inf       0.00000000       0.00000000       0.00000000 s 
O        7.79764480       7.58535842       7.38060000      10.06461387       0.00012054       0.00005220       0.00000000 s 
O        6.29081466      10.19526477       7.38060000       8.05813426       0.00009041       0.00010439       0.00000000 s 
O        4.78419548      12.80517112       7.38060000       6.83615350       0.00027122       0.00015659       0.00000000 s 
O        3.27725986      15.41489479       7.38060000       6.83373504       0.00013561       0.00002610       0.00000000 s 
O        1.77042973      18.02480114       7.38060000       8.05162269       0.00010548       0.00007830       0.00000000 s 
O        0.26359959      20.63470750       7.38060000      10.05592451       0.00007534       0.00013049       0.00000000 s 
O       -1.24312507      23.24443116       7.38060000      12.47294899       0.00015068      -0.00000000       0.00000000 s 
O       -2.75007575      25.85428532       7.38060000              inf       0.00000000       0.00000000       0.00000000 s 
O       -4.25687575      28.46413947       7.38060000              inf       0.00000000       0.00000000       0.00000000 s 
O       -5.76367575      31.07399363       7.38060000              inf       0.00000000       0.00000000       0.00000000 s 
O       13.82472425       2.36559791       7.38060000              inf       0.00000000       0.00000000       0.00000000 s 
O       12.31792425       4.97545206       7.38060000              inf       0.00000000       0.00000000       0.00000000 s 
O       10.81124480       7.58530622       7.38060000       9.60586231       0.00012054       0.00000000       0.00000000 s 
O        9.30447493      10.19526477       7.38060000       7.47550002       0.00015068       0.00010439       0.00000000 s 
O        7.79764480      12.80517112       7.38060000       5.34811408       0.00012054       0.00015659       0.00000000 s 
O        6.29092014      15.41489479       7.38060000       4.41427761       0.00019588       0.00002610       0.00000000 s 
O        4.78409000      18.02480114       7.38060000       5.34157205       0.00016575       0.00007830       0.00000000 s 
O        3.27725986      20.63470750       7.38060000       7.46613913       0.00013561       0.00013049       0.00000000 s 
O        1.77032425      23.24443116       7.38060000      10.05573150      -0.00000000       0.00000000       0.00000000 s 
O        0.26352425      25.85428532       7.38060000              inf       0.00000000       0.00000000       0.00000000 s 
O       -1.24327575      28.46413947       7.38060000              inf       0.00000000       0.00000000       0.00000000 s 
O       -2.75007575      31.07399363       7.38060000              inf       0.00000000       0.00000000       0.00000000 s 
O       16.83832425       2.36559791       7.38060000              inf       0.00000000       0.00000000       0.00000000 s 
O       15.33152425       4.97545206       7.38060000              inf       0.00000000       0.00000000       0.00000000 s 
O       13.82490507       7.58530622       7.38060000       9.12070152       0.00018082      -0.00000000       0.00000000 s 
O       12.31818041      10.19502988       7.38060000       6.84324945       0.00025616      -0.00013049       0.00000000 s 
O       10.81135027      12.80493624       7.38060000       5.35107890       0.00022602      -0.00007830       0.00000000 s 
O        9.30436946      15.41489479       7.38060000       3.23048808       0.00004520       0.00002610       0.00000000 s 
O        7.79775027      18.02480114       7.38060000       3.22497323       0.00022602       0.00007830       0.00000000 s 
O        6.29092014      20.63470750       7.38060000       5.34126817       0.00019588       0.00013049       0.00000000 s 
O        4.78398452      23.24443116       7.38060000       8.05114056       0.00006027      -0.00000000       0.00000000 s 
O        3.27715439      25.85433752       7.38060000      10.92142458       0.00003014       0.00005220       0.00000000 s 
O        1.77032425      28.46413947       7.38060000              inf       0.00000000       0.00000000       0.00000000 s 
O        0.26352425      31.07399363       7.38060000              inf       0.00000000       0.00000000       0.00000000 s 
O       19.85192425       2.36559791       7.38060000              inf       0.00000000       0.00000000       0.00000000 s 
O       18.34512425       4.97545206       7.38060000              inf       0.00000000       0.00000000       0.00000000 s 
O       16.83835439       7.58530622       7.38060000       9.60545819       0.00003014       0.00000000       0.00000000 s 
O       15.33162973      10.19502988       7.38060000       6.84301227       0.00010548      -0.00013049       0.00000000 s 
O       13.82479959      12.80493624       7.38060000       4.42145755       0.00007534      -0.00007830       0.00000000 s 
O       12.31796946      15.41484259       7.38060000       3.23048808       0.00004520      -0.00002610       0.00000000 s 
O       10.81119959      18.02480114       7.38060000       3.22988719       0.00007534       0.00007830       0.00000000 s 
O        9.30458041      20.63470750       7.38060000       4.41354215       0.00025616       0.00013049       0.00000000 s 
O        7.79764480      23.24443116       7.38060000       6.83288292       0.00012054      -0.00000000       0.00000000 s 
O        6.29081466      25.85433751       7.38060000       9.59493571       0.00009041       0.00005220       0.00000000 s 
O        4.78392425      28.46413947       7.38060000              inf       0.00000000       0.00000000       0.00000000 s 
O        3.27712425      31.07399363       7.38060000              inf       0.00000000       0.00000000       0.00000000 s 
O       22.86552425       2.36559791       7.38060000              inf       0.00000000       0.00000000       0.00000000 s 
O       21.35872425       4.97545206       7.38060000              inf       0.00000000       0.00000000       0.00000000 s 
O       19.85192425       7.58530622       7.38060000              inf       0.00000000       0.00000000       0.00000000 s 
O       18.34529000      10.19502988       7.38060000       8.06146584       0.00016575      -0.00013049       0.00000000 s 
O       16.83845986      12.80493624       7.38060000       5.35047223       0.00013561      -0.00007830       0.00000000 s 
O       15.33162973      15.41484259       7.38060000       3.22988719       0.00010548      -0.00002610       0.00000000 s 
O       13.82490507      18.02456626       7.38060000       3.22497323       0.00018082      -0.00015659       0.00000000 s 
O       12.31807493      20.63447261       7.38060000       5.34157205       0.00015068      -0.00010439       0.00000000 s 
O       10.81130507      23.24443116       7.38060000       6.83520373       0.00018082      -0.00000000       0.00000000 s 
O        9.30447493      25.85433751       7.38060000       9.11111213       0.00015068       0.00005220       0.00000000 s 
O        7.79764480      28.46424387       7.38060000      11.72471811       0.00012054       0.00010439       0.00000000 s 
O        6.29072425      31.07399363       7.38060000              inf       0.00000000       0.00000000       0.00000000 s 
O       25.87912425       2.36559791       7.38060000              inf       0.00000000       0.00000000       0.00000000 s 
O       24.37232425       4.97545206       7.38060000              inf       0.00000000       0.00000000       0.00000000 s 
O       22.86552425       7.58530622       7.38060000              inf       0.00000000       0.00000000       0.00000000 s 
O       21.35895027      10.19502988       7.38060000      10.06538337       0.00022602      -0.00013049       0.00000000 s 
O       19.85212014      12.80493624       7.38060000       7.47463149       0.00019588      -0.00007830       0.00000000 s 
O       18.34529000      15.41484259       7.38060000       5.34720354       0.00016575      -0.00002610       0.00000000 s 
O       16.83856534      18.02456626       7.38060000       4.41354215       0.00024109      -0.00015659       0.00000000 s 
O       15.33173520      20.63447261       7.38060000       5.34126817       0.00021095      -0.00010439       0.00000000 s 
O       13.82490507      23.24437896       7.38060000       7.46613913       0.00018082      -0.00005220       0.00000000 s 
O       12.31813520      25.85433752       7.38060000       9.59824117       0.00021095       0.00005220       0.00000000 s 
O       10.81130507      28.46424387       7.38060000      11.72607078       0.00018082       0.00010439       0.00000000 s 
O        9.30432425      31.07399363       7.38060000              inf       0.00000000       0.00000000       0.00000000 s 
O       28.89272425       2.36559791       7.38060000              inf       0.00000000       0.00000000       0.00000000 s 
O       27.38592425       4.97545206       7.38060000              inf       0.00000000       0.00000000       0.00000000 s 
O       25.87912425       7.58530622       7.38060000              inf       0.00000000       0.00000000       0.00000000 s 
O       24.37232425      10.19516038       7.38060000              inf       0.00000000       0.00000000       0.00000000 s 
O       22.86556946      12.80493624       7.38060000      10.06345671       0.00004520      -0.00007830       0.00000000 s 
O       21.35873932      15.41484259       7.38060000       8.05692983       0.00001507      -0.00002610       0.00000000 s 
O       19.85201466      18.02456626       7.38060000       6.83520373       0.00009041      -0.00015659       0.00000000 s 
O       18.34518452      20.63447261       7.38060000       6.83288292       0.00006027      -0.00010439       0.00000000 s 
O       16.83835439      23.24437896       7.38060000       8.05114056       0.00003014      -0.00005220       0.00000000 s 
O       15.33152425      25.85428532       7.38060000      10.05573150       0.00000000       0.00000000       0.00000000 s 
O       13.82479959      28.46400898       7.38060000      12.47294899       0.00007534      -0.00013049       0.00000000 s 
O       12.31792425      31.07399363       7.38060000              inf       0.00000000       0.00000000       0.00000000 s 
O       31.90632425       2.36559791       7.38060000              inf       0.00000000       0.00000000       0.00000000 s 
O       30.39952425       4.97545206       7.38060000              inf       0.00000000       0.00000000       0.00000000 s 
O       28.89272425       7.58530622       7.38060000              inf       0.00000000       0.00000000       0.00000000 s 
O       27.38592425      10.19516038       7.38060000              inf       0.00000000       0.00000000       0.00000000 s 
O       25.87912425      12.80501453       7.38060000              inf       0.00000000       0.00000000       0.00000000 s 
O       24.37239959      15.41484259       7.38060000      10.92711555       0.00007534      -0.00002610       0.00000000 s 
O       22.86567493      18.02456626       7.38060000       9.59824117       0.00015068      -0.00015659       0.00000000 s 
O       21.35884480      20.63447261       7.38060000       9.11111213       0.00012054      -0.00010439       0.00000000 s 
O       19.85201466      23.24437896       7.38060000       9.59493571       0.00009041      -0.00005220       0.00000000 s 
O       18.34518452      25.85428532       7.38060000      10.92142458       0.00006027       0.00000000       0.00000000 s 
O       16.83832425      28.46413947       7.38060000              inf       0.00000000       0.00000000       0.00000000 s 
O       15.33152425      31.07399363       7.38060000              inf       0.00000000       0.00000000       0.00000000 s 
N       13.79473893      10.56388057      10.10010000       0.00000000       0.00000000       0.00000000       0.00000000 a1
H       11.72319029      10.65997540      10.10010000       0.00000000       0.00000000       0.00000000       0.00000000 a1
H       15.86997923      10.63019697      10.10010000       0.00000000       0.00000000       0.00000000       0.00000000 a1
C       12.64948052      11.24019818      10.10010000       0.00000000       0.00000000       0.00000000       0.00000000 a1
C       14.95265446      11.22339072      10.10010000       0.00000000       0.00000000       0.00000000       0.00000000 a1
C       12.61382964      12.64398653      10.10010000       0.00000000       0.00000000       0.00000000       0.00000000 a1
C       15.00918960      12.62352528      10.10010000       0.00000000       0.00000000       0.00000000       0.00000000 a1
H       11.63511783      13.11843192      10.10010000       0.00000000       0.00000000       0.00000000       0.00000000 a1
C       13.81520128      13.38132253      10.10010000       0.00000000       0.00000000       0.00000000       0.00000000 a1
H       15.99581210      13.08317279      10.10010000       0.00000000       0.00000000       0.00000000       0.00000000 a1
C       13.82469412      14.86147522      10.10010000       0.00000000       0.00000000       0.00000000       0.00000000 a1
H       11.67773014      15.05348219      10.10010000       0.00000000       0.00000000       0.00000000       0.00000000 a1
H       15.97113072      15.03503052      10.10010000       0.00000000       0.00000000       0.00000000       0.00000000 a1
C       12.61773225      15.59497473      10.10010000       0.00000000       0.00000000       0.00000000       0.00000000 a1
C       15.03408193      15.58163837      10.10010000       0.00000000       0.00000000       0.00000000       0.00000000 a1
H        9.97640226      16.01552662      10.10010000       0.00000000       0.00000000       0.00000000       0.00000000 a1
H       17.68100215      15.99104619      10.10010000       0.00000000       0.00000000       0.00000000       0.00000000 a1
C       10.07122518      17.09796364      10.10010000       0.00000000       0.00000000       0.00000000       0.00000000 a1
C       12.59600419      16.99803232      10.10010000       0.00000000       0.00000000       0.00000000       0.00000000 a1
C       15.06361521      16.98981128      10.10010000       0.00000000       0.00000000       0.00000000       0.00000000 a1
C       17.58881613      17.07512741      10.10010000       0.00000000       0.00000000       0.00000000       0.00000000 a1
H        7.91445193      17.35628700      10.10010000       0.00000000       0.00000000       0.00000000       0.00000000 a1
C       11.32217054      17.75162771      10.10010000       0.00000000       0.00000000       0.00000000       0.00000000 a1
C        8.88894470      17.84790523      10.10010000       0.00000000       0.00000000       0.00000000       0.00000000 a1
C       13.83376505      17.67234034      10.10010000       0.00000000       0.00000000       0.00000000       0.00000000 a1
C       16.34441028      17.73171452      10.10010000       0.00000000       0.00000000       0.00000000       0.00000000 a1
H       19.75044127      17.32650856      10.10010000       0.00000000       0.00000000       0.00000000       0.00000000 a1
C       18.77626494      17.82305942      10.10010000       0.00000000       0.00000000       0.00000000       0.00000000 a1
N        8.90107444      19.18026187      10.10010000       0.00000000       0.00000000       0.00000000       0.00000000 a1
C       11.28936750      19.15925255      10.10010000       0.00000000       0.00000000       0.00000000       0.00000000 a1
H       13.83861695      18.75715232      10.10010000       0.00000000       0.00000000       0.00000000       0.00000000 a1
C       16.38311997      19.14445467      10.10010000       0.00000000       0.00000000       0.00000000       0.00000000 a1
N       18.77004185      19.15212765      10.10010000       0.00000000       0.00000000       0.00000000       0.00000000 a1
C       10.05740782      19.83191636      10.10010000       0.00000000       0.00000000       0.00000000       0.00000000 a1
C       17.61423584      19.81273393      10.10010000       0.00000000       0.00000000       0.00000000       0.00000000 a1
H       12.19129278      19.76706148      10.10010000       0.00000000       0.00000000       0.00000000       0.00000000 a1
H       15.48330422      19.75409051      10.10010000       0.00000000       0.00000000       0.00000000       0.00000000 a1
H       10.01585028      20.92513207      10.10010000       0.00000000       0.00000000       0.00000000       0.00000000 a1
H       17.66117266      20.90357467      10.10010000       0.00000000       0.00000000       0.00000000       0.00000000 a1
N       14.24381054      14.26833366      10.10010000       0.00000000       0.00000000       0.00000000       0.00000000 a2
H       13.12481565      12.52236733      10.10010000       0.00000000       0.00000000       0.00000000       0.00000000 a2
H       15.22399900      16.09870268      10.10010000       0.00000000       0.00000000       0.00000000       0.00000000 a2
C       13.08547310      13.61466959      10.10010000       0.00000000       0.00000000       0.00000000       0.00000000 a2
C       14.25161576      15.60087300      10.10010000       0.00000000       0.00000000       0.00000000       0.00000000 a2
C       11.85193128      14.28568919      10.10010000       0.00000000       0.00000000       0.00000000       0.00000000 a2
C       13.06733123      16.34990114      10.10010000       0.00000000       0.00000000       0.00000000       0.00000000 a2
H       10.95169362      13.67532260      10.10010000       0.00000000       0.00000000       0.00000000       0.00000000 a2
C       11.81406540      15.69477555      10.10010000       0.00000000       0.00000000       0.00000000       0.00000000 a2
H       13.16257606      17.43416505      10.10010000       0.00000000       0.00000000       0.00000000       0.00000000 a2
C       10.53696199      16.44307293      10.10010000       0.00000000       0.00000000       0.00000000       0.00000000 a2
H        9.29719709      14.67975107      10.10010000       0.00000000       0.00000000       0.00000000       0.00000000 a2
H       11.45987699      18.38871921      10.10010000       0.00000000       0.00000000       0.00000000       0.00000000 a2
C        9.29825185      15.76456305      10.10010000       0.00000000       0.00000000       0.00000000       0.00000000 a2
C       10.51797631      17.85051508      10.10010000       0.00000000       0.00000000       0.00000000       0.00000000 a2
H        7.61337822      13.68738013      10.10010000       0.00000000       0.00000000       0.00000000       0.00000000 a2
H       11.48687885      20.34751915      10.10010000       0.00000000       0.00000000       0.00000000       0.00000000 a2
C        6.72337174      14.31071769      10.10010000       0.00000000       0.00000000       0.00000000       0.00000000 a2
C        8.07230430      16.44727480      10.10010000       0.00000000       0.00000000       0.00000000       0.00000000 a2
C        9.31322944      18.58017811      10.10010000       0.00000000       0.00000000       0.00000000       0.00000000 a2
C       10.50194396      20.80972432      10.10010000       0.00000000       0.00000000       0.00000000       0.00000000 a2
H        5.42127052      12.57205895      10.10010000       0.00000000       0.00000000       0.00000000       0.00000000 a2
C        6.78275472      15.72090019      10.10010000       0.00000000       0.00000000       0.00000000       0.00000000 a2
C        5.48276302      13.66180355      10.10010000       0.00000000       0.00000000       0.00000000       0.00000000 a2
C        8.10721686      17.85636116      10.10010000       0.00000000       0.00000000       0.00000000       0.00000000 a2
C        9.31111992      20.06033079      10.10010000       0.00000000       0.00000000       0.00000000       0.00000000 a2
H       11.36505407      22.80743718      10.10010000       0.00000000       0.00000000       0.00000000       0.00000000 a2
C       10.44794025      22.21205115      10.10010000       0.00000000       0.00000000       0.00000000       0.00000000 a2
N        4.33497319      14.33848654      10.10010000       0.00000000       0.00000000       0.00000000       0.00000000 a2
C        5.54731434      16.39630435      10.10010000       0.00000000       0.00000000       0.00000000       0.00000000 a2
H        7.17016807      18.40296901      10.10010000       0.00000000       0.00000000       0.00000000       0.00000000 a2
C        8.10700590      20.80022445      10.10010000       0.00000000       0.00000000       0.00000000       0.00000000 a2
N        9.29382186      22.87119592      10.10010000       0.00000000       0.00000000       0.00000000       0.00000000 a2
C        4.34879055      15.66572787      10.10010000       0.00000000       0.00000000       0.00000000       0.00000000 a2
C        8.14381703      22.20054170      10.10010000       0.00000000       0.00000000       0.00000000       0.00000000 a2
H        5.47189900      17.48129901      10.10010000       0.00000000       0.00000000       0.00000000       0.00000000 a2
H        7.12913791      20.32577906      10.10010000       0.00000000       0.00000000       0.00000000       0.00000000 a2
H        3.38125920      16.17634584      10.10010000       0.00000000       0.00000000       0.00000000       0.00000000 a2
H        7.22258964      22.78661054      10.10010000       0.00000000       0.00000000       0.00000000       0.00000000 a2
