222
Lattice="36.16319999999999 0.0 0.0 -18.081599999999995 31.318249882114287 0.0 0.0 0.0 30.0" Properties=species:S:1:pos:R:3:remoteness:R:1:shift:R:3:adsorption:S:1 size="_JSON [[12, 0], [0, 12]]" mass_center_dist=17.142650541616224 min_atom_dist=5.282064660417077 s1=tpb_hollow_up s2=tpb_hollow_up s1idx=8 s2idx=9 pbc="T T T"
O       -1.24327575       2.36559791       7.38060000              inf       0.00000000       0.00000000       0.00000000 s 
O       -2.75007575       4.97545206       7.38060000              inf       0.00000000       0.00000000       0.00000000 s 
O       -4.25663466       7.58541061       7.38060000       9.59946726       0.00024109       0.00010439       0.00000000 s 
O       -5.76346480      10.19531697       7.38060000       9.11210956       0.00021095       0.00015659       0.00000000 s 
O       -7.27040041      12.80504063       7.38060000       9.59573599       0.00007534       0.00002610       0.00000000 s 
O       -8.77723054      15.41479039       7.38060000      10.06329820       0.00004520      -0.00007830       0.00000000 s 
O      -10.28406068      18.02469675       7.38060000       8.05670236       0.00001507      -0.00002610       0.00000000 s 
O      -11.79078534      20.63442041       7.38060000       6.83490085       0.00009041      -0.00015659       0.00000000 s 
O      -13.29761548      23.24432677       7.38060000       6.83254516       0.00006027      -0.00010439       0.00000000 s 
O      -14.80444561      25.85423312       7.38060000       8.05082441       0.00003014      -0.00005220       0.00000000 s 
O      -16.31127575      28.46413947       7.38060000      10.05545476       0.00000000       0.00000000       0.00000000 s 
O      -17.81800041      31.07386314       7.38060000      12.47270683       0.00007534      -0.00013049       0.00000000 s 
O        1.77032425       2.36559791       7.38060000              inf       0.00000000       0.00000000       0.00000000 s 
O        0.26364480       4.97550426       7.38060000      10.06494431       0.00012054       0.00005220       0.00000000 s 
O       -1.24318534       7.58541061       7.38060000       8.05841572       0.00009041       0.00010439       0.00000000 s 
O       -2.74980452      10.19531697       7.38060000       6.83633055       0.00027122       0.00015659       0.00000000 s 
O       -4.25674014      12.80504063       7.38060000       6.83375739       0.00013561       0.00002610       0.00000000 s 
O       -5.76357027      15.41494699       7.38060000       8.05151029       0.00010548       0.00007830       0.00000000 s 
O       -7.27040041      18.02485334       7.38060000      10.05572933       0.00007534       0.00013049       0.00000000 s 
O       -8.77712507      20.63442041       7.38060000       9.59794003       0.00015068      -0.00015659       0.00000000 s 
O      -10.28395520      23.24432677       7.38060000       9.11076881       0.00012054      -0.00010439       0.00000000 s 
O      -11.79078534      25.85423312       7.38060000       9.59458494       0.00009041      -0.00005220       0.00000000 s 
O      -13.29761548      28.46413947       7.38060000      10.92109467       0.00006027       0.00000000       0.00000000 s 
O      -14.80447575      31.07399363       7.38060000              inf       0.00000000       0.00000000       0.00000000 s 
O        4.78392425       2.36559791       7.38060000              inf       0.00000000       0.00000000       0.00000000 s 
O        3.27730507       4.97550426       7.38060000      10.06654360       0.00018082       0.00005220       0.00000000 s 
O        1.77047493       7.58541061       7.38060000       7.47583520       0.00015068       0.00010439       0.00000000 s 
O        0.26364480      10.19531697       7.38060000       5.34838481       0.00012054       0.00015659       0.00000000 s 
O       -1.24307986      12.80504063       7.38060000       4.41436602       0.00019588       0.00002610       0.00000000 s 
O       -2.74991000      15.41494699       7.38060000       5.34144709       0.00016575       0.00007830       0.00000000 s 
O       -4.25674014      18.02485334       7.38060000       7.46590806       0.00013561       0.00013049       0.00000000 s 
O       -5.76367575      20.63457700       7.38060000      10.05545476      -0.00000000       0.00000000       0.00000000 s 
O       -7.27029493      23.24432677       7.38060000      11.72573407       0.00018082      -0.00010439       0.00000000 s 
O       -8.77712507      25.85423312       7.38060000      11.72436111       0.00015068      -0.00005220       0.00000000 s 
O      -10.28407575      28.46413947       7.38060000              inf       0.00000000       0.00000000       0.00000000 s 
O      -11.79087575      31.07399363       7.38060000              inf       0.00000000       0.00000000       0.00000000 s 
O        7.79752425       2.36559791       7.38060000              inf       0.00000000       0.00000000       0.00000000 s 
O        6.29072425       4.97545206       7.38060000              inf       0.00000000       0.00000000       0.00000000 s 
O        4.78413520       7.58541061       7.38060000       8.06241008       0.00021095       0.00010439       0.00000000 s 
O        3.27730507      10.19531697       7.38060000       5.35139386       0.00018082       0.00015659       0.00000000 s 
O        1.77036946      12.80504063       7.38060000       3.23068240       0.00004520       0.00002610       0.00000000 s 
O        0.26375027      15.41494699       7.38060000       3.22483991       0.00022602       0.00007830       0.00000000 s 
O       -1.24307986      18.02485334       7.38060000       5.34098964       0.00019588       0.00013049       0.00000000 s 
O       -2.75001548      20.63457700       7.38060000       8.05082441       0.00006027      -0.00000000       0.00000000 s 
O       -4.25684561      23.24448336       7.38060000      10.92109467       0.00003014       0.00005220       0.00000000 s 
O       -5.76367575      25.85428532       7.38060000              inf       0.00000000       0.00000000       0.00000000 s 
O       -7.27047575      28.46413947       7.38060000              inf       0.00000000       0.00000000       0.00000000 s 
O       -8.77727575      31.07399363       7.38060000              inf       0.00000000       0.00000000       0.00000000 s 
O       10.81112425       2.36559791       7.38060000              inf       0.00000000       0.00000000       0.00000000 s 
O        9.30432425       4.97545206       7.38060000              inf       0.00000000       0.00000000       0.00000000 s 
O        7.79758452       7.58541061       7.38060000       9.60617260       0.00006027       0.00010439       0.00000000 s 
O        6.29096534      10.19531697       7.38060000       6.84353045       0.00024109       0.00015659       0.00000000 s 
O        4.78402973      12.80504063       7.38060000       4.42165326       0.00010548       0.00002610       0.00000000 s 
O        3.27719959      15.41494699       7.38060000       3.22982762       0.00007534       0.00007830       0.00000000 s 
O        1.77058041      18.02485334       7.38060000       4.41325890       0.00025616       0.00013049       0.00000000 s 
O        0.26364480      20.63457700       7.38060000       6.83254516       0.00012054      -0.00000000       0.00000000 s 
O       -1.24318534      23.24448336       7.38060000       9.59458494       0.00009041       0.00005220       0.00000000 s 
O       -2.75007575      25.85428532       7.38060000              inf       0.00000000       0.00000000       0.00000000 s 
O       -4.25687575      28.46413947       7.38060000              inf       0.00000000       0.00000000       0.00000000 s 
O       -5.76367575      31.07399363       7.38060000              inf       0.00000000       0.00000000       0.00000000 s 
O       13.82472425       2.36559791       7.38060000              inf       0.00000000       0.00000000       0.00000000 s 
O       12.31792425       4.97545206       7.38060000              inf       0.00000000       0.00000000       0.00000000 s 
O       10.81112425       7.58530622       7.38060000              inf       0.00000000       0.00000000       0.00000000 s 
O        9.30441466      10.19531697       7.38060000       9.12093840       0.00009041       0.00015659       0.00000000 s 
O        7.79769000      12.80504063       7.38060000       6.84317344       0.00016575       0.00002610       0.00000000 s 
O        6.29085986      15.41494699       7.38060000       5.35048067       0.00013561       0.00007830       0.00000000 s 
O        4.78402973      18.02485334       7.38060000       5.34701417       0.00010548       0.00013049       0.00000000 s 
O        3.27730507      20.63457700       7.38060000       6.83490085       0.00018082      -0.00000000       0.00000000 s 
O        1.77047493      23.24448336       7.38060000       9.11076881       0.00015068       0.00005220       0.00000000 s 
O        0.26364480      25.85438971       7.38060000      11.72436111       0.00012054       0.00010439       0.00000000 s 
O       -1.24327575      28.46413947       7.38060000              inf       0.00000000       0.00000000       0.00000000 s 
O       -2.75007575      31.07399363       7.38060000              inf       0.00000000       0.00000000       0.00000000 s 
O       16.83832425       2.36559791       7.38060000              inf       0.00000000       0.00000000       0.00000000 s 
O       15.33152425       4.97545206       7.38060000              inf       0.00000000       0.00000000       0.00000000 s 
O       13.82472425       7.58530622       7.38060000              inf       0.00000000       0.00000000       0.00000000 s 
O       12.31792425      10.19516038       7.38060000              inf       0.00000000       0.00000000       0.00000000 s 
O       10.81113932      12.80504063       7.38060000       9.60559773       0.00001507       0.00002610       0.00000000 s 
O        9.30452014      15.41494699       7.38060000       8.06150091       0.00019588       0.00007830       0.00000000 s 
O        7.79769000      18.02485334       7.38060000       7.47452780       0.00016575       0.00013049       0.00000000 s 
O        6.29075439      20.63457700       7.38060000       8.05670236       0.00003014       0.00000000       0.00000000 s 
O        4.78413520      23.24448336       7.38060000       9.59794003       0.00021095       0.00005220       0.00000000 s 
O        3.27730507      25.85438971       7.38060000      11.72573407       0.00018082       0.00010439       0.00000000 s 
O        1.77032425      28.46413947       7.38060000              inf       0.00000000       0.00000000       0.00000000 s 
O        0.26352425      31.07399363       7.38060000              inf       0.00000000       0.00000000       0.00000000 s 
O       19.85192425       2.36559791       7.38060000              inf       0.00000000       0.00000000       0.00000000 s 
O       18.34512425       4.97545206       7.38060000              inf       0.00000000       0.00000000       0.00000000 s 
O       16.83832425       7.58530622       7.38060000              inf       0.00000000       0.00000000       0.00000000 s 
O       15.33164480      10.19516038       7.38060000       9.60617260       0.00012054       0.00000000       0.00000000 s 
O       13.82492014      12.80488404       7.38060000       8.06241008       0.00019588      -0.00013049       0.00000000 s 
O       12.31809000      15.41479039       7.38060000       7.47583520       0.00016575      -0.00007830       0.00000000 s 
O       10.81125986      18.02469675       7.38060000       8.05841572       0.00013561      -0.00002610       0.00000000 s 
O        9.30453520      20.63442041       7.38060000       9.59946726       0.00021095      -0.00015659       0.00000000 s 
O        7.79758452      23.24448336       7.38060000      10.92687277       0.00006027       0.00005220       0.00000000 s 
O        6.29072425      25.85428532       7.38060000              inf       0.00000000       0.00000000       0.00000000 s 
O        4.78392425      28.46413947       7.38060000              inf       0.00000000       0.00000000       0.00000000 s 
O        3.27712425      31.07399363       7.38060000              inf       0.00000000       0.00000000       0.00000000 s 
O       22.86552425       2.36559791       7.38060000              inf       0.00000000       0.00000000       0.00000000 s 
O       21.35872425       4.97545206       7.38060000              inf       0.00000000       0.00000000       0.00000000 s 
O       19.85192425       7.58530622       7.38060000              inf       0.00000000       0.00000000       0.00000000 s 
O       18.34530507      10.19516038       7.38060000       9.12093840       0.00018082       0.00000000       0.00000000 s 
O       16.83858041      12.80488404       7.38060000       6.84353045       0.00025616      -0.00013049       0.00000000 s 
O       15.33175027      15.41479039       7.38060000       5.35139386       0.00022602      -0.00007830       0.00000000 s 
O       13.82492014      18.02469675       7.38060000       5.34838481       0.00019588      -0.00002610       0.00000000 s 
O       12.31819548      20.63442041       7.38060000       6.83633055       0.00027122      -0.00015659       0.00000000 s 
O       10.81136534      23.24432677       7.38060000       9.11210956       0.00024109      -0.00010439       0.00000000 s 
O        9.30453520      25.85423312       7.38060000      11.72561138       0.00021095      -0.00005220       0.00000000 s 
O        7.79752425      28.46413947       7.38060000              inf       0.00000000       0.00000000       0.00000000 s 
O        6.29072425      31.07399363       7.38060000              inf       0.00000000       0.00000000       0.00000000 s 
O       25.87912425       2.36559791       7.38060000              inf       0.00000000       0.00000000       0.00000000 s 
O       24.37232425       4.97545206       7.38060000              inf       0.00000000       0.00000000       0.00000000 s 
O       22.86552425       7.58530622       7.38060000              inf       0.00000000       0.00000000       0.00000000 s 
O       21.35875439      10.19516038       7.38060000       9.60559773       0.00003014       0.00000000       0.00000000 s 
O       19.85202973      12.80488404       7.38060000       6.84317344       0.00010548      -0.00013049       0.00000000 s 
O       18.34519959      15.41479039       7.38060000       4.42165326       0.00007534      -0.00007830       0.00000000 s 
O       16.83836946      18.02469675       7.38060000       3.23068240       0.00004520      -0.00002610       0.00000000 s 
O       15.33164480      20.63442041       7.38060000       4.41436602       0.00012054      -0.00015659       0.00000000 s 
O       13.82481466      23.24432677       7.38060000       6.83375739       0.00009041      -0.00010439       0.00000000 s 
O       12.31798452      25.85423312       7.38060000       9.59573599       0.00006027      -0.00005220       0.00000000 s 
O       10.81112425      28.46413947       7.38060000              inf       0.00000000       0.00000000       0.00000000 s 
O        9.30432425      31.07399363       7.38060000              inf       0.00000000       0.00000000       0.00000000 s 
O       28.89272425       2.36559791       7.38060000              inf       0.00000000       0.00000000       0.00000000 s 
O       27.38592425       4.97545206       7.38060000              inf       0.00000000       0.00000000       0.00000000 s 
O       25.87912425       7.58530622       7.38060000              inf       0.00000000       0.00000000       0.00000000 s 
O       24.37232425      10.19516038       7.38060000              inf       0.00000000       0.00000000       0.00000000 s 
O       22.86569000      12.80488404       7.38060000       8.06150091       0.00016575      -0.00013049       0.00000000 s 
O       21.35885986      15.41479039       7.38060000       5.35048067       0.00013561      -0.00007830       0.00000000 s 
O       19.85202973      18.02469675       7.38060000       3.22982762       0.00010548      -0.00002610       0.00000000 s 
O       18.34530507      20.63442041       7.38060000       3.22483991       0.00018082      -0.00015659       0.00000000 s 
O       16.83847493      23.24432677       7.38060000       5.34144709       0.00015068      -0.00010439       0.00000000 s 
O       15.33164480      25.85423312       7.38060000       8.05151029       0.00012054      -0.00005220       0.00000000 s 
O       13.82481466      28.46413947       7.38060000      10.92185311       0.00009041       0.00000000       0.00000000 s 
O       12.31792425      31.07399363       7.38060000              inf       0.00000000       0.00000000       0.00000000 s 
O       31.90632425       2.36559791       7.38060000              inf       0.00000000       0.00000000       0.00000000 s 
O       30.39952425       4.97545206       7.38060000              inf       0.00000000       0.00000000       0.00000000 s 
O       28.89272425       7.58530622       7.38060000              inf       0.00000000       0.00000000       0.00000000 s 
O       27.38607493      10.19531697       7.38060000      11.72561138       0.00015068       0.00015659       0.00000000 s 
O       25.87935027      12.80488404       7.38060000      10.06532997       0.00022602      -0.00013049       0.00000000 s 
O       24.37252014      15.41479039       7.38060000       7.47452780       0.00019588      -0.00007830       0.00000000 s 
O       22.86569000      18.02469675       7.38060000       5.34701417       0.00016575      -0.00002610       0.00000000 s 
O       21.35896534      20.63442041       7.38060000       4.41325890       0.00024109      -0.00015659       0.00000000 s 
O       19.85213520      23.24432677       7.38060000       5.34098964       0.00021095      -0.00010439       0.00000000 s 
O       18.34530507      25.85423312       7.38060000       7.46590806       0.00018082      -0.00005220       0.00000000 s 
O       16.83847493      28.46413947       7.38060000      10.05572933       0.00015068       0.00000000       0.00000000 s 
O       15.33152425      31.07399363       7.38060000              inf       0.00000000       0.00000000       0.00000000 s 
N       18.37694787      24.62838462      10.10010000       0.00000000       0.00000000       0.00000000       0.00000000 a1
H       20.44828556      24.53228979      10.10010000       0.00000000       0.00000000       0.00000000       0.00000000 a1
H       16.30170757      24.56206823      10.10010000       0.00000000       0.00000000       0.00000000       0.00000000 a1
C       19.52220628      23.95206702      10.10010000       0.00000000       0.00000000       0.00000000       0.00000000 a1
C       17.21871591      23.96905717      10.10010000       0.00000000       0.00000000       0.00000000       0.00000000 a1
C       19.55754074      22.54846135      10.10010000       0.00000000       0.00000000       0.00000000       0.00000000 a1
C       17.16239173      22.56892261      10.10010000       0.00000000       0.00000000       0.00000000       0.00000000 a1
H       20.53646349      22.07401597      10.10010000       0.00000000       0.00000000       0.00000000       0.00000000 a1
C       18.35638005      21.81112536      10.10010000       0.00000000       0.00000000       0.00000000       0.00000000 a1
H       16.17576922      22.10927510      10.10010000       0.00000000       0.00000000       0.00000000       0.00000000 a1
C       18.34678173      20.33078998      10.10010000       0.00000000       0.00000000       0.00000000       0.00000000 a1
H       20.49395666      20.13878301      10.10010000       0.00000000       0.00000000       0.00000000       0.00000000 a1
H       16.20034513      20.15723468      10.10010000       0.00000000       0.00000000       0.00000000       0.00000000 a1
C       19.55384908      19.59747316      10.10010000       0.00000000       0.00000000       0.00000000       0.00000000 a1
C       17.13760487      19.61062682      10.10010000       0.00000000       0.00000000       0.00000000       0.00000000 a1
H       22.19496812      19.17692126      10.10010000       0.00000000       0.00000000       0.00000000       0.00000000 a1
H       14.49036822      19.20140169      10.10010000       0.00000000       0.00000000       0.00000000       0.00000000 a1
C       22.10046162      18.09430156      10.10010000       0.00000000       0.00000000       0.00000000       0.00000000 a1
C       19.57557713      18.19441556      10.10010000       0.00000000       0.00000000       0.00000000       0.00000000 a1
C       17.10786064      18.20245392      10.10010000       0.00000000       0.00000000       0.00000000       0.00000000 a1
C       14.58276520      18.11732047      10.10010000       0.00000000       0.00000000       0.00000000       0.00000000 a1
H       24.25712939      17.83616088      10.10010000       0.00000000       0.00000000       0.00000000       0.00000000 a1
C       20.84941078      17.44082018      10.10010000       0.00000000       0.00000000       0.00000000       0.00000000 a1
C       23.28274210      17.34435997      10.10010000       0.00000000       0.00000000       0.00000000       0.00000000 a1
C       18.33781627      17.52010755      10.10010000       0.00000000       0.00000000       0.00000000       0.00000000 a1
C       15.82717104      17.46073336      10.10010000       0.00000000       0.00000000       0.00000000       0.00000000 a1
H       12.42124553      17.86575663      10.10010000       0.00000000       0.00000000       0.00000000       0.00000000 a1
C       13.39521091      17.36920578      10.10010000       0.00000000       0.00000000       0.00000000       0.00000000 a1
N       23.27050689      16.01218601      10.10010000       0.00000000       0.00000000       0.00000000       0.00000000 a1
C       20.88221382      16.03319534      10.10010000       0.00000000       0.00000000       0.00000000       0.00000000 a1
H       18.33306985      16.43511288      10.10010000       0.00000000       0.00000000       0.00000000       0.00000000 a1
C       15.78825040      16.04799321      10.10010000       0.00000000       0.00000000       0.00000000       0.00000000 a1
N       13.40153947      16.04032024      10.10010000       0.00000000       0.00000000       0.00000000       0.00000000 a1
C       22.11396255      15.36053153      10.10010000       0.00000000       0.00000000       0.00000000       0.00000000 a1
C       14.55745096      15.37953127      10.10010000       0.00000000       0.00000000       0.00000000       0.00000000 a1
H       19.98028854      15.42538640      10.10010000       0.00000000       0.00000000       0.00000000       0.00000000 a1
H       16.68806616      15.43835738      10.10010000       0.00000000       0.00000000       0.00000000       0.00000000 a1
H       22.15573104      14.26731582      10.10010000       0.00000000       0.00000000       0.00000000       0.00000000 a1
H       14.51019771      14.28887321      10.10010000       0.00000000       0.00000000       0.00000000       0.00000000 a1
N       -3.17930280      17.43933256      10.10010000       0.00000000       0.00000000       0.00000000       0.00000000 a2
H       -2.06041339      19.18511620      10.10010000       0.00000000       0.00000000       0.00000000       0.00000000 a2
H       -4.15949126      15.60896354      10.10010000       0.00000000       0.00000000       0.00000000       0.00000000 a2
C       -2.02096536      18.09299663      10.10010000       0.00000000       0.00000000       0.00000000       0.00000000 a2
C       -3.18742445      16.10661053      10.10010000       0.00000000       0.00000000       0.00000000       0.00000000 a2
C       -0.78773997      17.42179434      10.10010000       0.00000000       0.00000000       0.00000000       0.00000000 a2
C       -2.00303444      15.35776508      10.10010000       0.00000000       0.00000000       0.00000000       0.00000000 a2
H        0.11260316      18.03234362      10.10010000       0.00000000       0.00000000       0.00000000       0.00000000 a2
C       -0.74976861      16.01289067      10.10010000       0.00000000       0.00000000       0.00000000       0.00000000 a2
H       -2.09827927      14.27350117      10.10010000       0.00000000       0.00000000       0.00000000       0.00000000 a2
C        0.52744027      15.26441060      10.10010000       0.00000000       0.00000000       0.00000000       0.00000000 a2
H        1.76731065      17.02791515      10.10010000       0.00000000       0.00000000       0.00000000       0.00000000 a2
H       -0.39547473      13.31876432      10.10010000       0.00000000       0.00000000       0.00000000       0.00000000 a2
C        1.76604494      15.94310317      10.10010000       0.00000000       0.00000000       0.00000000       0.00000000 a2
C        0.54653143      13.85715114      10.10010000       0.00000000       0.00000000       0.00000000       0.00000000 a2
H        3.45081309      18.02010341      10.10010000       0.00000000       0.00000000       0.00000000       0.00000000 a2
H       -0.42268754      11.35996439      10.10010000       0.00000000       0.00000000       0.00000000       0.00000000 a2
C        4.34113600      17.39694853      10.10010000       0.00000000       0.00000000       0.00000000       0.00000000 a2
C        2.99199249      15.26039142      10.10010000       0.00000000       0.00000000       0.00000000       0.00000000 a2
C        1.75117282      13.12730542      10.10010000       0.00000000       0.00000000       0.00000000       0.00000000 a2
C        0.56235283      10.89794190      10.10010000       0.00000000       0.00000000       0.00000000       0.00000000 a2
H        5.64302627      19.13560727      10.10010000       0.00000000       0.00000000       0.00000000       0.00000000 a2
C        4.28154206      15.98676603      10.10010000       0.00000000       0.00000000       0.00000000       0.00000000 a2
C        5.58174472      18.04586267      10.10010000       0.00000000       0.00000000       0.00000000       0.00000000 a2
C        2.95707993      13.85130507      10.10010000       0.00000000       0.00000000       0.00000000       0.00000000 a2
C        1.75317687      11.64733543      10.10010000       0.00000000       0.00000000       0.00000000       0.00000000 a2
H       -0.30054633       8.90022904      10.10010000       0.00000000       0.00000000       0.00000000       0.00000000 a2
C        0.61646202       9.49543238      10.10010000       0.00000000       0.00000000       0.00000000       0.00000000 a2
N        6.72932360      17.36917968      10.10010000       0.00000000       0.00000000       0.00000000       0.00000000 a2
C        5.51698245      15.31136187      10.10010000       0.00000000       0.00000000       0.00000000       0.00000000 a2
H        3.89433967      13.30469721      10.10010000       0.00000000       0.00000000       0.00000000       0.00000000 a2
C        2.95718541      10.90725908      10.10010000       0.00000000       0.00000000       0.00000000       0.00000000 a2
N        1.77047493       8.83647030      10.10010000       0.00000000       0.00000000       0.00000000       0.00000000 a2
C        6.71540076      16.04175566      10.10010000       0.00000000       0.00000000       0.00000000       0.00000000 a2
C        2.92069071       9.50712453      10.10010000       0.00000000       0.00000000       0.00000000       0.00000000 a2
H        5.59239779      14.22636721      10.10010000       0.00000000       0.00000000       0.00000000       0.00000000 a2
H        3.93505340      11.38170447      10.10010000       0.00000000       0.00000000       0.00000000       0.00000000 a2
H        7.68303759      15.53132038      10.10010000       0.00000000       0.00000000       0.00000000       0.00000000 a2
H        3.84160167       8.92087299      10.10010000       0.00000000       0.00000000       0.00000000       0.00000000 a2
