184
Lattice="36.16319999999999 0.0 0.0 -18.081599999999995 31.318249882114287 0.0 0.0 0.0 30.0" Properties=species:S:1:pos:R:3:remoteness:R:1:shift:R:3:adsorption:S:1 size="_JSON [[12, 0], [0, 12]]" mass_center_dist=15.172876935182366 min_atom_dist=9.186316024467146 s1=cu_hollow s2=tpb_hollow_up s1idx=2 s2idx=9 pbc="T T T"
O       -1.24327575       2.36559791       7.38060000              inf       0.00000000       0.00000000       0.00000000 s 
O       -2.75007575       4.97545206       7.38060000              inf       0.00000000       0.00000000       0.00000000 s 
O       -4.25687575       7.58530622       7.38060000              inf       0.00000000       0.00000000       0.00000000 s 
O       -5.76367575      10.19516038       7.38060000              inf       0.00000000       0.00000000       0.00000000 s 
O       -7.27032507      12.80517112       7.38060000      11.72561138       0.00015068       0.00015659       0.00000000 s 
O       -8.77723054      15.41479039       7.38060000      10.06184531       0.00004520      -0.00007830       0.00000000 s 
O      -10.28406068      18.02469675       7.38060000       8.05684639       0.00001507      -0.00002610       0.00000000 s 
O      -11.79078534      20.63442041       7.38060000       6.83737879       0.00009041      -0.00015659       0.00000000 s 
O      -13.29761548      23.24432677       7.38060000       6.83733230       0.00006027      -0.00010439       0.00000000 s 
O      -14.80444561      25.85423312       7.38060000       8.05684639       0.00003014      -0.00005220       0.00000000 s 
O      -16.31127575      28.46413947       7.38060000      10.06184531       0.00000000       0.00000000       0.00000000 s 
O      -17.81800041      31.07386314       7.38060000      12.47912395       0.00007534      -0.00013049       0.00000000 s 
O        1.77032425       2.36559791       7.38060000              inf       0.00000000       0.00000000       0.00000000 s 
O        0.26352425       4.97545206       7.38060000              inf       0.00000000       0.00000000       0.00000000 s 
O       -1.24327575       7.58530622       7.38060000              inf       0.00000000       0.00000000       0.00000000 s 
O       -2.74983466      10.19526477       7.38060000       9.59946726       0.00024109       0.00010439       0.00000000 s 
O       -4.25666480      12.80517112       7.38060000       9.11210956       0.00021095       0.00015659       0.00000000 s 
O       -5.76360041      15.41489479       7.38060000       9.59573599       0.00007534       0.00002610       0.00000000 s 
O       -7.27043054      18.02480114       7.38060000      10.92185311       0.00004520       0.00007830       0.00000000 s 
O       -8.77712507      20.63442041       7.38060000       9.59999241       0.00015068      -0.00015659       0.00000000 s 
O      -10.28395520      23.24432677       7.38060000       9.11466238       0.00012054      -0.00010439       0.00000000 s 
O      -11.79078534      25.85423312       7.38060000       9.59992618       0.00009041      -0.00005220       0.00000000 s 
O      -13.29767575      28.46413947       7.38060000              inf       0.00000000       0.00000000       0.00000000 s 
O      -14.80447575      31.07399363       7.38060000              inf       0.00000000       0.00000000       0.00000000 s 
O        4.78392425       2.36559791       7.38060000              inf       0.00000000       0.00000000       0.00000000 s 
O        3.27712425       4.97545206       7.38060000              inf       0.00000000       0.00000000       0.00000000 s 
O        1.77044480       7.58535842       7.38060000      10.06494431       0.00012054       0.00005220       0.00000000 s 
O        0.26361466      10.19526477       7.38060000       8.05841572       0.00009041       0.00010439       0.00000000 s 
O       -1.24300452      12.80517112       7.38060000       6.83633055       0.00027122       0.00015659       0.00000000 s 
O       -2.74994014      15.41489479       7.38060000       6.83375739       0.00013561       0.00002610       0.00000000 s 
O       -4.25677027      18.02480114       7.38060000       8.05151029       0.00010548       0.00007830       0.00000000 s 
O       -5.76360041      20.63470750       7.38060000      10.05572933       0.00007534       0.00013049       0.00000000 s 
O       -7.27032507      23.24443116       7.38060000      12.47270683       0.00015068      -0.00000000       0.00000000 s 
O       -8.77712507      25.85423312       7.38060000      11.72896791       0.00015068      -0.00005220       0.00000000 s 
O      -10.28407575      28.46413947       7.38060000              inf       0.00000000       0.00000000       0.00000000 s 
O      -11.79087575      31.07399363       7.38060000              inf       0.00000000       0.00000000       0.00000000 s 
O        7.79752425       2.36559791       7.38060000              inf       0.00000000       0.00000000       0.00000000 s 
O        6.29072425       4.97545206       7.38060000              inf       0.00000000       0.00000000       0.00000000 s 
O        4.78410507       7.58535842       7.38060000      10.06654360       0.00018082       0.00005220       0.00000000 s 
O        3.27727493      10.19526477       7.38060000       7.47583520       0.00015068       0.00010439       0.00000000 s 
O        1.77044480      12.80517112       7.38060000       5.34838481       0.00012054       0.00015659       0.00000000 s 
O        0.26372014      15.41489479       7.38060000       4.41436602       0.00019588       0.00002610       0.00000000 s 
O       -1.24311000      18.02480114       7.38060000       5.34144709       0.00016575       0.00007830       0.00000000 s 
O       -2.74994014      20.63470750       7.38060000       7.46590806       0.00013561       0.00013049       0.00000000 s 
O       -4.25687575      23.24443116       7.38060000      10.05545476       0.00000000       0.00000000       0.00000000 s 
O       -5.76367575      25.85428532       7.38060000              inf       0.00000000       0.00000000       0.00000000 s 
O       -7.27047575      28.46413947       7.38060000              inf       0.00000000       0.00000000       0.00000000 s 
O       -8.77727575      31.07399363       7.38060000              inf       0.00000000       0.00000000       0.00000000 s 
O       10.81112425       2.36559791       7.38060000              inf       0.00000000       0.00000000       0.00000000 s 
O        9.30432425       4.97545206       7.38060000              inf       0.00000000       0.00000000       0.00000000 s 
O        7.79752425       7.58530622       7.38060000              inf       0.00000000       0.00000000       0.00000000 s 
O        6.29093520      10.19526477       7.38060000       8.06241008       0.00021095       0.00010439       0.00000000 s 
O        4.78410507      12.80517112       7.38060000       5.35139386       0.00018082       0.00015659       0.00000000 s 
O        3.27716946      15.41489479       7.38060000       3.23068240       0.00004520       0.00002610       0.00000000 s 
O        1.77055027      18.02480114       7.38060000       3.22483991       0.00022602       0.00007830       0.00000000 s 
O        0.26372014      20.63470750       7.38060000       5.34098964       0.00019588       0.00013049       0.00000000 s 
O       -1.24321548      23.24443116       7.38060000       8.05082441       0.00006027      -0.00000000       0.00000000 s 
O       -2.75004561      25.85433752       7.38060000      10.92109467       0.00003014       0.00005220       0.00000000 s 
O       -4.25687575      28.46413947       7.38060000              inf       0.00000000       0.00000000       0.00000000 s 
O       -5.76367575      31.07399363       7.38060000              inf       0.00000000       0.00000000       0.00000000 s 
O       13.82472425       2.36559791       7.38060000              inf       0.00000000       0.00000000       0.00000000 s 
O       12.31792425       4.97545206       7.38060000              inf       0.00000000       0.00000000       0.00000000 s 
O       10.81112425       7.58530622       7.38060000              inf       0.00000000       0.00000000       0.00000000 s 
O        9.30438452      10.19526477       7.38060000       9.60617260       0.00006027       0.00010439       0.00000000 s 
O        7.79776534      12.80517112       7.38060000       6.84353045       0.00024109       0.00015659       0.00000000 s 
O        6.29082973      15.41489479       7.38060000       4.42165326       0.00010548       0.00002610       0.00000000 s 
O        4.78399959      18.02480114       7.38060000       3.22982762       0.00007534       0.00007830       0.00000000 s 
O        3.27738041      20.63470750       7.38060000       4.41325890       0.00025616       0.00013049       0.00000000 s 
O        1.77044480      23.24443116       7.38060000       6.83254516       0.00012054      -0.00000000       0.00000000 s 
O        0.26361466      25.85433751       7.38060000       9.59458494       0.00009041       0.00005220       0.00000000 s 
O       -1.24327575      28.46413947       7.38060000              inf       0.00000000       0.00000000       0.00000000 s 
O       -2.75007575      31.07399363       7.38060000              inf       0.00000000       0.00000000       0.00000000 s 
O       16.83832425       2.36559791       7.38060000              inf       0.00000000       0.00000000       0.00000000 s 
O       15.33152425       4.97545206       7.38060000              inf       0.00000000       0.00000000       0.00000000 s 
O       13.82472425       7.58530622       7.38060000              inf       0.00000000       0.00000000       0.00000000 s 
O       12.31798452      10.19516038       7.38060000      10.92723166       0.00006027       0.00000000       0.00000000 s 
O       10.81121466      12.80517112       7.38060000       9.12093840       0.00009041       0.00015659       0.00000000 s 
O        9.30449000      15.41489479       7.38060000       6.84317344       0.00016575       0.00002610       0.00000000 s 
O        7.79765986      18.02480114       7.38060000       5.35048067       0.00013561       0.00007830       0.00000000 s 
O        6.29082973      20.63470750       7.38060000       5.34701417       0.00010548       0.00013049       0.00000000 s 
O        4.78410507      23.24443116       7.38060000       6.83490085       0.00018082      -0.00000000       0.00000000 s 
O        3.27727493      25.85433751       7.38060000       9.11076881       0.00015068       0.00005220       0.00000000 s 
O        1.77044480      28.46424387       7.38060000      11.72436111       0.00012054       0.00010439       0.00000000 s 
O        0.26352425      31.07399363       7.38060000              inf       0.00000000       0.00000000       0.00000000 s 
O       19.85192425       2.36559791       7.38060000              inf       0.00000000       0.00000000       0.00000000 s 
O       18.34512425       4.97545206       7.38060000              inf       0.00000000       0.00000000       0.00000000 s 
O       16.83832425       7.58530622       7.38060000              inf       0.00000000       0.00000000       0.00000000 s 
O       15.33164480      10.19516038       7.38060000       9.59992618       0.00012054       0.00000000       0.00000000 s 
O       13.82492014      12.80488404       7.38060000       8.05692530       0.00019588      -0.00013049       0.00000000 s 
O       12.31809000      15.41479039       7.38060000       7.47203194       0.00016575      -0.00007830       0.00000000 s 
O       10.81125986      18.02469675       7.38060000       8.05684639       0.00013561      -0.00002610       0.00000000 s 
O        9.30449000      20.63470750       7.38060000       7.47452780       0.00016575       0.00013049       0.00000000 s 
O        7.79755439      23.24443116       7.38060000       8.05670236       0.00003014       0.00000000       0.00000000 s 
O        6.29093520      25.85433752       7.38060000       9.59794003       0.00021095       0.00005220       0.00000000 s 
O        4.78410507      28.46424387       7.38060000      11.72573407       0.00018082       0.00010439       0.00000000 s 
O        3.27712425      31.07399363       7.38060000              inf       0.00000000       0.00000000       0.00000000 s 
O       22.86552425       2.36559791       7.38060000              inf       0.00000000       0.00000000       0.00000000 s 
O       21.35872425       4.97545206       7.38060000              inf       0.00000000       0.00000000       0.00000000 s 
O       19.85192425       7.58530622       7.38060000              inf       0.00000000       0.00000000       0.00000000 s 
O       18.34530507      10.19516038       7.38060000       9.11466238       0.00018082       0.00000000       0.00000000 s 
O       16.83858041      12.80488404       7.38060000       6.83747177       0.00025616      -0.00013049       0.00000000 s 
O       15.33175027      15.41479039       7.38060000       5.34659593       0.00022602      -0.00007830       0.00000000 s 
O       13.82492014      18.02469675       7.38060000       5.34653648       0.00019588      -0.00002610       0.00000000 s 
O       12.31819548      20.63442041       7.38060000       6.83719284       0.00027122      -0.00015659       0.00000000 s 
O       10.81136534      23.24432677       7.38060000       9.11448801       0.00024109      -0.00010439       0.00000000 s 
O        9.30438452      25.85433752       7.38060000      10.92687277       0.00006027       0.00005220       0.00000000 s 
O        7.79752425      28.46413947       7.38060000              inf       0.00000000       0.00000000       0.00000000 s 
O        6.29072425      31.07399363       7.38060000              inf       0.00000000       0.00000000       0.00000000 s 
O       25.87912425       2.36559791       7.38060000              inf       0.00000000       0.00000000       0.00000000 s 
O       24.37232425       4.97545206       7.38060000              inf       0.00000000       0.00000000       0.00000000 s 
O       22.86552425       7.58530622       7.38060000              inf       0.00000000       0.00000000       0.00000000 s 
O       21.35875439      10.19516038       7.38060000       9.59992618       0.00003014       0.00000000       0.00000000 s 
O       19.85202973      12.80488404       7.38060000       6.83751826       0.00010548      -0.00013049       0.00000000 s 
O       18.34519959      15.41479039       7.38060000       4.41647045       0.00007534      -0.00007830       0.00000000 s 
O       16.83836946      18.02469675       7.38060000       3.22847688       0.00004520      -0.00002610       0.00000000 s 
O       15.33164480      20.63442041       7.38060000       4.41632651       0.00012054      -0.00015659       0.00000000 s 
O       13.82481466      23.24432677       7.38060000       6.83733230       0.00009041      -0.00010439       0.00000000 s 
O       12.31798452      25.85423312       7.38060000       9.59992618       0.00006027      -0.00005220       0.00000000 s 
O       10.81112425      28.46413947       7.38060000              inf       0.00000000       0.00000000       0.00000000 s 
O        9.30432425      31.07399363       7.38060000              inf       0.00000000       0.00000000       0.00000000 s 
O       28.89272425       2.36559791       7.38060000              inf       0.00000000       0.00000000       0.00000000 s 
O       27.38592425       4.97545206       7.38060000              inf       0.00000000       0.00000000       0.00000000 s 
O       25.87912425       7.58530622       7.38060000              inf       0.00000000       0.00000000       0.00000000 s 
O       24.37241466      10.19516038       7.38060000      10.92723166       0.00009041       0.00000000       0.00000000 s 
O       22.86569000      12.80488404       7.38060000       8.05704365       0.00016575      -0.00013049       0.00000000 s 
O       21.35885986      15.41479039       7.38060000       5.34671483       0.00013561      -0.00007830       0.00000000 s 
O       19.85202973      18.02469675       7.38060000       3.22847688       0.00010548      -0.00002610       0.00000000 s 
O       18.34530507      20.63442041       7.38060000       3.22837843       0.00018082      -0.00015659       0.00000000 s 
O       16.83847493      23.24432677       7.38060000       5.34653648       0.00015068      -0.00010439       0.00000000 s 
O       15.33164480      25.85423312       7.38060000       8.05684639       0.00012054      -0.00005220       0.00000000 s 
O       13.82472425      28.46413947       7.38060000              inf       0.00000000       0.00000000       0.00000000 s 
O       12.31792425      31.07399363       7.38060000              inf       0.00000000       0.00000000       0.00000000 s 
O       31.90632425       2.36559791       7.38060000              inf       0.00000000       0.00000000       0.00000000 s 
O       30.39952425       4.97545206       7.38060000              inf       0.00000000       0.00000000       0.00000000 s 
O       28.89272425       7.58530622       7.38060000              inf       0.00000000       0.00000000       0.00000000 s 
O       27.38592425      10.19516038       7.38060000              inf       0.00000000       0.00000000       0.00000000 s 
O       25.87935027      12.80488404       7.38060000      10.06203485       0.00022602      -0.00013049       0.00000000 s 
O       24.37252014      15.41479039       7.38060000       7.47220210       0.00019588      -0.00007830       0.00000000 s 
O       22.86569000      18.02469675       7.38060000       5.34671483       0.00016575      -0.00002610       0.00000000 s 
O       21.35896534      20.63442041       7.38060000       4.41647045       0.00024109      -0.00015659       0.00000000 s 
O       19.85213520      23.24432677       7.38060000       5.34659593       0.00021095      -0.00010439       0.00000000 s 
O       18.34530507      25.85423312       7.38060000       7.47203194       0.00018082      -0.00005220       0.00000000 s 
O       16.83847493      28.46413947       7.38060000      10.06184531       0.00015068       0.00000000       0.00000000 s 
O       15.33152425      31.07399363       7.38060000              inf       0.00000000       0.00000000       0.00000000 s 
Cu      18.34519959      18.89466553      10.10010000       0.00000000       0.00000000       0.00000000       0.00000000 a1
N       -1.67250280      20.04918672      10.10010000       0.00000000       0.00000000       0.00000000       0.00000000 a2
H       -0.55361339      21.79497036      10.10010000       0.00000000       0.00000000       0.00000000       0.00000000 a2
H       -2.65269126      18.21881770      10.10010000       0.00000000       0.00000000       0.00000000       0.00000000 a2
C       -0.51416536      20.70285079      10.10010000       0.00000000       0.00000000       0.00000000       0.00000000 a2
C       -1.68062445      18.71646469      10.10010000       0.00000000       0.00000000       0.00000000       0.00000000 a2
C        0.71906003      20.03164850      10.10010000       0.00000000       0.00000000       0.00000000       0.00000000 a2
C       -0.49623444      17.96761924      10.10010000       0.00000000       0.00000000       0.00000000       0.00000000 a2
H        1.61940316      20.64219778      10.10010000       0.00000000       0.00000000       0.00000000       0.00000000 a2
C        0.75703139      18.62274483      10.10010000       0.00000000       0.00000000       0.00000000       0.00000000 a2
H       -0.59147927      16.88335533      10.10010000       0.00000000       0.00000000       0.00000000       0.00000000 a2
C        2.03424027      17.87426476      10.10010000       0.00000000       0.00000000       0.00000000       0.00000000 a2
H        3.27411065      19.63776931      10.10010000       0.00000000       0.00000000       0.00000000       0.00000000 a2
H        1.11132527      15.92861848      10.10010000       0.00000000       0.00000000       0.00000000       0.00000000 a2
C        3.27284494      18.55295733      10.10010000       0.00000000       0.00000000       0.00000000       0.00000000 a2
C        2.05333143      16.46700530      10.10010000       0.00000000       0.00000000       0.00000000       0.00000000 a2
H        4.95761309      20.62995756      10.10010000       0.00000000       0.00000000       0.00000000       0.00000000 a2
H        1.08411246      13.96981854      10.10010000       0.00000000       0.00000000       0.00000000       0.00000000 a2
C        5.84793600      20.00680269      10.10010000       0.00000000       0.00000000       0.00000000       0.00000000 a2
C        4.49879249      17.87024558      10.10010000       0.00000000       0.00000000       0.00000000       0.00000000 a2
C        3.25797282      15.73715958      10.10010000       0.00000000       0.00000000       0.00000000       0.00000000 a2
C        2.06915283      13.50779606      10.10010000       0.00000000       0.00000000       0.00000000       0.00000000 a2
H        7.14982627      21.74546143      10.10010000       0.00000000       0.00000000       0.00000000       0.00000000 a2
C        5.78834206      18.59662019      10.10010000       0.00000000       0.00000000       0.00000000       0.00000000 a2
C        7.08854472      20.65571682      10.10010000       0.00000000       0.00000000       0.00000000       0.00000000 a2
C        4.46387993      16.46115922      10.10010000       0.00000000       0.00000000       0.00000000       0.00000000 a2
C        3.25997687      14.25718958      10.10010000       0.00000000       0.00000000       0.00000000       0.00000000 a2
H        1.20625367      11.51008320      10.10010000       0.00000000       0.00000000       0.00000000       0.00000000 a2
C        2.12326202      12.10528654      10.10010000       0.00000000       0.00000000       0.00000000       0.00000000 a2
N        8.23612360      19.97903384      10.10010000       0.00000000       0.00000000       0.00000000       0.00000000 a2
C        7.02378245      17.92121603      10.10010000       0.00000000       0.00000000       0.00000000       0.00000000 a2
H        5.40113967      15.91455137      10.10010000       0.00000000       0.00000000       0.00000000       0.00000000 a2
C        4.46398541      13.51711324      10.10010000       0.00000000       0.00000000       0.00000000       0.00000000 a2
N        3.27727493      11.44632446      10.10010000       0.00000000       0.00000000       0.00000000       0.00000000 a2
C        8.22220076      18.65160982      10.10010000       0.00000000       0.00000000       0.00000000       0.00000000 a2
C        4.42749071      12.11697868      10.10010000       0.00000000       0.00000000       0.00000000       0.00000000 a2
H        7.09919779      16.83622136      10.10010000       0.00000000       0.00000000       0.00000000       0.00000000 a2
H        5.44185340      13.99155863      10.10010000       0.00000000       0.00000000       0.00000000       0.00000000 a2
H        9.18983759      18.14117454      10.10010000       0.00000000       0.00000000       0.00000000       0.00000000 a2
H        5.34840167      11.53072714      10.10010000       0.00000000       0.00000000       0.00000000       0.00000000 a2
