222
Lattice="36.16319999999999 0.0 0.0 -18.081599999999995 31.318249882114287 0.0 0.0 0.0 30.0" Properties=species:S:1:pos:R:3:remoteness:R:1:shift:R:3:adsorption:S:1 size="_JSON [[12, 0], [0, 12]]" mass_center_dist=17.399046892708498 min_atom_dist=8.164334844119125 s1=tpb_atop s2=tpb_hollow_down s1idx=4 s2idx=7 pbc="T T T"
O       -1.24327575       2.36559791       7.38060000              inf       0.00000000       0.00000000       0.00000000 s 
O       -2.75007575       4.97545206       7.38060000              inf       0.00000000       0.00000000       0.00000000 s 
O       -4.25687575       7.58530622       7.38060000              inf       0.00000000       0.00000000       0.00000000 s 
O       -5.76367575      10.19516038       7.38060000              inf       0.00000000       0.00000000       0.00000000 s 
O       -7.27047575      12.80501453       7.38060000              inf       0.00000000       0.00000000       0.00000000 s 
O       -8.77727575      15.41486869       7.38060000              inf       0.00000000       0.00000000       0.00000000 s 
O      -10.28384973      18.02485334       7.38060000      10.06538337       0.00022602       0.00013049       0.00000000 s 
O      -11.79078534      20.63457700       7.38060000      10.06345671       0.00009041      -0.00000000       0.00000000 s 
O      -13.29761548      23.24448336       7.38060000      10.92711555       0.00006027       0.00005220       0.00000000 s 
O      -14.80447575      25.85428532       7.38060000              inf       0.00000000       0.00000000       0.00000000 s 
O      -16.31127575      28.46413947       7.38060000              inf       0.00000000       0.00000000       0.00000000 s 
O      -17.81807575      31.07399363       7.38060000              inf       0.00000000       0.00000000       0.00000000 s 
O        1.77032425       2.36559791       7.38060000              inf       0.00000000       0.00000000       0.00000000 s 
O        0.26352425       4.97545206       7.38060000              inf       0.00000000       0.00000000       0.00000000 s 
O       -1.24327575       7.58530622       7.38060000              inf       0.00000000       0.00000000       0.00000000 s 
O       -2.75007575      10.19516038       7.38060000              inf       0.00000000       0.00000000       0.00000000 s 
O       -4.25687575      12.80501453       7.38060000              inf       0.00000000       0.00000000       0.00000000 s 
O       -5.76367575      15.41486869       7.38060000              inf       0.00000000       0.00000000       0.00000000 s 
O       -7.27043054      18.02464455       7.38060000      10.78913708       0.00004520      -0.00007830       0.00000000 s 
O       -8.77726068      20.63455091       7.38060000      11.19992230       0.00001507      -0.00002610       0.00000000 s 
O      -10.28407575      23.24443116       7.38060000              inf       0.00000000       0.00000000       0.00000000 s 
O      -11.79087575      25.85428532       7.38060000              inf       0.00000000       0.00000000       0.00000000 s 
O      -13.29767575      28.46413947       7.38060000              inf       0.00000000       0.00000000       0.00000000 s 
O      -14.80447575      31.07399363       7.38060000              inf       0.00000000       0.00000000       0.00000000 s 
O        4.78392425       2.36559791       7.38060000              inf       0.00000000       0.00000000       0.00000000 s 
O        3.27712425       4.97545206       7.38060000              inf       0.00000000       0.00000000       0.00000000 s 
O        1.77032425       7.58530622       7.38060000              inf       0.00000000       0.00000000       0.00000000 s 
O        0.26352425      10.19516038       7.38060000              inf       0.00000000       0.00000000       0.00000000 s 
O       -1.24327575      12.80501453       7.38060000              inf       0.00000000       0.00000000       0.00000000 s 
O       -2.74994014      15.41473820       7.38060000       9.44600961       0.00013561      -0.00013049       0.00000000 s 
O       -4.25677027      18.02464455       7.38060000       8.42694687       0.00010548      -0.00007830       0.00000000 s 
O       -5.76360041      20.63455091       7.38060000       8.42401722       0.00007534      -0.00002610       0.00000000 s 
O       -7.27032507      23.24427457       7.38060000       9.43806608       0.00015068      -0.00015659       0.00000000 s 
O       -8.77715520      25.85418092       7.38060000      11.19620674       0.00012054      -0.00010439       0.00000000 s 
O      -10.28407575      28.46413947       7.38060000              inf       0.00000000       0.00000000       0.00000000 s 
O      -11.79087575      31.07399363       7.38060000              inf       0.00000000       0.00000000       0.00000000 s 
O        7.79752425       2.36559791       7.38060000              inf       0.00000000       0.00000000       0.00000000 s 
O        6.29072425       4.97545206       7.38060000              inf       0.00000000       0.00000000       0.00000000 s 
O        4.78392425       7.58530622       7.38060000              inf       0.00000000       0.00000000       0.00000000 s 
O        3.27712425      10.19516038       7.38060000              inf       0.00000000       0.00000000       0.00000000 s 
O        1.77044480      12.80501453       7.38060000      10.79526691       0.00012054       0.00000000       0.00000000 s 
O        0.26372014      15.41473820       7.38060000       8.43098434       0.00019588      -0.00013049       0.00000000 s 
O       -1.24311000      18.02464455       7.38060000       6.61707524       0.00016575      -0.00007830       0.00000000 s 
O       -2.74994014      20.63455091       7.38060000       5.88677917       0.00013561      -0.00002610       0.00000000 s 
O       -4.25666480      23.24427457       7.38060000       6.60951449       0.00021095      -0.00015659       0.00000000 s 
O       -5.76349493      25.85418092       7.38060000       8.41911442       0.00018082      -0.00010439       0.00000000 s 
O       -7.27032507      28.46408728       7.38060000      10.78153931       0.00015068      -0.00005220       0.00000000 s 
O       -8.77727575      31.07399363       7.38060000              inf       0.00000000       0.00000000       0.00000000 s 
O       10.81112425       2.36559791       7.38060000              inf       0.00000000       0.00000000       0.00000000 s 
O        9.30432425       4.97545206       7.38060000              inf       0.00000000       0.00000000       0.00000000 s 
O        7.79752425       7.58530622       7.38060000              inf       0.00000000       0.00000000       0.00000000 s 
O        6.29087493      10.19531697       7.38060000      11.72554868       0.00015068       0.00015659       0.00000000 s 
O        4.78392425      12.80501453       7.38060000              inf       0.00000000       0.00000000       0.00000000 s 
O        3.27738041      15.41473820       7.38060000       8.43209302       0.00025616      -0.00013049       0.00000000 s 
O        1.77055027      18.02464455       7.38060000       5.89255737       0.00022602      -0.00007830       0.00000000 s 
O        0.26372014      20.63455091       7.38060000       4.06307377       0.00019588      -0.00002610       0.00000000 s 
O       -1.24300452      23.24427457       7.38060000       4.05691616       0.00027122      -0.00015659       0.00000000 s 
O       -2.74983466      25.85418092       7.38060000       5.87981516       0.00024109      -0.00010439       0.00000000 s 
O       -4.25666480      28.46408728       7.38060000       8.41725492       0.00021095      -0.00005220       0.00000000 s 
O       -5.76349493      31.07399363       7.38060000      11.19341015       0.00018082       0.00000000       0.00000000 s 
O       13.82472425       2.36559791       7.38060000              inf       0.00000000       0.00000000       0.00000000 s 
O       12.31792425       4.97545206       7.38060000              inf       0.00000000       0.00000000       0.00000000 s 
O       10.81136534       7.58541061       7.38060000       9.59925573       0.00024109       0.00010439       0.00000000 s 
O        9.30453520      10.19531697       7.38060000       9.11200280       0.00021095       0.00015659       0.00000000 s 
O        7.79759959      12.80504063       7.38060000       9.59574483       0.00007534       0.00002610       0.00000000 s 
O        6.29082973      15.41473820       7.38060000       9.44887700       0.00010548      -0.00013049       0.00000000 s 
O        4.78399959      18.02464455       7.38060000       6.61980391       0.00007534      -0.00007830       0.00000000 s 
O        3.27716946      20.63455091       7.38060000       4.06529548       0.00004520      -0.00002610       0.00000000 s 
O        1.77044480      23.24427457       7.38060000       2.71951298       0.00012054      -0.00015659       0.00000000 s 
O        0.26361466      25.85418092       7.38060000       4.05313408       0.00009041      -0.00010439       0.00000000 s 
O       -1.24321548      28.46408728       7.38060000       6.60487225       0.00006027      -0.00005220       0.00000000 s 
O       -2.75004561      31.07399363       7.38060000       9.43319010       0.00003014       0.00000000       0.00000000 s 
O       16.83849000       2.36546741       7.38060000      11.19273330       0.00016575      -0.00013049       0.00000000 s 
O       15.33164480       4.97550426       7.38060000      10.06461387       0.00012054       0.00005220       0.00000000 s 
O       13.82481466       7.58541061       7.38060000       8.05813426       0.00009041       0.00010439       0.00000000 s 
O       12.31819548      10.19531697       7.38060000       6.83615350       0.00027122       0.00015659       0.00000000 s 
O       10.81125986      12.80504063       7.38060000       6.83373504       0.00013561       0.00002610       0.00000000 s 
O        9.30442973      15.41494699       7.38060000       8.05162269       0.00010548       0.00007830       0.00000000 s 
O        7.79765986      18.02464455       7.38060000       8.43123199       0.00013561      -0.00007830       0.00000000 s 
O        6.29082973      20.63455091       7.38060000       5.89137914       0.00010548      -0.00002610       0.00000000 s 
O        4.78410507      23.24427457       7.38060000       4.06152179       0.00018082      -0.00015659       0.00000000 s 
O        3.27727493      25.85418092       7.38060000       4.05536139       0.00015068      -0.00010439       0.00000000 s 
O        1.77044480      28.46408728       7.38060000       5.87879659       0.00012054      -0.00005220       0.00000000 s 
O        0.26361466      31.07399363       7.38060000       8.41658120       0.00009041       0.00000000       0.00000000 s 
O       19.85215027       2.36546741       7.38060000      10.78025168       0.00022602      -0.00013049       0.00000000 s 
O       18.34530507       4.97550426       7.38060000      10.06618962       0.00018082       0.00005220       0.00000000 s 
O       16.83847493       7.58541061       7.38060000       7.47550002       0.00015068       0.00010439       0.00000000 s 
O       15.33164480      10.19531697       7.38060000       5.34811408       0.00012054       0.00015659       0.00000000 s 
O       13.82492014      12.80504063       7.38060000       4.41427761       0.00019588       0.00002610       0.00000000 s 
O       12.31809000      15.41494699       7.38060000       5.34157205       0.00016575       0.00007830       0.00000000 s 
O       10.81125986      18.02485334       7.38060000       7.46613913       0.00013561       0.00013049       0.00000000 s 
O        9.30449000      20.63455091       7.38060000       8.42937516       0.00016575      -0.00002610       0.00000000 s 
O        7.79776534      23.24427457       7.38060000       6.61516924       0.00024109      -0.00015659       0.00000000 s 
O        6.29093520      25.85418092       7.38060000       5.88458262       0.00021095      -0.00010439       0.00000000 s 
O        4.78410507      28.46408728       7.38060000       6.60760605       0.00018082      -0.00005220       0.00000000 s 
O        3.27727493      31.07399363       7.38060000       8.41765402       0.00015068       0.00000000       0.00000000 s 
O       22.86559959       2.36546741       7.38060000      11.19434668       0.00007534      -0.00013049       0.00000000 s 
O       21.35872425       4.97545206       7.38060000              inf       0.00000000       0.00000000       0.00000000 s 
O       19.85213520       7.58541061       7.38060000       8.06206983       0.00021095       0.00010439       0.00000000 s 
O       18.34530507      10.19531697       7.38060000       5.35107890       0.00018082       0.00015659       0.00000000 s 
O       16.83836946      12.80504063       7.38060000       3.23048808       0.00004520       0.00002610       0.00000000 s 
O       15.33175027      15.41494699       7.38060000       3.22497323       0.00022602       0.00007830       0.00000000 s 
O       13.82492014      18.02485334       7.38060000       5.34126817       0.00019588       0.00013049       0.00000000 s 
O       12.31798452      20.63457700       7.38060000       8.05114056       0.00006027      -0.00000000       0.00000000 s 
O       10.81121466      23.24427457       7.38060000       9.44380483       0.00009041      -0.00015659       0.00000000 s 
O        9.30438452      25.85418092       7.38060000       8.42447540       0.00006027      -0.00010439       0.00000000 s 
O        7.79755439      28.46408728       7.38060000       8.42154489       0.00003014      -0.00005220       0.00000000 s 
O        6.29072425      31.07399363       7.38060000       9.43596033       0.00000000      -0.00000000       0.00000000 s 
O       25.87912425       2.36559791       7.38060000              inf       0.00000000       0.00000000       0.00000000 s 
O       24.37232425       4.97545206       7.38060000              inf       0.00000000       0.00000000       0.00000000 s 
O       22.86558452       7.58541061       7.38060000       9.60586231       0.00006027       0.00010439       0.00000000 s 
O       21.35896534      10.19531697       7.38060000       6.84324945       0.00024109       0.00015659       0.00000000 s 
O       19.85202973      12.80504063       7.38060000       4.42145755       0.00010548       0.00002610       0.00000000 s 
O       18.34519959      15.41494699       7.38060000       3.22988719       0.00007534       0.00007830       0.00000000 s 
O       16.83858041      18.02485334       7.38060000       4.41354215       0.00025616       0.00013049       0.00000000 s 
O       15.33164480      20.63457700       7.38060000       6.83288292       0.00012054      -0.00000000       0.00000000 s 
O       13.82481466      23.24448336       7.38060000       9.59493571       0.00009041       0.00005220       0.00000000 s 
O       12.31792425      25.85428532       7.38060000              inf       0.00000000       0.00000000       0.00000000 s 
O       10.81121466      28.46408728       7.38060000      10.78656332       0.00009041      -0.00005220       0.00000000 s 
O        9.30438452      31.07399363       7.38060000      11.19744297       0.00006027       0.00000000       0.00000000 s 
O       28.89272425       2.36559791       7.38060000              inf       0.00000000       0.00000000       0.00000000 s 
O       27.38592425       4.97545206       7.38060000              inf       0.00000000       0.00000000       0.00000000 s 
O       25.87912425       7.58530622       7.38060000              inf       0.00000000       0.00000000       0.00000000 s 
O       24.37241466      10.19531697       7.38060000       9.12070152       0.00009041       0.00015659       0.00000000 s 
O       22.86569000      12.80504063       7.38060000       6.84301227       0.00016575       0.00002610       0.00000000 s 
O       21.35885986      15.41494699       7.38060000       5.35047223       0.00013561       0.00007830       0.00000000 s 
O       19.85202973      18.02485334       7.38060000       5.34720354       0.00010548       0.00013049       0.00000000 s 
O       18.34530507      20.63457700       7.38060000       6.83520373       0.00018082      -0.00000000       0.00000000 s 
O       16.83847493      23.24448336       7.38060000       9.11111213       0.00015068       0.00005220       0.00000000 s 
O       15.33164480      25.85438971       7.38060000      11.72471811       0.00012054       0.00010439       0.00000000 s 
O       13.82472425      28.46413947       7.38060000              inf       0.00000000       0.00000000       0.00000000 s 
O       12.31792425      31.07399363       7.38060000              inf       0.00000000       0.00000000       0.00000000 s 
O       31.90632425       2.36559791       7.38060000              inf       0.00000000       0.00000000       0.00000000 s 
O       30.39952425       4.97545206       7.38060000              inf       0.00000000       0.00000000       0.00000000 s 
O       28.89272425       7.58530622       7.38060000              inf       0.00000000       0.00000000       0.00000000 s 
O       27.38592425      10.19516038       7.38060000              inf       0.00000000       0.00000000       0.00000000 s 
O       25.87913932      12.80504063       7.38060000       9.60545819       0.00001507       0.00002610       0.00000000 s 
O       24.37252014      15.41494699       7.38060000       8.06146584       0.00019588       0.00007830       0.00000000 s 
O       22.86569000      18.02485334       7.38060000       7.47463149       0.00016575       0.00013049       0.00000000 s 
O       21.35875439      20.63457700       7.38060000       8.05692983       0.00003014       0.00000000       0.00000000 s 
O       19.85213520      23.24448336       7.38060000       9.59824117       0.00021095       0.00005220       0.00000000 s 
O       18.34530507      25.85438971       7.38060000      11.72607078       0.00018082       0.00010439       0.00000000 s 
O       16.83832425      28.46413947       7.38060000              inf       0.00000000       0.00000000       0.00000000 s 
O       15.33152425      31.07399363       7.38060000              inf       0.00000000       0.00000000       0.00000000 s 
N        1.73648152      17.52498797      10.10010000       0.00000000       0.00000000       0.00000000       0.00000000 a1
H       -0.33475069      17.62090011      10.10010000       0.00000000       0.00000000       0.00000000       0.00000000 a1
H        3.81193278      17.59130437      10.10010000       0.00000000       0.00000000       0.00000000       0.00000000 a1
C        0.59153954      18.20112289      10.10010000       0.00000000       0.00000000       0.00000000       0.00000000 a1
C        2.89471348      18.18431543      10.10010000       0.00000000       0.00000000       0.00000000       0.00000000 a1
C        0.55588866      19.60491124      10.10010000       0.00000000       0.00000000       0.00000000       0.00000000 a1
C        2.95124862      19.58444999      10.10010000       0.00000000       0.00000000       0.00000000       0.00000000 a1
H       -0.42282315      20.07935663      10.10010000       0.00000000       0.00000000       0.00000000       0.00000000 a1
C        1.75726030      20.34224724      10.10010000       0.00000000       0.00000000       0.00000000       0.00000000 a1
H        3.93787112      20.04409750      10.10010000       0.00000000       0.00000000       0.00000000       0.00000000 a1
C        1.76664766      21.82258262      10.10010000       0.00000000       0.00000000       0.00000000       0.00000000 a1
H       -0.38031632      22.01458959      10.10010000       0.00000000       0.00000000       0.00000000       0.00000000 a1
H        3.91308426      21.99613792      10.10010000       0.00000000       0.00000000       0.00000000       0.00000000 a1
C        0.55979127      22.55589944      10.10010000       0.00000000       0.00000000       0.00000000       0.00000000 a1
C        2.97603548      22.54274577      10.10010000       0.00000000       0.00000000       0.00000000       0.00000000 a1
H       -2.08153872      22.97645134      10.10010000       0.00000000       0.00000000       0.00000000       0.00000000 a1
H        5.62306117      22.95197090      10.10010000       0.00000000       0.00000000       0.00000000       0.00000000 a1
C       -1.98682128      24.05907104      10.10010000       0.00000000       0.00000000       0.00000000       0.00000000 a1
C        0.53806321      23.95895703      10.10010000       0.00000000       0.00000000       0.00000000       0.00000000 a1
C        3.00556876      23.95091868      10.10010000       0.00000000       0.00000000       0.00000000       0.00000000 a1
C        5.53087515      24.03605212      10.10010000       0.00000000       0.00000000       0.00000000       0.00000000 a1
H       -4.14348905      24.31721171      10.10010000       0.00000000       0.00000000       0.00000000       0.00000000 a1
C       -0.73577044      24.71255242      10.10010000       0.00000000       0.00000000       0.00000000       0.00000000 a1
C       -3.16910176      24.80901263      10.10010000       0.00000000       0.00000000       0.00000000       0.00000000 a1
C        1.77582407      24.63326505      10.10010000       0.00000000       0.00000000       0.00000000       0.00000000 a1
C        4.28646930      24.69263923      10.10010000       0.00000000       0.00000000       0.00000000       0.00000000 a1
H        7.69239482      24.28761597      10.10010000       0.00000000       0.00000000       0.00000000       0.00000000 a1
C        6.71821848      24.78416682      10.10010000       0.00000000       0.00000000       0.00000000       0.00000000 a1
N       -3.15707750      26.14118659      10.10010000       0.00000000       0.00000000       0.00000000       0.00000000 a1
C       -0.76857348      26.12017726      10.10010000       0.00000000       0.00000000       0.00000000       0.00000000 a1
H        1.78057049      25.71825972      10.10010000       0.00000000       0.00000000       0.00000000       0.00000000 a1
C        4.32517899      26.10537939      10.10010000       0.00000000       0.00000000       0.00000000       0.00000000 a1
N        6.71210087      26.11305236      10.10010000       0.00000000       0.00000000       0.00000000       0.00000000 a1
C       -2.00053316      26.79284107      10.10010000       0.00000000       0.00000000       0.00000000       0.00000000 a1
C        5.55618939      26.77384133      10.10010000       0.00000000       0.00000000       0.00000000       0.00000000 a1
H        0.13335180      26.72798619      10.10010000       0.00000000       0.00000000       0.00000000       0.00000000 a1
H        3.42536324      26.71501522      10.10010000       0.00000000       0.00000000       0.00000000       0.00000000 a1
H       -2.04209070      27.88605678      10.10010000       0.00000000       0.00000000       0.00000000       0.00000000 a1
H        5.60323168      27.86449938      10.10010000       0.00000000       0.00000000       0.00000000       0.00000000 a1
N       21.77781054      11.65847950      10.10010000       0.00000000       0.00000000       0.00000000       0.00000000 a2
H       20.65881565       9.91251317      10.10010000       0.00000000       0.00000000       0.00000000       0.00000000 a2
H       22.75799900      13.48884852      10.10010000       0.00000000       0.00000000       0.00000000       0.00000000 a2
C       20.61947310      11.00481543      10.10010000       0.00000000       0.00000000       0.00000000       0.00000000 a2
C       21.78561576      12.99101884      10.10010000       0.00000000       0.00000000       0.00000000       0.00000000 a2
C       19.38593128      11.67583503      10.10010000       0.00000000       0.00000000       0.00000000       0.00000000 a2
C       20.60133123      13.74004698      10.10010000       0.00000000       0.00000000       0.00000000       0.00000000 a2
H       18.48569362      11.06546844      10.10010000       0.00000000       0.00000000       0.00000000       0.00000000 a2
C       19.34806540      13.08492139      10.10010000       0.00000000       0.00000000       0.00000000       0.00000000 a2
H       20.69657606      14.82431089      10.10010000       0.00000000       0.00000000       0.00000000       0.00000000 a2
C       18.07096199      13.83321878      10.10010000       0.00000000       0.00000000       0.00000000       0.00000000 a2
H       16.83119709      12.06989691      10.10010000       0.00000000       0.00000000       0.00000000       0.00000000 a2
H       18.99387699      15.77886505      10.10010000       0.00000000       0.00000000       0.00000000       0.00000000 a2
C       16.83225185      13.15470889      10.10010000       0.00000000       0.00000000       0.00000000       0.00000000 a2
C       18.05197631      15.24066093      10.10010000       0.00000000       0.00000000       0.00000000       0.00000000 a2
H       15.14737822      11.07752597      10.10010000       0.00000000       0.00000000       0.00000000       0.00000000 a2
H       19.02087885      17.73766499      10.10010000       0.00000000       0.00000000       0.00000000       0.00000000 a2
C       14.25737174      11.70086354      10.10010000       0.00000000       0.00000000       0.00000000       0.00000000 a2
C       15.60630430      13.83742064      10.10010000       0.00000000       0.00000000       0.00000000       0.00000000 a2
C       16.84722944      15.97032395      10.10010000       0.00000000       0.00000000       0.00000000       0.00000000 a2
C       18.03594396      18.19987016      10.10010000       0.00000000       0.00000000       0.00000000       0.00000000 a2
H       12.95527052       9.96220479      10.10010000       0.00000000       0.00000000       0.00000000       0.00000000 a2
C       14.31675472      13.11104603      10.10010000       0.00000000       0.00000000       0.00000000       0.00000000 a2
C       13.01676302      11.05194940      10.10010000       0.00000000       0.00000000       0.00000000       0.00000000 a2
C       15.64121686      15.24650700      10.10010000       0.00000000       0.00000000       0.00000000       0.00000000 a2
C       16.84511992      17.45047664      10.10010000       0.00000000       0.00000000       0.00000000       0.00000000 a2
H       18.89905407      20.19758302      10.10010000       0.00000000       0.00000000       0.00000000       0.00000000 a2
C       17.98194025      19.60219700      10.10010000       0.00000000       0.00000000       0.00000000       0.00000000 a2
N       11.86897319      11.72863238      10.10010000       0.00000000       0.00000000       0.00000000       0.00000000 a2
C       13.08131434      13.78645019      10.10010000       0.00000000       0.00000000       0.00000000       0.00000000 a2
H       14.70416807      15.79311485      10.10010000       0.00000000       0.00000000       0.00000000       0.00000000 a2
C       15.64100590      18.19037029      10.10010000       0.00000000       0.00000000       0.00000000       0.00000000 a2
N       16.82782186      20.26134176      10.10010000       0.00000000       0.00000000       0.00000000       0.00000000 a2
C       11.88279055      13.05587372      10.10010000       0.00000000       0.00000000       0.00000000       0.00000000 a2
C       15.67781703      19.59068754      10.10010000       0.00000000       0.00000000       0.00000000       0.00000000 a2
H       13.00589900      14.87144486      10.10010000       0.00000000       0.00000000       0.00000000       0.00000000 a2
H       14.66313791      17.71592490      10.10010000       0.00000000       0.00000000       0.00000000       0.00000000 a2
H       10.91525920      13.56649168      10.10010000       0.00000000       0.00000000       0.00000000       0.00000000 a2
H       14.75658964      20.17675639      10.10010000       0.00000000       0.00000000       0.00000000       0.00000000 a2
