222
Lattice="36.16319999999999 0.0 0.0 -18.081599999999995 31.318249882114287 0.0 0.0 0.0 30.0" Properties=species:S:1:pos:R:3:remoteness:R:1:shift:R:3:adsorption:S:1 size="_JSON [[12, 0], [0, 12]]" mass_center_dist=19.378453139394377 min_atom_dist=10.369444422815068 s1=tpb_atop s2=tpb_hollow_up s1idx=4 s2idx=8 pbc="T T T"
O       -1.24327575       2.36559791       7.38060000              inf       0.00000000       0.00000000       0.00000000 s 
O       -2.75007575       4.97545206       7.38060000              inf       0.00000000       0.00000000       0.00000000 s 
O       -4.25687575       7.58530622       7.38060000              inf       0.00000000       0.00000000       0.00000000 s 
O       -5.76367575      10.19516038       7.38060000              inf       0.00000000       0.00000000       0.00000000 s 
O       -7.27047575      12.80501453       7.38060000              inf       0.00000000       0.00000000       0.00000000 s 
O       -8.77709493      15.41476430       7.38060000      11.72573407       0.00018082      -0.00010439       0.00000000 s 
O      -10.28392507      18.02467065       7.38060000      11.72436111       0.00015068      -0.00005220       0.00000000 s 
O      -11.79087575      20.63457700       7.38060000              inf       0.00000000       0.00000000       0.00000000 s 
O      -13.29767575      23.24443116       7.38060000              inf       0.00000000       0.00000000       0.00000000 s 
O      -14.80447575      25.85428532       7.38060000              inf       0.00000000       0.00000000       0.00000000 s 
O      -16.31127575      28.46413947       7.38060000              inf       0.00000000       0.00000000       0.00000000 s 
O      -17.81807575      31.07399363       7.38060000              inf       0.00000000       0.00000000       0.00000000 s 
O        1.77032425       2.36559791       7.38060000              inf       0.00000000       0.00000000       0.00000000 s 
O        0.26352425       4.97545206       7.38060000              inf       0.00000000       0.00000000       0.00000000 s 
O       -1.24327575       7.58530622       7.38060000              inf       0.00000000       0.00000000       0.00000000 s 
O       -2.75007575      10.19516038       7.38060000              inf       0.00000000       0.00000000       0.00000000 s 
O       -4.25687575      12.80501453       7.38060000              inf       0.00000000       0.00000000       0.00000000 s 
O       -5.76367575      15.41486869       7.38060000              inf       0.00000000       0.00000000       0.00000000 s 
O       -7.27043054      18.02464455       7.38060000      10.78913708       0.00004520      -0.00007830       0.00000000 s 
O       -8.77726068      20.63455091       7.38060000      11.19992230       0.00001507      -0.00002610       0.00000000 s 
O      -10.28407575      23.24443116       7.38060000              inf       0.00000000       0.00000000       0.00000000 s 
O      -11.79087575      25.85428532       7.38060000              inf       0.00000000       0.00000000       0.00000000 s 
O      -13.29767575      28.46413947       7.38060000              inf       0.00000000       0.00000000       0.00000000 s 
O      -14.80447575      31.07399363       7.38060000              inf       0.00000000       0.00000000       0.00000000 s 
O        4.78392425       2.36559791       7.38060000              inf       0.00000000       0.00000000       0.00000000 s 
O        3.27712425       4.97545206       7.38060000              inf       0.00000000       0.00000000       0.00000000 s 
O        1.77032425       7.58530622       7.38060000              inf       0.00000000       0.00000000       0.00000000 s 
O        0.26352425      10.19516038       7.38060000              inf       0.00000000       0.00000000       0.00000000 s 
O       -1.24327575      12.80501453       7.38060000              inf       0.00000000       0.00000000       0.00000000 s 
O       -2.74994014      15.41473820       7.38060000       9.44600961       0.00013561      -0.00013049       0.00000000 s 
O       -4.25677027      18.02464455       7.38060000       8.42694687       0.00010548      -0.00007830       0.00000000 s 
O       -5.76360041      20.63455091       7.38060000       8.42401722       0.00007534      -0.00002610       0.00000000 s 
O       -7.27032507      23.24427457       7.38060000       9.43806608       0.00015068      -0.00015659       0.00000000 s 
O       -8.77715520      25.85418092       7.38060000      11.19620674       0.00012054      -0.00010439       0.00000000 s 
O      -10.28407575      28.46413947       7.38060000              inf       0.00000000       0.00000000       0.00000000 s 
O      -11.79087575      31.07399363       7.38060000              inf       0.00000000       0.00000000       0.00000000 s 
O        7.79752425       2.36559791       7.38060000              inf       0.00000000       0.00000000       0.00000000 s 
O        6.29072425       4.97545206       7.38060000              inf       0.00000000       0.00000000       0.00000000 s 
O        4.78392425       7.58530622       7.38060000              inf       0.00000000       0.00000000       0.00000000 s 
O        3.27712425      10.19516038       7.38060000              inf       0.00000000       0.00000000       0.00000000 s 
O        1.77044480      12.80501453       7.38060000      10.79526691       0.00012054       0.00000000       0.00000000 s 
O        0.26372014      15.41473820       7.38060000       8.43098434       0.00019588      -0.00013049       0.00000000 s 
O       -1.24311000      18.02464455       7.38060000       6.61707524       0.00016575      -0.00007830       0.00000000 s 
O       -2.74994014      20.63455091       7.38060000       5.88677917       0.00013561      -0.00002610       0.00000000 s 
O       -4.25666480      23.24427457       7.38060000       6.60951449       0.00021095      -0.00015659       0.00000000 s 
O       -5.76349493      25.85418092       7.38060000       8.41911442       0.00018082      -0.00010439       0.00000000 s 
O       -7.27032507      28.46408728       7.38060000      10.78153931       0.00015068      -0.00005220       0.00000000 s 
O       -8.77727575      31.07399363       7.38060000              inf       0.00000000       0.00000000       0.00000000 s 
O       10.81112425       2.36559791       7.38060000              inf       0.00000000       0.00000000       0.00000000 s 
O        9.30445986       4.97532157       7.38060000      10.06654360       0.00013561      -0.00013049       0.00000000 s 
O        7.79762973       7.58522792       7.38060000      10.06494431       0.00010548      -0.00007830       0.00000000 s 
O        6.29072425      10.19516038       7.38060000              inf       0.00000000       0.00000000       0.00000000 s 
O        4.78392425      12.80501453       7.38060000              inf       0.00000000       0.00000000       0.00000000 s 
O        3.27738041      15.41473820       7.38060000       8.43209302       0.00025616      -0.00013049       0.00000000 s 
O        1.77055027      18.02464455       7.38060000       5.89255737       0.00022602      -0.00007830       0.00000000 s 
O        0.26372014      20.63455091       7.38060000       4.06307377       0.00019588      -0.00002610       0.00000000 s 
O       -1.24300452      23.24427457       7.38060000       4.05691616       0.00027122      -0.00015659       0.00000000 s 
O       -2.74983466      25.85418092       7.38060000       5.87981516       0.00024109      -0.00010439       0.00000000 s 
O       -4.25666480      28.46408728       7.38060000       8.41725492       0.00021095      -0.00005220       0.00000000 s 
O       -5.76349493      31.07399363       7.38060000      11.19341015       0.00018082       0.00000000       0.00000000 s 
O       13.82484480       2.36559791       7.38060000       9.60617260       0.00012054       0.00000000       0.00000000 s 
O       12.31812014       4.97532157       7.38060000       8.06241008       0.00019588      -0.00013049       0.00000000 s 
O       10.81129000       7.58522792       7.38060000       7.47583520       0.00016575      -0.00007830       0.00000000 s 
O        9.30445986      10.19513428       7.38060000       8.05841572       0.00013561      -0.00002610       0.00000000 s 
O        7.79773520      12.80485794       7.38060000       9.59946726       0.00021095      -0.00015659       0.00000000 s 
O        6.29082973      15.41473820       7.38060000       9.44887700       0.00010548      -0.00013049       0.00000000 s 
O        4.78399959      18.02464455       7.38060000       6.61980391       0.00007534      -0.00007830       0.00000000 s 
O        3.27716946      20.63455091       7.38060000       4.06529548       0.00004520      -0.00002610       0.00000000 s 
O        1.77044480      23.24427457       7.38060000       2.71951298       0.00012054      -0.00015659       0.00000000 s 
O        0.26361466      25.85418092       7.38060000       4.05313408       0.00009041      -0.00010439       0.00000000 s 
O       -1.24321548      28.46408728       7.38060000       6.60487225       0.00006027      -0.00005220       0.00000000 s 
O       -2.75004561      31.07399363       7.38060000       9.43319010       0.00003014       0.00000000       0.00000000 s 
O       16.83850507       2.36559791       7.38060000       9.12093840       0.00018082      -0.00000000       0.00000000 s 
O       15.33178041       4.97532157       7.38060000       6.84353045       0.00025616      -0.00013049       0.00000000 s 
O       13.82495027       7.58522792       7.38060000       5.35139386       0.00022602      -0.00007830       0.00000000 s 
O       12.31812014      10.19513428       7.38060000       5.34838481       0.00019588      -0.00002610       0.00000000 s 
O       10.81139548      12.80485794       7.38060000       6.83633055       0.00027122      -0.00015659       0.00000000 s 
O        9.30456534      15.41476430       7.38060000       9.11210956       0.00024109      -0.00010439       0.00000000 s 
O        7.79765986      18.02464455       7.38060000       8.43123199       0.00013561      -0.00007830       0.00000000 s 
O        6.29082973      20.63455091       7.38060000       5.89137914       0.00010548      -0.00002610       0.00000000 s 
O        4.78410507      23.24427457       7.38060000       4.06152179       0.00018082      -0.00015659       0.00000000 s 
O        3.27727493      25.85418092       7.38060000       4.05536139       0.00015068      -0.00010439       0.00000000 s 
O        1.77044480      28.46408728       7.38060000       5.87879659       0.00012054      -0.00005220       0.00000000 s 
O        0.26361466      31.07399363       7.38060000       8.41658120       0.00009041       0.00000000       0.00000000 s 
O       19.85195439       2.36559791       7.38060000       9.60559773       0.00003014       0.00000000       0.00000000 s 
O       18.34522973       4.97532157       7.38060000       6.84317344       0.00010548      -0.00013049       0.00000000 s 
O       16.83839959       7.58522792       7.38060000       4.42165326       0.00007534      -0.00007830       0.00000000 s 
O       15.33156946      10.19513428       7.38060000       3.23068240       0.00004520      -0.00002610       0.00000000 s 
O       13.82484480      12.80485794       7.38060000       4.41436602       0.00012054      -0.00015659       0.00000000 s 
O       12.31801466      15.41476430       7.38060000       6.83375739       0.00009041      -0.00010439       0.00000000 s 
O       10.81118452      18.02467065       7.38060000       9.59573599       0.00006027      -0.00005220       0.00000000 s 
O        9.30449000      20.63455091       7.38060000       8.42937516       0.00016575      -0.00002610       0.00000000 s 
O        7.79776534      23.24427457       7.38060000       6.61516924       0.00024109      -0.00015659       0.00000000 s 
O        6.29093520      25.85418092       7.38060000       5.88458262       0.00021095      -0.00010439       0.00000000 s 
O        4.78410507      28.46408728       7.38060000       6.60760605       0.00018082      -0.00005220       0.00000000 s 
O        3.27727493      31.07399363       7.38060000       8.41765402       0.00015068       0.00000000       0.00000000 s 
O       22.86559959       2.36546741       7.38060000      11.19434668       0.00007534      -0.00013049       0.00000000 s 
O       21.35889000       4.97532157       7.38060000       8.06150091       0.00016575      -0.00013049       0.00000000 s 
O       19.85205986       7.58522792       7.38060000       5.35048067       0.00013561      -0.00007830       0.00000000 s 
O       18.34522973      10.19513428       7.38060000       3.22982762       0.00010548      -0.00002610       0.00000000 s 
O       16.83850507      12.80485794       7.38060000       3.22483991       0.00018082      -0.00015659       0.00000000 s 
O       15.33167493      15.41476430       7.38060000       5.34144709       0.00015068      -0.00010439       0.00000000 s 
O       13.82484480      18.02467065       7.38060000       8.05151029       0.00012054      -0.00005220       0.00000000 s 
O       12.31801466      20.63457700       7.38060000      10.92185311       0.00009041       0.00000000       0.00000000 s 
O       10.81121466      23.24427457       7.38060000       9.44380483       0.00009041      -0.00015659       0.00000000 s 
O        9.30438452      25.85418092       7.38060000       8.42447540       0.00006027      -0.00010439       0.00000000 s 
O        7.79755439      28.46408728       7.38060000       8.42154489       0.00003014      -0.00005220       0.00000000 s 
O        6.29072425      31.07399363       7.38060000       9.43596033       0.00000000      -0.00000000       0.00000000 s 
O       25.87912425       2.36559791       7.38060000              inf       0.00000000       0.00000000       0.00000000 s 
O       24.37255027       4.97532157       7.38060000      10.06532997       0.00022602      -0.00013049       0.00000000 s 
O       22.86572014       7.58522792       7.38060000       7.47452780       0.00019588      -0.00007830       0.00000000 s 
O       21.35889000      10.19513428       7.38060000       5.34701417       0.00016575      -0.00002610       0.00000000 s 
O       19.85216534      12.80485794       7.38060000       4.41325890       0.00024109      -0.00015659       0.00000000 s 
O       18.34533520      15.41476430       7.38060000       5.34098964       0.00021095      -0.00010439       0.00000000 s 
O       16.83850507      18.02467065       7.38060000       7.46590806       0.00018082      -0.00005220       0.00000000 s 
O       15.33167493      20.63457700       7.38060000      10.05572933       0.00015068       0.00000000       0.00000000 s 
O       13.82472425      23.24443116       7.38060000              inf       0.00000000       0.00000000       0.00000000 s 
O       12.31792425      25.85428532       7.38060000              inf       0.00000000       0.00000000       0.00000000 s 
O       10.81121466      28.46408728       7.38060000      10.78656332       0.00009041      -0.00005220       0.00000000 s 
O        9.30438452      31.07399363       7.38060000      11.19744297       0.00006027       0.00000000       0.00000000 s 
O       28.89272425       2.36559791       7.38060000              inf       0.00000000       0.00000000       0.00000000 s 
O       27.38592425       4.97545206       7.38060000              inf       0.00000000       0.00000000       0.00000000 s 
O       25.87916946       7.58522792       7.38060000      10.06329820       0.00004520      -0.00007830       0.00000000 s 
O       24.37233932      10.19513428       7.38060000       8.05670236       0.00001507      -0.00002610       0.00000000 s 
O       22.86561466      12.80485794       7.38060000       6.83490085       0.00009041      -0.00015659       0.00000000 s 
O       21.35878452      15.41476430       7.38060000       6.83254516       0.00006027      -0.00010439       0.00000000 s 
O       19.85195439      18.02467065       7.38060000       8.05082441       0.00003014      -0.00005220       0.00000000 s 
O       18.34512425      20.63457700       7.38060000      10.05545476       0.00000000       0.00000000       0.00000000 s 
O       16.83839959      23.24430067       7.38060000      12.47270683       0.00007534      -0.00013049       0.00000000 s 
O       15.33152425      25.85428532       7.38060000              inf       0.00000000       0.00000000       0.00000000 s 
O       13.82472425      28.46413947       7.38060000              inf       0.00000000       0.00000000       0.00000000 s 
O       12.31792425      31.07399363       7.38060000              inf       0.00000000       0.00000000       0.00000000 s 
O       31.90632425       2.36559791       7.38060000              inf       0.00000000       0.00000000       0.00000000 s 
O       30.39952425       4.97545206       7.38060000              inf       0.00000000       0.00000000       0.00000000 s 
O       28.89272425       7.58530622       7.38060000              inf       0.00000000       0.00000000       0.00000000 s 
O       27.38599959      10.19513428       7.38060000      10.92687277       0.00007534      -0.00002610       0.00000000 s 
O       25.87927493      12.80485794       7.38060000       9.59794003       0.00015068      -0.00015659       0.00000000 s 
O       24.37244480      15.41476430       7.38060000       9.11076881       0.00012054      -0.00010439       0.00000000 s 
O       22.86561466      18.02467065       7.38060000       9.59458494       0.00009041      -0.00005220       0.00000000 s 
O       21.35878452      20.63457700       7.38060000      10.92109467       0.00006027       0.00000000       0.00000000 s 
O       19.85192425      23.24443116       7.38060000              inf       0.00000000       0.00000000       0.00000000 s 
O       18.34512425      25.85428532       7.38060000              inf       0.00000000       0.00000000       0.00000000 s 
O       16.83832425      28.46413947       7.38060000              inf       0.00000000       0.00000000       0.00000000 s 
O       15.33152425      31.07399363       7.38060000              inf       0.00000000       0.00000000       0.00000000 s 
N        1.73648152      17.52498797      10.10010000       0.00000000       0.00000000       0.00000000       0.00000000 a1
H       -0.33475069      17.62090011      10.10010000       0.00000000       0.00000000       0.00000000       0.00000000 a1
H        3.81193278      17.59130437      10.10010000       0.00000000       0.00000000       0.00000000       0.00000000 a1
C        0.59153954      18.20112289      10.10010000       0.00000000       0.00000000       0.00000000       0.00000000 a1
C        2.89471348      18.18431543      10.10010000       0.00000000       0.00000000       0.00000000       0.00000000 a1
C        0.55588866      19.60491124      10.10010000       0.00000000       0.00000000       0.00000000       0.00000000 a1
C        2.95124862      19.58444999      10.10010000       0.00000000       0.00000000       0.00000000       0.00000000 a1
H       -0.42282315      20.07935663      10.10010000       0.00000000       0.00000000       0.00000000       0.00000000 a1
C        1.75726030      20.34224724      10.10010000       0.00000000       0.00000000       0.00000000       0.00000000 a1
H        3.93787112      20.04409750      10.10010000       0.00000000       0.00000000       0.00000000       0.00000000 a1
C        1.76664766      21.82258262      10.10010000       0.00000000       0.00000000       0.00000000       0.00000000 a1
H       -0.38031632      22.01458959      10.10010000       0.00000000       0.00000000       0.00000000       0.00000000 a1
H        3.91308426      21.99613792      10.10010000       0.00000000       0.00000000       0.00000000       0.00000000 a1
C        0.55979127      22.55589944      10.10010000       0.00000000       0.00000000       0.00000000       0.00000000 a1
C        2.97603548      22.54274577      10.10010000       0.00000000       0.00000000       0.00000000       0.00000000 a1
H       -2.08153872      22.97645134      10.10010000       0.00000000       0.00000000       0.00000000       0.00000000 a1
H        5.62306117      22.95197090      10.10010000       0.00000000       0.00000000       0.00000000       0.00000000 a1
C       -1.98682128      24.05907104      10.10010000       0.00000000       0.00000000       0.00000000       0.00000000 a1
C        0.53806321      23.95895703      10.10010000       0.00000000       0.00000000       0.00000000       0.00000000 a1
C        3.00556876      23.95091868      10.10010000       0.00000000       0.00000000       0.00000000       0.00000000 a1
C        5.53087515      24.03605212      10.10010000       0.00000000       0.00000000       0.00000000       0.00000000 a1
H       -4.14348905      24.31721171      10.10010000       0.00000000       0.00000000       0.00000000       0.00000000 a1
C       -0.73577044      24.71255242      10.10010000       0.00000000       0.00000000       0.00000000       0.00000000 a1
C       -3.16910176      24.80901263      10.10010000       0.00000000       0.00000000       0.00000000       0.00000000 a1
C        1.77582407      24.63326505      10.10010000       0.00000000       0.00000000       0.00000000       0.00000000 a1
C        4.28646930      24.69263923      10.10010000       0.00000000       0.00000000       0.00000000       0.00000000 a1
H        7.69239482      24.28761597      10.10010000       0.00000000       0.00000000       0.00000000       0.00000000 a1
C        6.71821848      24.78416682      10.10010000       0.00000000       0.00000000       0.00000000       0.00000000 a1
N       -3.15707750      26.14118659      10.10010000       0.00000000       0.00000000       0.00000000       0.00000000 a1
C       -0.76857348      26.12017726      10.10010000       0.00000000       0.00000000       0.00000000       0.00000000 a1
H        1.78057049      25.71825972      10.10010000       0.00000000       0.00000000       0.00000000       0.00000000 a1
C        4.32517899      26.10537939      10.10010000       0.00000000       0.00000000       0.00000000       0.00000000 a1
N        6.71210087      26.11305236      10.10010000       0.00000000       0.00000000       0.00000000       0.00000000 a1
C       -2.00053316      26.79284107      10.10010000       0.00000000       0.00000000       0.00000000       0.00000000 a1
C        5.55618939      26.77384133      10.10010000       0.00000000       0.00000000       0.00000000       0.00000000 a1
H        0.13335180      26.72798619      10.10010000       0.00000000       0.00000000       0.00000000       0.00000000 a1
H        3.42536324      26.71501522      10.10010000       0.00000000       0.00000000       0.00000000       0.00000000 a1
H       -2.04209070      27.88605678      10.10010000       0.00000000       0.00000000       0.00000000       0.00000000 a1
H        5.60323168      27.86449938      10.10010000       0.00000000       0.00000000       0.00000000       0.00000000 a1
N       16.87014787      16.79882215      10.10010000       0.00000000       0.00000000       0.00000000       0.00000000 a2
H       18.94148556      16.70272732      10.10010000       0.00000000       0.00000000       0.00000000       0.00000000 a2
H       14.79490757      16.73250576      10.10010000       0.00000000       0.00000000       0.00000000       0.00000000 a2
C       18.01540628      16.12250455      10.10010000       0.00000000       0.00000000       0.00000000       0.00000000 a2
C       15.71191591      16.13949470      10.10010000       0.00000000       0.00000000       0.00000000       0.00000000 a2
C       18.05074074      14.71889888      10.10010000       0.00000000       0.00000000       0.00000000       0.00000000 a2
C       15.65559173      14.73936014      10.10010000       0.00000000       0.00000000       0.00000000       0.00000000 a2
H       19.02966349      14.24445350      10.10010000       0.00000000       0.00000000       0.00000000       0.00000000 a2
C       16.84958005      13.98156289      10.10010000       0.00000000       0.00000000       0.00000000       0.00000000 a2
H       14.66896922      14.27971263      10.10010000       0.00000000       0.00000000       0.00000000       0.00000000 a2
C       16.83998173      12.50122751      10.10010000       0.00000000       0.00000000       0.00000000       0.00000000 a2
H       18.98715666      12.30922054      10.10010000       0.00000000       0.00000000       0.00000000       0.00000000 a2
H       14.69354513      12.32767221      10.10010000       0.00000000       0.00000000       0.00000000       0.00000000 a2
C       18.04704908      11.76791069      10.10010000       0.00000000       0.00000000       0.00000000       0.00000000 a2
C       15.63080487      11.78106435      10.10010000       0.00000000       0.00000000       0.00000000       0.00000000 a2
H       20.68816812      11.34735879      10.10010000       0.00000000       0.00000000       0.00000000       0.00000000 a2
H       12.98356822      11.37183922      10.10010000       0.00000000       0.00000000       0.00000000       0.00000000 a2
C       20.59366162      10.26473909      10.10010000       0.00000000       0.00000000       0.00000000       0.00000000 a2
C       18.06877713      10.36485309      10.10010000       0.00000000       0.00000000       0.00000000       0.00000000 a2
C       15.60106064      10.37289144      10.10010000       0.00000000       0.00000000       0.00000000       0.00000000 a2
C       13.07596520      10.28775800      10.10010000       0.00000000       0.00000000       0.00000000       0.00000000 a2
H       22.75032939      10.00659841      10.10010000       0.00000000       0.00000000       0.00000000       0.00000000 a2
C       19.34261078       9.61125771      10.10010000       0.00000000       0.00000000       0.00000000       0.00000000 a2
C       21.77594210       9.51479750      10.10010000       0.00000000       0.00000000       0.00000000       0.00000000 a2
C       16.83101627       9.69054508      10.10010000       0.00000000       0.00000000       0.00000000       0.00000000 a2
C       14.32037104       9.63117089      10.10010000       0.00000000       0.00000000       0.00000000       0.00000000 a2
H       10.91444553      10.03619416      10.10010000       0.00000000       0.00000000       0.00000000       0.00000000 a2
C       11.88841091       9.53964331      10.10010000       0.00000000       0.00000000       0.00000000       0.00000000 a2
N       21.76370689       8.18262354      10.10010000       0.00000000       0.00000000       0.00000000       0.00000000 a2
C       19.37541382       8.20363287      10.10010000       0.00000000       0.00000000       0.00000000       0.00000000 a2
H       16.82626985       8.60555041      10.10010000       0.00000000       0.00000000       0.00000000       0.00000000 a2
C       14.28145040       8.21843074      10.10010000       0.00000000       0.00000000       0.00000000       0.00000000 a2
N       11.89473947       8.21075777      10.10010000       0.00000000       0.00000000       0.00000000       0.00000000 a2
C       20.60716255       7.53096906      10.10010000       0.00000000       0.00000000       0.00000000       0.00000000 a2
C       13.05065096       7.54996879      10.10010000       0.00000000       0.00000000       0.00000000       0.00000000 a2
H       18.47348854       7.59582393      10.10010000       0.00000000       0.00000000       0.00000000       0.00000000 a2
H       15.18126616       7.60879491      10.10010000       0.00000000       0.00000000       0.00000000       0.00000000 a2
H       20.64893104       6.43775335      10.10010000       0.00000000       0.00000000       0.00000000       0.00000000 a2
H       13.00339771       6.45931074      10.10010000       0.00000000       0.00000000       0.00000000       0.00000000 a2
