222
Lattice="36.16319999999999 0.0 0.0 -18.081599999999995 31.318249882114287 0.0 0.0 0.0 30.0" Properties=species:S:1:pos:R:3:remoteness:R:1:shift:R:3:adsorption:S:1 size="_JSON [[12, 0], [0, 12]]" mass_center_dist=15.94933644746732 min_atom_dist=4.401499423195834 s1=tpb_atop s2=tpb_atop s1idx=4 s2idx=5 pbc="T T T"
O       -1.24327575       2.36559791       7.38060000              inf       0.00000000       0.00000000       0.00000000 s 
O       -2.75007575       4.97545206       7.38060000              inf       0.00000000       0.00000000       0.00000000 s 
O       -4.25687575       7.58530622       7.38060000              inf       0.00000000       0.00000000       0.00000000 s 
O       -5.76367575      10.19516038       7.38060000              inf       0.00000000       0.00000000       0.00000000 s 
O       -7.27032507      12.80506673       7.38060000      11.19620674       0.00015068       0.00005220       0.00000000 s 
O       -8.77715520      15.41497308       7.38060000      10.78153931       0.00012054       0.00010439       0.00000000 s 
O      -10.28398534      18.02487944       7.38060000      11.19341015       0.00009041       0.00015659       0.00000000 s 
O      -11.79078534      20.63452481       7.38060000      10.78656332       0.00009041      -0.00005220       0.00000000 s 
O      -13.29761548      23.24443116       7.38060000      11.19744297       0.00006027       0.00000000       0.00000000 s 
O      -14.80447575      25.85428532       7.38060000              inf       0.00000000       0.00000000       0.00000000 s 
O      -16.31127575      28.46413947       7.38060000              inf       0.00000000       0.00000000       0.00000000 s 
O      -17.81807575      31.07399363       7.38060000              inf       0.00000000       0.00000000       0.00000000 s 
O        1.77032425       2.36559791       7.38060000              inf       0.00000000       0.00000000       0.00000000 s 
O        0.26352425       4.97545206       7.38060000              inf       0.00000000       0.00000000       0.00000000 s 
O       -1.24327575       7.58530622       7.38060000              inf       0.00000000       0.00000000       0.00000000 s 
O       -2.75004561      10.19516038       7.38060000      11.19992230       0.00003014       0.00000000       0.00000000 s 
O       -4.25666480      12.80506673       7.38060000       9.43806608       0.00021095       0.00005220       0.00000000 s 
O       -5.76349493      15.41497308       7.38060000       8.41911442       0.00018082       0.00010439       0.00000000 s 
O       -7.27032507      18.02487944       7.38060000       8.41725492       0.00015068       0.00015659       0.00000000 s 
O       -8.77726068      20.63460310       7.38060000       9.43319010       0.00001507       0.00002610       0.00000000 s 
O      -10.28387986      23.24450946       7.38060000      11.19273330       0.00019588       0.00007830       0.00000000 s 
O      -11.79087575      25.85428532       7.38060000              inf       0.00000000       0.00000000       0.00000000 s 
O      -13.29767575      28.46413947       7.38060000              inf       0.00000000       0.00000000       0.00000000 s 
O      -14.80447575      31.07399363       7.38060000              inf       0.00000000       0.00000000       0.00000000 s 
O        4.78392425       2.36559791       7.38060000              inf       0.00000000       0.00000000       0.00000000 s 
O        3.27712425       4.97545206       7.38060000              inf       0.00000000       0.00000000       0.00000000 s 
O        1.77032425       7.58530622       7.38060000              inf       0.00000000       0.00000000       0.00000000 s 
O        0.26361466      10.19516038       7.38060000      10.78913708       0.00009041      -0.00000000       0.00000000 s 
O       -1.24321548      12.80506673       7.38060000       8.42401722       0.00006027       0.00005220       0.00000000 s 
O       -2.74983466      15.41497308       7.38060000       6.60951449       0.00024109       0.00010439       0.00000000 s 
O       -4.25666480      18.02487944       7.38060000       5.87981516       0.00021095       0.00015659       0.00000000 s 
O       -5.76360041      20.63460310       7.38060000       6.60487225       0.00007534       0.00002610       0.00000000 s 
O       -7.27043054      23.24450946       7.38060000       8.41658120       0.00004520       0.00007830       0.00000000 s 
O       -8.77704973      25.85441581       7.38060000      10.78025168       0.00022602       0.00013049       0.00000000 s 
O      -10.28407575      28.46413947       7.38060000              inf       0.00000000       0.00000000       0.00000000 s 
O      -11.79087575      31.07399363       7.38060000              inf       0.00000000       0.00000000       0.00000000 s 
O        7.79752425       2.36559791       7.38060000              inf       0.00000000       0.00000000       0.00000000 s 
O        6.29072425       4.97545206       7.38060000              inf       0.00000000       0.00000000       0.00000000 s 
O        4.78392425       7.58530622       7.38060000              inf       0.00000000       0.00000000       0.00000000 s 
O        3.27712425      10.19516038       7.38060000              inf       0.00000000       0.00000000       0.00000000 s 
O        1.77044480      12.80506673       7.38060000       8.42694687       0.00012054       0.00005220       0.00000000 s 
O        0.26361466      15.41497308       7.38060000       5.88677917       0.00009041       0.00010439       0.00000000 s 
O       -1.24300452      18.02487944       7.38060000       4.05691616       0.00027122       0.00015659       0.00000000 s 
O       -2.74994014      20.63460310       7.38060000       4.05313408       0.00013561       0.00002610       0.00000000 s 
O       -4.25677027      23.24450946       7.38060000       5.87879659       0.00010548       0.00007830       0.00000000 s 
O       -5.76360041      25.85441581       7.38060000       8.41765402       0.00007534       0.00013049       0.00000000 s 
O       -7.27032507      28.46413947       7.38060000      11.19434668       0.00015068      -0.00000000       0.00000000 s 
O       -8.77727575      31.07399363       7.38060000              inf       0.00000000       0.00000000       0.00000000 s 
O       10.81112425       2.36559791       7.38060000              inf       0.00000000       0.00000000       0.00000000 s 
O        9.30432425       4.97545206       7.38060000              inf       0.00000000       0.00000000       0.00000000 s 
O        7.79752425       7.58530622       7.38060000              inf       0.00000000       0.00000000       0.00000000 s 
O        6.29076946      10.19508208       7.38060000      10.78913708       0.00004520      -0.00007830       0.00000000 s 
O        4.78410507      12.80506673       7.38060000       9.44600961       0.00018082       0.00005220       0.00000000 s 
O        3.27727493      15.41497308       7.38060000       6.61707524       0.00015068       0.00010439       0.00000000 s 
O        1.77044480      18.02487944       7.38060000       4.06307377       0.00012054       0.00015659       0.00000000 s 
O        0.26372014      20.63460310       7.38060000       2.71951298       0.00019588       0.00002610       0.00000000 s 
O       -1.24311000      23.24450946       7.38060000       4.05536139       0.00016575       0.00007830       0.00000000 s 
O       -2.74994014      25.85441581       7.38060000       6.60760605       0.00013561       0.00013049       0.00000000 s 
O       -4.25687575      28.46413947       7.38060000       9.43596033       0.00000000       0.00000000       0.00000000 s 
O       -5.76367575      31.07399363       7.38060000              inf       0.00000000       0.00000000       0.00000000 s 
O       13.82472425       2.36559791       7.38060000              inf       0.00000000       0.00000000       0.00000000 s 
O       12.31792425       4.97545206       7.38060000              inf       0.00000000       0.00000000       0.00000000 s 
O       10.81125986       7.58517573       7.38060000       9.44600961       0.00013561      -0.00013049       0.00000000 s 
O        9.30442973      10.19508208       7.38060000       8.42694687       0.00010548      -0.00007830       0.00000000 s 
O        7.79759959      12.80498844       7.38060000       8.42401722       0.00007534      -0.00002610       0.00000000 s 
O        6.29093520      15.41497308       7.38060000       8.43098434       0.00021095       0.00010439       0.00000000 s 
O        4.78410507      18.02487944       7.38060000       5.89255737       0.00018082       0.00015659       0.00000000 s 
O        3.27716946      20.63460310       7.38060000       4.06529548       0.00004520       0.00002610       0.00000000 s 
O        1.77055027      23.24450946       7.38060000       4.06152179       0.00022602       0.00007830       0.00000000 s 
O        0.26372014      25.85441581       7.38060000       5.88458262       0.00019588       0.00013049       0.00000000 s 
O       -1.24321548      28.46413947       7.38060000       8.42154489       0.00006027      -0.00000000       0.00000000 s 
O       -2.75004561      31.07404583       7.38060000      11.19744297       0.00003014       0.00005220       0.00000000 s 
O       16.83832425       2.36559791       7.38060000              inf       0.00000000       0.00000000       0.00000000 s 
O       15.33164480       4.97545206       7.38060000      10.79526691       0.00012054       0.00000000       0.00000000 s 
O       13.82492014       7.58517573       7.38060000       8.43098434       0.00019588      -0.00013049       0.00000000 s 
O       12.31809000      10.19508208       7.38060000       6.61707524       0.00016575      -0.00007830       0.00000000 s 
O       10.81125986      12.80498844       7.38060000       5.88677917       0.00013561      -0.00002610       0.00000000 s 
O        9.30453520      15.41471210       7.38060000       6.60951449       0.00021095      -0.00015659       0.00000000 s 
O        7.79770507      18.02461845       7.38060000       8.41911442       0.00018082      -0.00010439       0.00000000 s 
O        6.29082973      20.63460310       7.38060000       6.61980391       0.00010548       0.00002610       0.00000000 s 
O        4.78399959      23.24450946       7.38060000       5.89137914       0.00007534       0.00007830       0.00000000 s 
O        3.27738041      25.85441581       7.38060000       6.61516924       0.00025616       0.00013049       0.00000000 s 
O        1.77044480      28.46413947       7.38060000       8.42447540       0.00012054      -0.00000000       0.00000000 s 
O        0.26361466      31.07404583       7.38060000      10.78656332       0.00009041       0.00005220       0.00000000 s 
O       19.85192425       2.36559791       7.38060000              inf       0.00000000       0.00000000       0.00000000 s 
O       18.34512425       4.97545206       7.38060000              inf       0.00000000       0.00000000       0.00000000 s 
O       16.83858041       7.58517573       7.38060000       8.43209302       0.00025616      -0.00013049       0.00000000 s 
O       15.33175027      10.19508208       7.38060000       5.89255737       0.00022602      -0.00007830       0.00000000 s 
O       13.82492014      12.80498844       7.38060000       4.06307377       0.00019588      -0.00002610       0.00000000 s 
O       12.31819548      15.41471210       7.38060000       4.05691616       0.00027122      -0.00015659       0.00000000 s 
O       10.81136534      18.02461845       7.38060000       5.87981516       0.00024109      -0.00010439       0.00000000 s 
O        9.30453520      20.63452481       7.38060000       8.41725492       0.00021095      -0.00005220       0.00000000 s 
O        7.79765986      23.24450946       7.38060000       8.43123199       0.00013561       0.00007830       0.00000000 s 
O        6.29082973      25.85441581       7.38060000       8.42937516       0.00010548       0.00013049       0.00000000 s 
O        4.78410507      28.46413947       7.38060000       9.44380483       0.00018082      -0.00000000       0.00000000 s 
O        3.27712425      31.07399363       7.38060000              inf       0.00000000       0.00000000       0.00000000 s 
O       22.86552425       2.36559791       7.38060000              inf       0.00000000       0.00000000       0.00000000 s 
O       21.35872425       4.97545206       7.38060000              inf       0.00000000       0.00000000       0.00000000 s 
O       19.85202973       7.58517573       7.38060000       9.44887700       0.00010548      -0.00013049       0.00000000 s 
O       18.34519959      10.19508208       7.38060000       6.61980391       0.00007534      -0.00007830       0.00000000 s 
O       16.83836946      12.80498844       7.38060000       4.06529548       0.00004520      -0.00002610       0.00000000 s 
O       15.33164480      15.41471210       7.38060000       2.71951298       0.00012054      -0.00015659       0.00000000 s 
O       13.82481466      18.02461845       7.38060000       4.05313408       0.00009041      -0.00010439       0.00000000 s 
O       12.31798452      20.63452481       7.38060000       6.60487225       0.00006027      -0.00005220       0.00000000 s 
O       10.81115439      23.24443116       7.38060000       9.43319010       0.00003014       0.00000000       0.00000000 s 
O        9.30449000      25.85441581       7.38060000      10.79415761       0.00016575       0.00013049       0.00000000 s 
O        7.79752425      28.46413947       7.38060000              inf       0.00000000       0.00000000       0.00000000 s 
O        6.29072425      31.07399363       7.38060000              inf       0.00000000       0.00000000       0.00000000 s 
O       25.87912425       2.36559791       7.38060000              inf       0.00000000       0.00000000       0.00000000 s 
O       24.37232425       4.97545206       7.38060000              inf       0.00000000       0.00000000       0.00000000 s 
O       22.86552425       7.58530622       7.38060000              inf       0.00000000       0.00000000       0.00000000 s 
O       21.35885986      10.19508208       7.38060000       8.43123199       0.00013561      -0.00007830       0.00000000 s 
O       19.85202973      12.80498844       7.38060000       5.89137914       0.00010548      -0.00002610       0.00000000 s 
O       18.34530507      15.41471210       7.38060000       4.06152179       0.00018082      -0.00015659       0.00000000 s 
O       16.83847493      18.02461845       7.38060000       4.05536139       0.00015068      -0.00010439       0.00000000 s 
O       15.33164480      20.63452481       7.38060000       5.87879659       0.00012054      -0.00005220       0.00000000 s 
O       13.82481466      23.24443116       7.38060000       8.41658120       0.00009041       0.00000000       0.00000000 s 
O       12.31809000      25.85415483       7.38060000      11.19273330       0.00016575      -0.00013049       0.00000000 s 
O       10.81112425      28.46413947       7.38060000              inf       0.00000000       0.00000000       0.00000000 s 
O        9.30432425      31.07399363       7.38060000              inf       0.00000000       0.00000000       0.00000000 s 
O       28.89272425       2.36559791       7.38060000              inf       0.00000000       0.00000000       0.00000000 s 
O       27.38592425       4.97545206       7.38060000              inf       0.00000000       0.00000000       0.00000000 s 
O       25.87912425       7.58530622       7.38060000              inf       0.00000000       0.00000000       0.00000000 s 
O       24.37252014      10.19508208       7.38060000      10.79415761       0.00019588      -0.00007830       0.00000000 s 
O       22.86569000      12.80498844       7.38060000       8.42937516       0.00016575      -0.00002610       0.00000000 s 
O       21.35896534      15.41471210       7.38060000       6.61516924       0.00024109      -0.00015659       0.00000000 s 
O       19.85213520      18.02461845       7.38060000       5.88458262       0.00021095      -0.00010439       0.00000000 s 
O       18.34530507      20.63452481       7.38060000       6.60760605       0.00018082      -0.00005220       0.00000000 s 
O       16.83847493      23.24443116       7.38060000       8.41765402       0.00015068       0.00000000       0.00000000 s 
O       15.33175027      25.85415483       7.38060000      10.78025168       0.00022602      -0.00013049       0.00000000 s 
O       13.82472425      28.46413947       7.38060000              inf       0.00000000       0.00000000       0.00000000 s 
O       12.31792425      31.07399363       7.38060000              inf       0.00000000       0.00000000       0.00000000 s 
O       31.90632425       2.36559791       7.38060000              inf       0.00000000       0.00000000       0.00000000 s 
O       30.39952425       4.97545206       7.38060000              inf       0.00000000       0.00000000       0.00000000 s 
O       28.89272425       7.58530622       7.38060000              inf       0.00000000       0.00000000       0.00000000 s 
O       27.38592425      10.19516038       7.38060000              inf       0.00000000       0.00000000       0.00000000 s 
O       25.87912425      12.80501453       7.38060000              inf       0.00000000       0.00000000       0.00000000 s 
O       24.37241466      15.41471210       7.38060000       9.44380483       0.00009041      -0.00015659       0.00000000 s 
O       22.86558452      18.02461845       7.38060000       8.42447540       0.00006027      -0.00010439       0.00000000 s 
O       21.35875439      20.63452481       7.38060000       8.42154489       0.00003014      -0.00005220       0.00000000 s 
O       19.85192425      23.24443116       7.38060000       9.43596033      -0.00000000      -0.00000000       0.00000000 s 
O       18.34519959      25.85415483       7.38060000      11.19434668       0.00007534      -0.00013049       0.00000000 s 
O       16.83832425      28.46413947       7.38060000              inf       0.00000000       0.00000000       0.00000000 s 
O       15.33152425      31.07399363       7.38060000              inf       0.00000000       0.00000000       0.00000000 s 
N       15.29768152       9.69542550      10.10010000       0.00000000       0.00000000       0.00000000       0.00000000 a1
H       13.22644931       9.79133764      10.10010000       0.00000000       0.00000000       0.00000000       0.00000000 a1
H       17.37313278       9.76174190      10.10010000       0.00000000       0.00000000       0.00000000       0.00000000 a1
C       14.15273954      10.37156042      10.10010000       0.00000000       0.00000000       0.00000000       0.00000000 a1
C       16.45591348      10.35475296      10.10010000       0.00000000       0.00000000       0.00000000       0.00000000 a1
C       14.11708866      11.77534877      10.10010000       0.00000000       0.00000000       0.00000000       0.00000000 a1
C       16.51244862      11.75488752      10.10010000       0.00000000       0.00000000       0.00000000       0.00000000 a1
H       13.13837685      12.24979416      10.10010000       0.00000000       0.00000000       0.00000000       0.00000000 a1
C       15.31846030      12.51268477      10.10010000       0.00000000       0.00000000       0.00000000       0.00000000 a1
H       17.49907112      12.21453503      10.10010000       0.00000000       0.00000000       0.00000000       0.00000000 a1
C       15.32784766      13.99302015      10.10010000       0.00000000       0.00000000       0.00000000       0.00000000 a1
H       13.18088368      14.18502712      10.10010000       0.00000000       0.00000000       0.00000000       0.00000000 a1
H       17.47428426      14.16657545      10.10010000       0.00000000       0.00000000       0.00000000       0.00000000 a1
C       14.12099127      14.72633697      10.10010000       0.00000000       0.00000000       0.00000000       0.00000000 a1
C       16.53723548      14.71318330      10.10010000       0.00000000       0.00000000       0.00000000       0.00000000 a1
H       11.47966128      15.14688887      10.10010000       0.00000000       0.00000000       0.00000000       0.00000000 a1
H       19.18426117      15.12240843      10.10010000       0.00000000       0.00000000       0.00000000       0.00000000 a1
C       11.57437872      16.22950857      10.10010000       0.00000000       0.00000000       0.00000000       0.00000000 a1
C       14.09926321      16.12939456      10.10010000       0.00000000       0.00000000       0.00000000       0.00000000 a1
C       16.56676876      16.12135621      10.10010000       0.00000000       0.00000000       0.00000000       0.00000000 a1
C       19.09207515      16.20648965      10.10010000       0.00000000       0.00000000       0.00000000       0.00000000 a1
H        9.41771095      16.48764924      10.10010000       0.00000000       0.00000000       0.00000000       0.00000000 a1
C       12.82542956      16.88298995      10.10010000       0.00000000       0.00000000       0.00000000       0.00000000 a1
C       10.39209824      16.97945016      10.10010000       0.00000000       0.00000000       0.00000000       0.00000000 a1
C       15.33702407      16.80370258      10.10010000       0.00000000       0.00000000       0.00000000       0.00000000 a1
C       17.84766930      16.86307676      10.10010000       0.00000000       0.00000000       0.00000000       0.00000000 a1
H       21.25359482      16.45805350      10.10010000       0.00000000       0.00000000       0.00000000       0.00000000 a1
C       20.27941848      16.95460435      10.10010000       0.00000000       0.00000000       0.00000000       0.00000000 a1
N       10.40412250      18.31162411      10.10010000       0.00000000       0.00000000       0.00000000       0.00000000 a1
C       12.79262652      18.29061479      10.10010000       0.00000000       0.00000000       0.00000000       0.00000000 a1
H       15.34177049      17.88869725      10.10010000       0.00000000       0.00000000       0.00000000       0.00000000 a1
C       17.88637899      18.27581692      10.10010000       0.00000000       0.00000000       0.00000000       0.00000000 a1
N       20.27330087      18.28348989      10.10010000       0.00000000       0.00000000       0.00000000       0.00000000 a1
C       11.56066684      18.96327860      10.10010000       0.00000000       0.00000000       0.00000000       0.00000000 a1
C       19.11738939      18.94427886      10.10010000       0.00000000       0.00000000       0.00000000       0.00000000 a1
H       13.69455180      18.89842372      10.10010000       0.00000000       0.00000000       0.00000000       0.00000000 a1
H       16.98656324      18.88545275      10.10010000       0.00000000       0.00000000       0.00000000       0.00000000 a1
H       11.51910930      20.05649431      10.10010000       0.00000000       0.00000000       0.00000000       0.00000000 a1
H       19.16443168      20.03493691      10.10010000       0.00000000       0.00000000       0.00000000       0.00000000 a1
N        5.19978598      17.74554675      10.10010000       0.00000000       0.00000000       0.00000000       0.00000000 a2
H        4.08110753      15.99976311      10.10010000       0.00000000       0.00000000       0.00000000       0.00000000 a2
H        6.18007993      19.57609845      10.10010000       0.00000000       0.00000000       0.00000000       0.00000000 a2
C        4.04176498      17.09206537      10.10010000       0.00000000       0.00000000       0.00000000       0.00000000 a2
C        5.20790764      19.07826877      10.10010000       0.00000000       0.00000000       0.00000000       0.00000000 a2
C        2.80822316      17.76308497      10.10010000       0.00000000       0.00000000       0.00000000       0.00000000 a2
C        4.02362311      19.82729692      10.10010000       0.00000000       0.00000000       0.00000000       0.00000000 a2
H        1.90798550      17.15271838      10.10010000       0.00000000       0.00000000       0.00000000       0.00000000 a2
C        2.77035728      19.17217133      10.10010000       0.00000000       0.00000000       0.00000000       0.00000000 a2
H        4.11886794      20.91156083      10.10010000       0.00000000       0.00000000       0.00000000       0.00000000 a2
C        1.49304292      19.92046871      10.10010000       0.00000000       0.00000000       0.00000000       0.00000000 a2
H        0.25327801      18.15714685      10.10010000       0.00000000       0.00000000       0.00000000       0.00000000 a2
H        2.41595792      21.86611498      10.10010000       0.00000000       0.00000000       0.00000000       0.00000000 a2
C        0.25454372      19.24195883      10.10010000       0.00000000       0.00000000       0.00000000       0.00000000 a2
C        1.47405724      21.32791086      10.10010000       0.00000000       0.00000000       0.00000000       0.00000000 a2
H       -1.43032990      17.16477590      10.10010000       0.00000000       0.00000000       0.00000000       0.00000000 a2
H        2.44317072      23.82491492      10.10010000       0.00000000       0.00000000       0.00000000       0.00000000 a2
C       -2.32054734      17.78811347      10.10010000       0.00000000       0.00000000       0.00000000       0.00000000 a2
C       -0.97140382      19.92467058      10.10010000       0.00000000       0.00000000       0.00000000       0.00000000 a2
C        0.26931036      22.05757388      10.10010000       0.00000000       0.00000000       0.00000000       0.00000000 a2
C        1.45823584      24.28712009      10.10010000       0.00000000       0.00000000       0.00000000       0.00000000 a2
H       -3.62243761      16.04945473      10.10010000       0.00000000       0.00000000       0.00000000       0.00000000 a2
C       -2.26095340      19.19829597      10.10010000       0.00000000       0.00000000       0.00000000       0.00000000 a2
C       -3.56115605      17.13919933      10.10010000       0.00000000       0.00000000       0.00000000       0.00000000 a2
C       -0.93649127      21.33375693      10.10010000       0.00000000       0.00000000       0.00000000       0.00000000 a2
C        0.26741180      23.53772657      10.10010000       0.00000000       0.00000000       0.00000000       0.00000000 a2
H        2.32113499      26.28483296      10.10010000       0.00000000       0.00000000       0.00000000       0.00000000 a2
C        1.40402117      25.68944693      10.10010000       0.00000000       0.00000000       0.00000000       0.00000000 a2
N       -4.70884041      17.81569963      10.10010000       0.00000000       0.00000000       0.00000000       0.00000000 a2
C       -3.49639379      19.87370012      10.10010000       0.00000000       0.00000000       0.00000000       0.00000000 a2
H       -1.87375100      21.88036479      10.10010000       0.00000000       0.00000000       0.00000000       0.00000000 a2
C       -0.93670222      24.27762022      10.10010000       0.00000000       0.00000000       0.00000000       0.00000000 a2
N        0.25011373      26.34859170      10.10010000       0.00000000       0.00000000       0.00000000       0.00000000 a2
C       -4.69491758      19.14312365      10.10010000       0.00000000       0.00000000       0.00000000       0.00000000 a2
C       -0.90010205      25.67793747      10.10010000       0.00000000       0.00000000       0.00000000       0.00000000 a2
H       -3.57180913      20.95869479      10.10010000       0.00000000       0.00000000       0.00000000       0.00000000 a2
H       -1.91457022      23.80317484      10.10010000       0.00000000       0.00000000       0.00000000       0.00000000 a2
H       -5.66244892      19.65374162      10.10010000       0.00000000       0.00000000       0.00000000       0.00000000 a2
H       -1.82111848      26.26400632      10.10010000       0.00000000       0.00000000       0.00000000       0.00000000 a2
