184
Lattice="36.16319999999999 0.0 0.0 -18.081599999999995 31.318249882114287 0.0 0.0 0.0 30.0" Properties=species:S:1:pos:R:3:remoteness:R:1:shift:R:3:adsorption:S:1 size="_JSON [[12, 0], [0, 12]]" mass_center_dist=15.163279123090343 min_atom_dist=9.176386012362686 s1=cu_atop s2=tpb_hollow_down s1idx=1 s2idx=6 pbc="T T T"
O       -1.24327575       2.36559791       7.38060000              inf       0.00000000       0.00000000       0.00000000 s 
O       -2.75007575       4.97545206       7.38060000              inf       0.00000000       0.00000000       0.00000000 s 
O       -4.25687575       7.58530622       7.38060000              inf       0.00000000       0.00000000       0.00000000 s 
O       -5.76367575      10.19516038       7.38060000              inf       0.00000000       0.00000000       0.00000000 s 
O       -7.27047575      12.80501453       7.38060000              inf       0.00000000       0.00000000       0.00000000 s 
O       -8.77727575      15.41486869       7.38060000              inf       0.00000000       0.00000000       0.00000000 s 
O      -10.28407575      18.02472285       7.38060000              inf       0.00000000       0.00000000       0.00000000 s 
O      -11.79087575      20.63457700       7.38060000              inf       0.00000000       0.00000000       0.00000000 s 
O      -13.29767575      23.24443116       7.38060000              inf       0.00000000       0.00000000       0.00000000 s 
O      -14.80447575      25.85428532       7.38060000              inf       0.00000000       0.00000000       0.00000000 s 
O      -16.31127575      28.46413947       7.38060000              inf       0.00000000       0.00000000       0.00000000 s 
O      -17.81807575      31.07399363       7.38060000              inf       0.00000000       0.00000000       0.00000000 s 
O        1.77032425       2.36559791       7.38060000              inf       0.00000000       0.00000000       0.00000000 s 
O        0.26352425       4.97545206       7.38060000              inf       0.00000000       0.00000000       0.00000000 s 
O       -1.24327575       7.58530622       7.38060000              inf       0.00000000       0.00000000       0.00000000 s 
O       -2.75007575      10.19516038       7.38060000              inf       0.00000000       0.00000000       0.00000000 s 
O       -4.25687575      12.80501453       7.38060000              inf       0.00000000       0.00000000       0.00000000 s 
O       -5.76367575      15.41486869       7.38060000              inf       0.00000000       0.00000000       0.00000000 s 
O       -7.27047575      18.02472285       7.38060000              inf       0.00000000       0.00000000       0.00000000 s 
O       -8.77727575      20.63457700       7.38060000              inf       0.00000000       0.00000000       0.00000000 s 
O      -10.28407575      23.24443116       7.38060000              inf       0.00000000       0.00000000       0.00000000 s 
O      -11.79087575      25.85428532       7.38060000              inf       0.00000000       0.00000000       0.00000000 s 
O      -13.29767575      28.46413947       7.38060000              inf       0.00000000       0.00000000       0.00000000 s 
O      -14.80447575      31.07399363       7.38060000              inf       0.00000000       0.00000000       0.00000000 s 
O        4.78392425       2.36559791       7.38060000              inf       0.00000000       0.00000000       0.00000000 s 
O        3.27712425       4.97545206       7.38060000              inf       0.00000000       0.00000000       0.00000000 s 
O        1.77032425       7.58530622       7.38060000              inf       0.00000000       0.00000000       0.00000000 s 
O        0.26352425      10.19516038       7.38060000              inf       0.00000000       0.00000000       0.00000000 s 
O       -1.24327575      12.80501453       7.38060000              inf       0.00000000       0.00000000       0.00000000 s 
O       -2.75007575      15.41486869       7.38060000              inf       0.00000000       0.00000000       0.00000000 s 
O       -4.25683054      18.02464455       7.38060000      10.78784708       0.00004520      -0.00007830       0.00000000 s 
O       -5.76367575      20.63457700       7.38060000              inf       0.00000000       0.00000000       0.00000000 s 
O       -7.27047575      23.24443116       7.38060000              inf       0.00000000       0.00000000       0.00000000 s 
O       -8.77727575      25.85428532       7.38060000              inf       0.00000000       0.00000000       0.00000000 s 
O      -10.28407575      28.46413947       7.38060000              inf       0.00000000       0.00000000       0.00000000 s 
O      -11.79087575      31.07399363       7.38060000              inf       0.00000000       0.00000000       0.00000000 s 
O        7.79752425       2.36559791       7.38060000              inf       0.00000000       0.00000000       0.00000000 s 
O        6.29085986       4.97532157       7.38060000      10.06618962       0.00013561      -0.00013049       0.00000000 s 
O        4.78402973       7.58522792       7.38060000      10.06461387       0.00010548      -0.00007830       0.00000000 s 
O        3.27712425      10.19516038       7.38060000              inf       0.00000000       0.00000000       0.00000000 s 
O        1.77038452      12.80501453       7.38060000      11.20071331       0.00006027       0.00000000       0.00000000 s 
O        0.26365986      15.41473820       7.38060000       9.44093216       0.00013561      -0.00013049       0.00000000 s 
O       -1.24317027      18.02464455       7.38060000       8.42422336       0.00010548      -0.00007830       0.00000000 s 
O       -2.75000041      20.63455091       7.38060000       8.42426109       0.00007534      -0.00002610       0.00000000 s 
O       -4.25672507      23.24427457       7.38060000       9.44093216       0.00015068      -0.00015659       0.00000000 s 
O       -5.76367575      25.85428532       7.38060000              inf       0.00000000       0.00000000       0.00000000 s 
O       -7.27047575      28.46413947       7.38060000              inf       0.00000000       0.00000000       0.00000000 s 
O       -8.77727575      31.07399363       7.38060000              inf       0.00000000       0.00000000       0.00000000 s 
O       10.81124480       2.36559791       7.38060000       9.60586231       0.00012054       0.00000000       0.00000000 s 
O        9.30452014       4.97532157       7.38060000       8.06206983       0.00019588      -0.00013049       0.00000000 s 
O        7.79769000       7.58522792       7.38060000       7.47550002       0.00016575      -0.00007830       0.00000000 s 
O        6.29085986      10.19513428       7.38060000       8.05813426       0.00013561      -0.00002610       0.00000000 s 
O        4.78413520      12.80485794       7.38060000       9.59925573       0.00021095      -0.00015659       0.00000000 s 
O        3.27732014      15.41473820       7.38060000       8.42422336       0.00019588      -0.00013049       0.00000000 s 
O        1.77049000      18.02464455       7.38060000       6.61224094       0.00016575      -0.00007830       0.00000000 s 
O        0.26365986      20.63455091       7.38060000       5.88559409       0.00013561      -0.00002610       0.00000000 s 
O       -1.24306480      23.24427457       7.38060000       6.61224094       0.00021095      -0.00015659       0.00000000 s 
O       -2.74989493      25.85418092       7.38060000       8.42422336       0.00018082      -0.00010439       0.00000000 s 
O       -4.25672507      28.46408728       7.38060000      10.78784708       0.00015068      -0.00005220       0.00000000 s 
O       -5.76367575      31.07399363       7.38060000              inf       0.00000000       0.00000000       0.00000000 s 
O       13.82490507       2.36559791       7.38060000       9.12070152       0.00018082      -0.00000000       0.00000000 s 
O       12.31818041       4.97532157       7.38060000       6.84324945       0.00025616      -0.00013049       0.00000000 s 
O       10.81135027       7.58522792       7.38060000       5.35107890       0.00022602      -0.00007830       0.00000000 s 
O        9.30452014      10.19513428       7.38060000       5.34811408       0.00019588      -0.00002610       0.00000000 s 
O        7.79779548      12.80485794       7.38060000       6.83615350       0.00027122      -0.00015659       0.00000000 s 
O        6.29098041      15.41473820       7.38060000       8.42426109       0.00025616      -0.00013049       0.00000000 s 
O        4.78415027      18.02464455       7.38060000       5.88559409       0.00022602      -0.00007830       0.00000000 s 
O        3.27732014      20.63455091       7.38060000       4.05913255       0.00019588      -0.00002610       0.00000000 s 
O        1.77059548      23.24427457       7.38060000       4.05913255       0.00027122      -0.00015659       0.00000000 s 
O        0.26376534      25.85418092       7.38060000       5.88559409       0.00024109      -0.00010439       0.00000000 s 
O       -1.24306480      28.46408728       7.38060000       8.42426109       0.00021095      -0.00005220       0.00000000 s 
O       -2.75007575      31.07399363       7.38060000              inf       0.00000000       0.00000000       0.00000000 s 
O       16.83835439       2.36559791       7.38060000       9.60545819       0.00003014       0.00000000       0.00000000 s 
O       15.33162973       4.97532157       7.38060000       6.84301227       0.00010548      -0.00013049       0.00000000 s 
O       13.82479959       7.58522792       7.38060000       4.42145755       0.00007534      -0.00007830       0.00000000 s 
O       12.31796946      10.19513428       7.38060000       3.23048808       0.00004520      -0.00002610       0.00000000 s 
O       10.81124480      12.80485794       7.38060000       4.41427761       0.00012054      -0.00015659       0.00000000 s 
O        9.30441466      15.41476430       7.38060000       6.83373504       0.00009041      -0.00010439       0.00000000 s 
O        7.79759959      18.02464455       7.38060000       6.61224094       0.00007534      -0.00007830       0.00000000 s 
O        6.29076946      20.63455091       7.38060000       4.05913255       0.00004520      -0.00002610       0.00000000 s 
O        4.78404480      23.24427457       7.38060000       2.71950000       0.00012054      -0.00015659       0.00000000 s 
O        3.27721466      25.85418092       7.38060000       4.05928916       0.00009041      -0.00010439       0.00000000 s 
O        1.77038452      28.46408728       7.38060000       6.61243323       0.00006027      -0.00005220       0.00000000 s 
O        0.26355439      31.07399363       7.38060000       9.44113417       0.00003014       0.00000000       0.00000000 s 
O       19.85209000       2.36546741       7.38060000      11.20085520       0.00016575      -0.00013049       0.00000000 s 
O       18.34529000       4.97532157       7.38060000       8.06146584       0.00016575      -0.00013049       0.00000000 s 
O       16.83845986       7.58522792       7.38060000       5.35047223       0.00013561      -0.00007830       0.00000000 s 
O       15.33162973      10.19513428       7.38060000       3.22988719       0.00010548      -0.00002610       0.00000000 s 
O       13.82490507      12.80485794       7.38060000       3.22497323       0.00018082      -0.00015659       0.00000000 s 
O       12.31807493      15.41476430       7.38060000       5.34157205       0.00015068      -0.00010439       0.00000000 s 
O       10.81124480      18.02467065       7.38060000       8.05162269       0.00012054      -0.00005220       0.00000000 s 
O        9.30442973      20.63455091       7.38060000       5.88559409       0.00010548      -0.00002610       0.00000000 s 
O        7.79770507      23.24427457       7.38060000       4.05928916       0.00018082      -0.00015659       0.00000000 s 
O        6.29087493      25.85418092       7.38060000       4.05928916       0.00015068      -0.00010439       0.00000000 s 
O        4.78404480      28.46408728       7.38060000       5.88575611       0.00012054      -0.00005220       0.00000000 s 
O        3.27721466      31.07399363       7.38060000       8.42441202       0.00009041       0.00000000       0.00000000 s 
O       22.86575027       2.36546741       7.38060000      10.78784708       0.00022602      -0.00013049       0.00000000 s 
O       21.35895027       4.97532157       7.38060000      10.06538337       0.00022602      -0.00013049       0.00000000 s 
O       19.85212014       7.58522792       7.38060000       7.47463149       0.00019588      -0.00007830       0.00000000 s 
O       18.34529000      10.19513428       7.38060000       5.34720354       0.00016575      -0.00002610       0.00000000 s 
O       16.83856534      12.80485794       7.38060000       4.41354215       0.00024109      -0.00015659       0.00000000 s 
O       15.33173520      15.41476430       7.38060000       5.34126817       0.00021095      -0.00010439       0.00000000 s 
O       13.82490507      18.02467065       7.38060000       7.46613913       0.00018082      -0.00005220       0.00000000 s 
O       12.31809000      20.63455091       7.38060000       8.42426109       0.00016575      -0.00002610       0.00000000 s 
O       10.81136534      23.24427457       7.38060000       6.61243323       0.00024109      -0.00015659       0.00000000 s 
O        9.30453520      25.85418092       7.38060000       5.88575611       0.00021095      -0.00010439       0.00000000 s 
O        7.79770507      28.46408728       7.38060000       6.61243323       0.00018082      -0.00005220       0.00000000 s 
O        6.29087493      31.07399363       7.38060000       8.42441202       0.00015068       0.00000000       0.00000000 s 
O       25.87919959       2.36546741       7.38060000      11.20085520       0.00007534      -0.00013049       0.00000000 s 
O       24.37232425       4.97545206       7.38060000              inf       0.00000000       0.00000000       0.00000000 s 
O       22.86556946       7.58522792       7.38060000      10.06345671       0.00004520      -0.00007830       0.00000000 s 
O       21.35873932      10.19513428       7.38060000       8.05692983       0.00001507      -0.00002610       0.00000000 s 
O       19.85201466      12.80485794       7.38060000       6.83520373       0.00009041      -0.00015659       0.00000000 s 
O       18.34518452      15.41476430       7.38060000       6.83288292       0.00006027      -0.00010439       0.00000000 s 
O       16.83835439      18.02467065       7.38060000       8.05114056       0.00003014      -0.00005220       0.00000000 s 
O       15.33152425      20.63457700       7.38060000      10.05573150       0.00000000       0.00000000       0.00000000 s 
O       13.82481466      23.24427457       7.38060000       9.44093216       0.00009041      -0.00015659       0.00000000 s 
O       12.31798452      25.85418092       7.38060000       8.42422336       0.00006027      -0.00010439       0.00000000 s 
O       10.81115439      28.46408728       7.38060000       8.42426109       0.00003014      -0.00005220       0.00000000 s 
O        9.30432425      31.07399363       7.38060000       9.44103316      -0.00000000       0.00000000       0.00000000 s 
O       28.89272425       2.36559791       7.38060000              inf       0.00000000       0.00000000       0.00000000 s 
O       27.38592425       4.97545206       7.38060000              inf       0.00000000       0.00000000       0.00000000 s 
O       25.87912425       7.58530622       7.38060000              inf       0.00000000       0.00000000       0.00000000 s 
O       24.37239959      10.19513428       7.38060000      10.92711555       0.00007534      -0.00002610       0.00000000 s 
O       22.86567493      12.80485794       7.38060000       9.59824117       0.00015068      -0.00015659       0.00000000 s 
O       21.35884480      15.41476430       7.38060000       9.11111213       0.00012054      -0.00010439       0.00000000 s 
O       19.85201466      18.02467065       7.38060000       9.59493571       0.00009041      -0.00005220       0.00000000 s 
O       18.34518452      20.63457700       7.38060000      10.92142458       0.00006027       0.00000000       0.00000000 s 
O       16.83832425      23.24443116       7.38060000              inf       0.00000000       0.00000000       0.00000000 s 
O       15.33164480      25.85418092       7.38060000      11.20085520       0.00012054      -0.00010439       0.00000000 s 
O       13.82481466      28.46408728       7.38060000      10.78784708       0.00009041      -0.00005220       0.00000000 s 
O       12.31792425      31.07399363       7.38060000              inf       0.00000000       0.00000000       0.00000000 s 
O       31.90632425       2.36559791       7.38060000              inf       0.00000000       0.00000000       0.00000000 s 
O       30.39952425       4.97545206       7.38060000              inf       0.00000000       0.00000000       0.00000000 s 
O       28.89272425       7.58530622       7.38060000              inf       0.00000000       0.00000000       0.00000000 s 
O       27.38592425      10.19516038       7.38060000              inf       0.00000000       0.00000000       0.00000000 s 
O       25.87912425      12.80501453       7.38060000              inf       0.00000000       0.00000000       0.00000000 s 
O       24.37250507      15.41476430       7.38060000      11.72607078       0.00018082      -0.00010439       0.00000000 s 
O       22.86567493      18.02467065       7.38060000      11.72471811       0.00015068      -0.00005220       0.00000000 s 
O       21.35872425      20.63457700       7.38060000              inf       0.00000000       0.00000000       0.00000000 s 
O       19.85192425      23.24443116       7.38060000              inf       0.00000000       0.00000000       0.00000000 s 
O       18.34512425      25.85428532       7.38060000              inf       0.00000000       0.00000000       0.00000000 s 
O       16.83832425      28.46413947       7.38060000              inf       0.00000000       0.00000000       0.00000000 s 
O       15.33152425      31.07399363       7.38060000              inf       0.00000000       0.00000000       0.00000000 s 
Cu       4.78404480      23.24427457      10.10010000       0.00000000       0.00000000       0.00000000       0.00000000 a1
N       13.79473893       5.34417226      10.10010000       0.00000000       0.00000000       0.00000000       0.00000000 a2
H       11.72319029       5.44026709      10.10010000       0.00000000       0.00000000       0.00000000       0.00000000 a2
H       15.86997923       5.41048865      10.10010000       0.00000000       0.00000000       0.00000000       0.00000000 a2
C       12.64948052       6.02048986      10.10010000       0.00000000       0.00000000       0.00000000       0.00000000 a2
C       14.95265446       6.00368240      10.10010000       0.00000000       0.00000000       0.00000000       0.00000000 a2
C       12.61382964       7.42427822      10.10010000       0.00000000       0.00000000       0.00000000       0.00000000 a2
C       15.00918960       7.40381696      10.10010000       0.00000000       0.00000000       0.00000000       0.00000000 a2
H       11.63511783       7.89872361      10.10010000       0.00000000       0.00000000       0.00000000       0.00000000 a2
C       13.81520128       8.16161421      10.10010000       0.00000000       0.00000000       0.00000000       0.00000000 a2
H       15.99581210       7.86346448      10.10010000       0.00000000       0.00000000       0.00000000       0.00000000 a2
C       13.82469412       9.64176690      10.10010000       0.00000000       0.00000000       0.00000000       0.00000000 a2
H       11.67773014       9.83377387      10.10010000       0.00000000       0.00000000       0.00000000       0.00000000 a2
H       15.97113072       9.81532220      10.10010000       0.00000000       0.00000000       0.00000000       0.00000000 a2
C       12.61773225      10.37526641      10.10010000       0.00000000       0.00000000       0.00000000       0.00000000 a2
C       15.03408193      10.36193006      10.10010000       0.00000000       0.00000000       0.00000000       0.00000000 a2
H        9.97640226      10.79581831      10.10010000       0.00000000       0.00000000       0.00000000       0.00000000 a2
H       17.68100215      10.77133788      10.10010000       0.00000000       0.00000000       0.00000000       0.00000000 a2
C       10.07122518      11.87825532      10.10010000       0.00000000       0.00000000       0.00000000       0.00000000 a2
C       12.59600419      11.77832401      10.10010000       0.00000000       0.00000000       0.00000000       0.00000000 a2
C       15.06361521      11.77010297      10.10010000       0.00000000       0.00000000       0.00000000       0.00000000 a2
C       17.58881613      11.85541910      10.10010000       0.00000000       0.00000000       0.00000000       0.00000000 a2
H        7.91445193      12.13657869      10.10010000       0.00000000       0.00000000       0.00000000       0.00000000 a2
C       11.32217054      12.53191939      10.10010000       0.00000000       0.00000000       0.00000000       0.00000000 a2
C        8.88894470      12.62819691      10.10010000       0.00000000       0.00000000       0.00000000       0.00000000 a2
C       13.83376505      12.45263203      10.10010000       0.00000000       0.00000000       0.00000000       0.00000000 a2
C       16.34441028      12.51200621      10.10010000       0.00000000       0.00000000       0.00000000       0.00000000 a2
H       19.75044127      12.10680025      10.10010000       0.00000000       0.00000000       0.00000000       0.00000000 a2
C       18.77626494      12.60335110      10.10010000       0.00000000       0.00000000       0.00000000       0.00000000 a2
N        8.90107444      13.96055356      10.10010000       0.00000000       0.00000000       0.00000000       0.00000000 a2
C       11.28936750      13.93954423      10.10010000       0.00000000       0.00000000       0.00000000       0.00000000 a2
H       13.83861695      13.53744400      10.10010000       0.00000000       0.00000000       0.00000000       0.00000000 a2
C       16.38311997      13.92474636      10.10010000       0.00000000       0.00000000       0.00000000       0.00000000 a2
N       18.77004185      13.93241933      10.10010000       0.00000000       0.00000000       0.00000000       0.00000000 a2
C       10.05740782      14.61220804      10.10010000       0.00000000       0.00000000       0.00000000       0.00000000 a2
C       17.61423584      14.59302562      10.10010000       0.00000000       0.00000000       0.00000000       0.00000000 a2
H       12.19129278      14.54735317      10.10010000       0.00000000       0.00000000       0.00000000       0.00000000 a2
H       15.48330422      14.53438219      10.10010000       0.00000000       0.00000000       0.00000000       0.00000000 a2
H       10.01585028      15.70542375      10.10010000       0.00000000       0.00000000       0.00000000       0.00000000 a2
H       17.66117266      15.68386636      10.10010000       0.00000000       0.00000000       0.00000000       0.00000000 a2
