184
Lattice="36.16319999999999 0.0 0.0 -18.081599999999995 31.318249882114287 0.0 0.0 0.0 30.0" Properties=species:S:1:pos:R:3:remoteness:R:1:shift:R:3:adsorption:S:1 size="_JSON [[12, 0], [0, 12]]" mass_center_dist=1.733153841158949 min_atom_dist=0.3036092790595645 s1=cu_atop s2=tpb_hollow_up s1idx=1 s2idx=9 pbc="T T T"
O       -1.24327575       2.36559791       7.38060000              inf       0.00000000       0.00000000       0.00000000 s 
O       -2.75007575       4.97545206       7.38060000              inf       0.00000000       0.00000000       0.00000000 s 
O       -4.25687575       7.58530622       7.38060000              inf       0.00000000       0.00000000       0.00000000 s 
O       -5.76367575      10.19516038       7.38060000              inf       0.00000000       0.00000000       0.00000000 s 
O       -7.27047575      12.80501453       7.38060000              inf       0.00000000       0.00000000       0.00000000 s 
O       -8.77727575      15.41486869       7.38060000              inf       0.00000000       0.00000000       0.00000000 s 
O      -10.28407575      18.02472285       7.38060000              inf       0.00000000       0.00000000       0.00000000 s 
O      -11.79087575      20.63457700       7.38060000              inf       0.00000000       0.00000000       0.00000000 s 
O      -13.29767575      23.24443116       7.38060000              inf       0.00000000       0.00000000       0.00000000 s 
O      -14.80447575      25.85428532       7.38060000              inf       0.00000000       0.00000000       0.00000000 s 
O      -16.31127575      28.46413947       7.38060000              inf       0.00000000       0.00000000       0.00000000 s 
O      -17.81807575      31.07399363       7.38060000              inf       0.00000000       0.00000000       0.00000000 s 
O        1.77032425       2.36559791       7.38060000              inf       0.00000000       0.00000000       0.00000000 s 
O        0.26352425       4.97545206       7.38060000              inf       0.00000000       0.00000000       0.00000000 s 
O       -1.24327575       7.58530622       7.38060000              inf       0.00000000       0.00000000       0.00000000 s 
O       -2.75007575      10.19516038       7.38060000              inf       0.00000000       0.00000000       0.00000000 s 
O       -4.25687575      12.80501453       7.38060000              inf       0.00000000       0.00000000       0.00000000 s 
O       -5.76367575      15.41486869       7.38060000              inf       0.00000000       0.00000000       0.00000000 s 
O       -7.27047575      18.02472285       7.38060000              inf       0.00000000       0.00000000       0.00000000 s 
O       -8.77727575      20.63457700       7.38060000              inf       0.00000000       0.00000000       0.00000000 s 
O      -10.28407575      23.24443116       7.38060000              inf       0.00000000       0.00000000       0.00000000 s 
O      -11.79087575      25.85428532       7.38060000              inf       0.00000000       0.00000000       0.00000000 s 
O      -13.29767575      28.46413947       7.38060000              inf       0.00000000       0.00000000       0.00000000 s 
O      -14.80447575      31.07399363       7.38060000              inf       0.00000000       0.00000000       0.00000000 s 
O        4.78392425       2.36559791       7.38060000              inf       0.00000000       0.00000000       0.00000000 s 
O        3.27712425       4.97545206       7.38060000              inf       0.00000000       0.00000000       0.00000000 s 
O        1.77032425       7.58530622       7.38060000              inf       0.00000000       0.00000000       0.00000000 s 
O        0.26352425      10.19516038       7.38060000              inf       0.00000000       0.00000000       0.00000000 s 
O       -1.24323054      12.80493624       7.38060000      10.78784708       0.00004520      -0.00007830       0.00000000 s 
O       -2.75007575      15.41486869       7.38060000              inf       0.00000000       0.00000000       0.00000000 s 
O       -4.25687575      18.02472285       7.38060000              inf       0.00000000       0.00000000       0.00000000 s 
O       -5.76367575      20.63457700       7.38060000              inf       0.00000000       0.00000000       0.00000000 s 
O       -7.27047575      23.24443116       7.38060000              inf       0.00000000       0.00000000       0.00000000 s 
O       -8.77727575      25.85428532       7.38060000              inf       0.00000000       0.00000000       0.00000000 s 
O      -10.28407575      28.46413947       7.38060000              inf       0.00000000       0.00000000       0.00000000 s 
O      -11.79087575      31.07399363       7.38060000              inf       0.00000000       0.00000000       0.00000000 s 
O        7.79752425       2.36559791       7.38060000              inf       0.00000000       0.00000000       0.00000000 s 
O        6.29072425       4.97545206       7.38060000              inf       0.00000000       0.00000000       0.00000000 s 
O        4.78398452       7.58530622       7.38060000      11.20071331       0.00006027       0.00000000       0.00000000 s 
O        3.27725986      10.19502988       7.38060000       9.44093216       0.00013561      -0.00013049       0.00000000 s 
O        1.77042973      12.80493624       7.38060000       8.42422336       0.00010548      -0.00007830       0.00000000 s 
O        0.26359959      15.41484259       7.38060000       8.42426109       0.00007534      -0.00002610       0.00000000 s 
O       -1.24312507      18.02456626       7.38060000       9.44093216       0.00015068      -0.00015659       0.00000000 s 
O       -2.75007575      20.63457700       7.38060000              inf       0.00000000       0.00000000       0.00000000 s 
O       -4.25687575      23.24443116       7.38060000              inf       0.00000000       0.00000000       0.00000000 s 
O       -5.76367575      25.85428532       7.38060000              inf       0.00000000       0.00000000       0.00000000 s 
O       -7.27047575      28.46413947       7.38060000              inf       0.00000000       0.00000000       0.00000000 s 
O       -8.77727575      31.07399363       7.38060000              inf       0.00000000       0.00000000       0.00000000 s 
O       10.81112425       2.36559791       7.38060000              inf       0.00000000       0.00000000       0.00000000 s 
O        9.30432425       4.97545206       7.38060000              inf       0.00000000       0.00000000       0.00000000 s 
O        7.79764480       7.58535842       7.38060000      10.06494431       0.00012054       0.00005220       0.00000000 s 
O        6.29081466      10.19526477       7.38060000       8.05841572       0.00009041       0.00010439       0.00000000 s 
O        4.78409000      12.80493624       7.38060000       6.61224094       0.00016575      -0.00007830       0.00000000 s 
O        3.27725986      15.41484259       7.38060000       5.88559409       0.00013561      -0.00002610       0.00000000 s 
O        1.77053520      18.02456626       7.38060000       6.61224094       0.00021095      -0.00015659       0.00000000 s 
O        0.26370507      20.63447261       7.38060000       8.42422336       0.00018082      -0.00010439       0.00000000 s 
O       -1.24312507      23.24437896       7.38060000      10.78784708       0.00015068      -0.00005220       0.00000000 s 
O       -2.75007575      25.85428532       7.38060000              inf       0.00000000       0.00000000       0.00000000 s 
O       -4.25687575      28.46413947       7.38060000              inf       0.00000000       0.00000000       0.00000000 s 
O       -5.76367575      31.07399363       7.38060000              inf       0.00000000       0.00000000       0.00000000 s 
O       13.82472425       2.36559791       7.38060000              inf       0.00000000       0.00000000       0.00000000 s 
O       12.31792425       4.97545206       7.38060000              inf       0.00000000       0.00000000       0.00000000 s 
O       10.81130507       7.58535842       7.38060000      10.06654360       0.00018082       0.00005220       0.00000000 s 
O        9.30447493      10.19526477       7.38060000       7.47583520       0.00015068       0.00010439       0.00000000 s 
O        7.79764480      12.80517112       7.38060000       5.34838481       0.00012054       0.00015659       0.00000000 s 
O        6.29092014      15.41484259       7.38060000       4.05913255       0.00019588      -0.00002610       0.00000000 s 
O        4.78419548      18.02456626       7.38060000       4.05913255       0.00027122      -0.00015659       0.00000000 s 
O        3.27736534      20.63447261       7.38060000       5.88559409       0.00024109      -0.00010439       0.00000000 s 
O        1.77053520      23.24437896       7.38060000       8.42426109       0.00021095      -0.00005220       0.00000000 s 
O        0.26352425      25.85428532       7.38060000              inf       0.00000000       0.00000000       0.00000000 s 
O       -1.24327575      28.46413947       7.38060000              inf       0.00000000       0.00000000       0.00000000 s 
O       -2.75007575      31.07399363       7.38060000              inf       0.00000000       0.00000000       0.00000000 s 
O       16.83832425       2.36559791       7.38060000              inf       0.00000000       0.00000000       0.00000000 s 
O       15.33152425       4.97545206       7.38060000              inf       0.00000000       0.00000000       0.00000000 s 
O       13.82472425       7.58530622       7.38060000              inf       0.00000000       0.00000000       0.00000000 s 
O       12.31813520      10.19526477       7.38060000       8.06241008       0.00021095       0.00010439       0.00000000 s 
O       10.81130507      12.80517112       7.38060000       5.35139386       0.00018082       0.00015659       0.00000000 s 
O        9.30436946      15.41489479       7.38060000       3.23068240       0.00004520       0.00002610       0.00000000 s 
O        7.79764480      18.02456626       7.38060000       2.71950000       0.00012054      -0.00015659       0.00000000 s 
O        6.29081466      20.63447261       7.38060000       4.05928916       0.00009041      -0.00010439       0.00000000 s 
O        4.78398452      23.24437896       7.38060000       6.61243323       0.00006027      -0.00005220       0.00000000 s 
O        3.27715439      25.85428532       7.38060000       9.44113417       0.00003014       0.00000000       0.00000000 s 
O        1.77032425      28.46413947       7.38060000              inf       0.00000000       0.00000000       0.00000000 s 
O        0.26352425      31.07399363       7.38060000              inf       0.00000000       0.00000000       0.00000000 s 
O       19.85192425       2.36559791       7.38060000              inf       0.00000000       0.00000000       0.00000000 s 
O       18.34512425       4.97545206       7.38060000              inf       0.00000000       0.00000000       0.00000000 s 
O       16.83832425       7.58530622       7.38060000              inf       0.00000000       0.00000000       0.00000000 s 
O       15.33158452      10.19526477       7.38060000       9.60617260       0.00006027       0.00010439       0.00000000 s 
O       13.82496534      12.80517112       7.38060000       6.84353045       0.00024109       0.00015659       0.00000000 s 
O       12.31802973      15.41489479       7.38060000       4.42165326       0.00010548       0.00002610       0.00000000 s 
O       10.81119959      18.02480114       7.38060000       3.22982762       0.00007534       0.00007830       0.00000000 s 
O        9.30447493      20.63447261       7.38060000       4.05928916       0.00015068      -0.00010439       0.00000000 s 
O        7.79764480      23.24437896       7.38060000       5.88575611       0.00012054      -0.00005220       0.00000000 s 
O        6.29081466      25.85428532       7.38060000       8.42441202       0.00009041       0.00000000       0.00000000 s 
O        4.78409000      28.46400898       7.38060000      11.20085520       0.00016575      -0.00013049       0.00000000 s 
O        3.27712425      31.07399363       7.38060000              inf       0.00000000       0.00000000       0.00000000 s 
O       22.86552425       2.36559791       7.38060000              inf       0.00000000       0.00000000       0.00000000 s 
O       21.35872425       4.97545206       7.38060000              inf       0.00000000       0.00000000       0.00000000 s 
O       19.85192425       7.58530622       7.38060000              inf       0.00000000       0.00000000       0.00000000 s 
O       18.34512425      10.19516038       7.38060000              inf       0.00000000       0.00000000       0.00000000 s 
O       16.83841466      12.80517112       7.38060000       9.12093840       0.00009041       0.00015659       0.00000000 s 
O       15.33169000      15.41489479       7.38060000       6.84317344       0.00016575       0.00002610       0.00000000 s 
O       13.82485986      18.02480114       7.38060000       5.35048067       0.00013561       0.00007830       0.00000000 s 
O       12.31802973      20.63470750       7.38060000       5.34701417       0.00010548       0.00013049       0.00000000 s 
O       10.81130507      23.24437896       7.38060000       6.61243323       0.00018082      -0.00005220       0.00000000 s 
O        9.30447493      25.85428532       7.38060000       8.42441202       0.00015068       0.00000000       0.00000000 s 
O        7.79775027      28.46400898       7.38060000      10.78784708       0.00022602      -0.00013049       0.00000000 s 
O        6.29072425      31.07399363       7.38060000              inf       0.00000000       0.00000000       0.00000000 s 
O       25.87912425       2.36559791       7.38060000              inf       0.00000000       0.00000000       0.00000000 s 
O       24.37232425       4.97545206       7.38060000              inf       0.00000000       0.00000000       0.00000000 s 
O       22.86552425       7.58530622       7.38060000              inf       0.00000000       0.00000000       0.00000000 s 
O       21.35872425      10.19516038       7.38060000              inf       0.00000000       0.00000000       0.00000000 s 
O       19.85192425      12.80501453       7.38060000              inf       0.00000000       0.00000000       0.00000000 s 
O       18.34513932      15.41489479       7.38060000       9.60559773       0.00001507       0.00002610       0.00000000 s 
O       16.83852014      18.02480114       7.38060000       8.06150091       0.00019588       0.00007830       0.00000000 s 
O       15.33169000      20.63470750       7.38060000       7.47452780       0.00016575       0.00013049       0.00000000 s 
O       13.82475439      23.24443116       7.38060000       8.05670236       0.00003014       0.00000000       0.00000000 s 
O       12.31792425      25.85428532       7.38060000       9.44103316       0.00000000       0.00000000       0.00000000 s 
O       10.81119959      28.46400898       7.38060000      11.20085520       0.00007534      -0.00013049       0.00000000 s 
O        9.30432425      31.07399363       7.38060000              inf       0.00000000       0.00000000       0.00000000 s 
O       28.89272425       2.36559791       7.38060000              inf       0.00000000       0.00000000       0.00000000 s 
O       27.38592425       4.97545206       7.38060000              inf       0.00000000       0.00000000       0.00000000 s 
O       25.87912425       7.58530622       7.38060000              inf       0.00000000       0.00000000       0.00000000 s 
O       24.37232425      10.19516038       7.38060000              inf       0.00000000       0.00000000       0.00000000 s 
O       22.86552425      12.80501453       7.38060000              inf       0.00000000       0.00000000       0.00000000 s 
O       21.35872425      15.41486869       7.38060000              inf       0.00000000       0.00000000       0.00000000 s 
O       19.85192425      18.02472285       7.38060000              inf       0.00000000       0.00000000       0.00000000 s 
O       18.34535027      20.63470750       7.38060000      10.06532997       0.00022602       0.00013049       0.00000000 s 
O       16.83841466      23.24443116       7.38060000      10.06329820       0.00009041      -0.00000000       0.00000000 s 
O       15.33158452      25.85433752       7.38060000      10.92687277       0.00006027       0.00005220       0.00000000 s 
O       13.82472425      28.46413947       7.38060000              inf       0.00000000       0.00000000       0.00000000 s 
O       12.31792425      31.07399363       7.38060000              inf       0.00000000       0.00000000       0.00000000 s 
O       31.90632425       2.36559791       7.38060000              inf       0.00000000       0.00000000       0.00000000 s 
O       30.39952425       4.97545206       7.38060000              inf       0.00000000       0.00000000       0.00000000 s 
O       28.89272425       7.58530622       7.38060000              inf       0.00000000       0.00000000       0.00000000 s 
O       27.38592425      10.19516038       7.38060000              inf       0.00000000       0.00000000       0.00000000 s 
O       25.87912425      12.80501453       7.38060000              inf       0.00000000       0.00000000       0.00000000 s 
O       24.37232425      15.41486869       7.38060000              inf       0.00000000       0.00000000       0.00000000 s 
O       22.86552425      18.02472285       7.38060000              inf       0.00000000       0.00000000       0.00000000 s 
O       21.35872425      20.63457700       7.38060000              inf       0.00000000       0.00000000       0.00000000 s 
O       19.85192425      23.24443116       7.38060000              inf       0.00000000       0.00000000       0.00000000 s 
O       18.34512425      25.85428532       7.38060000              inf       0.00000000       0.00000000       0.00000000 s 
O       16.83832425      28.46413947       7.38060000              inf       0.00000000       0.00000000       0.00000000 s 
O       15.33152425      31.07399363       7.38060000              inf       0.00000000       0.00000000       0.00000000 s 
Cu       7.79764480      18.02456626      10.10010000       0.00000000       0.00000000       0.00000000       0.00000000 a1
N        4.35469720      20.04918672      10.10010000       0.00000000       0.00000000       0.00000000       0.00000000 a2
H        5.47358661      21.79497036      10.10010000       0.00000000       0.00000000       0.00000000       0.00000000 a2
H        3.37450874      18.21881770      10.10010000       0.00000000       0.00000000       0.00000000       0.00000000 a2
C        5.51303464      20.70285079      10.10010000       0.00000000       0.00000000       0.00000000       0.00000000 a2
C        4.34657555      18.71646469      10.10010000       0.00000000       0.00000000       0.00000000       0.00000000 a2
C        6.74626003      20.03164850      10.10010000       0.00000000       0.00000000       0.00000000       0.00000000 a2
C        5.53096556      17.96761924      10.10010000       0.00000000       0.00000000       0.00000000       0.00000000 a2
H        7.64660316      20.64219778      10.10010000       0.00000000       0.00000000       0.00000000       0.00000000 a2
C        6.78423139      18.62274483      10.10010000       0.00000000       0.00000000       0.00000000       0.00000000 a2
H        5.43572073      16.88335533      10.10010000       0.00000000       0.00000000       0.00000000       0.00000000 a2
C        8.06144027      17.87426476      10.10010000       0.00000000       0.00000000       0.00000000       0.00000000 a2
H        9.30131065      19.63776931      10.10010000       0.00000000       0.00000000       0.00000000       0.00000000 a2
H        7.13852527      15.92861848      10.10010000       0.00000000       0.00000000       0.00000000       0.00000000 a2
C        9.30004494      18.55295733      10.10010000       0.00000000       0.00000000       0.00000000       0.00000000 a2
C        8.08053143      16.46700530      10.10010000       0.00000000       0.00000000       0.00000000       0.00000000 a2
H       10.98481309      20.62995756      10.10010000       0.00000000       0.00000000       0.00000000       0.00000000 a2
H        7.11131246      13.96981854      10.10010000       0.00000000       0.00000000       0.00000000       0.00000000 a2
C       11.87513600      20.00680269      10.10010000       0.00000000       0.00000000       0.00000000       0.00000000 a2
C       10.52599249      17.87024558      10.10010000       0.00000000       0.00000000       0.00000000       0.00000000 a2
C        9.28517282      15.73715958      10.10010000       0.00000000       0.00000000       0.00000000       0.00000000 a2
C        8.09635283      13.50779606      10.10010000       0.00000000       0.00000000       0.00000000       0.00000000 a2
H       13.17702627      21.74546143      10.10010000       0.00000000       0.00000000       0.00000000       0.00000000 a2
C       11.81554206      18.59662019      10.10010000       0.00000000       0.00000000       0.00000000       0.00000000 a2
C       13.11574472      20.65571682      10.10010000       0.00000000       0.00000000       0.00000000       0.00000000 a2
C       10.49107993      16.46115922      10.10010000       0.00000000       0.00000000       0.00000000       0.00000000 a2
C        9.28717687      14.25718958      10.10010000       0.00000000       0.00000000       0.00000000       0.00000000 a2
H        7.23345367      11.51008320      10.10010000       0.00000000       0.00000000       0.00000000       0.00000000 a2
C        8.15046202      12.10528654      10.10010000       0.00000000       0.00000000       0.00000000       0.00000000 a2
N       14.26332360      19.97903384      10.10010000       0.00000000       0.00000000       0.00000000       0.00000000 a2
C       13.05098245      17.92121603      10.10010000       0.00000000       0.00000000       0.00000000       0.00000000 a2
H       11.42833967      15.91455137      10.10010000       0.00000000       0.00000000       0.00000000       0.00000000 a2
C       10.49118541      13.51711324      10.10010000       0.00000000       0.00000000       0.00000000       0.00000000 a2
N        9.30447493      11.44632446      10.10010000       0.00000000       0.00000000       0.00000000       0.00000000 a2
C       14.24940076      18.65160982      10.10010000       0.00000000       0.00000000       0.00000000       0.00000000 a2
C       10.45469071      12.11697868      10.10010000       0.00000000       0.00000000       0.00000000       0.00000000 a2
H       13.12639779      16.83622136      10.10010000       0.00000000       0.00000000       0.00000000       0.00000000 a2
H       11.46905340      13.99155863      10.10010000       0.00000000       0.00000000       0.00000000       0.00000000 a2
H       15.21703759      18.14117454      10.10010000       0.00000000       0.00000000       0.00000000       0.00000000 a2
H       11.37560167      11.53072714      10.10010000       0.00000000       0.00000000       0.00000000       0.00000000 a2
