222
Lattice="36.16319999999999 0.0 0.0 -18.081599999999995 31.318249882114287 0.0 0.0 0.0 30.0" Properties=species:S:1:pos:R:3:remoteness:R:1:shift:R:3:adsorption:S:1 size="_JSON [[12, 0], [0, 12]]" mass_center_dist=10.869241171225985 min_atom_dist=0.30866431655840376 s1=tpb_atop s2=tpb_atop s1idx=4 s2idx=5 pbc="T T T"
O       -1.24327575       2.36559791       7.38060000              inf       0.00000000       0.00000000       0.00000000 s 
O       -2.75007575       4.97545206       7.38060000              inf       0.00000000       0.00000000       0.00000000 s 
O       -4.25687575       7.58530622       7.38060000              inf       0.00000000       0.00000000       0.00000000 s 
O       -5.76367575      10.19516038       7.38060000              inf       0.00000000       0.00000000       0.00000000 s 
O       -7.27047575      12.80501453       7.38060000              inf       0.00000000       0.00000000       0.00000000 s 
O       -8.77727575      15.41486869       7.38060000              inf       0.00000000       0.00000000       0.00000000 s 
O      -10.28407575      18.02472285       7.38060000              inf       0.00000000       0.00000000       0.00000000 s 
O      -11.79087575      20.63457700       7.38060000              inf       0.00000000       0.00000000       0.00000000 s 
O      -13.29758534      23.24437896       7.38060000      10.78656332       0.00009041      -0.00005220       0.00000000 s 
O      -14.80441548      25.85428532       7.38060000      11.19744297       0.00006027       0.00000000       0.00000000 s 
O      -16.31127575      28.46413947       7.38060000              inf       0.00000000       0.00000000       0.00000000 s 
O      -17.81807575      31.07399363       7.38060000              inf       0.00000000       0.00000000       0.00000000 s 
O        1.77032425       2.36559791       7.38060000              inf       0.00000000       0.00000000       0.00000000 s 
O        0.26352425       4.97545206       7.38060000              inf       0.00000000       0.00000000       0.00000000 s 
O       -1.24327575       7.58530622       7.38060000              inf       0.00000000       0.00000000       0.00000000 s 
O       -2.75007575      10.19516038       7.38060000              inf       0.00000000       0.00000000       0.00000000 s 
O       -4.25672507      12.80506673       7.38060000      11.19620674       0.00015068       0.00005220       0.00000000 s 
O       -5.76355520      15.41497308       7.38060000      10.78153931       0.00012054       0.00010439       0.00000000 s 
O       -7.27038534      18.02487944       7.38060000      11.19341015       0.00009041       0.00015659       0.00000000 s 
O       -8.77727575      20.63457700       7.38060000              inf       0.00000000       0.00000000       0.00000000 s 
O      -10.28407575      23.24443116       7.38060000              inf       0.00000000       0.00000000       0.00000000 s 
O      -11.79087575      25.85428532       7.38060000              inf       0.00000000       0.00000000       0.00000000 s 
O      -13.29767575      28.46413947       7.38060000              inf       0.00000000       0.00000000       0.00000000 s 
O      -14.80447575      31.07399363       7.38060000              inf       0.00000000       0.00000000       0.00000000 s 
O        4.78392425       2.36559791       7.38060000              inf       0.00000000       0.00000000       0.00000000 s 
O        3.27712425       4.97545206       7.38060000              inf       0.00000000       0.00000000       0.00000000 s 
O        1.77032425       7.58530622       7.38060000              inf       0.00000000       0.00000000       0.00000000 s 
O        0.26355439      10.19516038       7.38060000      11.19992230       0.00003014       0.00000000       0.00000000 s 
O       -1.24306480      12.80506673       7.38060000       9.43806608       0.00021095       0.00005220       0.00000000 s 
O       -2.74989493      15.41497308       7.38060000       8.41911442       0.00018082       0.00010439       0.00000000 s 
O       -4.25672507      18.02487944       7.38060000       8.41725492       0.00015068       0.00015659       0.00000000 s 
O       -5.76366068      20.63460310       7.38060000       9.43319010       0.00001507       0.00002610       0.00000000 s 
O       -7.27027986      23.24450946       7.38060000      11.19273330       0.00019588       0.00007830       0.00000000 s 
O       -8.77727575      25.85428532       7.38060000              inf       0.00000000       0.00000000       0.00000000 s 
O      -10.28407575      28.46413947       7.38060000              inf       0.00000000       0.00000000       0.00000000 s 
O      -11.79087575      31.07399363       7.38060000              inf       0.00000000       0.00000000       0.00000000 s 
O        7.79752425       2.36559791       7.38060000              inf       0.00000000       0.00000000       0.00000000 s 
O        6.29072425       4.97545206       7.38060000              inf       0.00000000       0.00000000       0.00000000 s 
O        4.78392425       7.58530622       7.38060000              inf       0.00000000       0.00000000       0.00000000 s 
O        3.27721466      10.19516038       7.38060000      10.78913708       0.00009041      -0.00000000       0.00000000 s 
O        1.77038452      12.80506673       7.38060000       8.42401722       0.00006027       0.00005220       0.00000000 s 
O        0.26376534      15.41497308       7.38060000       6.60951449       0.00024109       0.00010439       0.00000000 s 
O       -1.24306480      18.02487944       7.38060000       5.87981516       0.00021095       0.00015659       0.00000000 s 
O       -2.75000041      20.63460310       7.38060000       6.60487225       0.00007534       0.00002610       0.00000000 s 
O       -4.25683054      23.24450946       7.38060000       8.41658120       0.00004520       0.00007830       0.00000000 s 
O       -5.76344973      25.85441581       7.38060000      10.78025168       0.00022602       0.00013049       0.00000000 s 
O       -7.27047575      28.46413947       7.38060000              inf       0.00000000       0.00000000       0.00000000 s 
O       -8.77727575      31.07399363       7.38060000              inf       0.00000000       0.00000000       0.00000000 s 
O       10.81112425       2.36559791       7.38060000              inf       0.00000000       0.00000000       0.00000000 s 
O        9.30432425       4.97545206       7.38060000              inf       0.00000000       0.00000000       0.00000000 s 
O        7.79752425       7.58530622       7.38060000              inf       0.00000000       0.00000000       0.00000000 s 
O        6.29072425      10.19516038       7.38060000              inf       0.00000000       0.00000000       0.00000000 s 
O        4.78404480      12.80506673       7.38060000       8.42694687       0.00012054       0.00005220       0.00000000 s 
O        3.27721466      15.41497308       7.38060000       5.88677917       0.00009041       0.00010439       0.00000000 s 
O        1.77059548      18.02487944       7.38060000       4.05691616       0.00027122       0.00015659       0.00000000 s 
O        0.26365986      20.63460310       7.38060000       4.05313408       0.00013561       0.00002610       0.00000000 s 
O       -1.24317027      23.24450946       7.38060000       5.87879659       0.00010548       0.00007830       0.00000000 s 
O       -2.75000041      25.85441581       7.38060000       8.41765402       0.00007534       0.00013049       0.00000000 s 
O       -4.25672507      28.46413947       7.38060000      11.19434668       0.00015068      -0.00000000       0.00000000 s 
O       -5.76367575      31.07399363       7.38060000              inf       0.00000000       0.00000000       0.00000000 s 
O       13.82472425       2.36559791       7.38060000              inf       0.00000000       0.00000000       0.00000000 s 
O       12.31792425       4.97545206       7.38060000              inf       0.00000000       0.00000000       0.00000000 s 
O       10.81112425       7.58530622       7.38060000              inf       0.00000000       0.00000000       0.00000000 s 
O        9.30445986      10.19502988       7.38060000       9.44600961       0.00013561      -0.00013049       0.00000000 s 
O        7.79762973      12.80493624       7.38060000       8.42694687       0.00010548      -0.00007830       0.00000000 s 
O        6.29087493      15.41497308       7.38060000       6.61707524       0.00015068       0.00010439       0.00000000 s 
O        4.78404480      18.02487944       7.38060000       4.06307377       0.00012054       0.00015659       0.00000000 s 
O        3.27732014      20.63460310       7.38060000       2.71951298       0.00019588       0.00002610       0.00000000 s 
O        1.77049000      23.24450946       7.38060000       4.05536139       0.00016575       0.00007830       0.00000000 s 
O        0.26365986      25.85441581       7.38060000       6.60760605       0.00013561       0.00013049       0.00000000 s 
O       -1.24327575      28.46413947       7.38060000       9.43596033       0.00000000       0.00000000       0.00000000 s 
O       -2.75007575      31.07399363       7.38060000              inf       0.00000000       0.00000000       0.00000000 s 
O       16.83832425       2.36559791       7.38060000              inf       0.00000000       0.00000000       0.00000000 s 
O       15.33152425       4.97545206       7.38060000              inf       0.00000000       0.00000000       0.00000000 s 
O       13.82484480       7.58530622       7.38060000      10.79526691       0.00012054      -0.00000000       0.00000000 s 
O       12.31812014      10.19502988       7.38060000       8.43098434       0.00019588      -0.00013049       0.00000000 s 
O       10.81129000      12.80493624       7.38060000       6.61707524       0.00016575      -0.00007830       0.00000000 s 
O        9.30445986      15.41484259       7.38060000       5.88677917       0.00013561      -0.00002610       0.00000000 s 
O        7.79770507      18.02487944       7.38060000       5.89255737       0.00018082       0.00015659       0.00000000 s 
O        6.29076946      20.63460310       7.38060000       4.06529548       0.00004520       0.00002610       0.00000000 s 
O        4.78415027      23.24450946       7.38060000       4.06152179       0.00022602       0.00007830       0.00000000 s 
O        3.27732014      25.85441581       7.38060000       5.88458262       0.00019588       0.00013049       0.00000000 s 
O        1.77038452      28.46413947       7.38060000       8.42154489       0.00006027      -0.00000000       0.00000000 s 
O        0.26355439      31.07404583       7.38060000      11.19744297       0.00003014       0.00005220       0.00000000 s 
O       19.85192425       2.36559791       7.38060000              inf       0.00000000       0.00000000       0.00000000 s 
O       18.34512425       4.97545206       7.38060000              inf       0.00000000       0.00000000       0.00000000 s 
O       16.83832425       7.58530622       7.38060000              inf       0.00000000       0.00000000       0.00000000 s 
O       15.33178041      10.19502988       7.38060000       8.43209302       0.00025616      -0.00013049       0.00000000 s 
O       13.82495027      12.80493624       7.38060000       5.89255737       0.00022602      -0.00007830       0.00000000 s 
O       12.31812014      15.41484259       7.38060000       4.06307377       0.00019588      -0.00002610       0.00000000 s 
O       10.81139548      18.02456626       7.38060000       4.05691616       0.00027122      -0.00015659       0.00000000 s 
O        9.30456534      20.63447261       7.38060000       5.87981516       0.00024109      -0.00010439       0.00000000 s 
O        7.79759959      23.24450946       7.38060000       5.89137914       0.00007534       0.00007830       0.00000000 s 
O        6.29098041      25.85441581       7.38060000       6.61516924       0.00025616       0.00013049       0.00000000 s 
O        4.78404480      28.46413947       7.38060000       8.42447540       0.00012054      -0.00000000       0.00000000 s 
O        3.27721466      31.07404583       7.38060000      10.78656332       0.00009041       0.00005220       0.00000000 s 
O       22.86552425       2.36559791       7.38060000              inf       0.00000000       0.00000000       0.00000000 s 
O       21.35872425       4.97545206       7.38060000              inf       0.00000000       0.00000000       0.00000000 s 
O       19.85192425       7.58530622       7.38060000              inf       0.00000000       0.00000000       0.00000000 s 
O       18.34522973      10.19502988       7.38060000       9.44887700       0.00010548      -0.00013049       0.00000000 s 
O       16.83839959      12.80493624       7.38060000       6.61980391       0.00007534      -0.00007830       0.00000000 s 
O       15.33156946      15.41484259       7.38060000       4.06529548       0.00004520      -0.00002610       0.00000000 s 
O       13.82484480      18.02456626       7.38060000       2.71951298       0.00012054      -0.00015659       0.00000000 s 
O       12.31801466      20.63447261       7.38060000       4.05313408       0.00009041      -0.00010439       0.00000000 s 
O       10.81118452      23.24437896       7.38060000       6.60487225       0.00006027      -0.00005220       0.00000000 s 
O        9.30442973      25.85441581       7.38060000       8.42937516       0.00010548       0.00013049       0.00000000 s 
O        7.79770507      28.46413947       7.38060000       9.44380483       0.00018082      -0.00000000       0.00000000 s 
O        6.29072425      31.07399363       7.38060000              inf       0.00000000       0.00000000       0.00000000 s 
O       25.87912425       2.36559791       7.38060000              inf       0.00000000       0.00000000       0.00000000 s 
O       24.37232425       4.97545206       7.38060000              inf       0.00000000       0.00000000       0.00000000 s 
O       22.86552425       7.58530622       7.38060000              inf       0.00000000       0.00000000       0.00000000 s 
O       21.35872425      10.19516038       7.38060000              inf       0.00000000       0.00000000       0.00000000 s 
O       19.85205986      12.80493624       7.38060000       8.43123199       0.00013561      -0.00007830       0.00000000 s 
O       18.34522973      15.41484259       7.38060000       5.89137914       0.00010548      -0.00002610       0.00000000 s 
O       16.83850507      18.02456626       7.38060000       4.06152179       0.00018082      -0.00015659       0.00000000 s 
O       15.33167493      20.63447261       7.38060000       4.05536139       0.00015068      -0.00010439       0.00000000 s 
O       13.82484480      23.24437896       7.38060000       5.87879659       0.00012054      -0.00005220       0.00000000 s 
O       12.31801466      25.85428532       7.38060000       8.41658120       0.00009041       0.00000000       0.00000000 s 
O       10.81129000      28.46400898       7.38060000      11.19273330       0.00016575      -0.00013049       0.00000000 s 
O        9.30432425      31.07399363       7.38060000              inf       0.00000000       0.00000000       0.00000000 s 
O       28.89272425       2.36559791       7.38060000              inf       0.00000000       0.00000000       0.00000000 s 
O       27.38592425       4.97545206       7.38060000              inf       0.00000000       0.00000000       0.00000000 s 
O       25.87912425       7.58530622       7.38060000              inf       0.00000000       0.00000000       0.00000000 s 
O       24.37232425      10.19516038       7.38060000              inf       0.00000000       0.00000000       0.00000000 s 
O       22.86572014      12.80493624       7.38060000      10.79415761       0.00019588      -0.00007830       0.00000000 s 
O       21.35889000      15.41484259       7.38060000       8.42937516       0.00016575      -0.00002610       0.00000000 s 
O       19.85216534      18.02456626       7.38060000       6.61516924       0.00024109      -0.00015659       0.00000000 s 
O       18.34533520      20.63447261       7.38060000       5.88458262       0.00021095      -0.00010439       0.00000000 s 
O       16.83850507      23.24437896       7.38060000       6.60760605       0.00018082      -0.00005220       0.00000000 s 
O       15.33167493      25.85428532       7.38060000       8.41765402       0.00015068       0.00000000       0.00000000 s 
O       13.82495027      28.46400898       7.38060000      10.78025168       0.00022602      -0.00013049       0.00000000 s 
O       12.31792425      31.07399363       7.38060000              inf       0.00000000       0.00000000       0.00000000 s 
O       31.90632425       2.36559791       7.38060000              inf       0.00000000       0.00000000       0.00000000 s 
O       30.39952425       4.97545206       7.38060000              inf       0.00000000       0.00000000       0.00000000 s 
O       28.89272425       7.58530622       7.38060000              inf       0.00000000       0.00000000       0.00000000 s 
O       27.38592425      10.19516038       7.38060000              inf       0.00000000       0.00000000       0.00000000 s 
O       25.87912425      12.80501453       7.38060000              inf       0.00000000       0.00000000       0.00000000 s 
O       24.37232425      15.41486869       7.38060000              inf       0.00000000       0.00000000       0.00000000 s 
O       22.86561466      18.02456626       7.38060000       9.44380483       0.00009041      -0.00015659       0.00000000 s 
O       21.35878452      20.63447261       7.38060000       8.42447540       0.00006027      -0.00010439       0.00000000 s 
O       19.85195439      23.24437896       7.38060000       8.42154489       0.00003014      -0.00005220       0.00000000 s 
O       18.34512425      25.85428532       7.38060000       9.43596033       0.00000000      -0.00000000       0.00000000 s 
O       16.83839959      28.46400898       7.38060000      11.19434668       0.00007534      -0.00013049       0.00000000 s 
O       15.33152425      31.07399363       7.38060000              inf       0.00000000       0.00000000       0.00000000 s 
N       13.79088152      12.30527966      10.10010000       0.00000000       0.00000000       0.00000000       0.00000000 a1
H       11.71964931      12.40119180      10.10010000       0.00000000       0.00000000       0.00000000       0.00000000 a1
H       15.86633278      12.37159605      10.10010000       0.00000000       0.00000000       0.00000000       0.00000000 a1
C       12.64593954      12.98141458      10.10010000       0.00000000       0.00000000       0.00000000       0.00000000 a1
C       14.94911348      12.96460712      10.10010000       0.00000000       0.00000000       0.00000000       0.00000000 a1
C       12.61028866      14.38520293      10.10010000       0.00000000       0.00000000       0.00000000       0.00000000 a1
C       15.00564862      14.36474167      10.10010000       0.00000000       0.00000000       0.00000000       0.00000000 a1
H       11.63157685      14.85964832      10.10010000       0.00000000       0.00000000       0.00000000       0.00000000 a1
C       13.81166030      15.12253893      10.10010000       0.00000000       0.00000000       0.00000000       0.00000000 a1
H       15.99227112      14.82438919      10.10010000       0.00000000       0.00000000       0.00000000       0.00000000 a1
C       13.82104766      16.60287430      10.10010000       0.00000000       0.00000000       0.00000000       0.00000000 a1
H       11.67408368      16.79488127      10.10010000       0.00000000       0.00000000       0.00000000       0.00000000 a1
H       15.96748426      16.77642960      10.10010000       0.00000000       0.00000000       0.00000000       0.00000000 a1
C       12.61419127      17.33619112      10.10010000       0.00000000       0.00000000       0.00000000       0.00000000 a1
C       15.03043548      17.32303746      10.10010000       0.00000000       0.00000000       0.00000000       0.00000000 a1
H        9.97286128      17.75674302      10.10010000       0.00000000       0.00000000       0.00000000       0.00000000 a1
H       17.67746117      17.73226259      10.10010000       0.00000000       0.00000000       0.00000000       0.00000000 a1
C       10.06757872      18.83936272      10.10010000       0.00000000       0.00000000       0.00000000       0.00000000 a1
C       12.59246321      18.73924872      10.10010000       0.00000000       0.00000000       0.00000000       0.00000000 a1
C       15.05996876      18.73121037      10.10010000       0.00000000       0.00000000       0.00000000       0.00000000 a1
C       17.58527515      18.81634381      10.10010000       0.00000000       0.00000000       0.00000000       0.00000000 a1
H        7.91091095      19.09750340      10.10010000       0.00000000       0.00000000       0.00000000       0.00000000 a1
C       11.31862956      19.49284411      10.10010000       0.00000000       0.00000000       0.00000000       0.00000000 a1
C        8.88529824      19.58930432      10.10010000       0.00000000       0.00000000       0.00000000       0.00000000 a1
C       13.83022407      19.41355674      10.10010000       0.00000000       0.00000000       0.00000000       0.00000000 a1
C       16.34086930      19.47293092      10.10010000       0.00000000       0.00000000       0.00000000       0.00000000 a1
H       19.74679482      19.06790765      10.10010000       0.00000000       0.00000000       0.00000000       0.00000000 a1
C       18.77261848      19.56445850      10.10010000       0.00000000       0.00000000       0.00000000       0.00000000 a1
N        8.89732250      20.92147827      10.10010000       0.00000000       0.00000000       0.00000000       0.00000000 a1
C       11.28582652      20.90046895      10.10010000       0.00000000       0.00000000       0.00000000       0.00000000 a1
H       13.83497049      20.49855141      10.10010000       0.00000000       0.00000000       0.00000000       0.00000000 a1
C       16.37957899      20.88567107      10.10010000       0.00000000       0.00000000       0.00000000       0.00000000 a1
N       18.76650087      20.89334404      10.10010000       0.00000000       0.00000000       0.00000000       0.00000000 a1
C       10.05386684      21.57313276      10.10010000       0.00000000       0.00000000       0.00000000       0.00000000 a1
C       17.61058939      21.55413302      10.10010000       0.00000000       0.00000000       0.00000000       0.00000000 a1
H       12.18775180      21.50827788      10.10010000       0.00000000       0.00000000       0.00000000       0.00000000 a1
H       15.47976324      21.49530691      10.10010000       0.00000000       0.00000000       0.00000000       0.00000000 a1
H       10.01230930      22.66634847      10.10010000       0.00000000       0.00000000       0.00000000       0.00000000 a1
H       17.65763168      22.64479107      10.10010000       0.00000000       0.00000000       0.00000000       0.00000000 a1
N        8.21338598      17.74554675      10.10010000       0.00000000       0.00000000       0.00000000       0.00000000 a2
H        7.09470753      15.99976311      10.10010000       0.00000000       0.00000000       0.00000000       0.00000000 a2
H        9.19367993      19.57609845      10.10010000       0.00000000       0.00000000       0.00000000       0.00000000 a2
C        7.05536498      17.09206537      10.10010000       0.00000000       0.00000000       0.00000000       0.00000000 a2
C        8.22150764      19.07826877      10.10010000       0.00000000       0.00000000       0.00000000       0.00000000 a2
C        5.82182316      17.76308497      10.10010000       0.00000000       0.00000000       0.00000000       0.00000000 a2
C        7.03722311      19.82729692      10.10010000       0.00000000       0.00000000       0.00000000       0.00000000 a2
H        4.92158550      17.15271838      10.10010000       0.00000000       0.00000000       0.00000000       0.00000000 a2
C        5.78395728      19.17217133      10.10010000       0.00000000       0.00000000       0.00000000       0.00000000 a2
H        7.13246794      20.91156083      10.10010000       0.00000000       0.00000000       0.00000000       0.00000000 a2
C        4.50664292      19.92046871      10.10010000       0.00000000       0.00000000       0.00000000       0.00000000 a2
H        3.26687801      18.15714685      10.10010000       0.00000000       0.00000000       0.00000000       0.00000000 a2
H        5.42955792      21.86611498      10.10010000       0.00000000       0.00000000       0.00000000       0.00000000 a2
C        3.26814372      19.24195883      10.10010000       0.00000000       0.00000000       0.00000000       0.00000000 a2
C        4.48765724      21.32791086      10.10010000       0.00000000       0.00000000       0.00000000       0.00000000 a2
H        1.58327010      17.16477590      10.10010000       0.00000000       0.00000000       0.00000000       0.00000000 a2
H        5.45677072      23.82491492      10.10010000       0.00000000       0.00000000       0.00000000       0.00000000 a2
C        0.69305266      17.78811347      10.10010000       0.00000000       0.00000000       0.00000000       0.00000000 a2
C        2.04219618      19.92467058      10.10010000       0.00000000       0.00000000       0.00000000       0.00000000 a2
C        3.28291036      22.05757388      10.10010000       0.00000000       0.00000000       0.00000000       0.00000000 a2
C        4.47183584      24.28712009      10.10010000       0.00000000       0.00000000       0.00000000       0.00000000 a2
H       -0.60883761      16.04945473      10.10010000       0.00000000       0.00000000       0.00000000       0.00000000 a2
C        0.75264660      19.19829597      10.10010000       0.00000000       0.00000000       0.00000000       0.00000000 a2
C       -0.54755605      17.13919933      10.10010000       0.00000000       0.00000000       0.00000000       0.00000000 a2
C        2.07710873      21.33375693      10.10010000       0.00000000       0.00000000       0.00000000       0.00000000 a2
C        3.28101180      23.53772657      10.10010000       0.00000000       0.00000000       0.00000000       0.00000000 a2
H        5.33473499      26.28483296      10.10010000       0.00000000       0.00000000       0.00000000       0.00000000 a2
C        4.41762117      25.68944693      10.10010000       0.00000000       0.00000000       0.00000000       0.00000000 a2
N       -1.69524041      17.81569963      10.10010000       0.00000000       0.00000000       0.00000000       0.00000000 a2
C       -0.48279379      19.87370012      10.10010000       0.00000000       0.00000000       0.00000000       0.00000000 a2
H        1.13984900      21.88036479      10.10010000       0.00000000       0.00000000       0.00000000       0.00000000 a2
C        2.07689778      24.27762022      10.10010000       0.00000000       0.00000000       0.00000000       0.00000000 a2
N        3.26371373      26.34859170      10.10010000       0.00000000       0.00000000       0.00000000       0.00000000 a2
C       -1.68131758      19.14312365      10.10010000       0.00000000       0.00000000       0.00000000       0.00000000 a2
C        2.11349795      25.67793747      10.10010000       0.00000000       0.00000000       0.00000000       0.00000000 a2
H       -0.55820913      20.95869479      10.10010000       0.00000000       0.00000000       0.00000000       0.00000000 a2
H        1.09902978      23.80317484      10.10010000       0.00000000       0.00000000       0.00000000       0.00000000 a2
H       -2.64884892      19.65374162      10.10010000       0.00000000       0.00000000       0.00000000       0.00000000 a2
H        1.19248152      26.26400632      10.10010000       0.00000000       0.00000000       0.00000000       0.00000000 a2
