222
Lattice="36.16319999999999 0.0 0.0 -18.081599999999995 31.318249882114287 0.0 0.0 0.0 30.0" Properties=species:S:1:pos:R:3:remoteness:R:1:shift:R:3:adsorption:S:1 size="_JSON [[12, 0], [0, 12]]" mass_center_dist=0.0003682992696834055 min_atom_dist=0.021296751080612315 s1=tpb_hollow_down s2=tpb_hollow_up s1idx=6 s2idx=8 pbc="T T T"
O       -1.24327575       2.36559791       7.38060000              inf       0.00000000       0.00000000       0.00000000 s 
O       -2.75007575       4.97545206       7.38060000              inf       0.00000000       0.00000000       0.00000000 s 
O       -4.25687575       7.58530622       7.38060000              inf       0.00000000       0.00000000       0.00000000 s 
O       -5.76367575      10.19516038       7.38060000              inf       0.00000000       0.00000000       0.00000000 s 
O       -7.27047575      12.80501453       7.38060000              inf       0.00000000       0.00000000       0.00000000 s 
O       -8.77727575      15.41486869       7.38060000              inf       0.00000000       0.00000000       0.00000000 s 
O      -10.28407575      18.02472285       7.38060000              inf       0.00000000       0.00000000       0.00000000 s 
O      -11.79087575      20.63457700       7.38060000              inf       0.00000000       0.00000000       0.00000000 s 
O      -13.29767575      23.24443116       7.38060000              inf       0.00000000       0.00000000       0.00000000 s 
O      -14.80447575      25.85428532       7.38060000              inf       0.00000000       0.00000000       0.00000000 s 
O      -16.31127575      28.46413947       7.38060000              inf       0.00000000       0.00000000       0.00000000 s 
O      -17.81807575      31.07399363       7.38060000              inf       0.00000000       0.00000000       0.00000000 s 
O        1.77032425       2.36559791       7.38060000              inf       0.00000000       0.00000000       0.00000000 s 
O        0.26352425       4.97545206       7.38060000              inf       0.00000000       0.00000000       0.00000000 s 
O       -1.24327575       7.58530622       7.38060000              inf       0.00000000       0.00000000       0.00000000 s 
O       -2.75007575      10.19516038       7.38060000              inf       0.00000000       0.00000000       0.00000000 s 
O       -4.25687575      12.80501453       7.38060000              inf       0.00000000       0.00000000       0.00000000 s 
O       -5.76367575      15.41486869       7.38060000              inf       0.00000000       0.00000000       0.00000000 s 
O       -7.27047575      18.02472285       7.38060000              inf       0.00000000       0.00000000       0.00000000 s 
O       -8.77727575      20.63457700       7.38060000              inf       0.00000000       0.00000000       0.00000000 s 
O      -10.28407575      23.24443116       7.38060000              inf       0.00000000       0.00000000       0.00000000 s 
O      -11.79087575      25.85428532       7.38060000              inf       0.00000000       0.00000000       0.00000000 s 
O      -13.29767575      28.46413947       7.38060000              inf       0.00000000       0.00000000       0.00000000 s 
O      -14.80447575      31.07399363       7.38060000              inf       0.00000000       0.00000000       0.00000000 s 
O        4.78392425       2.36559791       7.38060000              inf       0.00000000       0.00000000       0.00000000 s 
O        3.27712425       4.97545206       7.38060000              inf       0.00000000       0.00000000       0.00000000 s 
O        1.77032425       7.58530622       7.38060000              inf       0.00000000       0.00000000       0.00000000 s 
O        0.26352425      10.19516038       7.38060000              inf       0.00000000       0.00000000       0.00000000 s 
O       -1.24327575      12.80501453       7.38060000              inf       0.00000000       0.00000000       0.00000000 s 
O       -2.75007575      15.41486869       7.38060000              inf       0.00000000       0.00000000       0.00000000 s 
O       -4.25687575      18.02472285       7.38060000              inf       0.00000000       0.00000000       0.00000000 s 
O       -5.76367575      20.63457700       7.38060000              inf       0.00000000       0.00000000       0.00000000 s 
O       -7.27047575      23.24443116       7.38060000              inf       0.00000000       0.00000000       0.00000000 s 
O       -8.77727575      25.85428532       7.38060000              inf       0.00000000       0.00000000       0.00000000 s 
O      -10.28407575      28.46413947       7.38060000              inf       0.00000000       0.00000000       0.00000000 s 
O      -11.79087575      31.07399363       7.38060000              inf       0.00000000       0.00000000       0.00000000 s 
O        7.79752425       2.36559791       7.38060000              inf       0.00000000       0.00000000       0.00000000 s 
O        6.29072425       4.97545206       7.38060000              inf       0.00000000       0.00000000       0.00000000 s 
O        4.78392425       7.58530622       7.38060000              inf       0.00000000       0.00000000       0.00000000 s 
O        3.27725986      10.19502988       7.38060000      10.06618962       0.00013561      -0.00013049       0.00000000 s 
O        1.77042973      12.80493624       7.38060000      10.06461387       0.00010548      -0.00007830       0.00000000 s 
O        0.26352425      15.41486869       7.38060000              inf       0.00000000       0.00000000       0.00000000 s 
O       -1.24327575      18.02472285       7.38060000              inf       0.00000000       0.00000000       0.00000000 s 
O       -2.75007575      20.63457700       7.38060000              inf       0.00000000       0.00000000       0.00000000 s 
O       -4.25687575      23.24443116       7.38060000              inf       0.00000000       0.00000000       0.00000000 s 
O       -5.76367575      25.85428532       7.38060000              inf       0.00000000       0.00000000       0.00000000 s 
O       -7.27047575      28.46413947       7.38060000              inf       0.00000000       0.00000000       0.00000000 s 
O       -8.77727575      31.07399363       7.38060000              inf       0.00000000       0.00000000       0.00000000 s 
O       10.81112425       2.36559791       7.38060000              inf       0.00000000       0.00000000       0.00000000 s 
O        9.30432425       4.97545206       7.38060000              inf       0.00000000       0.00000000       0.00000000 s 
O        7.79764480       7.58530622       7.38060000       9.60586231       0.00012054       0.00000000       0.00000000 s 
O        6.29092014      10.19502988       7.38060000       8.06206983       0.00019588      -0.00013049       0.00000000 s 
O        4.78409000      12.80493624       7.38060000       7.47550002       0.00016575      -0.00007830       0.00000000 s 
O        3.27725986      15.41484259       7.38060000       8.05813426       0.00013561      -0.00002610       0.00000000 s 
O        1.77053520      18.02456626       7.38060000       9.59925573       0.00021095      -0.00015659       0.00000000 s 
O        0.26352425      20.63457700       7.38060000              inf       0.00000000       0.00000000       0.00000000 s 
O       -1.24327575      23.24443116       7.38060000              inf       0.00000000       0.00000000       0.00000000 s 
O       -2.75007575      25.85428532       7.38060000              inf       0.00000000       0.00000000       0.00000000 s 
O       -4.25687575      28.46413947       7.38060000              inf       0.00000000       0.00000000       0.00000000 s 
O       -5.76367575      31.07399363       7.38060000              inf       0.00000000       0.00000000       0.00000000 s 
O       13.82472425       2.36559791       7.38060000              inf       0.00000000       0.00000000       0.00000000 s 
O       12.31792425       4.97545206       7.38060000              inf       0.00000000       0.00000000       0.00000000 s 
O       10.81130507       7.58530622       7.38060000       9.12070152       0.00018082      -0.00000000       0.00000000 s 
O        9.30458041      10.19502988       7.38060000       6.84324945       0.00025616      -0.00013049       0.00000000 s 
O        7.79775027      12.80493624       7.38060000       5.35107890       0.00022602      -0.00007830       0.00000000 s 
O        6.29092014      15.41484259       7.38060000       5.34811408       0.00019588      -0.00002610       0.00000000 s 
O        4.78419548      18.02456626       7.38060000       6.83615350       0.00027122      -0.00015659       0.00000000 s 
O        3.27736534      20.63447261       7.38060000       9.11200280       0.00024109      -0.00010439       0.00000000 s 
O        1.77053520      23.24437896       7.38060000      11.72554868       0.00021095      -0.00005220       0.00000000 s 
O        0.26352425      25.85428532       7.38060000              inf       0.00000000       0.00000000       0.00000000 s 
O       -1.24327575      28.46413947       7.38060000              inf       0.00000000       0.00000000       0.00000000 s 
O       -2.75007575      31.07399363       7.38060000              inf       0.00000000       0.00000000       0.00000000 s 
O       16.83832425       2.36559791       7.38060000              inf       0.00000000       0.00000000       0.00000000 s 
O       15.33152425       4.97545206       7.38060000              inf       0.00000000       0.00000000       0.00000000 s 
O       13.82475439       7.58530622       7.38060000       9.60545819       0.00003014       0.00000000       0.00000000 s 
O       12.31802973      10.19502988       7.38060000       6.84301227       0.00010548      -0.00013049       0.00000000 s 
O       10.81119959      12.80493624       7.38060000       4.42145755       0.00007534      -0.00007830       0.00000000 s 
O        9.30436946      15.41484259       7.38060000       3.23048808       0.00004520      -0.00002610       0.00000000 s 
O        7.79764480      18.02456626       7.38060000       4.41427761       0.00012054      -0.00015659       0.00000000 s 
O        6.29081466      20.63447261       7.38060000       6.83373504       0.00009041      -0.00010439       0.00000000 s 
O        4.78398452      23.24437896       7.38060000       9.59573599       0.00006027      -0.00005220       0.00000000 s 
O        3.27712425      25.85428532       7.38060000              inf       0.00000000       0.00000000       0.00000000 s 
O        1.77032425      28.46413947       7.38060000              inf       0.00000000       0.00000000       0.00000000 s 
O        0.26352425      31.07399363       7.38060000              inf       0.00000000       0.00000000       0.00000000 s 
O       19.85192425       2.36559791       7.38060000              inf       0.00000000       0.00000000       0.00000000 s 
O       18.34512425       4.97545206       7.38060000              inf       0.00000000       0.00000000       0.00000000 s 
O       16.83832425       7.58530622       7.38060000              inf       0.00000000       0.00000000       0.00000000 s 
O       15.33169000      10.19502988       7.38060000       8.06146584       0.00016575      -0.00013049       0.00000000 s 
O       13.82485986      12.80493624       7.38060000       5.35047223       0.00013561      -0.00007830       0.00000000 s 
O       12.31802973      15.41484259       7.38060000       3.22982762       0.00010548      -0.00002610       0.00000000 s 
O       10.81130507      18.02456626       7.38060000       3.22483991       0.00018082      -0.00015659       0.00000000 s 
O        9.30447493      20.63447261       7.38060000       5.34144709       0.00015068      -0.00010439       0.00000000 s 
O        7.79764480      23.24437896       7.38060000       8.05151029       0.00012054      -0.00005220       0.00000000 s 
O        6.29081466      25.85428532       7.38060000      10.92185311       0.00009041       0.00000000       0.00000000 s 
O        4.78392425      28.46413947       7.38060000              inf       0.00000000       0.00000000       0.00000000 s 
O        3.27712425      31.07399363       7.38060000              inf       0.00000000       0.00000000       0.00000000 s 
O       22.86552425       2.36559791       7.38060000              inf       0.00000000       0.00000000       0.00000000 s 
O       21.35872425       4.97545206       7.38060000              inf       0.00000000       0.00000000       0.00000000 s 
O       19.85192425       7.58530622       7.38060000              inf       0.00000000       0.00000000       0.00000000 s 
O       18.34535027      10.19502988       7.38060000      10.06532997       0.00022602      -0.00013049       0.00000000 s 
O       16.83852014      12.80493624       7.38060000       7.47452780       0.00019588      -0.00007830       0.00000000 s 
O       15.33169000      15.41484259       7.38060000       5.34701417       0.00016575      -0.00002610       0.00000000 s 
O       13.82496534      18.02456626       7.38060000       4.41325890       0.00024109      -0.00015659       0.00000000 s 
O       12.31813520      20.63447261       7.38060000       5.34098964       0.00021095      -0.00010439       0.00000000 s 
O       10.81130507      23.24437896       7.38060000       7.46590806       0.00018082      -0.00005220       0.00000000 s 
O        9.30447493      25.85428532       7.38060000      10.05572933       0.00015068       0.00000000       0.00000000 s 
O        7.79752425      28.46413947       7.38060000              inf       0.00000000       0.00000000       0.00000000 s 
O        6.29072425      31.07399363       7.38060000              inf       0.00000000       0.00000000       0.00000000 s 
O       25.87912425       2.36559791       7.38060000              inf       0.00000000       0.00000000       0.00000000 s 
O       24.37232425       4.97545206       7.38060000              inf       0.00000000       0.00000000       0.00000000 s 
O       22.86552425       7.58530622       7.38060000              inf       0.00000000       0.00000000       0.00000000 s 
O       21.35872425      10.19516038       7.38060000              inf       0.00000000       0.00000000       0.00000000 s 
O       19.85196946      12.80493624       7.38060000      10.06329820       0.00004520      -0.00007830       0.00000000 s 
O       18.34513932      15.41484259       7.38060000       8.05670236       0.00001507      -0.00002610       0.00000000 s 
O       16.83841466      18.02456626       7.38060000       6.83490085       0.00009041      -0.00015659       0.00000000 s 
O       15.33158452      20.63447261       7.38060000       6.83254516       0.00006027      -0.00010439       0.00000000 s 
O       13.82475439      23.24437896       7.38060000       8.05082441       0.00003014      -0.00005220       0.00000000 s 
O       12.31792425      25.85428532       7.38060000      10.05545476       0.00000000       0.00000000       0.00000000 s 
O       10.81119959      28.46400898       7.38060000      12.47270683       0.00007534      -0.00013049       0.00000000 s 
O        9.30432425      31.07399363       7.38060000              inf       0.00000000       0.00000000       0.00000000 s 
O       28.89272425       2.36559791       7.38060000              inf       0.00000000       0.00000000       0.00000000 s 
O       27.38592425       4.97545206       7.38060000              inf       0.00000000       0.00000000       0.00000000 s 
O       25.87912425       7.58530622       7.38060000              inf       0.00000000       0.00000000       0.00000000 s 
O       24.37232425      10.19516038       7.38060000              inf       0.00000000       0.00000000       0.00000000 s 
O       22.86552425      12.80501453       7.38060000              inf       0.00000000       0.00000000       0.00000000 s 
O       21.35879959      15.41484259       7.38060000      10.92687277       0.00007534      -0.00002610       0.00000000 s 
O       19.85207493      18.02456626       7.38060000       9.59794003       0.00015068      -0.00015659       0.00000000 s 
O       18.34524480      20.63447261       7.38060000       9.11076881       0.00012054      -0.00010439       0.00000000 s 
O       16.83841466      23.24437896       7.38060000       9.59458494       0.00009041      -0.00005220       0.00000000 s 
O       15.33158452      25.85428532       7.38060000      10.92109467       0.00006027       0.00000000       0.00000000 s 
O       13.82472425      28.46413947       7.38060000              inf       0.00000000       0.00000000       0.00000000 s 
O       12.31792425      31.07399363       7.38060000              inf       0.00000000       0.00000000       0.00000000 s 
O       31.90632425       2.36559791       7.38060000              inf       0.00000000       0.00000000       0.00000000 s 
O       30.39952425       4.97545206       7.38060000              inf       0.00000000       0.00000000       0.00000000 s 
O       28.89272425       7.58530622       7.38060000              inf       0.00000000       0.00000000       0.00000000 s 
O       27.38592425      10.19516038       7.38060000              inf       0.00000000       0.00000000       0.00000000 s 
O       25.87912425      12.80501453       7.38060000              inf       0.00000000       0.00000000       0.00000000 s 
O       24.37232425      15.41486869       7.38060000              inf       0.00000000       0.00000000       0.00000000 s 
O       22.86552425      18.02472285       7.38060000              inf       0.00000000       0.00000000       0.00000000 s 
O       21.35890507      20.63447261       7.38060000      11.72573407       0.00018082      -0.00010439       0.00000000 s 
O       19.85207493      23.24437896       7.38060000      11.72436111       0.00015068      -0.00005220       0.00000000 s 
O       18.34512425      25.85428532       7.38060000              inf       0.00000000       0.00000000       0.00000000 s 
O       16.83832425      28.46413947       7.38060000              inf       0.00000000       0.00000000       0.00000000 s 
O       15.33152425      31.07399363       7.38060000              inf       0.00000000       0.00000000       0.00000000 s 
N       10.78113893      10.56388057      10.10010000       0.00000000       0.00000000       0.00000000       0.00000000 a1
H        8.70959029      10.65997540      10.10010000       0.00000000       0.00000000       0.00000000       0.00000000 a1
H       12.85637923      10.63019697      10.10010000       0.00000000       0.00000000       0.00000000       0.00000000 a1
C        9.63588052      11.24019818      10.10010000       0.00000000       0.00000000       0.00000000       0.00000000 a1
C       11.93905446      11.22339072      10.10010000       0.00000000       0.00000000       0.00000000       0.00000000 a1
C        9.60022964      12.64398653      10.10010000       0.00000000       0.00000000       0.00000000       0.00000000 a1
C       11.99558960      12.62352528      10.10010000       0.00000000       0.00000000       0.00000000       0.00000000 a1
H        8.62151783      13.11843192      10.10010000       0.00000000       0.00000000       0.00000000       0.00000000 a1
C       10.80160128      13.38132253      10.10010000       0.00000000       0.00000000       0.00000000       0.00000000 a1
H       12.98221210      13.08317279      10.10010000       0.00000000       0.00000000       0.00000000       0.00000000 a1
C       10.81109412      14.86147522      10.10010000       0.00000000       0.00000000       0.00000000       0.00000000 a1
H        8.66413014      15.05348219      10.10010000       0.00000000       0.00000000       0.00000000       0.00000000 a1
H       12.95753072      15.03503052      10.10010000       0.00000000       0.00000000       0.00000000       0.00000000 a1
C        9.60413225      15.59497473      10.10010000       0.00000000       0.00000000       0.00000000       0.00000000 a1
C       12.02048193      15.58163837      10.10010000       0.00000000       0.00000000       0.00000000       0.00000000 a1
H        6.96280226      16.01552662      10.10010000       0.00000000       0.00000000       0.00000000       0.00000000 a1
H       14.66740215      15.99104619      10.10010000       0.00000000       0.00000000       0.00000000       0.00000000 a1
C        7.05762518      17.09796364      10.10010000       0.00000000       0.00000000       0.00000000       0.00000000 a1
C        9.58240419      16.99803232      10.10010000       0.00000000       0.00000000       0.00000000       0.00000000 a1
C       12.05001521      16.98981128      10.10010000       0.00000000       0.00000000       0.00000000       0.00000000 a1
C       14.57521613      17.07512741      10.10010000       0.00000000       0.00000000       0.00000000       0.00000000 a1
H        4.90085193      17.35628700      10.10010000       0.00000000       0.00000000       0.00000000       0.00000000 a1
C        8.30857054      17.75162771      10.10010000       0.00000000       0.00000000       0.00000000       0.00000000 a1
C        5.87534470      17.84790523      10.10010000       0.00000000       0.00000000       0.00000000       0.00000000 a1
C       10.82016505      17.67234034      10.10010000       0.00000000       0.00000000       0.00000000       0.00000000 a1
C       13.33081028      17.73171452      10.10010000       0.00000000       0.00000000       0.00000000       0.00000000 a1
H       16.73684127      17.32650856      10.10010000       0.00000000       0.00000000       0.00000000       0.00000000 a1
C       15.76266494      17.82305942      10.10010000       0.00000000       0.00000000       0.00000000       0.00000000 a1
N        5.88747444      19.18026187      10.10010000       0.00000000       0.00000000       0.00000000       0.00000000 a1
C        8.27576750      19.15925255      10.10010000       0.00000000       0.00000000       0.00000000       0.00000000 a1
H       10.82501695      18.75715232      10.10010000       0.00000000       0.00000000       0.00000000       0.00000000 a1
C       13.36951997      19.14445467      10.10010000       0.00000000       0.00000000       0.00000000       0.00000000 a1
N       15.75644185      19.15212765      10.10010000       0.00000000       0.00000000       0.00000000       0.00000000 a1
C        7.04380782      19.83191636      10.10010000       0.00000000       0.00000000       0.00000000       0.00000000 a1
C       14.60063584      19.81273393      10.10010000       0.00000000       0.00000000       0.00000000       0.00000000 a1
H        9.17769278      19.76706148      10.10010000       0.00000000       0.00000000       0.00000000       0.00000000 a1
H       12.46970422      19.75409051      10.10010000       0.00000000       0.00000000       0.00000000       0.00000000 a1
H        7.00225028      20.92513207      10.10010000       0.00000000       0.00000000       0.00000000       0.00000000 a1
H       14.64757266      20.90357467      10.10010000       0.00000000       0.00000000       0.00000000       0.00000000 a1
N       10.84294787      22.01853047      10.10010000       0.00000000       0.00000000       0.00000000       0.00000000 a2
H       12.91428556      21.92243564      10.10010000       0.00000000       0.00000000       0.00000000       0.00000000 a2
H        8.76770757      21.95221407      10.10010000       0.00000000       0.00000000       0.00000000       0.00000000 a2
C       11.98820628      21.34221286      10.10010000       0.00000000       0.00000000       0.00000000       0.00000000 a2
C        9.68471591      21.35920301      10.10010000       0.00000000       0.00000000       0.00000000       0.00000000 a2
C       12.02354074      19.93860720      10.10010000       0.00000000       0.00000000       0.00000000       0.00000000 a2
C        9.62839173      19.95906845      10.10010000       0.00000000       0.00000000       0.00000000       0.00000000 a2
H       13.00246349      19.46416181      10.10010000       0.00000000       0.00000000       0.00000000       0.00000000 a2
C       10.82238005      19.20127120      10.10010000       0.00000000       0.00000000       0.00000000       0.00000000 a2
H        8.64176922      19.49942094      10.10010000       0.00000000       0.00000000       0.00000000       0.00000000 a2
C       10.81278173      17.72093582      10.10010000       0.00000000       0.00000000       0.00000000       0.00000000 a2
H       12.95995666      17.52892885      10.10010000       0.00000000       0.00000000       0.00000000       0.00000000 a2
H        8.66634513      17.54738052      10.10010000       0.00000000       0.00000000       0.00000000       0.00000000 a2
C       12.01984908      16.98761900      10.10010000       0.00000000       0.00000000       0.00000000       0.00000000 a2
C        9.60360487      17.00077267      10.10010000       0.00000000       0.00000000       0.00000000       0.00000000 a2
H       14.66096812      16.56706710      10.10010000       0.00000000       0.00000000       0.00000000       0.00000000 a2
H        6.95636822      16.59154754      10.10010000       0.00000000       0.00000000       0.00000000       0.00000000 a2
C       14.56646162      15.48444740      10.10010000       0.00000000       0.00000000       0.00000000       0.00000000 a2
C       12.04157713      15.58456141      10.10010000       0.00000000       0.00000000       0.00000000       0.00000000 a2
C        9.57386064      15.59259976      10.10010000       0.00000000       0.00000000       0.00000000       0.00000000 a2
C        7.04876520      15.50746632      10.10010000       0.00000000       0.00000000       0.00000000       0.00000000 a2
H       16.72312939      15.22630673      10.10010000       0.00000000       0.00000000       0.00000000       0.00000000 a2
C       13.31541078      14.83096602      10.10010000       0.00000000       0.00000000       0.00000000       0.00000000 a2
C       15.74874210      14.73450581      10.10010000       0.00000000       0.00000000       0.00000000       0.00000000 a2
C       10.80381627      14.91025339      10.10010000       0.00000000       0.00000000       0.00000000       0.00000000 a2
C        8.29317104      14.85087921      10.10010000       0.00000000       0.00000000       0.00000000       0.00000000 a2
H        4.88724553      15.25590247      10.10010000       0.00000000       0.00000000       0.00000000       0.00000000 a2
C        5.86121091      14.75935162      10.10010000       0.00000000       0.00000000       0.00000000       0.00000000 a2
N       15.73650689      13.40233185      10.10010000       0.00000000       0.00000000       0.00000000       0.00000000 a2
C       13.34821382      13.42334118      10.10010000       0.00000000       0.00000000       0.00000000       0.00000000 a2
H       10.79906985      13.82525872      10.10010000       0.00000000       0.00000000       0.00000000       0.00000000 a2
C        8.25425040      13.43813905      10.10010000       0.00000000       0.00000000       0.00000000       0.00000000 a2
N        5.86753947      13.43046608      10.10010000       0.00000000       0.00000000       0.00000000       0.00000000 a2
C       14.57996255      12.75067737      10.10010000       0.00000000       0.00000000       0.00000000       0.00000000 a2
C        7.02345096      12.76967711      10.10010000       0.00000000       0.00000000       0.00000000       0.00000000 a2
H       12.44628854      12.81553225      10.10010000       0.00000000       0.00000000       0.00000000       0.00000000 a2
H        9.15406616      12.82850322      10.10010000       0.00000000       0.00000000       0.00000000       0.00000000 a2
H       14.62173104      11.65746166      10.10010000       0.00000000       0.00000000       0.00000000       0.00000000 a2
H        6.97619771      11.67901906      10.10010000       0.00000000       0.00000000       0.00000000       0.00000000 a2
