184
Lattice="36.16319999999999 0.0 0.0 -18.081599999999995 31.318249882114287 0.0 0.0 0.0 30.0" Properties=species:S:1:pos:R:3:remoteness:R:1:shift:R:3:adsorption:S:1 size="_JSON [[12, 0], [0, 12]]" mass_center_dist=5.222206103050277 min_atom_dist=0.488133699037081 s1=cu_hollow s2=tpb_hollow_up s1idx=2 s2idx=8 pbc="T T T"
O       -1.24327575       2.36559791       7.38060000              inf       0.00000000       0.00000000       0.00000000 s 
O       -2.75007575       4.97545206       7.38060000              inf       0.00000000       0.00000000       0.00000000 s 
O       -4.25687575       7.58530622       7.38060000              inf       0.00000000       0.00000000       0.00000000 s 
O       -5.76367575      10.19516038       7.38060000              inf       0.00000000       0.00000000       0.00000000 s 
O       -7.27047575      12.80501453       7.38060000              inf       0.00000000       0.00000000       0.00000000 s 
O       -8.77727575      15.41486869       7.38060000              inf       0.00000000       0.00000000       0.00000000 s 
O      -10.28407575      18.02472285       7.38060000              inf       0.00000000       0.00000000       0.00000000 s 
O      -11.79087575      20.63457700       7.38060000              inf       0.00000000       0.00000000       0.00000000 s 
O      -13.29752507      23.24437896       7.38060000      11.72896791       0.00015068      -0.00005220       0.00000000 s 
O      -14.80447575      25.85428532       7.38060000              inf       0.00000000       0.00000000       0.00000000 s 
O      -16.31127575      28.46413947       7.38060000              inf       0.00000000       0.00000000       0.00000000 s 
O      -17.81807575      31.07399363       7.38060000              inf       0.00000000       0.00000000       0.00000000 s 
O        1.77032425       2.36559791       7.38060000              inf       0.00000000       0.00000000       0.00000000 s 
O        0.26352425       4.97545206       7.38060000              inf       0.00000000       0.00000000       0.00000000 s 
O       -1.24327575       7.58530622       7.38060000              inf       0.00000000       0.00000000       0.00000000 s 
O       -2.75007575      10.19516038       7.38060000              inf       0.00000000       0.00000000       0.00000000 s 
O       -4.25687575      12.80501453       7.38060000              inf       0.00000000       0.00000000       0.00000000 s 
O       -5.76367575      15.41486869       7.38060000              inf       0.00000000       0.00000000       0.00000000 s 
O       -7.27047575      18.02472285       7.38060000              inf       0.00000000       0.00000000       0.00000000 s 
O       -8.77727575      20.63457700       7.38060000              inf       0.00000000       0.00000000       0.00000000 s 
O      -10.28407575      23.24443116       7.38060000              inf       0.00000000       0.00000000       0.00000000 s 
O      -11.79087575      25.85428532       7.38060000              inf       0.00000000       0.00000000       0.00000000 s 
O      -13.29767575      28.46413947       7.38060000              inf       0.00000000       0.00000000       0.00000000 s 
O      -14.80447575      31.07399363       7.38060000              inf       0.00000000       0.00000000       0.00000000 s 
O        4.78392425       2.36559791       7.38060000              inf       0.00000000       0.00000000       0.00000000 s 
O        3.27712425       4.97545206       7.38060000              inf       0.00000000       0.00000000       0.00000000 s 
O        1.77032425       7.58530622       7.38060000              inf       0.00000000       0.00000000       0.00000000 s 
O        0.26352425      10.19516038       7.38060000              inf       0.00000000       0.00000000       0.00000000 s 
O       -1.24327575      12.80501453       7.38060000              inf       0.00000000       0.00000000       0.00000000 s 
O       -2.75007575      15.41486869       7.38060000              inf       0.00000000       0.00000000       0.00000000 s 
O       -4.25687575      18.02472285       7.38060000              inf       0.00000000       0.00000000       0.00000000 s 
O       -5.76367575      20.63457700       7.38060000              inf       0.00000000       0.00000000       0.00000000 s 
O       -7.27047575      23.24443116       7.38060000              inf       0.00000000       0.00000000       0.00000000 s 
O       -8.77727575      25.85428532       7.38060000              inf       0.00000000       0.00000000       0.00000000 s 
O      -10.28407575      28.46413947       7.38060000              inf       0.00000000       0.00000000       0.00000000 s 
O      -11.79087575      31.07399363       7.38060000              inf       0.00000000       0.00000000       0.00000000 s 
O        7.79752425       2.36559791       7.38060000              inf       0.00000000       0.00000000       0.00000000 s 
O        6.29072425       4.97545206       7.38060000              inf       0.00000000       0.00000000       0.00000000 s 
O        4.78392425       7.58530622       7.38060000              inf       0.00000000       0.00000000       0.00000000 s 
O        3.27712425      10.19516038       7.38060000              inf       0.00000000       0.00000000       0.00000000 s 
O        1.77045986      12.80488404       7.38060000      10.06654360       0.00013561      -0.00013049       0.00000000 s 
O        0.26362973      15.41479039       7.38060000      10.06494431       0.00010548      -0.00007830       0.00000000 s 
O       -1.24327575      18.02472285       7.38060000              inf       0.00000000       0.00000000       0.00000000 s 
O       -2.75007575      20.63457700       7.38060000              inf       0.00000000       0.00000000       0.00000000 s 
O       -4.25687575      23.24443116       7.38060000              inf       0.00000000       0.00000000       0.00000000 s 
O       -5.76367575      25.85428532       7.38060000              inf       0.00000000       0.00000000       0.00000000 s 
O       -7.27047575      28.46413947       7.38060000              inf       0.00000000       0.00000000       0.00000000 s 
O       -8.77727575      31.07399363       7.38060000              inf       0.00000000       0.00000000       0.00000000 s 
O       10.81112425       2.36559791       7.38060000              inf       0.00000000       0.00000000       0.00000000 s 
O        9.30432425       4.97545206       7.38060000              inf       0.00000000       0.00000000       0.00000000 s 
O        7.79758452       7.58530622       7.38060000      10.92723166       0.00006027       0.00000000       0.00000000 s 
O        6.29084480      10.19516038       7.38060000       9.60617260       0.00012054       0.00000000       0.00000000 s 
O        4.78412014      12.80488404       7.38060000       8.06241008       0.00019588      -0.00013049       0.00000000 s 
O        3.27729000      15.41479039       7.38060000       7.47583520       0.00016575      -0.00007830       0.00000000 s 
O        1.77045986      18.02469675       7.38060000       8.05841572       0.00013561      -0.00002610       0.00000000 s 
O        0.26373520      20.63442041       7.38060000       9.59946726       0.00021095      -0.00015659       0.00000000 s 
O       -1.24327575      23.24443116       7.38060000              inf       0.00000000       0.00000000       0.00000000 s 
O       -2.75007575      25.85428532       7.38060000              inf       0.00000000       0.00000000       0.00000000 s 
O       -4.25687575      28.46413947       7.38060000              inf       0.00000000       0.00000000       0.00000000 s 
O       -5.76367575      31.07399363       7.38060000              inf       0.00000000       0.00000000       0.00000000 s 
O       13.82472425       2.36559791       7.38060000              inf       0.00000000       0.00000000       0.00000000 s 
O       12.31792425       4.97545206       7.38060000              inf       0.00000000       0.00000000       0.00000000 s 
O       10.81124480       7.58530622       7.38060000       9.59992618       0.00012054       0.00000000       0.00000000 s 
O        9.30452014      10.19502988       7.38060000       8.05692530       0.00019588      -0.00013049       0.00000000 s 
O        7.79778041      12.80488404       7.38060000       6.84353045       0.00025616      -0.00013049       0.00000000 s 
O        6.29095027      15.41479039       7.38060000       5.35139386       0.00022602      -0.00007830       0.00000000 s 
O        4.78412014      18.02469675       7.38060000       5.34838481       0.00019588      -0.00002610       0.00000000 s 
O        3.27739548      20.63442041       7.38060000       6.83633055       0.00027122      -0.00015659       0.00000000 s 
O        1.77056534      23.24432677       7.38060000       9.11210956       0.00024109      -0.00010439       0.00000000 s 
O        0.26373520      25.85423312       7.38060000      11.72561138       0.00021095      -0.00005220       0.00000000 s 
O       -1.24327575      28.46413947       7.38060000              inf       0.00000000       0.00000000       0.00000000 s 
O       -2.75007575      31.07399363       7.38060000              inf       0.00000000       0.00000000       0.00000000 s 
O       16.83832425       2.36559791       7.38060000              inf       0.00000000       0.00000000       0.00000000 s 
O       15.33152425       4.97545206       7.38060000              inf       0.00000000       0.00000000       0.00000000 s 
O       13.82490507       7.58530622       7.38060000       9.11466238       0.00018082       0.00000000       0.00000000 s 
O       12.31818041      10.19502988       7.38060000       6.83747177       0.00025616      -0.00013049       0.00000000 s 
O       10.81135027      12.80493624       7.38060000       5.34659593       0.00022602      -0.00007830       0.00000000 s 
O        9.30439959      15.41479039       7.38060000       4.42165326       0.00007534      -0.00007830       0.00000000 s 
O        7.79756946      18.02469675       7.38060000       3.23068240       0.00004520      -0.00002610       0.00000000 s 
O        6.29084480      20.63442041       7.38060000       4.41436602       0.00012054      -0.00015659       0.00000000 s 
O        4.78401466      23.24432677       7.38060000       6.83375739       0.00009041      -0.00010439       0.00000000 s 
O        3.27718452      25.85423312       7.38060000       9.59573599       0.00006027      -0.00005220       0.00000000 s 
O        1.77032425      28.46413947       7.38060000              inf       0.00000000       0.00000000       0.00000000 s 
O        0.26352425      31.07399363       7.38060000              inf       0.00000000       0.00000000       0.00000000 s 
O       19.85192425       2.36559791       7.38060000              inf       0.00000000       0.00000000       0.00000000 s 
O       18.34512425       4.97545206       7.38060000              inf       0.00000000       0.00000000       0.00000000 s 
O       16.83835439       7.58530622       7.38060000       9.59992618       0.00003014       0.00000000       0.00000000 s 
O       15.33162973      10.19502988       7.38060000       6.83751826       0.00010548      -0.00013049       0.00000000 s 
O       13.82479959      12.80493624       7.38060000       4.41647045       0.00007534      -0.00007830       0.00000000 s 
O       12.31796946      15.41484259       7.38060000       3.22847688       0.00004520      -0.00002610       0.00000000 s 
O       10.81122973      18.02469675       7.38060000       3.22982762       0.00010548      -0.00002610       0.00000000 s 
O        9.30450507      20.63442041       7.38060000       3.22483991       0.00018082      -0.00015659       0.00000000 s 
O        7.79767493      23.24432677       7.38060000       5.34144709       0.00015068      -0.00010439       0.00000000 s 
O        6.29084480      25.85423312       7.38060000       8.05151029       0.00012054      -0.00005220       0.00000000 s 
O        4.78401466      28.46413947       7.38060000      10.92185311       0.00009041       0.00000000       0.00000000 s 
O        3.27712425      31.07399363       7.38060000              inf       0.00000000       0.00000000       0.00000000 s 
O       22.86552425       2.36559791       7.38060000              inf       0.00000000       0.00000000       0.00000000 s 
O       21.35872425       4.97545206       7.38060000              inf       0.00000000       0.00000000       0.00000000 s 
O       19.85201466       7.58530622       7.38060000      10.92723166       0.00009041       0.00000000       0.00000000 s 
O       18.34529000      10.19502988       7.38060000       8.05704365       0.00016575      -0.00013049       0.00000000 s 
O       16.83845986      12.80493624       7.38060000       5.34671483       0.00013561      -0.00007830       0.00000000 s 
O       15.33162973      15.41484259       7.38060000       3.22847688       0.00010548      -0.00002610       0.00000000 s 
O       13.82490507      18.02456626       7.38060000       3.22837843       0.00018082      -0.00015659       0.00000000 s 
O       12.31816534      20.63442041       7.38060000       4.41325890       0.00024109      -0.00015659       0.00000000 s 
O       10.81133520      23.24432677       7.38060000       5.34098964       0.00021095      -0.00010439       0.00000000 s 
O        9.30450507      25.85423312       7.38060000       7.46590806       0.00018082      -0.00005220       0.00000000 s 
O        7.79767493      28.46413947       7.38060000      10.05572933       0.00015068       0.00000000       0.00000000 s 
O        6.29072425      31.07399363       7.38060000              inf       0.00000000       0.00000000       0.00000000 s 
O       25.87912425       2.36559791       7.38060000              inf       0.00000000       0.00000000       0.00000000 s 
O       24.37232425       4.97545206       7.38060000              inf       0.00000000       0.00000000       0.00000000 s 
O       22.86552425       7.58530622       7.38060000              inf       0.00000000       0.00000000       0.00000000 s 
O       21.35895027      10.19502988       7.38060000      10.06203485       0.00022602      -0.00013049       0.00000000 s 
O       19.85212014      12.80493624       7.38060000       7.47220210       0.00019588      -0.00007830       0.00000000 s 
O       18.34529000      15.41484259       7.38060000       5.34671483       0.00016575      -0.00002610       0.00000000 s 
O       16.83856534      18.02456626       7.38060000       4.41647045       0.00024109      -0.00015659       0.00000000 s 
O       15.33173520      20.63447261       7.38060000       5.34659593       0.00021095      -0.00010439       0.00000000 s 
O       13.82478452      23.24432677       7.38060000       6.83254516       0.00006027      -0.00010439       0.00000000 s 
O       12.31795439      25.85423312       7.38060000       8.05082441       0.00003014      -0.00005220       0.00000000 s 
O       10.81112425      28.46413947       7.38060000      10.05545476       0.00000000       0.00000000       0.00000000 s 
O        9.30439959      31.07386314       7.38060000      12.47270683       0.00007534      -0.00013049       0.00000000 s 
O       28.89272425       2.36559791       7.38060000              inf       0.00000000       0.00000000       0.00000000 s 
O       27.38592425       4.97545206       7.38060000              inf       0.00000000       0.00000000       0.00000000 s 
O       25.87912425       7.58530622       7.38060000              inf       0.00000000       0.00000000       0.00000000 s 
O       24.37232425      10.19516038       7.38060000              inf       0.00000000       0.00000000       0.00000000 s 
O       22.86556946      12.80493624       7.38060000      10.06184531       0.00004520      -0.00007830       0.00000000 s 
O       21.35873932      15.41484259       7.38060000       8.05684639       0.00001507      -0.00002610       0.00000000 s 
O       19.85201466      18.02456626       7.38060000       6.83737879       0.00009041      -0.00015659       0.00000000 s 
O       18.34518452      20.63447261       7.38060000       6.83733230       0.00006027      -0.00010439       0.00000000 s 
O       16.83835439      23.24437896       7.38060000       8.05684639       0.00003014      -0.00005220       0.00000000 s 
O       15.33161466      25.85423312       7.38060000       9.59458494       0.00009041      -0.00005220       0.00000000 s 
O       13.82478452      28.46413947       7.38060000      10.92109467       0.00006027       0.00000000       0.00000000 s 
O       12.31792425      31.07399363       7.38060000              inf       0.00000000       0.00000000       0.00000000 s 
O       31.90632425       2.36559791       7.38060000              inf       0.00000000       0.00000000       0.00000000 s 
O       30.39952425       4.97545206       7.38060000              inf       0.00000000       0.00000000       0.00000000 s 
O       28.89272425       7.58530622       7.38060000              inf       0.00000000       0.00000000       0.00000000 s 
O       27.38592425      10.19516038       7.38060000              inf       0.00000000       0.00000000       0.00000000 s 
O       25.87912425      12.80501453       7.38060000              inf       0.00000000       0.00000000       0.00000000 s 
O       24.37232425      15.41486869       7.38060000              inf       0.00000000       0.00000000       0.00000000 s 
O       22.86567493      18.02456626       7.38060000       9.59999241       0.00015068      -0.00015659       0.00000000 s 
O       21.35884480      20.63447261       7.38060000       9.11466238       0.00012054      -0.00010439       0.00000000 s 
O       19.85201466      23.24437896       7.38060000       9.59992618       0.00009041      -0.00005220       0.00000000 s 
O       18.34527493      25.85423312       7.38060000      11.72436111       0.00015068      -0.00005220       0.00000000 s 
O       16.83832425      28.46413947       7.38060000              inf       0.00000000       0.00000000       0.00000000 s 
O       15.33152425      31.07399363       7.38060000              inf       0.00000000       0.00000000       0.00000000 s 
Cu      13.82479959      16.28481138      10.10010000       0.00000000       0.00000000       0.00000000       0.00000000 a1
N        9.33614787      24.62838462      10.10010000       0.00000000       0.00000000       0.00000000       0.00000000 a2
H       11.40748556      24.53228979      10.10010000       0.00000000       0.00000000       0.00000000       0.00000000 a2
H        7.26090757      24.56206823      10.10010000       0.00000000       0.00000000       0.00000000       0.00000000 a2
C       10.48140628      23.95206702      10.10010000       0.00000000       0.00000000       0.00000000       0.00000000 a2
C        8.17791591      23.96905717      10.10010000       0.00000000       0.00000000       0.00000000       0.00000000 a2
C       10.51674074      22.54846135      10.10010000       0.00000000       0.00000000       0.00000000       0.00000000 a2
C        8.12159173      22.56892261      10.10010000       0.00000000       0.00000000       0.00000000       0.00000000 a2
H       11.49566349      22.07401597      10.10010000       0.00000000       0.00000000       0.00000000       0.00000000 a2
C        9.31558005      21.81112536      10.10010000       0.00000000       0.00000000       0.00000000       0.00000000 a2
H        7.13496922      22.10927510      10.10010000       0.00000000       0.00000000       0.00000000       0.00000000 a2
C        9.30598173      20.33078998      10.10010000       0.00000000       0.00000000       0.00000000       0.00000000 a2
H       11.45315666      20.13878301      10.10010000       0.00000000       0.00000000       0.00000000       0.00000000 a2
H        7.15954513      20.15723468      10.10010000       0.00000000       0.00000000       0.00000000       0.00000000 a2
C       10.51304908      19.59747316      10.10010000       0.00000000       0.00000000       0.00000000       0.00000000 a2
C        8.09680487      19.61062682      10.10010000       0.00000000       0.00000000       0.00000000       0.00000000 a2
H       13.15416812      19.17692126      10.10010000       0.00000000       0.00000000       0.00000000       0.00000000 a2
H        5.44956822      19.20140169      10.10010000       0.00000000       0.00000000       0.00000000       0.00000000 a2
C       13.05966162      18.09430156      10.10010000       0.00000000       0.00000000       0.00000000       0.00000000 a2
C       10.53477713      18.19441556      10.10010000       0.00000000       0.00000000       0.00000000       0.00000000 a2
C        8.06706064      18.20245392      10.10010000       0.00000000       0.00000000       0.00000000       0.00000000 a2
C        5.54196520      18.11732047      10.10010000       0.00000000       0.00000000       0.00000000       0.00000000 a2
H       15.21632939      17.83616088      10.10010000       0.00000000       0.00000000       0.00000000       0.00000000 a2
C       11.80861078      17.44082018      10.10010000       0.00000000       0.00000000       0.00000000       0.00000000 a2
C       14.24194210      17.34435997      10.10010000       0.00000000       0.00000000       0.00000000       0.00000000 a2
C        9.29701627      17.52010755      10.10010000       0.00000000       0.00000000       0.00000000       0.00000000 a2
C        6.78637104      17.46073336      10.10010000       0.00000000       0.00000000       0.00000000       0.00000000 a2
H        3.38044553      17.86575663      10.10010000       0.00000000       0.00000000       0.00000000       0.00000000 a2
C        4.35441091      17.36920578      10.10010000       0.00000000       0.00000000       0.00000000       0.00000000 a2
N       14.22970689      16.01218601      10.10010000       0.00000000       0.00000000       0.00000000       0.00000000 a2
C       11.84141382      16.03319534      10.10010000       0.00000000       0.00000000       0.00000000       0.00000000 a2
H        9.29226985      16.43511288      10.10010000       0.00000000       0.00000000       0.00000000       0.00000000 a2
C        6.74745040      16.04799321      10.10010000       0.00000000       0.00000000       0.00000000       0.00000000 a2
N        4.36073947      16.04032024      10.10010000       0.00000000       0.00000000       0.00000000       0.00000000 a2
C       13.07316255      15.36053153      10.10010000       0.00000000       0.00000000       0.00000000       0.00000000 a2
C        5.51665096      15.37953127      10.10010000       0.00000000       0.00000000       0.00000000       0.00000000 a2
H       10.93948854      15.42538640      10.10010000       0.00000000       0.00000000       0.00000000       0.00000000 a2
H        7.64726616      15.43835738      10.10010000       0.00000000       0.00000000       0.00000000       0.00000000 a2
H       13.11493104      14.26731582      10.10010000       0.00000000       0.00000000       0.00000000       0.00000000 a2
H        5.46939771      14.28887321      10.10010000       0.00000000       0.00000000       0.00000000       0.00000000 a2
