184
Lattice="36.16319999999999 0.0 0.0 -18.081599999999995 31.318249882114287 0.0 0.0 0.0 30.0" Properties=species:S:1:pos:R:3:remoteness:R:1:shift:R:3:adsorption:S:1 size="_JSON [[12, 0], [0, 12]]" mass_center_dist=14.859354881281549 min_atom_dist=10.406551408354542 s1=cu_atop s2=tpb_hollow_down s1idx=1 s2idx=6 pbc="T T T"
O       -1.24327575       2.36559791       7.38060000              inf       0.00000000       0.00000000       0.00000000 s 
O       -2.75007575       4.97545206       7.38060000              inf       0.00000000       0.00000000       0.00000000 s 
O       -4.25687575       7.58530622       7.38060000              inf       0.00000000       0.00000000       0.00000000 s 
O       -5.76367575      10.19516038       7.38060000              inf       0.00000000       0.00000000       0.00000000 s 
O       -7.27047575      12.80501453       7.38060000              inf       0.00000000       0.00000000       0.00000000 s 
O       -8.77727575      15.41486869       7.38060000              inf       0.00000000       0.00000000       0.00000000 s 
O      -10.28407575      18.02472285       7.38060000              inf       0.00000000       0.00000000       0.00000000 s 
O      -11.79087575      20.63457700       7.38060000              inf       0.00000000       0.00000000       0.00000000 s 
O      -13.29767575      23.24443116       7.38060000              inf       0.00000000       0.00000000       0.00000000 s 
O      -14.80447575      25.85428532       7.38060000              inf       0.00000000       0.00000000       0.00000000 s 
O      -16.31115520      28.46403508       7.38060000      11.20085520       0.00012054      -0.00010439       0.00000000 s 
O      -17.81798534      31.07394143       7.38060000      10.78784708       0.00009041      -0.00005220       0.00000000 s 
O        1.77032425       2.36559791       7.38060000              inf       0.00000000       0.00000000       0.00000000 s 
O        0.26352425       4.97545206       7.38060000              inf       0.00000000       0.00000000       0.00000000 s 
O       -1.24327575       7.58530622       7.38060000              inf       0.00000000       0.00000000       0.00000000 s 
O       -2.75007575      10.19516038       7.38060000              inf       0.00000000       0.00000000       0.00000000 s 
O       -4.25687575      12.80501453       7.38060000              inf       0.00000000       0.00000000       0.00000000 s 
O       -5.76367575      15.41486869       7.38060000              inf       0.00000000       0.00000000       0.00000000 s 
O       -7.27047575      18.02472285       7.38060000              inf       0.00000000       0.00000000       0.00000000 s 
O       -8.77727575      20.63457700       7.38060000              inf       0.00000000       0.00000000       0.00000000 s 
O      -10.28407575      23.24443116       7.38060000              inf       0.00000000       0.00000000       0.00000000 s 
O      -11.79087575      25.85428532       7.38060000              inf       0.00000000       0.00000000       0.00000000 s 
O      -13.29767575      28.46413947       7.38060000              inf       0.00000000       0.00000000       0.00000000 s 
O      -14.80447575      31.07399363       7.38060000              inf       0.00000000       0.00000000       0.00000000 s 
O        4.78392425       2.36559791       7.38060000              inf       0.00000000       0.00000000       0.00000000 s 
O        3.27725986       4.97532157       7.38060000      10.06618962       0.00013561      -0.00013049       0.00000000 s 
O        1.77042973       7.58522792       7.38060000      10.06461387       0.00010548      -0.00007830       0.00000000 s 
O        0.26352425      10.19516038       7.38060000              inf       0.00000000       0.00000000       0.00000000 s 
O       -1.24327575      12.80501453       7.38060000              inf       0.00000000       0.00000000       0.00000000 s 
O       -2.75007575      15.41486869       7.38060000              inf       0.00000000       0.00000000       0.00000000 s 
O       -4.25687575      18.02472285       7.38060000              inf       0.00000000       0.00000000       0.00000000 s 
O       -5.76367575      20.63457700       7.38060000              inf       0.00000000       0.00000000       0.00000000 s 
O       -7.27047575      23.24443116       7.38060000              inf       0.00000000       0.00000000       0.00000000 s 
O       -8.77727575      25.85428532       7.38060000              inf       0.00000000       0.00000000       0.00000000 s 
O      -10.28407575      28.46413947       7.38060000              inf       0.00000000       0.00000000       0.00000000 s 
O      -11.79087575      31.07399363       7.38060000              inf       0.00000000       0.00000000       0.00000000 s 
O        7.79764480       2.36559791       7.38060000       9.60586231       0.00012054       0.00000000       0.00000000 s 
O        6.29092014       4.97532157       7.38060000       8.06206983       0.00019588      -0.00013049       0.00000000 s 
O        4.78409000       7.58522792       7.38060000       7.47550002       0.00016575      -0.00007830       0.00000000 s 
O        3.27725986      10.19513428       7.38060000       8.05813426       0.00013561      -0.00002610       0.00000000 s 
O        1.77053520      12.80485794       7.38060000       9.59925573       0.00021095      -0.00015659       0.00000000 s 
O        0.26352425      15.41486869       7.38060000              inf       0.00000000       0.00000000       0.00000000 s 
O       -1.24327575      18.02472285       7.38060000              inf       0.00000000       0.00000000       0.00000000 s 
O       -2.75007575      20.63457700       7.38060000              inf       0.00000000       0.00000000       0.00000000 s 
O       -4.25687575      23.24443116       7.38060000              inf       0.00000000       0.00000000       0.00000000 s 
O       -5.76367575      25.85428532       7.38060000              inf       0.00000000       0.00000000       0.00000000 s 
O       -7.27047575      28.46413947       7.38060000              inf       0.00000000       0.00000000       0.00000000 s 
O       -8.77727575      31.07399363       7.38060000              inf       0.00000000       0.00000000       0.00000000 s 
O       10.81130507       2.36559791       7.38060000       9.12070152       0.00018082      -0.00000000       0.00000000 s 
O        9.30458041       4.97532157       7.38060000       6.84324945       0.00025616      -0.00013049       0.00000000 s 
O        7.79775027       7.58522792       7.38060000       5.35107890       0.00022602      -0.00007830       0.00000000 s 
O        6.29092014      10.19513428       7.38060000       5.34811408       0.00019588      -0.00002610       0.00000000 s 
O        4.78419548      12.80485794       7.38060000       6.83615350       0.00027122      -0.00015659       0.00000000 s 
O        3.27736534      15.41476430       7.38060000       9.11200280       0.00024109      -0.00010439       0.00000000 s 
O        1.77053520      18.02467065       7.38060000      11.72554868       0.00021095      -0.00005220       0.00000000 s 
O        0.26356946      20.63449871       7.38060000      10.78784708       0.00004520      -0.00007830       0.00000000 s 
O       -1.24327575      23.24443116       7.38060000              inf       0.00000000       0.00000000       0.00000000 s 
O       -2.75007575      25.85428532       7.38060000              inf       0.00000000       0.00000000       0.00000000 s 
O       -4.25687575      28.46413947       7.38060000              inf       0.00000000       0.00000000       0.00000000 s 
O       -5.76367575      31.07399363       7.38060000              inf       0.00000000       0.00000000       0.00000000 s 
O       13.82475439       2.36559791       7.38060000       9.60545819       0.00003014       0.00000000       0.00000000 s 
O       12.31802973       4.97532157       7.38060000       6.84301227       0.00010548      -0.00013049       0.00000000 s 
O       10.81119959       7.58522792       7.38060000       4.42145755       0.00007534      -0.00007830       0.00000000 s 
O        9.30436946      10.19513428       7.38060000       3.23048808       0.00004520      -0.00002610       0.00000000 s 
O        7.79764480      12.80485794       7.38060000       4.41427761       0.00012054      -0.00015659       0.00000000 s 
O        6.29081466      15.41476430       7.38060000       6.83373504       0.00009041      -0.00010439       0.00000000 s 
O        4.78405986      18.02459235       7.38060000       9.44093216       0.00013561      -0.00013049       0.00000000 s 
O        3.27722973      20.63449871       7.38060000       8.42422336       0.00010548      -0.00007830       0.00000000 s 
O        1.77039959      23.24440506       7.38060000       8.42426109       0.00007534      -0.00002610       0.00000000 s 
O        0.26367493      25.85412873       7.38060000       9.44093216       0.00015068      -0.00015659       0.00000000 s 
O       -1.24327575      28.46413947       7.38060000              inf       0.00000000       0.00000000       0.00000000 s 
O       -2.75007575      31.07399363       7.38060000              inf       0.00000000       0.00000000       0.00000000 s 
O       16.83832425       2.36559791       7.38060000              inf       0.00000000       0.00000000       0.00000000 s 
O       15.33169000       4.97532157       7.38060000       8.06146584       0.00016575      -0.00013049       0.00000000 s 
O       13.82485986       7.58522792       7.38060000       5.35047223       0.00013561      -0.00007830       0.00000000 s 
O       12.31802973      10.19513428       7.38060000       3.22988719       0.00010548      -0.00002610       0.00000000 s 
O       10.81130507      12.80485794       7.38060000       3.22497323       0.00018082      -0.00015659       0.00000000 s 
O        9.30447493      15.41476430       7.38060000       5.34157205       0.00015068      -0.00010439       0.00000000 s 
O        7.79764480      18.02467065       7.38060000       8.05162269       0.00012054      -0.00005220       0.00000000 s 
O        6.29089000      20.63449871       7.38060000       6.61224094       0.00016575      -0.00007830       0.00000000 s 
O        4.78405986      23.24440506       7.38060000       5.88559409       0.00013561      -0.00002610       0.00000000 s 
O        3.27733520      25.85412873       7.38060000       6.61224094       0.00021095      -0.00015659       0.00000000 s 
O        1.77050507      28.46403508       7.38060000       8.42422336       0.00018082      -0.00010439       0.00000000 s 
O        0.26367493      31.07394143       7.38060000      10.78784708       0.00015068      -0.00005220       0.00000000 s 
O       19.85192425       2.36559791       7.38060000              inf       0.00000000       0.00000000       0.00000000 s 
O       18.34535027       4.97532157       7.38060000      10.06538337       0.00022602      -0.00013049       0.00000000 s 
O       16.83852014       7.58522792       7.38060000       7.47463149       0.00019588      -0.00007830       0.00000000 s 
O       15.33169000      10.19513428       7.38060000       5.34720354       0.00016575      -0.00002610       0.00000000 s 
O       13.82496534      12.80485794       7.38060000       4.41354215       0.00024109      -0.00015659       0.00000000 s 
O       12.31813520      15.41476430       7.38060000       5.34126817       0.00021095      -0.00010439       0.00000000 s 
O       10.81130507      18.02467065       7.38060000       7.46613913       0.00018082      -0.00005220       0.00000000 s 
O        9.30455027      20.63449871       7.38060000       5.88559409       0.00022602      -0.00007830       0.00000000 s 
O        7.79772014      23.24440506       7.38060000       4.05913255       0.00019588      -0.00002610       0.00000000 s 
O        6.29099548      25.85412873       7.38060000       4.05913255       0.00027122      -0.00015659       0.00000000 s 
O        4.78416534      28.46403508       7.38060000       5.88559409       0.00024109      -0.00010439       0.00000000 s 
O        3.27733520      31.07394143       7.38060000       8.42426109       0.00021095      -0.00005220       0.00000000 s 
O       22.86555439       2.36559791       7.38060000       9.44113417       0.00003014      -0.00000000       0.00000000 s 
O       21.35872425       4.97545206       7.38060000              inf       0.00000000       0.00000000       0.00000000 s 
O       19.85196946       7.58522792       7.38060000      10.06345671       0.00004520      -0.00007830       0.00000000 s 
O       18.34513932      10.19513428       7.38060000       8.05692983       0.00001507      -0.00002610       0.00000000 s 
O       16.83841466      12.80485794       7.38060000       6.83520373       0.00009041      -0.00015659       0.00000000 s 
O       15.33158452      15.41476430       7.38060000       6.83288292       0.00006027      -0.00010439       0.00000000 s 
O       13.82475439      18.02467065       7.38060000       8.05114056       0.00003014      -0.00005220       0.00000000 s 
O       12.31799959      20.63449871       7.38060000       6.61224094       0.00007534      -0.00007830       0.00000000 s 
O       10.81116946      23.24440506       7.38060000       4.05913255       0.00004520      -0.00002610       0.00000000 s 
O        9.30444480      25.85412873       7.38060000       2.71950000       0.00012054      -0.00015659       0.00000000 s 
O        7.79761466      28.46403508       7.38060000       4.05928916       0.00009041      -0.00010439       0.00000000 s 
O        6.29078452      31.07394143       7.38060000       6.61243323       0.00006027      -0.00005220       0.00000000 s 
O       25.87921466       2.36559791       7.38060000       8.42441202       0.00009041       0.00000000       0.00000000 s 
O       24.37249000       4.97532157       7.38060000      11.20085520       0.00016575      -0.00013049       0.00000000 s 
O       22.86552425       7.58530622       7.38060000              inf       0.00000000       0.00000000       0.00000000 s 
O       21.35879959      10.19513428       7.38060000      10.92711555       0.00007534      -0.00002610       0.00000000 s 
O       19.85207493      12.80485794       7.38060000       9.59824117       0.00015068      -0.00015659       0.00000000 s 
O       18.34524480      15.41476430       7.38060000       9.11111213       0.00012054      -0.00010439       0.00000000 s 
O       16.83841466      18.02467065       7.38060000       9.59493571       0.00009041      -0.00005220       0.00000000 s 
O       15.33165986      20.63449871       7.38060000       8.42422336       0.00013561      -0.00007830       0.00000000 s 
O       13.82482973      23.24440506       7.38060000       5.88559409       0.00010548      -0.00002610       0.00000000 s 
O       12.31810507      25.85412873       7.38060000       4.05928916       0.00018082      -0.00015659       0.00000000 s 
O       10.81127493      28.46403508       7.38060000       4.05928916       0.00015068      -0.00010439       0.00000000 s 
O        9.30444480      31.07394143       7.38060000       5.88575611       0.00012054      -0.00005220       0.00000000 s 
O       28.89287493       2.36559791       7.38060000       8.42441202       0.00015068      -0.00000000       0.00000000 s 
O       27.38615027       4.97532157       7.38060000      10.78784708       0.00022602      -0.00013049       0.00000000 s 
O       25.87912425       7.58530622       7.38060000              inf       0.00000000       0.00000000       0.00000000 s 
O       24.37232425      10.19516038       7.38060000              inf       0.00000000       0.00000000       0.00000000 s 
O       22.86552425      12.80501453       7.38060000              inf       0.00000000       0.00000000       0.00000000 s 
O       21.35890507      15.41476430       7.38060000      11.72607078       0.00018082      -0.00010439       0.00000000 s 
O       19.85207493      18.02467065       7.38060000      11.72471811       0.00015068      -0.00005220       0.00000000 s 
O       18.34532014      20.63449871       7.38060000      10.78784708       0.00019588      -0.00007830       0.00000000 s 
O       16.83849000      23.24440506       7.38060000       8.42426109       0.00016575      -0.00002610       0.00000000 s 
O       15.33176534      25.85412873       7.38060000       6.61243323       0.00024109      -0.00015659       0.00000000 s 
O       13.82493520      28.46403508       7.38060000       5.88575611       0.00021095      -0.00010439       0.00000000 s 
O       12.31810507      31.07394143       7.38060000       6.61243323       0.00018082      -0.00005220       0.00000000 s 
O       31.90632425       2.36559791       7.38060000       9.44103316       0.00000000      -0.00000000       0.00000000 s 
O       30.39959959       4.97532157       7.38060000      11.20085520       0.00007534      -0.00013049       0.00000000 s 
O       28.89272425       7.58530622       7.38060000              inf       0.00000000       0.00000000       0.00000000 s 
O       27.38592425      10.19516038       7.38060000              inf       0.00000000       0.00000000       0.00000000 s 
O       25.87912425      12.80501453       7.38060000              inf       0.00000000       0.00000000       0.00000000 s 
O       24.37232425      15.41486869       7.38060000              inf       0.00000000       0.00000000       0.00000000 s 
O       22.86552425      18.02472285       7.38060000              inf       0.00000000       0.00000000       0.00000000 s 
O       21.35872425      20.63457700       7.38060000              inf       0.00000000       0.00000000       0.00000000 s 
O       19.85193932      23.24440506       7.38060000      11.20071331       0.00001507      -0.00002610       0.00000000 s 
O       18.34521466      25.85412873       7.38060000       9.44093216       0.00009041      -0.00015659       0.00000000 s 
O       16.83838452      28.46403508       7.38060000       8.42422336       0.00006027      -0.00010439       0.00000000 s 
O       15.33155439      31.07394143       7.38060000       8.42426109       0.00003014      -0.00005220       0.00000000 s 
Cu       9.30444480      25.85412873      10.10010000       0.00000000       0.00000000       0.00000000       0.00000000 a1
N       10.78113893       5.34417226      10.10010000       0.00000000       0.00000000       0.00000000       0.00000000 a2
H        8.70959029       5.44026709      10.10010000       0.00000000       0.00000000       0.00000000       0.00000000 a2
H       12.85637923       5.41048865      10.10010000       0.00000000       0.00000000       0.00000000       0.00000000 a2
C        9.63588052       6.02048986      10.10010000       0.00000000       0.00000000       0.00000000       0.00000000 a2
C       11.93905446       6.00368240      10.10010000       0.00000000       0.00000000       0.00000000       0.00000000 a2
C        9.60022964       7.42427822      10.10010000       0.00000000       0.00000000       0.00000000       0.00000000 a2
C       11.99558960       7.40381696      10.10010000       0.00000000       0.00000000       0.00000000       0.00000000 a2
H        8.62151783       7.89872361      10.10010000       0.00000000       0.00000000       0.00000000       0.00000000 a2
C       10.80160128       8.16161421      10.10010000       0.00000000       0.00000000       0.00000000       0.00000000 a2
H       12.98221210       7.86346448      10.10010000       0.00000000       0.00000000       0.00000000       0.00000000 a2
C       10.81109412       9.64176690      10.10010000       0.00000000       0.00000000       0.00000000       0.00000000 a2
H        8.66413014       9.83377387      10.10010000       0.00000000       0.00000000       0.00000000       0.00000000 a2
H       12.95753072       9.81532220      10.10010000       0.00000000       0.00000000       0.00000000       0.00000000 a2
C        9.60413225      10.37526641      10.10010000       0.00000000       0.00000000       0.00000000       0.00000000 a2
C       12.02048193      10.36193006      10.10010000       0.00000000       0.00000000       0.00000000       0.00000000 a2
H        6.96280226      10.79581831      10.10010000       0.00000000       0.00000000       0.00000000       0.00000000 a2
H       14.66740215      10.77133788      10.10010000       0.00000000       0.00000000       0.00000000       0.00000000 a2
C        7.05762518      11.87825532      10.10010000       0.00000000       0.00000000       0.00000000       0.00000000 a2
C        9.58240419      11.77832401      10.10010000       0.00000000       0.00000000       0.00000000       0.00000000 a2
C       12.05001521      11.77010297      10.10010000       0.00000000       0.00000000       0.00000000       0.00000000 a2
C       14.57521613      11.85541910      10.10010000       0.00000000       0.00000000       0.00000000       0.00000000 a2
H        4.90085193      12.13657869      10.10010000       0.00000000       0.00000000       0.00000000       0.00000000 a2
C        8.30857054      12.53191939      10.10010000       0.00000000       0.00000000       0.00000000       0.00000000 a2
C        5.87534470      12.62819691      10.10010000       0.00000000       0.00000000       0.00000000       0.00000000 a2
C       10.82016505      12.45263203      10.10010000       0.00000000       0.00000000       0.00000000       0.00000000 a2
C       13.33081028      12.51200621      10.10010000       0.00000000       0.00000000       0.00000000       0.00000000 a2
H       16.73684127      12.10680025      10.10010000       0.00000000       0.00000000       0.00000000       0.00000000 a2
C       15.76266494      12.60335110      10.10010000       0.00000000       0.00000000       0.00000000       0.00000000 a2
N        5.88747444      13.96055356      10.10010000       0.00000000       0.00000000       0.00000000       0.00000000 a2
C        8.27576750      13.93954423      10.10010000       0.00000000       0.00000000       0.00000000       0.00000000 a2
H       10.82501695      13.53744400      10.10010000       0.00000000       0.00000000       0.00000000       0.00000000 a2
C       13.36951997      13.92474636      10.10010000       0.00000000       0.00000000       0.00000000       0.00000000 a2
N       15.75644185      13.93241933      10.10010000       0.00000000       0.00000000       0.00000000       0.00000000 a2
C        7.04380782      14.61220804      10.10010000       0.00000000       0.00000000       0.00000000       0.00000000 a2
C       14.60063584      14.59302562      10.10010000       0.00000000       0.00000000       0.00000000       0.00000000 a2
H        9.17769278      14.54735317      10.10010000       0.00000000       0.00000000       0.00000000       0.00000000 a2
H       12.46970422      14.53438219      10.10010000       0.00000000       0.00000000       0.00000000       0.00000000 a2
H        7.00225028      15.70542375      10.10010000       0.00000000       0.00000000       0.00000000       0.00000000 a2
H       14.64757266      15.68386636      10.10010000       0.00000000       0.00000000       0.00000000       0.00000000 a2
