222
Lattice="36.16319999999999 0.0 0.0 -18.081599999999995 31.318249882114287 0.0 0.0 0.0 30.0" Properties=species:S:1:pos:R:3:remoteness:R:1:shift:R:3:adsorption:S:1 size="_JSON [[12, 0], [0, 12]]" mass_center_dist=13.59509004201779 min_atom_dist=3.3614085502523223 s1=tpb_hollow_up s2=tpb_hollow_up s1idx=8 s2idx=9 pbc="T T T"
O       -1.24327575       2.36559791       7.38060000              inf       0.00000000       0.00000000       0.00000000 s 
O       -2.75007575       4.97545206       7.38060000              inf       0.00000000       0.00000000       0.00000000 s 
O       -4.25687575       7.58530622       7.38060000              inf       0.00000000       0.00000000       0.00000000 s 
O       -5.76367575      10.19516038       7.38060000              inf       0.00000000       0.00000000       0.00000000 s 
O       -7.27032507      12.80517112       7.38060000      11.72561138       0.00015068       0.00015659       0.00000000 s 
O       -8.77720041      15.41484259       7.38060000      10.92687277       0.00007534      -0.00002610       0.00000000 s 
O      -10.28392507      18.02456626       7.38060000       9.59794003       0.00015068      -0.00015659       0.00000000 s 
O      -11.79075520      20.63447261       7.38060000       9.11076881       0.00012054      -0.00010439       0.00000000 s 
O      -13.29758534      23.24437896       7.38060000       9.59458494       0.00009041      -0.00005220       0.00000000 s 
O      -14.80441548      25.85428532       7.38060000      10.92109467       0.00006027       0.00000000       0.00000000 s 
O      -16.31127575      28.46413947       7.38060000              inf       0.00000000       0.00000000       0.00000000 s 
O      -17.81807575      31.07399363       7.38060000              inf       0.00000000       0.00000000       0.00000000 s 
O        1.77032425       2.36559791       7.38060000              inf       0.00000000       0.00000000       0.00000000 s 
O        0.26352425       4.97545206       7.38060000              inf       0.00000000       0.00000000       0.00000000 s 
O       -1.24327575       7.58530622       7.38060000              inf       0.00000000       0.00000000       0.00000000 s 
O       -2.74983466      10.19526477       7.38060000       9.59946726       0.00024109       0.00010439       0.00000000 s 
O       -4.25666480      12.80517112       7.38060000       9.11210956       0.00021095       0.00015659       0.00000000 s 
O       -5.76360041      15.41489479       7.38060000       9.59573599       0.00007534       0.00002610       0.00000000 s 
O       -7.27043054      18.02480114       7.38060000      10.92185311       0.00004520       0.00007830       0.00000000 s 
O       -8.77709493      20.63447261       7.38060000      11.72573407       0.00018082      -0.00010439       0.00000000 s 
O      -10.28392507      23.24437896       7.38060000      11.72436111       0.00015068      -0.00005220       0.00000000 s 
O      -11.79087575      25.85428532       7.38060000              inf       0.00000000       0.00000000       0.00000000 s 
O      -13.29767575      28.46413947       7.38060000              inf       0.00000000       0.00000000       0.00000000 s 
O      -14.80447575      31.07399363       7.38060000              inf       0.00000000       0.00000000       0.00000000 s 
O        4.78392425       2.36559791       7.38060000              inf       0.00000000       0.00000000       0.00000000 s 
O        3.27712425       4.97545206       7.38060000              inf       0.00000000       0.00000000       0.00000000 s 
O        1.77044480       7.58535842       7.38060000      10.06494431       0.00012054       0.00005220       0.00000000 s 
O        0.26361466      10.19526477       7.38060000       8.05841572       0.00009041       0.00010439       0.00000000 s 
O       -1.24300452      12.80517112       7.38060000       6.83633055       0.00027122       0.00015659       0.00000000 s 
O       -2.74994014      15.41489479       7.38060000       6.83375739       0.00013561       0.00002610       0.00000000 s 
O       -4.25677027      18.02480114       7.38060000       8.05151029       0.00010548       0.00007830       0.00000000 s 
O       -5.76360041      20.63470750       7.38060000      10.05572933       0.00007534       0.00013049       0.00000000 s 
O       -7.27032507      23.24443116       7.38060000      12.47270683       0.00015068      -0.00000000       0.00000000 s 
O       -8.77727575      25.85428532       7.38060000              inf       0.00000000       0.00000000       0.00000000 s 
O      -10.28407575      28.46413947       7.38060000              inf       0.00000000       0.00000000       0.00000000 s 
O      -11.79087575      31.07399363       7.38060000              inf       0.00000000       0.00000000       0.00000000 s 
O        7.79752425       2.36559791       7.38060000              inf       0.00000000       0.00000000       0.00000000 s 
O        6.29072425       4.97545206       7.38060000              inf       0.00000000       0.00000000       0.00000000 s 
O        4.78410507       7.58535842       7.38060000      10.06654360       0.00018082       0.00005220       0.00000000 s 
O        3.27727493      10.19526477       7.38060000       7.47583520       0.00015068       0.00010439       0.00000000 s 
O        1.77044480      12.80517112       7.38060000       5.34838481       0.00012054       0.00015659       0.00000000 s 
O        0.26372014      15.41489479       7.38060000       4.41436602       0.00019588       0.00002610       0.00000000 s 
O       -1.24311000      18.02480114       7.38060000       5.34144709       0.00016575       0.00007830       0.00000000 s 
O       -2.74994014      20.63470750       7.38060000       7.46590806       0.00013561       0.00013049       0.00000000 s 
O       -4.25687575      23.24443116       7.38060000      10.05545476       0.00000000       0.00000000       0.00000000 s 
O       -5.76367575      25.85428532       7.38060000              inf       0.00000000       0.00000000       0.00000000 s 
O       -7.27047575      28.46413947       7.38060000              inf       0.00000000       0.00000000       0.00000000 s 
O       -8.77727575      31.07399363       7.38060000              inf       0.00000000       0.00000000       0.00000000 s 
O       10.81112425       2.36559791       7.38060000              inf       0.00000000       0.00000000       0.00000000 s 
O        9.30432425       4.97545206       7.38060000              inf       0.00000000       0.00000000       0.00000000 s 
O        7.79752425       7.58530622       7.38060000              inf       0.00000000       0.00000000       0.00000000 s 
O        6.29093520      10.19526477       7.38060000       8.06241008       0.00021095       0.00010439       0.00000000 s 
O        4.78410507      12.80517112       7.38060000       5.35139386       0.00018082       0.00015659       0.00000000 s 
O        3.27716946      15.41489479       7.38060000       3.23068240       0.00004520       0.00002610       0.00000000 s 
O        1.77055027      18.02480114       7.38060000       3.22483991       0.00022602       0.00007830       0.00000000 s 
O        0.26372014      20.63470750       7.38060000       5.34098964       0.00019588       0.00013049       0.00000000 s 
O       -1.24321548      23.24443116       7.38060000       8.05082441       0.00006027      -0.00000000       0.00000000 s 
O       -2.75004561      25.85433752       7.38060000      10.92109467       0.00003014       0.00005220       0.00000000 s 
O       -4.25687575      28.46413947       7.38060000              inf       0.00000000       0.00000000       0.00000000 s 
O       -5.76367575      31.07399363       7.38060000              inf       0.00000000       0.00000000       0.00000000 s 
O       13.82472425       2.36559791       7.38060000              inf       0.00000000       0.00000000       0.00000000 s 
O       12.31792425       4.97545206       7.38060000              inf       0.00000000       0.00000000       0.00000000 s 
O       10.81112425       7.58530622       7.38060000              inf       0.00000000       0.00000000       0.00000000 s 
O        9.30438452      10.19526477       7.38060000       9.60617260       0.00006027       0.00010439       0.00000000 s 
O        7.79776534      12.80517112       7.38060000       6.84353045       0.00024109       0.00015659       0.00000000 s 
O        6.29082973      15.41489479       7.38060000       4.42165326       0.00010548       0.00002610       0.00000000 s 
O        4.78399959      18.02480114       7.38060000       3.22982762       0.00007534       0.00007830       0.00000000 s 
O        3.27738041      20.63470750       7.38060000       4.41325890       0.00025616       0.00013049       0.00000000 s 
O        1.77044480      23.24443116       7.38060000       6.83254516       0.00012054      -0.00000000       0.00000000 s 
O        0.26361466      25.85433751       7.38060000       9.59458494       0.00009041       0.00005220       0.00000000 s 
O       -1.24327575      28.46413947       7.38060000              inf       0.00000000       0.00000000       0.00000000 s 
O       -2.75007575      31.07399363       7.38060000              inf       0.00000000       0.00000000       0.00000000 s 
O       16.83832425       2.36559791       7.38060000              inf       0.00000000       0.00000000       0.00000000 s 
O       15.33152425       4.97545206       7.38060000              inf       0.00000000       0.00000000       0.00000000 s 
O       13.82484480       7.58530622       7.38060000       9.60617260       0.00012054      -0.00000000       0.00000000 s 
O       12.31812014      10.19502988       7.38060000       8.06241008       0.00019588      -0.00013049       0.00000000 s 
O       10.81129000      12.80493624       7.38060000       7.47583520       0.00016575      -0.00007830       0.00000000 s 
O        9.30449000      15.41489479       7.38060000       6.84317344       0.00016575       0.00002610       0.00000000 s 
O        7.79765986      18.02480114       7.38060000       5.35048067       0.00013561       0.00007830       0.00000000 s 
O        6.29082973      20.63470750       7.38060000       5.34701417       0.00010548       0.00013049       0.00000000 s 
O        4.78410507      23.24443116       7.38060000       6.83490085       0.00018082      -0.00000000       0.00000000 s 
O        3.27727493      25.85433751       7.38060000       9.11076881       0.00015068       0.00005220       0.00000000 s 
O        1.77044480      28.46424387       7.38060000      11.72436111       0.00012054       0.00010439       0.00000000 s 
O        0.26352425      31.07399363       7.38060000              inf       0.00000000       0.00000000       0.00000000 s 
O       19.85192425       2.36559791       7.38060000              inf       0.00000000       0.00000000       0.00000000 s 
O       18.34512425       4.97545206       7.38060000              inf       0.00000000       0.00000000       0.00000000 s 
O       16.83850507       7.58530622       7.38060000       9.12093840       0.00018082      -0.00000000       0.00000000 s 
O       15.33178041      10.19502988       7.38060000       6.84353045       0.00025616      -0.00013049       0.00000000 s 
O       13.82495027      12.80493624       7.38060000       5.35139386       0.00022602      -0.00007830       0.00000000 s 
O       12.31812014      15.41484259       7.38060000       5.34838481       0.00019588      -0.00002610       0.00000000 s 
O       10.81139548      18.02456626       7.38060000       6.83633055       0.00027122      -0.00015659       0.00000000 s 
O        9.30449000      20.63470750       7.38060000       7.47452780       0.00016575       0.00013049       0.00000000 s 
O        7.79755439      23.24443116       7.38060000       8.05670236       0.00003014       0.00000000       0.00000000 s 
O        6.29093520      25.85433752       7.38060000       9.59794003       0.00021095       0.00005220       0.00000000 s 
O        4.78410507      28.46424387       7.38060000      11.72573407       0.00018082       0.00010439       0.00000000 s 
O        3.27712425      31.07399363       7.38060000              inf       0.00000000       0.00000000       0.00000000 s 
O       22.86552425       2.36559791       7.38060000              inf       0.00000000       0.00000000       0.00000000 s 
O       21.35872425       4.97545206       7.38060000              inf       0.00000000       0.00000000       0.00000000 s 
O       19.85195439       7.58530622       7.38060000       9.60559773       0.00003014       0.00000000       0.00000000 s 
O       18.34522973      10.19502988       7.38060000       6.84317344       0.00010548      -0.00013049       0.00000000 s 
O       16.83839959      12.80493624       7.38060000       4.42165326       0.00007534      -0.00007830       0.00000000 s 
O       15.33156946      15.41484259       7.38060000       3.23068240       0.00004520      -0.00002610       0.00000000 s 
O       13.82484480      18.02456626       7.38060000       4.41436602       0.00012054      -0.00015659       0.00000000 s 
O       12.31801466      20.63447261       7.38060000       6.83375739       0.00009041      -0.00010439       0.00000000 s 
O       10.81118452      23.24437896       7.38060000       9.59573599       0.00006027      -0.00005220       0.00000000 s 
O        9.30438452      25.85433752       7.38060000      10.92687277       0.00006027       0.00005220       0.00000000 s 
O        7.79752425      28.46413947       7.38060000              inf       0.00000000       0.00000000       0.00000000 s 
O        6.29072425      31.07399363       7.38060000              inf       0.00000000       0.00000000       0.00000000 s 
O       25.87912425       2.36559791       7.38060000              inf       0.00000000       0.00000000       0.00000000 s 
O       24.37232425       4.97545206       7.38060000              inf       0.00000000       0.00000000       0.00000000 s 
O       22.86552425       7.58530622       7.38060000              inf       0.00000000       0.00000000       0.00000000 s 
O       21.35889000      10.19502988       7.38060000       8.06150091       0.00016575      -0.00013049       0.00000000 s 
O       19.85205986      12.80493624       7.38060000       5.35048067       0.00013561      -0.00007830       0.00000000 s 
O       18.34522973      15.41484259       7.38060000       3.22982762       0.00010548      -0.00002610       0.00000000 s 
O       16.83850507      18.02456626       7.38060000       3.22483991       0.00018082      -0.00015659       0.00000000 s 
O       15.33167493      20.63447261       7.38060000       5.34144709       0.00015068      -0.00010439       0.00000000 s 
O       13.82484480      23.24437896       7.38060000       8.05151029       0.00012054      -0.00005220       0.00000000 s 
O       12.31801466      25.85428532       7.38060000      10.92185311       0.00009041       0.00000000       0.00000000 s 
O       10.81112425      28.46413947       7.38060000              inf       0.00000000       0.00000000       0.00000000 s 
O        9.30432425      31.07399363       7.38060000              inf       0.00000000       0.00000000       0.00000000 s 
O       28.89272425       2.36559791       7.38060000              inf       0.00000000       0.00000000       0.00000000 s 
O       27.38592425       4.97545206       7.38060000              inf       0.00000000       0.00000000       0.00000000 s 
O       25.87912425       7.58530622       7.38060000              inf       0.00000000       0.00000000       0.00000000 s 
O       24.37255027      10.19502988       7.38060000      10.06532997       0.00022602      -0.00013049       0.00000000 s 
O       22.86572014      12.80493624       7.38060000       7.47452780       0.00019588      -0.00007830       0.00000000 s 
O       21.35889000      15.41484259       7.38060000       5.34701417       0.00016575      -0.00002610       0.00000000 s 
O       19.85216534      18.02456626       7.38060000       4.41325890       0.00024109      -0.00015659       0.00000000 s 
O       18.34533520      20.63447261       7.38060000       5.34098964       0.00021095      -0.00010439       0.00000000 s 
O       16.83850507      23.24437896       7.38060000       7.46590806       0.00018082      -0.00005220       0.00000000 s 
O       15.33167493      25.85428532       7.38060000      10.05572933       0.00015068       0.00000000       0.00000000 s 
O       13.82472425      28.46413947       7.38060000              inf       0.00000000       0.00000000       0.00000000 s 
O       12.31792425      31.07399363       7.38060000              inf       0.00000000       0.00000000       0.00000000 s 
O       31.90632425       2.36559791       7.38060000              inf       0.00000000       0.00000000       0.00000000 s 
O       30.39952425       4.97545206       7.38060000              inf       0.00000000       0.00000000       0.00000000 s 
O       28.89272425       7.58530622       7.38060000              inf       0.00000000       0.00000000       0.00000000 s 
O       27.38592425      10.19516038       7.38060000              inf       0.00000000       0.00000000       0.00000000 s 
O       25.87916946      12.80493624       7.38060000      10.06329820       0.00004520      -0.00007830       0.00000000 s 
O       24.37233932      15.41484259       7.38060000       8.05670236       0.00001507      -0.00002610       0.00000000 s 
O       22.86561466      18.02456626       7.38060000       6.83490085       0.00009041      -0.00015659       0.00000000 s 
O       21.35878452      20.63447261       7.38060000       6.83254516       0.00006027      -0.00010439       0.00000000 s 
O       19.85195439      23.24437896       7.38060000       8.05082441       0.00003014      -0.00005220       0.00000000 s 
O       18.34512425      25.85428532       7.38060000      10.05545476       0.00000000       0.00000000       0.00000000 s 
O       16.83839959      28.46400898       7.38060000      12.47270683       0.00007534      -0.00013049       0.00000000 s 
O       15.33152425      31.07399363       7.38060000              inf       0.00000000       0.00000000       0.00000000 s 
N       16.87014787      22.01853047      10.10010000       0.00000000       0.00000000       0.00000000       0.00000000 a1
H       18.94148556      21.92243564      10.10010000       0.00000000       0.00000000       0.00000000       0.00000000 a1
H       14.79490757      21.95221407      10.10010000       0.00000000       0.00000000       0.00000000       0.00000000 a1
C       18.01540628      21.34221286      10.10010000       0.00000000       0.00000000       0.00000000       0.00000000 a1
C       15.71191591      21.35920301      10.10010000       0.00000000       0.00000000       0.00000000       0.00000000 a1
C       18.05074074      19.93860720      10.10010000       0.00000000       0.00000000       0.00000000       0.00000000 a1
C       15.65559173      19.95906845      10.10010000       0.00000000       0.00000000       0.00000000       0.00000000 a1
H       19.02966349      19.46416181      10.10010000       0.00000000       0.00000000       0.00000000       0.00000000 a1
C       16.84958005      19.20127120      10.10010000       0.00000000       0.00000000       0.00000000       0.00000000 a1
H       14.66896922      19.49942094      10.10010000       0.00000000       0.00000000       0.00000000       0.00000000 a1
C       16.83998173      17.72093582      10.10010000       0.00000000       0.00000000       0.00000000       0.00000000 a1
H       18.98715666      17.52892885      10.10010000       0.00000000       0.00000000       0.00000000       0.00000000 a1
H       14.69354513      17.54738052      10.10010000       0.00000000       0.00000000       0.00000000       0.00000000 a1
C       18.04704908      16.98761900      10.10010000       0.00000000       0.00000000       0.00000000       0.00000000 a1
C       15.63080487      17.00077267      10.10010000       0.00000000       0.00000000       0.00000000       0.00000000 a1
H       20.68816812      16.56706710      10.10010000       0.00000000       0.00000000       0.00000000       0.00000000 a1
H       12.98356822      16.59154754      10.10010000       0.00000000       0.00000000       0.00000000       0.00000000 a1
C       20.59366162      15.48444740      10.10010000       0.00000000       0.00000000       0.00000000       0.00000000 a1
C       18.06877713      15.58456141      10.10010000       0.00000000       0.00000000       0.00000000       0.00000000 a1
C       15.60106064      15.59259976      10.10010000       0.00000000       0.00000000       0.00000000       0.00000000 a1
C       13.07596520      15.50746632      10.10010000       0.00000000       0.00000000       0.00000000       0.00000000 a1
H       22.75032939      15.22630673      10.10010000       0.00000000       0.00000000       0.00000000       0.00000000 a1
C       19.34261078      14.83096602      10.10010000       0.00000000       0.00000000       0.00000000       0.00000000 a1
C       21.77594210      14.73450581      10.10010000       0.00000000       0.00000000       0.00000000       0.00000000 a1
C       16.83101627      14.91025339      10.10010000       0.00000000       0.00000000       0.00000000       0.00000000 a1
C       14.32037104      14.85087921      10.10010000       0.00000000       0.00000000       0.00000000       0.00000000 a1
H       10.91444553      15.25590247      10.10010000       0.00000000       0.00000000       0.00000000       0.00000000 a1
C       11.88841091      14.75935162      10.10010000       0.00000000       0.00000000       0.00000000       0.00000000 a1
N       21.76370689      13.40233185      10.10010000       0.00000000       0.00000000       0.00000000       0.00000000 a1
C       19.37541382      13.42334118      10.10010000       0.00000000       0.00000000       0.00000000       0.00000000 a1
H       16.82626985      13.82525872      10.10010000       0.00000000       0.00000000       0.00000000       0.00000000 a1
C       14.28145040      13.43813905      10.10010000       0.00000000       0.00000000       0.00000000       0.00000000 a1
N       11.89473947      13.43046608      10.10010000       0.00000000       0.00000000       0.00000000       0.00000000 a1
C       20.60716255      12.75067737      10.10010000       0.00000000       0.00000000       0.00000000       0.00000000 a1
C       13.05065096      12.76967711      10.10010000       0.00000000       0.00000000       0.00000000       0.00000000 a1
H       18.47348854      12.81553225      10.10010000       0.00000000       0.00000000       0.00000000       0.00000000 a1
H       15.18126616      12.82850322      10.10010000       0.00000000       0.00000000       0.00000000       0.00000000 a1
H       20.64893104      11.65746166      10.10010000       0.00000000       0.00000000       0.00000000       0.00000000 a1
H       13.00339771      11.67901906      10.10010000       0.00000000       0.00000000       0.00000000       0.00000000 a1
N       -1.67250280      20.04918672      10.10010000       0.00000000       0.00000000       0.00000000       0.00000000 a2
H       -0.55361339      21.79497036      10.10010000       0.00000000       0.00000000       0.00000000       0.00000000 a2
H       -2.65269126      18.21881770      10.10010000       0.00000000       0.00000000       0.00000000       0.00000000 a2
C       -0.51416536      20.70285079      10.10010000       0.00000000       0.00000000       0.00000000       0.00000000 a2
C       -1.68062445      18.71646469      10.10010000       0.00000000       0.00000000       0.00000000       0.00000000 a2
C        0.71906003      20.03164850      10.10010000       0.00000000       0.00000000       0.00000000       0.00000000 a2
C       -0.49623444      17.96761924      10.10010000       0.00000000       0.00000000       0.00000000       0.00000000 a2
H        1.61940316      20.64219778      10.10010000       0.00000000       0.00000000       0.00000000       0.00000000 a2
C        0.75703139      18.62274483      10.10010000       0.00000000       0.00000000       0.00000000       0.00000000 a2
H       -0.59147927      16.88335533      10.10010000       0.00000000       0.00000000       0.00000000       0.00000000 a2
C        2.03424027      17.87426476      10.10010000       0.00000000       0.00000000       0.00000000       0.00000000 a2
H        3.27411065      19.63776931      10.10010000       0.00000000       0.00000000       0.00000000       0.00000000 a2
H        1.11132527      15.92861848      10.10010000       0.00000000       0.00000000       0.00000000       0.00000000 a2
C        3.27284494      18.55295733      10.10010000       0.00000000       0.00000000       0.00000000       0.00000000 a2
C        2.05333143      16.46700530      10.10010000       0.00000000       0.00000000       0.00000000       0.00000000 a2
H        4.95761309      20.62995756      10.10010000       0.00000000       0.00000000       0.00000000       0.00000000 a2
H        1.08411246      13.96981854      10.10010000       0.00000000       0.00000000       0.00000000       0.00000000 a2
C        5.84793600      20.00680269      10.10010000       0.00000000       0.00000000       0.00000000       0.00000000 a2
C        4.49879249      17.87024558      10.10010000       0.00000000       0.00000000       0.00000000       0.00000000 a2
C        3.25797282      15.73715958      10.10010000       0.00000000       0.00000000       0.00000000       0.00000000 a2
C        2.06915283      13.50779606      10.10010000       0.00000000       0.00000000       0.00000000       0.00000000 a2
H        7.14982627      21.74546143      10.10010000       0.00000000       0.00000000       0.00000000       0.00000000 a2
C        5.78834206      18.59662019      10.10010000       0.00000000       0.00000000       0.00000000       0.00000000 a2
C        7.08854472      20.65571682      10.10010000       0.00000000       0.00000000       0.00000000       0.00000000 a2
C        4.46387993      16.46115922      10.10010000       0.00000000       0.00000000       0.00000000       0.00000000 a2
C        3.25997687      14.25718958      10.10010000       0.00000000       0.00000000       0.00000000       0.00000000 a2
H        1.20625367      11.51008320      10.10010000       0.00000000       0.00000000       0.00000000       0.00000000 a2
C        2.12326202      12.10528654      10.10010000       0.00000000       0.00000000       0.00000000       0.00000000 a2
N        8.23612360      19.97903384      10.10010000       0.00000000       0.00000000       0.00000000       0.00000000 a2
C        7.02378245      17.92121603      10.10010000       0.00000000       0.00000000       0.00000000       0.00000000 a2
H        5.40113967      15.91455137      10.10010000       0.00000000       0.00000000       0.00000000       0.00000000 a2
C        4.46398541      13.51711324      10.10010000       0.00000000       0.00000000       0.00000000       0.00000000 a2
N        3.27727493      11.44632446      10.10010000       0.00000000       0.00000000       0.00000000       0.00000000 a2
C        8.22220076      18.65160982      10.10010000       0.00000000       0.00000000       0.00000000       0.00000000 a2
C        4.42749071      12.11697868      10.10010000       0.00000000       0.00000000       0.00000000       0.00000000 a2
H        7.09919779      16.83622136      10.10010000       0.00000000       0.00000000       0.00000000       0.00000000 a2
H        5.44185340      13.99155863      10.10010000       0.00000000       0.00000000       0.00000000       0.00000000 a2
H        9.18983759      18.14117454      10.10010000       0.00000000       0.00000000       0.00000000       0.00000000 a2
H        5.34840167      11.53072714      10.10010000       0.00000000       0.00000000       0.00000000       0.00000000 a2
