222
Lattice="36.16319999999999 0.0 0.0 -18.081599999999995 31.318249882114287 0.0 0.0 0.0 30.0" Properties=species:S:1:pos:R:3:remoteness:R:1:shift:R:3:adsorption:S:1 size="_JSON [[12, 0], [0, 12]]" mass_center_dist=18.168325004574687 min_atom_dist=6.501887723822545 s1=tpb_atop s2=tpb_hollow_down s1idx=4 s2idx=6 pbc="T T T"
O       -1.24327575       2.36559791       7.38060000              inf       0.00000000       0.00000000       0.00000000 s 
O       -2.75007575       4.97545206       7.38060000              inf       0.00000000       0.00000000       0.00000000 s 
O       -4.25687575       7.58530622       7.38060000              inf       0.00000000       0.00000000       0.00000000 s 
O       -5.76367575      10.19516038       7.38060000              inf       0.00000000       0.00000000       0.00000000 s 
O       -7.27047575      12.80501453       7.38060000              inf       0.00000000       0.00000000       0.00000000 s 
O       -8.77727575      15.41486869       7.38060000              inf       0.00000000       0.00000000       0.00000000 s 
O      -10.28407575      18.02472285       7.38060000              inf       0.00000000       0.00000000       0.00000000 s 
O      -11.79087575      20.63457700       7.38060000              inf       0.00000000       0.00000000       0.00000000 s 
O      -13.29767575      23.24443116       7.38060000              inf       0.00000000       0.00000000       0.00000000 s 
O      -14.80447575      25.85428532       7.38060000              inf       0.00000000       0.00000000       0.00000000 s 
O      -16.31127575      28.46413947       7.38060000              inf       0.00000000       0.00000000       0.00000000 s 
O      -17.81807575      31.07399363       7.38060000              inf       0.00000000       0.00000000       0.00000000 s 
O        1.77032425       2.36559791       7.38060000              inf       0.00000000       0.00000000       0.00000000 s 
O        0.26352425       4.97545206       7.38060000              inf       0.00000000       0.00000000       0.00000000 s 
O       -1.24327575       7.58530622       7.38060000              inf       0.00000000       0.00000000       0.00000000 s 
O       -2.75007575      10.19516038       7.38060000              inf       0.00000000       0.00000000       0.00000000 s 
O       -4.25687575      12.80501453       7.38060000              inf       0.00000000       0.00000000       0.00000000 s 
O       -5.76367575      15.41486869       7.38060000              inf       0.00000000       0.00000000       0.00000000 s 
O       -7.27047575      18.02472285       7.38060000              inf       0.00000000       0.00000000       0.00000000 s 
O       -8.77727575      20.63457700       7.38060000              inf       0.00000000       0.00000000       0.00000000 s 
O      -10.28407575      23.24443116       7.38060000              inf       0.00000000       0.00000000       0.00000000 s 
O      -11.79087575      25.85428532       7.38060000              inf       0.00000000       0.00000000       0.00000000 s 
O      -13.29767575      28.46413947       7.38060000              inf       0.00000000       0.00000000       0.00000000 s 
O      -14.80447575      31.07399363       7.38060000              inf       0.00000000       0.00000000       0.00000000 s 
O        4.78392425       2.36559791       7.38060000              inf       0.00000000       0.00000000       0.00000000 s 
O        3.27712425       4.97545206       7.38060000              inf       0.00000000       0.00000000       0.00000000 s 
O        1.77032425       7.58530622       7.38060000              inf       0.00000000       0.00000000       0.00000000 s 
O        0.26352425      10.19516038       7.38060000              inf       0.00000000       0.00000000       0.00000000 s 
O       -1.24327575      12.80501453       7.38060000              inf       0.00000000       0.00000000       0.00000000 s 
O       -2.75007575      15.41486869       7.38060000              inf       0.00000000       0.00000000       0.00000000 s 
O       -4.25687575      18.02472285       7.38060000              inf       0.00000000       0.00000000       0.00000000 s 
O       -5.76363054      20.63449871       7.38060000      10.78913708       0.00004520      -0.00007830       0.00000000 s 
O       -7.27046068      23.24440506       7.38060000      11.19992230       0.00001507      -0.00002610       0.00000000 s 
O       -8.77727575      25.85428532       7.38060000              inf       0.00000000       0.00000000       0.00000000 s 
O      -10.28407575      28.46413947       7.38060000              inf       0.00000000       0.00000000       0.00000000 s 
O      -11.79087575      31.07399363       7.38060000              inf       0.00000000       0.00000000       0.00000000 s 
O        7.79752425       2.36559791       7.38060000              inf       0.00000000       0.00000000       0.00000000 s 
O        6.29085986       4.97532157       7.38060000      10.06618962       0.00013561      -0.00013049       0.00000000 s 
O        4.78402973       7.58522792       7.38060000      10.06461387       0.00010548      -0.00007830       0.00000000 s 
O        3.27712425      10.19516038       7.38060000              inf       0.00000000       0.00000000       0.00000000 s 
O        1.77032425      12.80501453       7.38060000              inf       0.00000000       0.00000000       0.00000000 s 
O        0.26352425      15.41486869       7.38060000              inf       0.00000000       0.00000000       0.00000000 s 
O       -1.24314014      18.02459235       7.38060000       9.44600961       0.00013561      -0.00013049       0.00000000 s 
O       -2.74997027      20.63449871       7.38060000       8.42694687       0.00010548      -0.00007830       0.00000000 s 
O       -4.25680041      23.24440506       7.38060000       8.42401722       0.00007534      -0.00002610       0.00000000 s 
O       -5.76352507      25.85412873       7.38060000       9.43806608       0.00015068      -0.00015659       0.00000000 s 
O       -7.27035520      28.46403508       7.38060000      11.19620674       0.00012054      -0.00010439       0.00000000 s 
O       -8.77727575      31.07399363       7.38060000              inf       0.00000000       0.00000000       0.00000000 s 
O       10.81124480       2.36559791       7.38060000       9.60586231       0.00012054       0.00000000       0.00000000 s 
O        9.30452014       4.97532157       7.38060000       8.06206983       0.00019588      -0.00013049       0.00000000 s 
O        7.79769000       7.58522792       7.38060000       7.47550002       0.00016575      -0.00007830       0.00000000 s 
O        6.29085986      10.19513428       7.38060000       8.05813426       0.00013561      -0.00002610       0.00000000 s 
O        4.78413520      12.80485794       7.38060000       9.59925573       0.00021095      -0.00015659       0.00000000 s 
O        3.27724480      15.41486869       7.38060000      10.79526691       0.00012054       0.00000000       0.00000000 s 
O        1.77052014      18.02459235       7.38060000       8.43098434       0.00019588      -0.00013049       0.00000000 s 
O        0.26369000      20.63449871       7.38060000       6.61707524       0.00016575      -0.00007830       0.00000000 s 
O       -1.24314014      23.24440506       7.38060000       5.88677917       0.00013561      -0.00002610       0.00000000 s 
O       -2.74986480      25.85412873       7.38060000       6.60951449       0.00021095      -0.00015659       0.00000000 s 
O       -4.25669493      28.46403508       7.38060000       8.41911442       0.00018082      -0.00010439       0.00000000 s 
O       -5.76352507      31.07394143       7.38060000      10.78153931       0.00015068      -0.00005220       0.00000000 s 
O       13.82490507       2.36559791       7.38060000       9.12070152       0.00018082      -0.00000000       0.00000000 s 
O       12.31818041       4.97532157       7.38060000       6.84324945       0.00025616      -0.00013049       0.00000000 s 
O       10.81135027       7.58522792       7.38060000       5.35107890       0.00022602      -0.00007830       0.00000000 s 
O        9.30452014      10.19513428       7.38060000       5.34811408       0.00019588      -0.00002610       0.00000000 s 
O        7.79779548      12.80485794       7.38060000       6.83615350       0.00027122      -0.00015659       0.00000000 s 
O        6.29096534      15.41476430       7.38060000       9.11200280       0.00024109      -0.00010439       0.00000000 s 
O        4.78418041      18.02459235       7.38060000       8.43209302       0.00025616      -0.00013049       0.00000000 s 
O        3.27735027      20.63449871       7.38060000       5.89255737       0.00022602      -0.00007830       0.00000000 s 
O        1.77052014      23.24440506       7.38060000       4.06307377       0.00019588      -0.00002610       0.00000000 s 
O        0.26379548      25.85412873       7.38060000       4.05691616       0.00027122      -0.00015659       0.00000000 s 
O       -1.24303466      28.46403508       7.38060000       5.87981516       0.00024109      -0.00010439       0.00000000 s 
O       -2.74986480      31.07394143       7.38060000       8.41725492       0.00021095      -0.00005220       0.00000000 s 
O       16.83835439       2.36559791       7.38060000       9.43319010       0.00003014      -0.00000000       0.00000000 s 
O       15.33162973       4.97532157       7.38060000       6.84301227       0.00010548      -0.00013049       0.00000000 s 
O       13.82479959       7.58522792       7.38060000       4.42145755       0.00007534      -0.00007830       0.00000000 s 
O       12.31796946      10.19513428       7.38060000       3.23048808       0.00004520      -0.00002610       0.00000000 s 
O       10.81124480      12.80485794       7.38060000       4.41427761       0.00012054      -0.00015659       0.00000000 s 
O        9.30441466      15.41476430       7.38060000       6.83373504       0.00009041      -0.00010439       0.00000000 s 
O        7.79762973      18.02459235       7.38060000       9.44887700       0.00010548      -0.00013049       0.00000000 s 
O        6.29079959      20.63449871       7.38060000       6.61980391       0.00007534      -0.00007830       0.00000000 s 
O        4.78396946      23.24440506       7.38060000       4.06529548       0.00004520      -0.00002610       0.00000000 s 
O        3.27724480      25.85412873       7.38060000       2.71951298       0.00012054      -0.00015659       0.00000000 s 
O        1.77041466      28.46403508       7.38060000       4.05313408       0.00009041      -0.00010439       0.00000000 s 
O        0.26358452      31.07394143       7.38060000       6.60487225       0.00006027      -0.00005220       0.00000000 s 
O       19.85201466       2.36559791       7.38060000       8.41658120       0.00009041      -0.00000000       0.00000000 s 
O       18.34529000       4.97532157       7.38060000       8.06146584       0.00016575      -0.00013049       0.00000000 s 
O       16.83845986       7.58522792       7.38060000       5.35047223       0.00013561      -0.00007830       0.00000000 s 
O       15.33162973      10.19513428       7.38060000       3.22988719       0.00010548      -0.00002610       0.00000000 s 
O       13.82490507      12.80485794       7.38060000       3.22497323       0.00018082      -0.00015659       0.00000000 s 
O       12.31807493      15.41476430       7.38060000       5.34157205       0.00015068      -0.00010439       0.00000000 s 
O       10.81124480      18.02467065       7.38060000       8.05162269       0.00012054      -0.00005220       0.00000000 s 
O        9.30445986      20.63449871       7.38060000       8.43123199       0.00013561      -0.00007830       0.00000000 s 
O        7.79762973      23.24440506       7.38060000       5.89137914       0.00010548      -0.00002610       0.00000000 s 
O        6.29090507      25.85412873       7.38060000       4.06152179       0.00018082      -0.00015659       0.00000000 s 
O        4.78407493      28.46403508       7.38060000       4.05536139       0.00015068      -0.00010439       0.00000000 s 
O        3.27724480      31.07394143       7.38060000       5.87879659       0.00012054      -0.00005220       0.00000000 s 
O       22.86567493       2.36559791       7.38060000       8.41765402       0.00015068      -0.00000000       0.00000000 s 
O       21.35895027       4.97532157       7.38060000      10.06538337       0.00022602      -0.00013049       0.00000000 s 
O       19.85212014       7.58522792       7.38060000       7.47463149       0.00019588      -0.00007830       0.00000000 s 
O       18.34529000      10.19513428       7.38060000       5.34720354       0.00016575      -0.00002610       0.00000000 s 
O       16.83856534      12.80485794       7.38060000       4.41354215       0.00024109      -0.00015659       0.00000000 s 
O       15.33173520      15.41476430       7.38060000       5.34126817       0.00021095      -0.00010439       0.00000000 s 
O       13.82490507      18.02467065       7.38060000       7.46613913       0.00018082      -0.00005220       0.00000000 s 
O       12.31807493      20.63457700       7.38060000      10.05592451       0.00015068       0.00000000       0.00000000 s 
O       10.81129000      23.24440506       7.38060000       8.42937516       0.00016575      -0.00002610       0.00000000 s 
O        9.30456534      25.85412873       7.38060000       6.61516924       0.00024109      -0.00015659       0.00000000 s 
O        7.79773520      28.46403508       7.38060000       5.88458262       0.00021095      -0.00010439       0.00000000 s 
O        6.29090507      31.07394143       7.38060000       6.60760605       0.00018082      -0.00005220       0.00000000 s 
O       25.87912425       2.36559791       7.38060000       9.43596033      -0.00000000      -0.00000000       0.00000000 s 
O       24.37239959       4.97532157       7.38060000      11.19434668       0.00007534      -0.00013049       0.00000000 s 
O       22.86556946       7.58522792       7.38060000      10.06345671       0.00004520      -0.00007830       0.00000000 s 
O       21.35873932      10.19513428       7.38060000       8.05692983       0.00001507      -0.00002610       0.00000000 s 
O       19.85201466      12.80485794       7.38060000       6.83520373       0.00009041      -0.00015659       0.00000000 s 
O       18.34518452      15.41476430       7.38060000       6.83288292       0.00006027      -0.00010439       0.00000000 s 
O       16.83835439      18.02467065       7.38060000       8.05114056       0.00003014      -0.00005220       0.00000000 s 
O       15.33152425      20.63457700       7.38060000      10.05573150       0.00000000       0.00000000       0.00000000 s 
O       13.82479959      23.24430067       7.38060000      12.47294899       0.00007534      -0.00013049       0.00000000 s 
O       12.31801466      25.85412873       7.38060000       9.44380483       0.00009041      -0.00015659       0.00000000 s 
O       10.81118452      28.46403508       7.38060000       8.42447540       0.00006027      -0.00010439       0.00000000 s 
O        9.30435439      31.07394143       7.38060000       8.42154489       0.00003014      -0.00005220       0.00000000 s 
O       28.89278452       2.36559791       7.38060000      11.19744297       0.00006027       0.00000000       0.00000000 s 
O       27.38592425       4.97545206       7.38060000              inf       0.00000000       0.00000000       0.00000000 s 
O       25.87912425       7.58530622       7.38060000              inf       0.00000000       0.00000000       0.00000000 s 
O       24.37239959      10.19513428       7.38060000      10.92711555       0.00007534      -0.00002610       0.00000000 s 
O       22.86567493      12.80485794       7.38060000       9.59824117       0.00015068      -0.00015659       0.00000000 s 
O       21.35884480      15.41476430       7.38060000       9.11111213       0.00012054      -0.00010439       0.00000000 s 
O       19.85201466      18.02467065       7.38060000       9.59493571       0.00009041      -0.00005220       0.00000000 s 
O       18.34518452      20.63457700       7.38060000      10.92142458       0.00006027       0.00000000       0.00000000 s 
O       16.83832425      23.24443116       7.38060000              inf       0.00000000       0.00000000       0.00000000 s 
O       15.33152425      25.85428532       7.38060000              inf       0.00000000       0.00000000       0.00000000 s 
O       13.82472425      28.46413947       7.38060000              inf       0.00000000       0.00000000       0.00000000 s 
O       12.31801466      31.07394143       7.38060000      10.78656332       0.00009041      -0.00005220       0.00000000 s 
O       31.90632425       2.36559791       7.38060000              inf       0.00000000       0.00000000       0.00000000 s 
O       30.39952425       4.97545206       7.38060000              inf       0.00000000       0.00000000       0.00000000 s 
O       28.89272425       7.58530622       7.38060000              inf       0.00000000       0.00000000       0.00000000 s 
O       27.38592425      10.19516038       7.38060000              inf       0.00000000       0.00000000       0.00000000 s 
O       25.87912425      12.80501453       7.38060000              inf       0.00000000       0.00000000       0.00000000 s 
O       24.37250507      15.41476430       7.38060000      11.72607078       0.00018082      -0.00010439       0.00000000 s 
O       22.86567493      18.02467065       7.38060000      11.72471811       0.00015068      -0.00005220       0.00000000 s 
O       21.35872425      20.63457700       7.38060000              inf       0.00000000       0.00000000       0.00000000 s 
O       19.85192425      23.24443116       7.38060000              inf       0.00000000       0.00000000       0.00000000 s 
O       18.34512425      25.85428532       7.38060000              inf       0.00000000       0.00000000       0.00000000 s 
O       16.83832425      28.46413947       7.38060000              inf       0.00000000       0.00000000       0.00000000 s 
O       15.33152425      31.07399363       7.38060000              inf       0.00000000       0.00000000       0.00000000 s 
N        3.24328152      20.13484213      10.10010000       0.00000000       0.00000000       0.00000000       0.00000000 a1
H        1.17204931      20.23075427      10.10010000       0.00000000       0.00000000       0.00000000       0.00000000 a1
H        5.31873278      20.20115852      10.10010000       0.00000000       0.00000000       0.00000000       0.00000000 a1
C        2.09833954      20.81097705      10.10010000       0.00000000       0.00000000       0.00000000       0.00000000 a1
C        4.40151348      20.79416959      10.10010000       0.00000000       0.00000000       0.00000000       0.00000000 a1
C        2.06268866      22.21476540      10.10010000       0.00000000       0.00000000       0.00000000       0.00000000 a1
C        4.45804862      22.19430414      10.10010000       0.00000000       0.00000000       0.00000000       0.00000000 a1
H        1.08397685      22.68921079      10.10010000       0.00000000       0.00000000       0.00000000       0.00000000 a1
C        3.26406030      22.95210140      10.10010000       0.00000000       0.00000000       0.00000000       0.00000000 a1
H        5.44467112      22.65395166      10.10010000       0.00000000       0.00000000       0.00000000       0.00000000 a1
C        3.27344766      24.43243677      10.10010000       0.00000000       0.00000000       0.00000000       0.00000000 a1
H        1.12648368      24.62444374      10.10010000       0.00000000       0.00000000       0.00000000       0.00000000 a1
H        5.41988426      24.60599207      10.10010000       0.00000000       0.00000000       0.00000000       0.00000000 a1
C        2.06659127      25.16575359      10.10010000       0.00000000       0.00000000       0.00000000       0.00000000 a1
C        4.48283548      25.15259993      10.10010000       0.00000000       0.00000000       0.00000000       0.00000000 a1
H       -0.57473872      25.58630549      10.10010000       0.00000000       0.00000000       0.00000000       0.00000000 a1
H        7.12986117      25.56182506      10.10010000       0.00000000       0.00000000       0.00000000       0.00000000 a1
C       -0.48002128      26.66892519      10.10010000       0.00000000       0.00000000       0.00000000       0.00000000 a1
C        2.04486321      26.56881119      10.10010000       0.00000000       0.00000000       0.00000000       0.00000000 a1
C        4.51236876      26.56077284      10.10010000       0.00000000       0.00000000       0.00000000       0.00000000 a1
C        7.03767515      26.64590628      10.10010000       0.00000000       0.00000000       0.00000000       0.00000000 a1
H       -2.63668905      26.92706587      10.10010000       0.00000000       0.00000000       0.00000000       0.00000000 a1
C        0.77102956      27.32240658      10.10010000       0.00000000       0.00000000       0.00000000       0.00000000 a1
C       -1.66230176      27.41886679      10.10010000       0.00000000       0.00000000       0.00000000       0.00000000 a1
C        3.28262407      27.24311921      10.10010000       0.00000000       0.00000000       0.00000000       0.00000000 a1
C        5.79326930      27.30249339      10.10010000       0.00000000       0.00000000       0.00000000       0.00000000 a1
H        9.19919482      26.89747012      10.10010000       0.00000000       0.00000000       0.00000000       0.00000000 a1
C        8.22501848      27.39402097      10.10010000       0.00000000       0.00000000       0.00000000       0.00000000 a1
N       -1.65027750      28.75104074      10.10010000       0.00000000       0.00000000       0.00000000       0.00000000 a1
C        0.73822652      28.73003142      10.10010000       0.00000000       0.00000000       0.00000000       0.00000000 a1
H        3.28737049      28.32811388      10.10010000       0.00000000       0.00000000       0.00000000       0.00000000 a1
C        5.83197899      28.71523354      10.10010000       0.00000000       0.00000000       0.00000000       0.00000000 a1
N        8.21890087      28.72290651      10.10010000       0.00000000       0.00000000       0.00000000       0.00000000 a1
C       -0.49373316      29.40269523      10.10010000       0.00000000       0.00000000       0.00000000       0.00000000 a1
C        7.06298939      29.38369549      10.10010000       0.00000000       0.00000000       0.00000000       0.00000000 a1
H        1.64015180      29.33784035      10.10010000       0.00000000       0.00000000       0.00000000       0.00000000 a1
H        4.93216324      29.32486938      10.10010000       0.00000000       0.00000000       0.00000000       0.00000000 a1
H       -0.53529070      30.49591094      10.10010000       0.00000000       0.00000000       0.00000000       0.00000000 a1
H        7.11003168      30.47435354      10.10010000       0.00000000       0.00000000       0.00000000       0.00000000 a1
N       13.79473893       5.34417226      10.10010000       0.00000000       0.00000000       0.00000000       0.00000000 a2
H       11.72319029       5.44026709      10.10010000       0.00000000       0.00000000       0.00000000       0.00000000 a2
H       15.86997923       5.41048865      10.10010000       0.00000000       0.00000000       0.00000000       0.00000000 a2
C       12.64948052       6.02048986      10.10010000       0.00000000       0.00000000       0.00000000       0.00000000 a2
C       14.95265446       6.00368240      10.10010000       0.00000000       0.00000000       0.00000000       0.00000000 a2
C       12.61382964       7.42427822      10.10010000       0.00000000       0.00000000       0.00000000       0.00000000 a2
C       15.00918960       7.40381696      10.10010000       0.00000000       0.00000000       0.00000000       0.00000000 a2
H       11.63511783       7.89872361      10.10010000       0.00000000       0.00000000       0.00000000       0.00000000 a2
C       13.81520128       8.16161421      10.10010000       0.00000000       0.00000000       0.00000000       0.00000000 a2
H       15.99581210       7.86346448      10.10010000       0.00000000       0.00000000       0.00000000       0.00000000 a2
C       13.82469412       9.64176690      10.10010000       0.00000000       0.00000000       0.00000000       0.00000000 a2
H       11.67773014       9.83377387      10.10010000       0.00000000       0.00000000       0.00000000       0.00000000 a2
H       15.97113072       9.81532220      10.10010000       0.00000000       0.00000000       0.00000000       0.00000000 a2
C       12.61773225      10.37526641      10.10010000       0.00000000       0.00000000       0.00000000       0.00000000 a2
C       15.03408193      10.36193006      10.10010000       0.00000000       0.00000000       0.00000000       0.00000000 a2
H        9.97640226      10.79581831      10.10010000       0.00000000       0.00000000       0.00000000       0.00000000 a2
H       17.68100215      10.77133788      10.10010000       0.00000000       0.00000000       0.00000000       0.00000000 a2
C       10.07122518      11.87825532      10.10010000       0.00000000       0.00000000       0.00000000       0.00000000 a2
C       12.59600419      11.77832401      10.10010000       0.00000000       0.00000000       0.00000000       0.00000000 a2
C       15.06361521      11.77010297      10.10010000       0.00000000       0.00000000       0.00000000       0.00000000 a2
C       17.58881613      11.85541910      10.10010000       0.00000000       0.00000000       0.00000000       0.00000000 a2
H        7.91445193      12.13657869      10.10010000       0.00000000       0.00000000       0.00000000       0.00000000 a2
C       11.32217054      12.53191939      10.10010000       0.00000000       0.00000000       0.00000000       0.00000000 a2
C        8.88894470      12.62819691      10.10010000       0.00000000       0.00000000       0.00000000       0.00000000 a2
C       13.83376505      12.45263203      10.10010000       0.00000000       0.00000000       0.00000000       0.00000000 a2
C       16.34441028      12.51200621      10.10010000       0.00000000       0.00000000       0.00000000       0.00000000 a2
H       19.75044127      12.10680025      10.10010000       0.00000000       0.00000000       0.00000000       0.00000000 a2
C       18.77626494      12.60335110      10.10010000       0.00000000       0.00000000       0.00000000       0.00000000 a2
N        8.90107444      13.96055356      10.10010000       0.00000000       0.00000000       0.00000000       0.00000000 a2
C       11.28936750      13.93954423      10.10010000       0.00000000       0.00000000       0.00000000       0.00000000 a2
H       13.83861695      13.53744400      10.10010000       0.00000000       0.00000000       0.00000000       0.00000000 a2
C       16.38311997      13.92474636      10.10010000       0.00000000       0.00000000       0.00000000       0.00000000 a2
N       18.77004185      13.93241933      10.10010000       0.00000000       0.00000000       0.00000000       0.00000000 a2
C       10.05740782      14.61220804      10.10010000       0.00000000       0.00000000       0.00000000       0.00000000 a2
C       17.61423584      14.59302562      10.10010000       0.00000000       0.00000000       0.00000000       0.00000000 a2
H       12.19129278      14.54735317      10.10010000       0.00000000       0.00000000       0.00000000       0.00000000 a2
H       15.48330422      14.53438219      10.10010000       0.00000000       0.00000000       0.00000000       0.00000000 a2
H       10.01585028      15.70542375      10.10010000       0.00000000       0.00000000       0.00000000       0.00000000 a2
H       17.66117266      15.68386636      10.10010000       0.00000000       0.00000000       0.00000000       0.00000000 a2
