222
Lattice="36.16319999999999 0.0 0.0 -18.081599999999995 31.318249882114287 0.0 0.0 0.0 30.0" Properties=species:S:1:pos:R:3:remoteness:R:1:shift:R:3:adsorption:S:1 size="_JSON [[12, 0], [0, 12]]" mass_center_dist=3.0133278558034453 min_atom_dist=0.2397873003255066 s1=tpb_hollow_down s2=tpb_hollow_up s1idx=6 s2idx=8 pbc="T T T"
O       -1.24327575       2.36559791       7.38060000              inf       0.00000000       0.00000000       0.00000000 s 
O       -2.75007575       4.97545206       7.38060000              inf       0.00000000       0.00000000       0.00000000 s 
O       -4.25687575       7.58530622       7.38060000              inf       0.00000000       0.00000000       0.00000000 s 
O       -5.76367575      10.19516038       7.38060000              inf       0.00000000       0.00000000       0.00000000 s 
O       -7.27047575      12.80501453       7.38060000              inf       0.00000000       0.00000000       0.00000000 s 
O       -8.77727575      15.41486869       7.38060000              inf       0.00000000       0.00000000       0.00000000 s 
O      -10.28407575      18.02472285       7.38060000              inf       0.00000000       0.00000000       0.00000000 s 
O      -11.79069493      20.63447261       7.38060000      11.72607078       0.00018082      -0.00010439       0.00000000 s 
O      -13.29752507      23.24437896       7.38060000      11.72471811       0.00015068      -0.00005220       0.00000000 s 
O      -14.80447575      25.85428532       7.38060000              inf       0.00000000       0.00000000       0.00000000 s 
O      -16.31127575      28.46413947       7.38060000              inf       0.00000000       0.00000000       0.00000000 s 
O      -17.81807575      31.07399363       7.38060000              inf       0.00000000       0.00000000       0.00000000 s 
O        1.77032425       2.36559791       7.38060000              inf       0.00000000       0.00000000       0.00000000 s 
O        0.26352425       4.97545206       7.38060000              inf       0.00000000       0.00000000       0.00000000 s 
O       -1.24327575       7.58530622       7.38060000              inf       0.00000000       0.00000000       0.00000000 s 
O       -2.75007575      10.19516038       7.38060000              inf       0.00000000       0.00000000       0.00000000 s 
O       -4.25687575      12.80501453       7.38060000              inf       0.00000000       0.00000000       0.00000000 s 
O       -5.76367575      15.41486869       7.38060000              inf       0.00000000       0.00000000       0.00000000 s 
O       -7.27047575      18.02472285       7.38060000              inf       0.00000000       0.00000000       0.00000000 s 
O       -8.77727575      20.63457700       7.38060000              inf       0.00000000       0.00000000       0.00000000 s 
O      -10.28407575      23.24443116       7.38060000              inf       0.00000000       0.00000000       0.00000000 s 
O      -11.79087575      25.85428532       7.38060000              inf       0.00000000       0.00000000       0.00000000 s 
O      -13.29767575      28.46413947       7.38060000              inf       0.00000000       0.00000000       0.00000000 s 
O      -14.80447575      31.07399363       7.38060000              inf       0.00000000       0.00000000       0.00000000 s 
O        4.78392425       2.36559791       7.38060000              inf       0.00000000       0.00000000       0.00000000 s 
O        3.27712425       4.97545206       7.38060000              inf       0.00000000       0.00000000       0.00000000 s 
O        1.77032425       7.58530622       7.38060000              inf       0.00000000       0.00000000       0.00000000 s 
O        0.26352425      10.19516038       7.38060000              inf       0.00000000       0.00000000       0.00000000 s 
O       -1.24327575      12.80501453       7.38060000              inf       0.00000000       0.00000000       0.00000000 s 
O       -2.75007575      15.41486869       7.38060000              inf       0.00000000       0.00000000       0.00000000 s 
O       -4.25687575      18.02472285       7.38060000              inf       0.00000000       0.00000000       0.00000000 s 
O       -5.76367575      20.63457700       7.38060000              inf       0.00000000       0.00000000       0.00000000 s 
O       -7.27047575      23.24443116       7.38060000              inf       0.00000000       0.00000000       0.00000000 s 
O       -8.77727575      25.85428532       7.38060000              inf       0.00000000       0.00000000       0.00000000 s 
O      -10.28407575      28.46413947       7.38060000              inf       0.00000000       0.00000000       0.00000000 s 
O      -11.79087575      31.07399363       7.38060000              inf       0.00000000       0.00000000       0.00000000 s 
O        7.79752425       2.36559791       7.38060000              inf       0.00000000       0.00000000       0.00000000 s 
O        6.29072425       4.97545206       7.38060000              inf       0.00000000       0.00000000       0.00000000 s 
O        4.78392425       7.58530622       7.38060000              inf       0.00000000       0.00000000       0.00000000 s 
O        3.27725986      10.19502988       7.38060000      10.06654360       0.00013561      -0.00013049       0.00000000 s 
O        1.77042973      12.80493624       7.38060000      10.06494431       0.00010548      -0.00007830       0.00000000 s 
O        0.26352425      15.41486869       7.38060000              inf       0.00000000       0.00000000       0.00000000 s 
O       -1.24327575      18.02472285       7.38060000              inf       0.00000000       0.00000000       0.00000000 s 
O       -2.75007575      20.63457700       7.38060000              inf       0.00000000       0.00000000       0.00000000 s 
O       -4.25687575      23.24443116       7.38060000              inf       0.00000000       0.00000000       0.00000000 s 
O       -5.76367575      25.85428532       7.38060000              inf       0.00000000       0.00000000       0.00000000 s 
O       -7.27047575      28.46413947       7.38060000              inf       0.00000000       0.00000000       0.00000000 s 
O       -8.77727575      31.07399363       7.38060000              inf       0.00000000       0.00000000       0.00000000 s 
O       10.81112425       2.36559791       7.38060000              inf       0.00000000       0.00000000       0.00000000 s 
O        9.30432425       4.97545206       7.38060000              inf       0.00000000       0.00000000       0.00000000 s 
O        7.79764480       7.58530622       7.38060000       9.60617260       0.00012054      -0.00000000       0.00000000 s 
O        6.29092014      10.19502988       7.38060000       8.06241008       0.00019588      -0.00013049       0.00000000 s 
O        4.78409000      12.80493624       7.38060000       7.47583520       0.00016575      -0.00007830       0.00000000 s 
O        3.27725986      15.41484259       7.38060000       8.05841572       0.00013561      -0.00002610       0.00000000 s 
O        1.77053520      18.02456626       7.38060000       9.59946726       0.00021095      -0.00015659       0.00000000 s 
O        0.26352425      20.63457700       7.38060000              inf       0.00000000       0.00000000       0.00000000 s 
O       -1.24327575      23.24443116       7.38060000              inf       0.00000000       0.00000000       0.00000000 s 
O       -2.75007575      25.85428532       7.38060000              inf       0.00000000       0.00000000       0.00000000 s 
O       -4.25687575      28.46413947       7.38060000              inf       0.00000000       0.00000000       0.00000000 s 
O       -5.76367575      31.07399363       7.38060000              inf       0.00000000       0.00000000       0.00000000 s 
O       13.82472425       2.36559791       7.38060000              inf       0.00000000       0.00000000       0.00000000 s 
O       12.31792425       4.97545206       7.38060000              inf       0.00000000       0.00000000       0.00000000 s 
O       10.81130507       7.58530622       7.38060000       9.12093840       0.00018082       0.00000000       0.00000000 s 
O        9.30458041      10.19502988       7.38060000       6.84353045       0.00025616      -0.00013049       0.00000000 s 
O        7.79775027      12.80493624       7.38060000       5.35139386       0.00022602      -0.00007830       0.00000000 s 
O        6.29092014      15.41484259       7.38060000       5.34838481       0.00019588      -0.00002610       0.00000000 s 
O        4.78419548      18.02456626       7.38060000       6.83633055       0.00027122      -0.00015659       0.00000000 s 
O        3.27736534      20.63447261       7.38060000       9.11210956       0.00024109      -0.00010439       0.00000000 s 
O        1.77053520      23.24437896       7.38060000      11.72561138       0.00021095      -0.00005220       0.00000000 s 
O        0.26352425      25.85428532       7.38060000              inf       0.00000000       0.00000000       0.00000000 s 
O       -1.24327575      28.46413947       7.38060000              inf       0.00000000       0.00000000       0.00000000 s 
O       -2.75007575      31.07399363       7.38060000              inf       0.00000000       0.00000000       0.00000000 s 
O       16.83832425       2.36559791       7.38060000              inf       0.00000000       0.00000000       0.00000000 s 
O       15.33152425       4.97545206       7.38060000              inf       0.00000000       0.00000000       0.00000000 s 
O       13.82490507       7.58530622       7.38060000       9.12070152       0.00018082      -0.00000000       0.00000000 s 
O       12.31802973      10.19502988       7.38060000       6.84317344       0.00010548      -0.00013049       0.00000000 s 
O       10.81119959      12.80493624       7.38060000       4.42165326       0.00007534      -0.00007830       0.00000000 s 
O        9.30436946      15.41484259       7.38060000       3.23068240       0.00004520      -0.00002610       0.00000000 s 
O        7.79764480      18.02456626       7.38060000       4.41436602       0.00012054      -0.00015659       0.00000000 s 
O        6.29081466      20.63447261       7.38060000       6.83375739       0.00009041      -0.00010439       0.00000000 s 
O        4.78398452      23.24437896       7.38060000       9.59573599       0.00006027      -0.00005220       0.00000000 s 
O        3.27712425      25.85428532       7.38060000              inf       0.00000000       0.00000000       0.00000000 s 
O        1.77032425      28.46413947       7.38060000              inf       0.00000000       0.00000000       0.00000000 s 
O        0.26352425      31.07399363       7.38060000              inf       0.00000000       0.00000000       0.00000000 s 
O       19.85192425       2.36559791       7.38060000              inf       0.00000000       0.00000000       0.00000000 s 
O       18.34512425       4.97545206       7.38060000              inf       0.00000000       0.00000000       0.00000000 s 
O       16.83835439       7.58530622       7.38060000       9.60545819       0.00003014       0.00000000       0.00000000 s 
O       15.33162973      10.19502988       7.38060000       6.84301227       0.00010548      -0.00013049       0.00000000 s 
O       13.82479959      12.80493624       7.38060000       4.42145755       0.00007534      -0.00007830       0.00000000 s 
O       12.31802973      15.41484259       7.38060000       3.22982762       0.00010548      -0.00002610       0.00000000 s 
O       10.81130507      18.02456626       7.38060000       3.22483991       0.00018082      -0.00015659       0.00000000 s 
O        9.30447493      20.63447261       7.38060000       5.34144709       0.00015068      -0.00010439       0.00000000 s 
O        7.79764480      23.24437896       7.38060000       8.05151029       0.00012054      -0.00005220       0.00000000 s 
O        6.29081466      25.85428532       7.38060000      10.92185311       0.00009041       0.00000000       0.00000000 s 
O        4.78392425      28.46413947       7.38060000              inf       0.00000000       0.00000000       0.00000000 s 
O        3.27712425      31.07399363       7.38060000              inf       0.00000000       0.00000000       0.00000000 s 
O       22.86552425       2.36559791       7.38060000              inf       0.00000000       0.00000000       0.00000000 s 
O       21.35872425       4.97545206       7.38060000              inf       0.00000000       0.00000000       0.00000000 s 
O       19.85192425       7.58530622       7.38060000              inf       0.00000000       0.00000000       0.00000000 s 
O       18.34529000      10.19502988       7.38060000       8.06146584       0.00016575      -0.00013049       0.00000000 s 
O       16.83845986      12.80493624       7.38060000       5.35047223       0.00013561      -0.00007830       0.00000000 s 
O       15.33162973      15.41484259       7.38060000       3.22988719       0.00010548      -0.00002610       0.00000000 s 
O       13.82490507      18.02456626       7.38060000       3.22497323       0.00018082      -0.00015659       0.00000000 s 
O       12.31813520      20.63447261       7.38060000       5.34098964       0.00021095      -0.00010439       0.00000000 s 
O       10.81130507      23.24437896       7.38060000       7.46590806       0.00018082      -0.00005220       0.00000000 s 
O        9.30447493      25.85428532       7.38060000      10.05572933       0.00015068       0.00000000       0.00000000 s 
O        7.79752425      28.46413947       7.38060000              inf       0.00000000       0.00000000       0.00000000 s 
O        6.29072425      31.07399363       7.38060000              inf       0.00000000       0.00000000       0.00000000 s 
O       25.87912425       2.36559791       7.38060000              inf       0.00000000       0.00000000       0.00000000 s 
O       24.37232425       4.97545206       7.38060000              inf       0.00000000       0.00000000       0.00000000 s 
O       22.86552425       7.58530622       7.38060000              inf       0.00000000       0.00000000       0.00000000 s 
O       21.35895027      10.19502988       7.38060000      10.06538337       0.00022602      -0.00013049       0.00000000 s 
O       19.85212014      12.80493624       7.38060000       7.47463149       0.00019588      -0.00007830       0.00000000 s 
O       18.34529000      15.41484259       7.38060000       5.34720354       0.00016575      -0.00002610       0.00000000 s 
O       16.83856534      18.02456626       7.38060000       4.41354215       0.00024109      -0.00015659       0.00000000 s 
O       15.33173520      20.63447261       7.38060000       5.34126817       0.00021095      -0.00010439       0.00000000 s 
O       13.82490507      23.24437896       7.38060000       7.46613913       0.00018082      -0.00005220       0.00000000 s 
O       12.31792425      25.85428532       7.38060000      10.05545476       0.00000000       0.00000000       0.00000000 s 
O       10.81119959      28.46400898       7.38060000      12.47270683       0.00007534      -0.00013049       0.00000000 s 
O        9.30432425      31.07399363       7.38060000              inf       0.00000000       0.00000000       0.00000000 s 
O       28.89272425       2.36559791       7.38060000              inf       0.00000000       0.00000000       0.00000000 s 
O       27.38592425       4.97545206       7.38060000              inf       0.00000000       0.00000000       0.00000000 s 
O       25.87912425       7.58530622       7.38060000              inf       0.00000000       0.00000000       0.00000000 s 
O       24.37232425      10.19516038       7.38060000              inf       0.00000000       0.00000000       0.00000000 s 
O       22.86556946      12.80493624       7.38060000      10.06345671       0.00004520      -0.00007830       0.00000000 s 
O       21.35873932      15.41484259       7.38060000       8.05692983       0.00001507      -0.00002610       0.00000000 s 
O       19.85201466      18.02456626       7.38060000       6.83520373       0.00009041      -0.00015659       0.00000000 s 
O       18.34518452      20.63447261       7.38060000       6.83288292       0.00006027      -0.00010439       0.00000000 s 
O       16.83835439      23.24437896       7.38060000       8.05114056       0.00003014      -0.00005220       0.00000000 s 
O       15.33152425      25.85428532       7.38060000      10.05573150       0.00000000       0.00000000       0.00000000 s 
O       13.82479959      28.46400898       7.38060000      12.47294899       0.00007534      -0.00013049       0.00000000 s 
O       12.31792425      31.07399363       7.38060000              inf       0.00000000       0.00000000       0.00000000 s 
O       31.90632425       2.36559791       7.38060000              inf       0.00000000       0.00000000       0.00000000 s 
O       30.39952425       4.97545206       7.38060000              inf       0.00000000       0.00000000       0.00000000 s 
O       28.89272425       7.58530622       7.38060000              inf       0.00000000       0.00000000       0.00000000 s 
O       27.38592425      10.19516038       7.38060000              inf       0.00000000       0.00000000       0.00000000 s 
O       25.87912425      12.80501453       7.38060000              inf       0.00000000       0.00000000       0.00000000 s 
O       24.37239959      15.41484259       7.38060000      10.92711555       0.00007534      -0.00002610       0.00000000 s 
O       22.86567493      18.02456626       7.38060000       9.59824117       0.00015068      -0.00015659       0.00000000 s 
O       21.35884480      20.63447261       7.38060000       9.11111213       0.00012054      -0.00010439       0.00000000 s 
O       19.85201466      23.24437896       7.38060000       9.59493571       0.00009041      -0.00005220       0.00000000 s 
O       18.34518452      25.85428532       7.38060000      10.92142458       0.00006027       0.00000000       0.00000000 s 
O       16.83832425      28.46413947       7.38060000              inf       0.00000000       0.00000000       0.00000000 s 
O       15.33152425      31.07399363       7.38060000              inf       0.00000000       0.00000000       0.00000000 s 
N       13.79473893      10.56388057      10.10010000       0.00000000       0.00000000       0.00000000       0.00000000 a1
H       11.72319029      10.65997540      10.10010000       0.00000000       0.00000000       0.00000000       0.00000000 a1
H       15.86997923      10.63019697      10.10010000       0.00000000       0.00000000       0.00000000       0.00000000 a1
C       12.64948052      11.24019818      10.10010000       0.00000000       0.00000000       0.00000000       0.00000000 a1
C       14.95265446      11.22339072      10.10010000       0.00000000       0.00000000       0.00000000       0.00000000 a1
C       12.61382964      12.64398653      10.10010000       0.00000000       0.00000000       0.00000000       0.00000000 a1
C       15.00918960      12.62352528      10.10010000       0.00000000       0.00000000       0.00000000       0.00000000 a1
H       11.63511783      13.11843192      10.10010000       0.00000000       0.00000000       0.00000000       0.00000000 a1
C       13.81520128      13.38132253      10.10010000       0.00000000       0.00000000       0.00000000       0.00000000 a1
H       15.99581210      13.08317279      10.10010000       0.00000000       0.00000000       0.00000000       0.00000000 a1
C       13.82469412      14.86147522      10.10010000       0.00000000       0.00000000       0.00000000       0.00000000 a1
H       11.67773014      15.05348219      10.10010000       0.00000000       0.00000000       0.00000000       0.00000000 a1
H       15.97113072      15.03503052      10.10010000       0.00000000       0.00000000       0.00000000       0.00000000 a1
C       12.61773225      15.59497473      10.10010000       0.00000000       0.00000000       0.00000000       0.00000000 a1
C       15.03408193      15.58163837      10.10010000       0.00000000       0.00000000       0.00000000       0.00000000 a1
H        9.97640226      16.01552662      10.10010000       0.00000000       0.00000000       0.00000000       0.00000000 a1
H       17.68100215      15.99104619      10.10010000       0.00000000       0.00000000       0.00000000       0.00000000 a1
C       10.07122518      17.09796364      10.10010000       0.00000000       0.00000000       0.00000000       0.00000000 a1
C       12.59600419      16.99803232      10.10010000       0.00000000       0.00000000       0.00000000       0.00000000 a1
C       15.06361521      16.98981128      10.10010000       0.00000000       0.00000000       0.00000000       0.00000000 a1
C       17.58881613      17.07512741      10.10010000       0.00000000       0.00000000       0.00000000       0.00000000 a1
H        7.91445193      17.35628700      10.10010000       0.00000000       0.00000000       0.00000000       0.00000000 a1
C       11.32217054      17.75162771      10.10010000       0.00000000       0.00000000       0.00000000       0.00000000 a1
C        8.88894470      17.84790523      10.10010000       0.00000000       0.00000000       0.00000000       0.00000000 a1
C       13.83376505      17.67234034      10.10010000       0.00000000       0.00000000       0.00000000       0.00000000 a1
C       16.34441028      17.73171452      10.10010000       0.00000000       0.00000000       0.00000000       0.00000000 a1
H       19.75044127      17.32650856      10.10010000       0.00000000       0.00000000       0.00000000       0.00000000 a1
C       18.77626494      17.82305942      10.10010000       0.00000000       0.00000000       0.00000000       0.00000000 a1
N        8.90107444      19.18026187      10.10010000       0.00000000       0.00000000       0.00000000       0.00000000 a1
C       11.28936750      19.15925255      10.10010000       0.00000000       0.00000000       0.00000000       0.00000000 a1
H       13.83861695      18.75715232      10.10010000       0.00000000       0.00000000       0.00000000       0.00000000 a1
C       16.38311997      19.14445467      10.10010000       0.00000000       0.00000000       0.00000000       0.00000000 a1
N       18.77004185      19.15212765      10.10010000       0.00000000       0.00000000       0.00000000       0.00000000 a1
C       10.05740782      19.83191636      10.10010000       0.00000000       0.00000000       0.00000000       0.00000000 a1
C       17.61423584      19.81273393      10.10010000       0.00000000       0.00000000       0.00000000       0.00000000 a1
H       12.19129278      19.76706148      10.10010000       0.00000000       0.00000000       0.00000000       0.00000000 a1
H       15.48330422      19.75409051      10.10010000       0.00000000       0.00000000       0.00000000       0.00000000 a1
H       10.01585028      20.92513207      10.10010000       0.00000000       0.00000000       0.00000000       0.00000000 a1
H       17.66117266      20.90357467      10.10010000       0.00000000       0.00000000       0.00000000       0.00000000 a1
N       10.84294787      22.01853047      10.10010000       0.00000000       0.00000000       0.00000000       0.00000000 a2
H       12.91428556      21.92243564      10.10010000       0.00000000       0.00000000       0.00000000       0.00000000 a2
H        8.76770757      21.95221407      10.10010000       0.00000000       0.00000000       0.00000000       0.00000000 a2
C       11.98820628      21.34221286      10.10010000       0.00000000       0.00000000       0.00000000       0.00000000 a2
C        9.68471591      21.35920301      10.10010000       0.00000000       0.00000000       0.00000000       0.00000000 a2
C       12.02354074      19.93860720      10.10010000       0.00000000       0.00000000       0.00000000       0.00000000 a2
C        9.62839173      19.95906845      10.10010000       0.00000000       0.00000000       0.00000000       0.00000000 a2
H       13.00246349      19.46416181      10.10010000       0.00000000       0.00000000       0.00000000       0.00000000 a2
C       10.82238005      19.20127120      10.10010000       0.00000000       0.00000000       0.00000000       0.00000000 a2
H        8.64176922      19.49942094      10.10010000       0.00000000       0.00000000       0.00000000       0.00000000 a2
C       10.81278173      17.72093582      10.10010000       0.00000000       0.00000000       0.00000000       0.00000000 a2
H       12.95995666      17.52892885      10.10010000       0.00000000       0.00000000       0.00000000       0.00000000 a2
H        8.66634513      17.54738052      10.10010000       0.00000000       0.00000000       0.00000000       0.00000000 a2
C       12.01984908      16.98761900      10.10010000       0.00000000       0.00000000       0.00000000       0.00000000 a2
C        9.60360487      17.00077267      10.10010000       0.00000000       0.00000000       0.00000000       0.00000000 a2
H       14.66096812      16.56706710      10.10010000       0.00000000       0.00000000       0.00000000       0.00000000 a2
H        6.95636822      16.59154754      10.10010000       0.00000000       0.00000000       0.00000000       0.00000000 a2
C       14.56646162      15.48444740      10.10010000       0.00000000       0.00000000       0.00000000       0.00000000 a2
C       12.04157713      15.58456141      10.10010000       0.00000000       0.00000000       0.00000000       0.00000000 a2
C        9.57386064      15.59259976      10.10010000       0.00000000       0.00000000       0.00000000       0.00000000 a2
C        7.04876520      15.50746632      10.10010000       0.00000000       0.00000000       0.00000000       0.00000000 a2
H       16.72312939      15.22630673      10.10010000       0.00000000       0.00000000       0.00000000       0.00000000 a2
C       13.31541078      14.83096602      10.10010000       0.00000000       0.00000000       0.00000000       0.00000000 a2
C       15.74874210      14.73450581      10.10010000       0.00000000       0.00000000       0.00000000       0.00000000 a2
C       10.80381627      14.91025339      10.10010000       0.00000000       0.00000000       0.00000000       0.00000000 a2
C        8.29317104      14.85087921      10.10010000       0.00000000       0.00000000       0.00000000       0.00000000 a2
H        4.88724553      15.25590247      10.10010000       0.00000000       0.00000000       0.00000000       0.00000000 a2
C        5.86121091      14.75935162      10.10010000       0.00000000       0.00000000       0.00000000       0.00000000 a2
N       15.73650689      13.40233185      10.10010000       0.00000000       0.00000000       0.00000000       0.00000000 a2
C       13.34821382      13.42334118      10.10010000       0.00000000       0.00000000       0.00000000       0.00000000 a2
H       10.79906985      13.82525872      10.10010000       0.00000000       0.00000000       0.00000000       0.00000000 a2
C        8.25425040      13.43813905      10.10010000       0.00000000       0.00000000       0.00000000       0.00000000 a2
N        5.86753947      13.43046608      10.10010000       0.00000000       0.00000000       0.00000000       0.00000000 a2
C       14.57996255      12.75067737      10.10010000       0.00000000       0.00000000       0.00000000       0.00000000 a2
C        7.02345096      12.76967711      10.10010000       0.00000000       0.00000000       0.00000000       0.00000000 a2
H       12.44628854      12.81553225      10.10010000       0.00000000       0.00000000       0.00000000       0.00000000 a2
H        9.15406616      12.82850322      10.10010000       0.00000000       0.00000000       0.00000000       0.00000000 a2
H       14.62173104      11.65746166      10.10010000       0.00000000       0.00000000       0.00000000       0.00000000 a2
H        6.97619771      11.67901906      10.10010000       0.00000000       0.00000000       0.00000000       0.00000000 a2
