184
Lattice="36.16319999999999 0.0 0.0 -18.081599999999995 31.318249882114287 0.0 0.0 0.0 30.0" Properties=species:S:1:pos:R:3:remoteness:R:1:shift:R:3:adsorption:S:1 size="_JSON [[12, 0], [0, 12]]" mass_center_dist=10.57781701444214 min_atom_dist=4.980070865797584 s1=cu_atop s2=tpb_hollow_down s1idx=1 s2idx=6 pbc="T T T"
O       -1.24327575       2.36559791       7.38060000              inf       0.00000000       0.00000000       0.00000000 s 
O       -2.75007575       4.97545206       7.38060000              inf       0.00000000       0.00000000       0.00000000 s 
O       -4.25687575       7.58530622       7.38060000              inf       0.00000000       0.00000000       0.00000000 s 
O       -5.76367575      10.19516038       7.38060000              inf       0.00000000       0.00000000       0.00000000 s 
O       -7.27047575      12.80501453       7.38060000              inf       0.00000000       0.00000000       0.00000000 s 
O       -8.77727575      15.41486869       7.38060000              inf       0.00000000       0.00000000       0.00000000 s 
O      -10.28407575      18.02472285       7.38060000              inf       0.00000000       0.00000000       0.00000000 s 
O      -11.79087575      20.63457700       7.38060000              inf       0.00000000       0.00000000       0.00000000 s 
O      -13.29767575      23.24443116       7.38060000              inf       0.00000000       0.00000000       0.00000000 s 
O      -14.80447575      25.85428532       7.38060000              inf       0.00000000       0.00000000       0.00000000 s 
O      -16.31127575      28.46413947       7.38060000              inf       0.00000000       0.00000000       0.00000000 s 
O      -17.81807575      31.07399363       7.38060000              inf       0.00000000       0.00000000       0.00000000 s 
O        1.77032425       2.36559791       7.38060000              inf       0.00000000       0.00000000       0.00000000 s 
O        0.26352425       4.97545206       7.38060000              inf       0.00000000       0.00000000       0.00000000 s 
O       -1.24327575       7.58530622       7.38060000              inf       0.00000000       0.00000000       0.00000000 s 
O       -2.75007575      10.19516038       7.38060000              inf       0.00000000       0.00000000       0.00000000 s 
O       -4.25687575      12.80501453       7.38060000              inf       0.00000000       0.00000000       0.00000000 s 
O       -5.76367575      15.41486869       7.38060000              inf       0.00000000       0.00000000       0.00000000 s 
O       -7.27047575      18.02472285       7.38060000              inf       0.00000000       0.00000000       0.00000000 s 
O       -8.77727575      20.63457700       7.38060000              inf       0.00000000       0.00000000       0.00000000 s 
O      -10.28407575      23.24443116       7.38060000              inf       0.00000000       0.00000000       0.00000000 s 
O      -11.79087575      25.85428532       7.38060000              inf       0.00000000       0.00000000       0.00000000 s 
O      -13.29767575      28.46413947       7.38060000              inf       0.00000000       0.00000000       0.00000000 s 
O      -14.80447575      31.07399363       7.38060000              inf       0.00000000       0.00000000       0.00000000 s 
O        4.78392425       2.36559791       7.38060000              inf       0.00000000       0.00000000       0.00000000 s 
O        3.27712425       4.97545206       7.38060000              inf       0.00000000       0.00000000       0.00000000 s 
O        1.77032425       7.58530622       7.38060000              inf       0.00000000       0.00000000       0.00000000 s 
O        0.26352425      10.19516038       7.38060000              inf       0.00000000       0.00000000       0.00000000 s 
O       -1.24327575      12.80501453       7.38060000              inf       0.00000000       0.00000000       0.00000000 s 
O       -2.75007575      15.41486869       7.38060000              inf       0.00000000       0.00000000       0.00000000 s 
O       -4.25687575      18.02472285       7.38060000              inf       0.00000000       0.00000000       0.00000000 s 
O       -5.76367575      20.63457700       7.38060000              inf       0.00000000       0.00000000       0.00000000 s 
O       -7.27047575      23.24443116       7.38060000              inf       0.00000000       0.00000000       0.00000000 s 
O       -8.77727575      25.85428532       7.38060000              inf       0.00000000       0.00000000       0.00000000 s 
O      -10.28407575      28.46413947       7.38060000              inf       0.00000000       0.00000000       0.00000000 s 
O      -11.79087575      31.07399363       7.38060000              inf       0.00000000       0.00000000       0.00000000 s 
O        7.79752425       2.36559791       7.38060000              inf       0.00000000       0.00000000       0.00000000 s 
O        6.29072425       4.97545206       7.38060000              inf       0.00000000       0.00000000       0.00000000 s 
O        4.78405986       7.58517573       7.38060000      10.06618962       0.00013561      -0.00013049       0.00000000 s 
O        3.27722973      10.19508208       7.38060000      10.06461387       0.00010548      -0.00007830       0.00000000 s 
O        1.77032425      12.80501453       7.38060000              inf       0.00000000       0.00000000       0.00000000 s 
O        0.26352425      15.41486869       7.38060000              inf       0.00000000       0.00000000       0.00000000 s 
O       -1.24323054      18.02464455       7.38060000      10.78784708       0.00004520      -0.00007830       0.00000000 s 
O       -2.75007575      20.63457700       7.38060000              inf       0.00000000       0.00000000       0.00000000 s 
O       -4.25687575      23.24443116       7.38060000              inf       0.00000000       0.00000000       0.00000000 s 
O       -5.76367575      25.85428532       7.38060000              inf       0.00000000       0.00000000       0.00000000 s 
O       -7.27047575      28.46413947       7.38060000              inf       0.00000000       0.00000000       0.00000000 s 
O       -8.77727575      31.07399363       7.38060000              inf       0.00000000       0.00000000       0.00000000 s 
O       10.81112425       2.36559791       7.38060000              inf       0.00000000       0.00000000       0.00000000 s 
O        9.30444480       4.97545206       7.38060000       9.60586231       0.00012054       0.00000000       0.00000000 s 
O        7.79772014       7.58517573       7.38060000       8.06206983       0.00019588      -0.00013049       0.00000000 s 
O        6.29089000      10.19508208       7.38060000       7.47550002       0.00016575      -0.00007830       0.00000000 s 
O        4.78405986      12.80498844       7.38060000       8.05813426       0.00013561      -0.00002610       0.00000000 s 
O        3.27725986      15.41473820       7.38060000       9.44093216       0.00013561      -0.00013049       0.00000000 s 
O        1.77042973      18.02464455       7.38060000       8.42422336       0.00010548      -0.00007830       0.00000000 s 
O        0.26359959      20.63455091       7.38060000       8.42426109       0.00007534      -0.00002610       0.00000000 s 
O       -1.24312507      23.24427457       7.38060000       9.44093216       0.00015068      -0.00015659       0.00000000 s 
O       -2.75007575      25.85428532       7.38060000              inf       0.00000000       0.00000000       0.00000000 s 
O       -4.25687575      28.46413947       7.38060000              inf       0.00000000       0.00000000       0.00000000 s 
O       -5.76367575      31.07399363       7.38060000              inf       0.00000000       0.00000000       0.00000000 s 
O       13.82472425       2.36559791       7.38060000              inf       0.00000000       0.00000000       0.00000000 s 
O       12.31810507       4.97545206       7.38060000       9.12070152       0.00018082      -0.00000000       0.00000000 s 
O       10.81138041       7.58517573       7.38060000       6.84324945       0.00025616      -0.00013049       0.00000000 s 
O        9.30455027      10.19508208       7.38060000       5.35107890       0.00022602      -0.00007830       0.00000000 s 
O        7.79772014      12.80498844       7.38060000       5.34811408       0.00019588      -0.00002610       0.00000000 s 
O        6.29099548      15.41471210       7.38060000       6.83615350       0.00027122      -0.00015659       0.00000000 s 
O        4.78409000      18.02464455       7.38060000       6.61224094       0.00016575      -0.00007830       0.00000000 s 
O        3.27725986      20.63455091       7.38060000       5.88559409       0.00013561      -0.00002610       0.00000000 s 
O        1.77053520      23.24427457       7.38060000       6.61224094       0.00021095      -0.00015659       0.00000000 s 
O        0.26370507      25.85418092       7.38060000       8.42422336       0.00018082      -0.00010439       0.00000000 s 
O       -1.24312507      28.46408728       7.38060000      10.78784708       0.00015068      -0.00005220       0.00000000 s 
O       -2.75007575      31.07399363       7.38060000              inf       0.00000000       0.00000000       0.00000000 s 
O       16.83832425       2.36559791       7.38060000              inf       0.00000000       0.00000000       0.00000000 s 
O       15.33155439       4.97545206       7.38060000       9.60545819       0.00003014       0.00000000       0.00000000 s 
O       13.82482973       7.58517573       7.38060000       6.84301227       0.00010548      -0.00013049       0.00000000 s 
O       12.31799959      10.19508208       7.38060000       4.42145755       0.00007534      -0.00007830       0.00000000 s 
O       10.81116946      12.80498844       7.38060000       3.23048808       0.00004520      -0.00002610       0.00000000 s 
O        9.30444480      15.41471210       7.38060000       4.41427761       0.00012054      -0.00015659       0.00000000 s 
O        7.79775027      18.02464455       7.38060000       5.88559409       0.00022602      -0.00007830       0.00000000 s 
O        6.29092014      20.63455091       7.38060000       4.05913255       0.00019588      -0.00002610       0.00000000 s 
O        4.78419548      23.24427457       7.38060000       4.05913255       0.00027122      -0.00015659       0.00000000 s 
O        3.27736534      25.85418092       7.38060000       5.88559409       0.00024109      -0.00010439       0.00000000 s 
O        1.77053520      28.46408728       7.38060000       8.42426109       0.00021095      -0.00005220       0.00000000 s 
O        0.26352425      31.07399363       7.38060000              inf       0.00000000       0.00000000       0.00000000 s 
O       19.85192425       2.36559791       7.38060000              inf       0.00000000       0.00000000       0.00000000 s 
O       18.34512425       4.97545206       7.38060000              inf       0.00000000       0.00000000       0.00000000 s 
O       16.83849000       7.58517573       7.38060000       8.06146584       0.00016575      -0.00013049       0.00000000 s 
O       15.33165986      10.19508208       7.38060000       5.35047223       0.00013561      -0.00007830       0.00000000 s 
O       13.82482973      12.80498844       7.38060000       3.22988719       0.00010548      -0.00002610       0.00000000 s 
O       12.31810507      15.41471210       7.38060000       3.22497323       0.00018082      -0.00015659       0.00000000 s 
O       10.81127493      18.02461845       7.38060000       5.34157205       0.00015068      -0.00010439       0.00000000 s 
O        9.30436946      20.63455091       7.38060000       4.05913255       0.00004520      -0.00002610       0.00000000 s 
O        7.79764480      23.24427457       7.38060000       2.71950000       0.00012054      -0.00015659       0.00000000 s 
O        6.29081466      25.85418092       7.38060000       4.05928916       0.00009041      -0.00010439       0.00000000 s 
O        4.78398452      28.46408728       7.38060000       6.61243323       0.00006027      -0.00005220       0.00000000 s 
O        3.27715439      31.07399363       7.38060000       9.44113417       0.00003014       0.00000000       0.00000000 s 
O       22.86569000       2.36546741       7.38060000      11.20085520       0.00016575      -0.00013049       0.00000000 s 
O       21.35872425       4.97545206       7.38060000              inf       0.00000000       0.00000000       0.00000000 s 
O       19.85215027       7.58517573       7.38060000      10.06538337       0.00022602      -0.00013049       0.00000000 s 
O       18.34532014      10.19508208       7.38060000       7.47463149       0.00019588      -0.00007830       0.00000000 s 
O       16.83849000      12.80498844       7.38060000       5.34720354       0.00016575      -0.00002610       0.00000000 s 
O       15.33176534      15.41471210       7.38060000       4.41354215       0.00024109      -0.00015659       0.00000000 s 
O       13.82493520      18.02461845       7.38060000       5.34126817       0.00021095      -0.00010439       0.00000000 s 
O       12.31802973      20.63455091       7.38060000       5.88559409       0.00010548      -0.00002610       0.00000000 s 
O       10.81130507      23.24427457       7.38060000       4.05928916       0.00018082      -0.00015659       0.00000000 s 
O        9.30447493      25.85418092       7.38060000       4.05928916       0.00015068      -0.00010439       0.00000000 s 
O        7.79764480      28.46408728       7.38060000       5.88575611       0.00012054      -0.00005220       0.00000000 s 
O        6.29081466      31.07399363       7.38060000       8.42441202       0.00009041       0.00000000       0.00000000 s 
O       25.87935027       2.36546741       7.38060000      10.78784708       0.00022602      -0.00013049       0.00000000 s 
O       24.37232425       4.97545206       7.38060000              inf       0.00000000       0.00000000       0.00000000 s 
O       22.86552425       7.58530622       7.38060000              inf       0.00000000       0.00000000       0.00000000 s 
O       21.35876946      10.19508208       7.38060000      10.06345671       0.00004520      -0.00007830       0.00000000 s 
O       19.85193932      12.80498844       7.38060000       8.05692983       0.00001507      -0.00002610       0.00000000 s 
O       18.34521466      15.41471210       7.38060000       6.83520373       0.00009041      -0.00015659       0.00000000 s 
O       16.83838452      18.02461845       7.38060000       6.83288292       0.00006027      -0.00010439       0.00000000 s 
O       15.33155439      20.63452481       7.38060000       8.05114056       0.00003014      -0.00005220       0.00000000 s 
O       13.82496534      23.24427457       7.38060000       6.61243323       0.00024109      -0.00015659       0.00000000 s 
O       12.31813520      25.85418092       7.38060000       5.88575611       0.00021095      -0.00010439       0.00000000 s 
O       10.81130507      28.46408728       7.38060000       6.61243323       0.00018082      -0.00005220       0.00000000 s 
O        9.30447493      31.07399363       7.38060000       8.42441202       0.00015068       0.00000000       0.00000000 s 
O       28.89279959       2.36546741       7.38060000      11.20085520       0.00007534      -0.00013049       0.00000000 s 
O       27.38592425       4.97545206       7.38060000              inf       0.00000000       0.00000000       0.00000000 s 
O       25.87912425       7.58530622       7.38060000              inf       0.00000000       0.00000000       0.00000000 s 
O       24.37232425      10.19516038       7.38060000              inf       0.00000000       0.00000000       0.00000000 s 
O       22.86559959      12.80498844       7.38060000      10.92711555       0.00007534      -0.00002610       0.00000000 s 
O       21.35887493      15.41471210       7.38060000       9.59824117       0.00015068      -0.00015659       0.00000000 s 
O       19.85204480      18.02461845       7.38060000       9.11111213       0.00012054      -0.00010439       0.00000000 s 
O       18.34521466      20.63452481       7.38060000       9.59493571       0.00009041      -0.00005220       0.00000000 s 
O       16.83841466      23.24427457       7.38060000       9.44093216       0.00009041      -0.00015659       0.00000000 s 
O       15.33158452      25.85418092       7.38060000       8.42422336       0.00006027      -0.00010439       0.00000000 s 
O       13.82475439      28.46408728       7.38060000       8.42426109       0.00003014      -0.00005220       0.00000000 s 
O       12.31792425      31.07399363       7.38060000       9.44103316      -0.00000000       0.00000000       0.00000000 s 
O       31.90632425       2.36559791       7.38060000              inf       0.00000000       0.00000000       0.00000000 s 
O       30.39952425       4.97545206       7.38060000              inf       0.00000000       0.00000000       0.00000000 s 
O       28.89272425       7.58530622       7.38060000              inf       0.00000000       0.00000000       0.00000000 s 
O       27.38592425      10.19516038       7.38060000              inf       0.00000000       0.00000000       0.00000000 s 
O       25.87912425      12.80501453       7.38060000              inf       0.00000000       0.00000000       0.00000000 s 
O       24.37232425      15.41486869       7.38060000              inf       0.00000000       0.00000000       0.00000000 s 
O       22.86570507      18.02461845       7.38060000      11.72607078       0.00018082      -0.00010439       0.00000000 s 
O       21.35887493      20.63452481       7.38060000      11.72471811       0.00015068      -0.00005220       0.00000000 s 
O       19.85192425      23.24443116       7.38060000              inf       0.00000000       0.00000000       0.00000000 s 
O       18.34524480      25.85418092       7.38060000      11.20085520       0.00012054      -0.00010439       0.00000000 s 
O       16.83841466      28.46408728       7.38060000      10.78784708       0.00009041      -0.00005220       0.00000000 s 
O       15.33152425      31.07399363       7.38060000              inf       0.00000000       0.00000000       0.00000000 s 
Cu       7.79764480      23.24427457      10.10010000       0.00000000       0.00000000       0.00000000       0.00000000 a1
N       12.28793893       7.95402642      10.10010000       0.00000000       0.00000000       0.00000000       0.00000000 a2
H       10.21639029       8.05012125      10.10010000       0.00000000       0.00000000       0.00000000       0.00000000 a2
H       14.36317923       8.02034281      10.10010000       0.00000000       0.00000000       0.00000000       0.00000000 a2
C       11.14268052       8.63034402      10.10010000       0.00000000       0.00000000       0.00000000       0.00000000 a2
C       13.44585446       8.61353656      10.10010000       0.00000000       0.00000000       0.00000000       0.00000000 a2
C       11.10702964      10.03413238      10.10010000       0.00000000       0.00000000       0.00000000       0.00000000 a2
C       13.50238960      10.01367112      10.10010000       0.00000000       0.00000000       0.00000000       0.00000000 a2
H       10.12831783      10.50857776      10.10010000       0.00000000       0.00000000       0.00000000       0.00000000 a2
C       12.30840128      10.77146837      10.10010000       0.00000000       0.00000000       0.00000000       0.00000000 a2
H       14.48901210      10.47331863      10.10010000       0.00000000       0.00000000       0.00000000       0.00000000 a2
C       12.31789412      12.25162106      10.10010000       0.00000000       0.00000000       0.00000000       0.00000000 a2
H       10.17093014      12.44362803      10.10010000       0.00000000       0.00000000       0.00000000       0.00000000 a2
H       14.46433072      12.42517636      10.10010000       0.00000000       0.00000000       0.00000000       0.00000000 a2
C       11.11093225      12.98512057      10.10010000       0.00000000       0.00000000       0.00000000       0.00000000 a2
C       13.52728193      12.97178421      10.10010000       0.00000000       0.00000000       0.00000000       0.00000000 a2
H        8.46960226      13.40567247      10.10010000       0.00000000       0.00000000       0.00000000       0.00000000 a2
H       16.17420215      13.38119204      10.10010000       0.00000000       0.00000000       0.00000000       0.00000000 a2
C        8.56442518      14.48810948      10.10010000       0.00000000       0.00000000       0.00000000       0.00000000 a2
C       11.08920419      14.38817816      10.10010000       0.00000000       0.00000000       0.00000000       0.00000000 a2
C       13.55681521      14.37995712      10.10010000       0.00000000       0.00000000       0.00000000       0.00000000 a2
C       16.08201613      14.46527326      10.10010000       0.00000000       0.00000000       0.00000000       0.00000000 a2
H        6.40765193      14.74643284      10.10010000       0.00000000       0.00000000       0.00000000       0.00000000 a2
C        9.81537054      15.14177355      10.10010000       0.00000000       0.00000000       0.00000000       0.00000000 a2
C        7.38214470      15.23805107      10.10010000       0.00000000       0.00000000       0.00000000       0.00000000 a2
C       12.32696505      15.06248618      10.10010000       0.00000000       0.00000000       0.00000000       0.00000000 a2
C       14.83761028      15.12186036      10.10010000       0.00000000       0.00000000       0.00000000       0.00000000 a2
H       18.24364127      14.71665441      10.10010000       0.00000000       0.00000000       0.00000000       0.00000000 a2
C       17.26946494      15.21320526      10.10010000       0.00000000       0.00000000       0.00000000       0.00000000 a2
N        7.39427444      16.57040772      10.10010000       0.00000000       0.00000000       0.00000000       0.00000000 a2
C        9.78256750      16.54939839      10.10010000       0.00000000       0.00000000       0.00000000       0.00000000 a2
H       12.33181695      16.14729816      10.10010000       0.00000000       0.00000000       0.00000000       0.00000000 a2
C       14.87631997      16.53460052      10.10010000       0.00000000       0.00000000       0.00000000       0.00000000 a2
N       17.26324185      16.54227349      10.10010000       0.00000000       0.00000000       0.00000000       0.00000000 a2
C        8.55060782      17.22206220      10.10010000       0.00000000       0.00000000       0.00000000       0.00000000 a2
C       16.10743584      17.20287977      10.10010000       0.00000000       0.00000000       0.00000000       0.00000000 a2
H       10.68449278      17.15720733      10.10010000       0.00000000       0.00000000       0.00000000       0.00000000 a2
H       13.97650422      17.14423635      10.10010000       0.00000000       0.00000000       0.00000000       0.00000000 a2
H        8.50905028      18.31527791      10.10010000       0.00000000       0.00000000       0.00000000       0.00000000 a2
H       16.15437266      18.29372052      10.10010000       0.00000000       0.00000000       0.00000000       0.00000000 a2
