222
Lattice="36.16319999999999 0.0 0.0 -18.081599999999995 31.318249882114287 0.0 0.0 0.0 30.0" Properties=species:S:1:pos:R:3:remoteness:R:1:shift:R:3:adsorption:S:1 size="_JSON [[12, 0], [0, 12]]" mass_center_dist=15.469705936973805 min_atom_dist=3.5090768679285707 s1=tpb_hollow_down s2=tpb_hollow_down s1idx=6 s2idx=7 pbc="T T T"
O       -1.24327575       2.36559791       7.38060000              inf       0.00000000       0.00000000       0.00000000 s 
O       -2.75007575       4.97545206       7.38060000              inf       0.00000000       0.00000000       0.00000000 s 
O       -4.25687575       7.58530622       7.38060000              inf       0.00000000       0.00000000       0.00000000 s 
O       -5.76367575      10.19516038       7.38060000              inf       0.00000000       0.00000000       0.00000000 s 
O       -7.27047575      12.80501453       7.38060000              inf       0.00000000       0.00000000       0.00000000 s 
O       -8.77720041      15.41484259       7.38060000      10.92711555       0.00007534      -0.00002610       0.00000000 s 
O      -10.28392507      18.02456626       7.38060000       9.59824117       0.00015068      -0.00015659       0.00000000 s 
O      -11.79075520      20.63447261       7.38060000       9.11111213       0.00012054      -0.00010439       0.00000000 s 
O      -13.29758534      23.24437896       7.38060000       9.59493571       0.00009041      -0.00005220       0.00000000 s 
O      -14.80441548      25.85428532       7.38060000      10.92142458       0.00006027       0.00000000       0.00000000 s 
O      -16.31127575      28.46413947       7.38060000              inf       0.00000000       0.00000000       0.00000000 s 
O      -17.81807575      31.07399363       7.38060000              inf       0.00000000       0.00000000       0.00000000 s 
O        1.77032425       2.36559791       7.38060000              inf       0.00000000       0.00000000       0.00000000 s 
O        0.26352425       4.97545206       7.38060000              inf       0.00000000       0.00000000       0.00000000 s 
O       -1.24327575       7.58530622       7.38060000              inf       0.00000000       0.00000000       0.00000000 s 
O       -2.75007575      10.19516038       7.38060000              inf       0.00000000       0.00000000       0.00000000 s 
O       -4.25663466      12.80511893       7.38060000       9.59925573       0.00024109       0.00010439       0.00000000 s 
O       -5.76346480      15.41502528       7.38060000       9.11200280       0.00021095       0.00015659       0.00000000 s 
O       -7.27040041      18.02474895       7.38060000       9.59574483       0.00007534       0.00002610       0.00000000 s 
O       -8.77723054      20.63465530       7.38060000      10.92195772       0.00004520       0.00007830       0.00000000 s 
O      -10.28392507      23.24437896       7.38060000      11.72471811       0.00015068      -0.00005220       0.00000000 s 
O      -11.79087575      25.85428532       7.38060000              inf       0.00000000       0.00000000       0.00000000 s 
O      -13.29767575      28.46413947       7.38060000              inf       0.00000000       0.00000000       0.00000000 s 
O      -14.80447575      31.07399363       7.38060000              inf       0.00000000       0.00000000       0.00000000 s 
O        4.78392425       2.36559791       7.38060000              inf       0.00000000       0.00000000       0.00000000 s 
O        3.27712425       4.97545206       7.38060000              inf       0.00000000       0.00000000       0.00000000 s 
O        1.77032425       7.58530622       7.38060000              inf       0.00000000       0.00000000       0.00000000 s 
O        0.26364480      10.19521257       7.38060000      10.06461387       0.00012054       0.00005220       0.00000000 s 
O       -1.24318534      12.80511893       7.38060000       8.05813426       0.00009041       0.00010439       0.00000000 s 
O       -2.74980452      15.41502528       7.38060000       6.83615350       0.00027122       0.00015659       0.00000000 s 
O       -4.25674014      18.02474895       7.38060000       6.83373504       0.00013561       0.00002610       0.00000000 s 
O       -5.76357027      20.63465530       7.38060000       8.05162269       0.00010548       0.00007830       0.00000000 s 
O       -7.27040041      23.24456165       7.38060000      10.05592451       0.00007534       0.00013049       0.00000000 s 
O       -8.77712507      25.85428532       7.38060000      12.47294899       0.00015068      -0.00000000       0.00000000 s 
O      -10.28407575      28.46413947       7.38060000              inf       0.00000000       0.00000000       0.00000000 s 
O      -11.79087575      31.07399363       7.38060000              inf       0.00000000       0.00000000       0.00000000 s 
O        7.79752425       2.36559791       7.38060000              inf       0.00000000       0.00000000       0.00000000 s 
O        6.29072425       4.97545206       7.38060000              inf       0.00000000       0.00000000       0.00000000 s 
O        4.78392425       7.58530622       7.38060000              inf       0.00000000       0.00000000       0.00000000 s 
O        3.27730507      10.19521257       7.38060000      10.06618962       0.00018082       0.00005220       0.00000000 s 
O        1.77047493      12.80511893       7.38060000       7.47550002       0.00015068       0.00010439       0.00000000 s 
O        0.26364480      15.41502528       7.38060000       5.34811408       0.00012054       0.00015659       0.00000000 s 
O       -1.24307986      18.02474895       7.38060000       4.41427761       0.00019588       0.00002610       0.00000000 s 
O       -2.74991000      20.63465530       7.38060000       5.34157205       0.00016575       0.00007830       0.00000000 s 
O       -4.25674014      23.24456165       7.38060000       7.46613913       0.00013561       0.00013049       0.00000000 s 
O       -5.76367575      25.85428532       7.38060000      10.05573150       0.00000000       0.00000000       0.00000000 s 
O       -7.27047575      28.46413947       7.38060000              inf       0.00000000       0.00000000       0.00000000 s 
O       -8.77727575      31.07399363       7.38060000              inf       0.00000000       0.00000000       0.00000000 s 
O       10.81112425       2.36559791       7.38060000              inf       0.00000000       0.00000000       0.00000000 s 
O        9.30432425       4.97545206       7.38060000              inf       0.00000000       0.00000000       0.00000000 s 
O        7.79752425       7.58530622       7.38060000              inf       0.00000000       0.00000000       0.00000000 s 
O        6.29072425      10.19516038       7.38060000              inf       0.00000000       0.00000000       0.00000000 s 
O        4.78413520      12.80511893       7.38060000       8.06206983       0.00021095       0.00010439       0.00000000 s 
O        3.27730507      15.41502528       7.38060000       5.35107890       0.00018082       0.00015659       0.00000000 s 
O        1.77036946      18.02474895       7.38060000       3.23048808       0.00004520       0.00002610       0.00000000 s 
O        0.26375027      20.63465530       7.38060000       3.22497323       0.00022602       0.00007830       0.00000000 s 
O       -1.24307986      23.24456165       7.38060000       5.34126817       0.00019588       0.00013049       0.00000000 s 
O       -2.75001548      25.85428532       7.38060000       8.05114056       0.00006027      -0.00000000       0.00000000 s 
O       -4.25684561      28.46419167       7.38060000      10.92142458       0.00003014       0.00005220       0.00000000 s 
O       -5.76367575      31.07399363       7.38060000              inf       0.00000000       0.00000000       0.00000000 s 
O       13.82472425       2.36559791       7.38060000              inf       0.00000000       0.00000000       0.00000000 s 
O       12.31792425       4.97545206       7.38060000              inf       0.00000000       0.00000000       0.00000000 s 
O       10.81112425       7.58530622       7.38060000              inf       0.00000000       0.00000000       0.00000000 s 
O        9.30445986      10.19502988       7.38060000      10.06618962       0.00013561      -0.00013049       0.00000000 s 
O        7.79758452      12.80511893       7.38060000       9.60586231       0.00006027       0.00010439       0.00000000 s 
O        6.29096534      15.41502528       7.38060000       6.84324945       0.00024109       0.00015659       0.00000000 s 
O        4.78402973      18.02474895       7.38060000       4.42145755       0.00010548       0.00002610       0.00000000 s 
O        3.27719959      20.63465530       7.38060000       3.22988719       0.00007534       0.00007830       0.00000000 s 
O        1.77058041      23.24456165       7.38060000       4.41354215       0.00025616       0.00013049       0.00000000 s 
O        0.26364480      25.85428532       7.38060000       6.83288292       0.00012054      -0.00000000       0.00000000 s 
O       -1.24318534      28.46419167       7.38060000       9.59493571       0.00009041       0.00005220       0.00000000 s 
O       -2.75007575      31.07399363       7.38060000              inf       0.00000000       0.00000000       0.00000000 s 
O       16.83832425       2.36559791       7.38060000              inf       0.00000000       0.00000000       0.00000000 s 
O       15.33152425       4.97545206       7.38060000              inf       0.00000000       0.00000000       0.00000000 s 
O       13.82484480       7.58530622       7.38060000       9.60586231       0.00012054       0.00000000       0.00000000 s 
O       12.31812014      10.19502988       7.38060000       8.06206983       0.00019588      -0.00013049       0.00000000 s 
O       10.81129000      12.80493624       7.38060000       7.47550002       0.00016575      -0.00007830       0.00000000 s 
O        9.30445986      15.41484259       7.38060000       8.05813426       0.00013561      -0.00002610       0.00000000 s 
O        7.79769000      18.02474895       7.38060000       6.84301227       0.00016575       0.00002610       0.00000000 s 
O        6.29085986      20.63465530       7.38060000       5.35047223       0.00013561       0.00007830       0.00000000 s 
O        4.78402973      23.24456165       7.38060000       5.34720354       0.00010548       0.00013049       0.00000000 s 
O        3.27730507      25.85428532       7.38060000       6.83520373       0.00018082      -0.00000000       0.00000000 s 
O        1.77047493      28.46419167       7.38060000       9.11111213       0.00015068       0.00005220       0.00000000 s 
O        0.26364480      31.07409803       7.38060000      11.72471811       0.00012054       0.00010439       0.00000000 s 
O       19.85192425       2.36559791       7.38060000              inf       0.00000000       0.00000000       0.00000000 s 
O       18.34512425       4.97545206       7.38060000              inf       0.00000000       0.00000000       0.00000000 s 
O       16.83850507       7.58530622       7.38060000       9.12070152       0.00018082      -0.00000000       0.00000000 s 
O       15.33178041      10.19502988       7.38060000       6.84324945       0.00025616      -0.00013049       0.00000000 s 
O       13.82495027      12.80493624       7.38060000       5.35107890       0.00022602      -0.00007830       0.00000000 s 
O       12.31812014      15.41484259       7.38060000       5.34811408       0.00019588      -0.00002610       0.00000000 s 
O       10.81139548      18.02456626       7.38060000       6.83615350       0.00027122      -0.00015659       0.00000000 s 
O        9.30452014      20.63465530       7.38060000       8.06146584       0.00019588       0.00007830       0.00000000 s 
O        7.79769000      23.24456165       7.38060000       7.47463149       0.00016575       0.00013049       0.00000000 s 
O        6.29075439      25.85428532       7.38060000       8.05692983       0.00003014       0.00000000       0.00000000 s 
O        4.78413520      28.46419167       7.38060000       9.59824117       0.00021095       0.00005220       0.00000000 s 
O        3.27730507      31.07409803       7.38060000      11.72607078       0.00018082       0.00010439       0.00000000 s 
O       22.86552425       2.36559791       7.38060000              inf       0.00000000       0.00000000       0.00000000 s 
O       21.35872425       4.97545206       7.38060000              inf       0.00000000       0.00000000       0.00000000 s 
O       19.85195439       7.58530622       7.38060000       9.60545819       0.00003014       0.00000000       0.00000000 s 
O       18.34522973      10.19502988       7.38060000       6.84301227       0.00010548      -0.00013049       0.00000000 s 
O       16.83839959      12.80493624       7.38060000       4.42145755       0.00007534      -0.00007830       0.00000000 s 
O       15.33156946      15.41484259       7.38060000       3.23048808       0.00004520      -0.00002610       0.00000000 s 
O       13.82484480      18.02456626       7.38060000       4.41427761       0.00012054      -0.00015659       0.00000000 s 
O       12.31801466      20.63447261       7.38060000       6.83373504       0.00009041      -0.00010439       0.00000000 s 
O       10.81118452      23.24437896       7.38060000       9.59574483       0.00006027      -0.00005220       0.00000000 s 
O        9.30441466      25.85428532       7.38060000      10.06345671       0.00009041      -0.00000000       0.00000000 s 
O        7.79758452      28.46419167       7.38060000      10.92711555       0.00006027       0.00005220       0.00000000 s 
O        6.29072425      31.07399363       7.38060000              inf       0.00000000       0.00000000       0.00000000 s 
O       25.87912425       2.36559791       7.38060000              inf       0.00000000       0.00000000       0.00000000 s 
O       24.37232425       4.97545206       7.38060000              inf       0.00000000       0.00000000       0.00000000 s 
O       22.86552425       7.58530622       7.38060000              inf       0.00000000       0.00000000       0.00000000 s 
O       21.35889000      10.19502988       7.38060000       8.06146584       0.00016575      -0.00013049       0.00000000 s 
O       19.85205986      12.80493624       7.38060000       5.35047223       0.00013561      -0.00007830       0.00000000 s 
O       18.34522973      15.41484259       7.38060000       3.22988719       0.00010548      -0.00002610       0.00000000 s 
O       16.83850507      18.02456626       7.38060000       3.22497323       0.00018082      -0.00015659       0.00000000 s 
O       15.33167493      20.63447261       7.38060000       5.34157205       0.00015068      -0.00010439       0.00000000 s 
O       13.82484480      23.24437896       7.38060000       8.05162269       0.00012054      -0.00005220       0.00000000 s 
O       12.31801466      25.85428532       7.38060000      10.92195772       0.00009041       0.00000000       0.00000000 s 
O       10.81112425      28.46413947       7.38060000              inf       0.00000000       0.00000000       0.00000000 s 
O        9.30432425      31.07399363       7.38060000              inf       0.00000000       0.00000000       0.00000000 s 
O       28.89272425       2.36559791       7.38060000              inf       0.00000000       0.00000000       0.00000000 s 
O       27.38592425       4.97545206       7.38060000              inf       0.00000000       0.00000000       0.00000000 s 
O       25.87912425       7.58530622       7.38060000              inf       0.00000000       0.00000000       0.00000000 s 
O       24.37255027      10.19502988       7.38060000      10.06538337       0.00022602      -0.00013049       0.00000000 s 
O       22.86572014      12.80493624       7.38060000       7.47463149       0.00019588      -0.00007830       0.00000000 s 
O       21.35889000      15.41484259       7.38060000       5.34720354       0.00016575      -0.00002610       0.00000000 s 
O       19.85216534      18.02456626       7.38060000       4.41354215       0.00024109      -0.00015659       0.00000000 s 
O       18.34533520      20.63447261       7.38060000       5.34126817       0.00021095      -0.00010439       0.00000000 s 
O       16.83850507      23.24437896       7.38060000       7.46613913       0.00018082      -0.00005220       0.00000000 s 
O       15.33167493      25.85428532       7.38060000      10.05592451       0.00015068       0.00000000       0.00000000 s 
O       13.82472425      28.46413947       7.38060000              inf       0.00000000       0.00000000       0.00000000 s 
O       12.31792425      31.07399363       7.38060000              inf       0.00000000       0.00000000       0.00000000 s 
O       31.90632425       2.36559791       7.38060000              inf       0.00000000       0.00000000       0.00000000 s 
O       30.39952425       4.97545206       7.38060000              inf       0.00000000       0.00000000       0.00000000 s 
O       28.89272425       7.58530622       7.38060000              inf       0.00000000       0.00000000       0.00000000 s 
O       27.38592425      10.19516038       7.38060000              inf       0.00000000       0.00000000       0.00000000 s 
O       25.87916946      12.80493624       7.38060000      10.06345671       0.00004520      -0.00007830       0.00000000 s 
O       24.37233932      15.41484259       7.38060000       8.05692983       0.00001507      -0.00002610       0.00000000 s 
O       22.86561466      18.02456626       7.38060000       6.83520373       0.00009041      -0.00015659       0.00000000 s 
O       21.35878452      20.63447261       7.38060000       6.83288292       0.00006027      -0.00010439       0.00000000 s 
O       19.85195439      23.24437896       7.38060000       8.05114056       0.00003014      -0.00005220       0.00000000 s 
O       18.34512425      25.85428532       7.38060000      10.05573150       0.00000000       0.00000000       0.00000000 s 
O       16.83839959      28.46400898       7.38060000      12.47294899       0.00007534      -0.00013049       0.00000000 s 
O       15.33152425      31.07399363       7.38060000              inf       0.00000000       0.00000000       0.00000000 s 
N       16.80833893      10.56388057      10.10010000       0.00000000       0.00000000       0.00000000       0.00000000 a1
H       14.73679029      10.65997540      10.10010000       0.00000000       0.00000000       0.00000000       0.00000000 a1
H       18.88357923      10.63019697      10.10010000       0.00000000       0.00000000       0.00000000       0.00000000 a1
C       15.66308052      11.24019818      10.10010000       0.00000000       0.00000000       0.00000000       0.00000000 a1
C       17.96625446      11.22339072      10.10010000       0.00000000       0.00000000       0.00000000       0.00000000 a1
C       15.62742964      12.64398653      10.10010000       0.00000000       0.00000000       0.00000000       0.00000000 a1
C       18.02278960      12.62352528      10.10010000       0.00000000       0.00000000       0.00000000       0.00000000 a1
H       14.64871783      13.11843192      10.10010000       0.00000000       0.00000000       0.00000000       0.00000000 a1
C       16.82880128      13.38132253      10.10010000       0.00000000       0.00000000       0.00000000       0.00000000 a1
H       19.00941210      13.08317279      10.10010000       0.00000000       0.00000000       0.00000000       0.00000000 a1
C       16.83829412      14.86147522      10.10010000       0.00000000       0.00000000       0.00000000       0.00000000 a1
H       14.69133014      15.05348219      10.10010000       0.00000000       0.00000000       0.00000000       0.00000000 a1
H       18.98473072      15.03503052      10.10010000       0.00000000       0.00000000       0.00000000       0.00000000 a1
C       15.63133225      15.59497473      10.10010000       0.00000000       0.00000000       0.00000000       0.00000000 a1
C       18.04768193      15.58163837      10.10010000       0.00000000       0.00000000       0.00000000       0.00000000 a1
H       12.99000226      16.01552662      10.10010000       0.00000000       0.00000000       0.00000000       0.00000000 a1
H       20.69460215      15.99104619      10.10010000       0.00000000       0.00000000       0.00000000       0.00000000 a1
C       13.08482518      17.09796364      10.10010000       0.00000000       0.00000000       0.00000000       0.00000000 a1
C       15.60960419      16.99803232      10.10010000       0.00000000       0.00000000       0.00000000       0.00000000 a1
C       18.07721521      16.98981128      10.10010000       0.00000000       0.00000000       0.00000000       0.00000000 a1
C       20.60241613      17.07512741      10.10010000       0.00000000       0.00000000       0.00000000       0.00000000 a1
H       10.92805193      17.35628700      10.10010000       0.00000000       0.00000000       0.00000000       0.00000000 a1
C       14.33577054      17.75162771      10.10010000       0.00000000       0.00000000       0.00000000       0.00000000 a1
C       11.90254470      17.84790523      10.10010000       0.00000000       0.00000000       0.00000000       0.00000000 a1
C       16.84736505      17.67234034      10.10010000       0.00000000       0.00000000       0.00000000       0.00000000 a1
C       19.35801028      17.73171452      10.10010000       0.00000000       0.00000000       0.00000000       0.00000000 a1
H       22.76404127      17.32650856      10.10010000       0.00000000       0.00000000       0.00000000       0.00000000 a1
C       21.78986494      17.82305942      10.10010000       0.00000000       0.00000000       0.00000000       0.00000000 a1
N       11.91467444      19.18026187      10.10010000       0.00000000       0.00000000       0.00000000       0.00000000 a1
C       14.30296750      19.15925255      10.10010000       0.00000000       0.00000000       0.00000000       0.00000000 a1
H       16.85221695      18.75715232      10.10010000       0.00000000       0.00000000       0.00000000       0.00000000 a1
C       19.39671997      19.14445467      10.10010000       0.00000000       0.00000000       0.00000000       0.00000000 a1
N       21.78364185      19.15212765      10.10010000       0.00000000       0.00000000       0.00000000       0.00000000 a1
C       13.07100782      19.83191636      10.10010000       0.00000000       0.00000000       0.00000000       0.00000000 a1
C       20.62783584      19.81273393      10.10010000       0.00000000       0.00000000       0.00000000       0.00000000 a1
H       15.20489278      19.76706148      10.10010000       0.00000000       0.00000000       0.00000000       0.00000000 a1
H       18.49690422      19.75409051      10.10010000       0.00000000       0.00000000       0.00000000       0.00000000 a1
H       13.02945028      20.92513207      10.10010000       0.00000000       0.00000000       0.00000000       0.00000000 a1
H       20.67477266      20.90357467      10.10010000       0.00000000       0.00000000       0.00000000       0.00000000 a1
N        6.70981054      16.87818782      10.10010000       0.00000000       0.00000000       0.00000000       0.00000000 a2
H        5.59081565      15.13222149      10.10010000       0.00000000       0.00000000       0.00000000       0.00000000 a2
H        7.68999900      18.70855683      10.10010000       0.00000000       0.00000000       0.00000000       0.00000000 a2
C        5.55147310      16.22452375      10.10010000       0.00000000       0.00000000       0.00000000       0.00000000 a2
C        6.71761576      18.21072715      10.10010000       0.00000000       0.00000000       0.00000000       0.00000000 a2
C        4.31793128      16.89554335      10.10010000       0.00000000       0.00000000       0.00000000       0.00000000 a2
C        5.53333123      18.95975530      10.10010000       0.00000000       0.00000000       0.00000000       0.00000000 a2
H        3.41769362      16.28517676      10.10010000       0.00000000       0.00000000       0.00000000       0.00000000 a2
C        4.28006540      18.30462971      10.10010000       0.00000000       0.00000000       0.00000000       0.00000000 a2
H        5.62857606      20.04401921      10.10010000       0.00000000       0.00000000       0.00000000       0.00000000 a2
C        3.00296199      19.05292709      10.10010000       0.00000000       0.00000000       0.00000000       0.00000000 a2
H        1.76319709      17.28960523      10.10010000       0.00000000       0.00000000       0.00000000       0.00000000 a2
H        3.92587699      20.99857336      10.10010000       0.00000000       0.00000000       0.00000000       0.00000000 a2
C        1.76425185      18.37441721      10.10010000       0.00000000       0.00000000       0.00000000       0.00000000 a2
C        2.98397631      20.46036924      10.10010000       0.00000000       0.00000000       0.00000000       0.00000000 a2
H        0.07937822      16.29723428      10.10010000       0.00000000       0.00000000       0.00000000       0.00000000 a2
H        3.95287885      22.95737330      10.10010000       0.00000000       0.00000000       0.00000000       0.00000000 a2
C       -0.81062826      16.92057185      10.10010000       0.00000000       0.00000000       0.00000000       0.00000000 a2
C        0.53830430      19.05712895      10.10010000       0.00000000       0.00000000       0.00000000       0.00000000 a2
C        1.77922944      21.19003226      10.10010000       0.00000000       0.00000000       0.00000000       0.00000000 a2
C        2.96794396      23.41957847      10.10010000       0.00000000       0.00000000       0.00000000       0.00000000 a2
H       -2.11272948      15.18191311      10.10010000       0.00000000       0.00000000       0.00000000       0.00000000 a2
C       -0.75124528      18.33075435      10.10010000       0.00000000       0.00000000       0.00000000       0.00000000 a2
C       -2.05123698      16.27165771      10.10010000       0.00000000       0.00000000       0.00000000       0.00000000 a2
C        0.57321686      20.46621531      10.10010000       0.00000000       0.00000000       0.00000000       0.00000000 a2
C        1.77711992      22.67018495      10.10010000       0.00000000       0.00000000       0.00000000       0.00000000 a2
H        3.83105407      25.41729134      10.10010000       0.00000000       0.00000000       0.00000000       0.00000000 a2
C        2.91394025      24.82190531      10.10010000       0.00000000       0.00000000       0.00000000       0.00000000 a2
N       -3.19902681      16.94834070      10.10010000       0.00000000       0.00000000       0.00000000       0.00000000 a2
C       -1.98668566      19.00615850      10.10010000       0.00000000       0.00000000       0.00000000       0.00000000 a2
H       -0.36383193      21.01282317      10.10010000       0.00000000       0.00000000       0.00000000       0.00000000 a2
C        0.57300590      23.41007860      10.10010000       0.00000000       0.00000000       0.00000000       0.00000000 a2
N        1.75982186      25.48105007      10.10010000       0.00000000       0.00000000       0.00000000       0.00000000 a2
C       -3.18520945      18.27558203      10.10010000       0.00000000       0.00000000       0.00000000       0.00000000 a2
C        0.60981703      24.81039585      10.10010000       0.00000000       0.00000000       0.00000000       0.00000000 a2
H       -2.06210100      20.09115317      10.10010000       0.00000000       0.00000000       0.00000000       0.00000000 a2
H       -0.40486209      22.93563322      10.10010000       0.00000000       0.00000000       0.00000000       0.00000000 a2
H       -4.15274080      18.78619999      10.10010000       0.00000000       0.00000000       0.00000000       0.00000000 a2
H       -0.31141036      25.39646470      10.10010000       0.00000000       0.00000000       0.00000000       0.00000000 a2
