184
Lattice="36.16319999999999 0.0 0.0 -18.081599999999995 31.318249882114287 0.0 0.0 0.0 30.0" Properties=species:S:1:pos:R:3:remoteness:R:1:shift:R:3:adsorption:S:1 size="_JSON [[12, 0], [0, 12]]" mass_center_dist=18.16879501881051 min_atom_dist=12.474037565635827 s1=cu_hollow s2=tpb_atop s1idx=2 s2idx=4 pbc="T T T"
O       -1.24327575       2.36559791       7.38060000              inf       0.00000000       0.00000000       0.00000000 s 
O       -2.75007575       4.97545206       7.38060000              inf       0.00000000       0.00000000       0.00000000 s 
O       -4.25687575       7.58530622       7.38060000              inf       0.00000000       0.00000000       0.00000000 s 
O       -5.76367575      10.19516038       7.38060000              inf       0.00000000       0.00000000       0.00000000 s 
O       -7.27043054      12.80493624       7.38060000      10.06184531       0.00004520      -0.00007830       0.00000000 s 
O       -8.77726068      15.41484259       7.38060000       8.05684639       0.00001507      -0.00002610       0.00000000 s 
O      -10.28398534      18.02456626       7.38060000       6.83737879       0.00009041      -0.00015659       0.00000000 s 
O      -11.79081548      20.63447261       7.38060000       6.83733230       0.00006027      -0.00010439       0.00000000 s 
O      -13.29764561      23.24437896       7.38060000       8.05684639       0.00003014      -0.00005220       0.00000000 s 
O      -14.80447575      25.85428532       7.38060000      10.06184531       0.00000000       0.00000000       0.00000000 s 
O      -16.31120041      28.46400898       7.38060000      12.47912395       0.00007534      -0.00013049       0.00000000 s 
O      -17.81807575      31.07399363       7.38060000              inf       0.00000000       0.00000000       0.00000000 s 
O        1.77032425       2.36559791       7.38060000              inf       0.00000000       0.00000000       0.00000000 s 
O        0.26352425       4.97545206       7.38060000              inf       0.00000000       0.00000000       0.00000000 s 
O       -1.24327575       7.58530622       7.38060000              inf       0.00000000       0.00000000       0.00000000 s 
O       -2.74994014      10.19502988       7.38060000       9.44600961       0.00013561      -0.00013049       0.00000000 s 
O       -4.25677027      12.80493624       7.38060000       8.42694687       0.00010548      -0.00007830       0.00000000 s 
O       -5.76360041      15.41484259       7.38060000       8.42401722       0.00007534      -0.00002610       0.00000000 s 
O       -7.27032507      18.02456626       7.38060000       9.43806608       0.00015068      -0.00015659       0.00000000 s 
O       -8.77715520      20.63447261       7.38060000       9.11466238       0.00012054      -0.00010439       0.00000000 s 
O      -10.28398534      23.24437896       7.38060000       9.59992618       0.00009041      -0.00005220       0.00000000 s 
O      -11.79087575      25.85428532       7.38060000              inf       0.00000000       0.00000000       0.00000000 s 
O      -13.29767575      28.46413947       7.38060000              inf       0.00000000       0.00000000       0.00000000 s 
O      -14.80447575      31.07399363       7.38060000              inf       0.00000000       0.00000000       0.00000000 s 
O        4.78392425       2.36559791       7.38060000              inf       0.00000000       0.00000000       0.00000000 s 
O        3.27712425       4.97545206       7.38060000              inf       0.00000000       0.00000000       0.00000000 s 
O        1.77044480       7.58530622       7.38060000      10.79526691       0.00012054       0.00000000       0.00000000 s 
O        0.26372014      10.19502988       7.38060000       8.43098434       0.00019588      -0.00013049       0.00000000 s 
O       -1.24311000      12.80493624       7.38060000       6.61707524       0.00016575      -0.00007830       0.00000000 s 
O       -2.74994014      15.41484259       7.38060000       5.88677917       0.00013561      -0.00002610       0.00000000 s 
O       -4.25666480      18.02456626       7.38060000       6.60951449       0.00021095      -0.00015659       0.00000000 s 
O       -5.76349493      20.63447261       7.38060000       8.41911442       0.00018082      -0.00010439       0.00000000 s 
O       -7.27032507      23.24437896       7.38060000      10.78153931       0.00015068      -0.00005220       0.00000000 s 
O       -8.77727575      25.85428532       7.38060000              inf       0.00000000       0.00000000       0.00000000 s 
O      -10.28407575      28.46413947       7.38060000              inf       0.00000000       0.00000000       0.00000000 s 
O      -11.79087575      31.07399363       7.38060000              inf       0.00000000       0.00000000       0.00000000 s 
O        7.79752425       2.36559791       7.38060000              inf       0.00000000       0.00000000       0.00000000 s 
O        6.29072425       4.97545206       7.38060000              inf       0.00000000       0.00000000       0.00000000 s 
O        4.78392425       7.58530622       7.38060000              inf       0.00000000       0.00000000       0.00000000 s 
O        3.27738041      10.19502988       7.38060000       8.43209302       0.00025616      -0.00013049       0.00000000 s 
O        1.77055027      12.80493624       7.38060000       5.89255737       0.00022602      -0.00007830       0.00000000 s 
O        0.26372014      15.41484259       7.38060000       4.06307377       0.00019588      -0.00002610       0.00000000 s 
O       -1.24300452      18.02456626       7.38060000       4.05691616       0.00027122      -0.00015659       0.00000000 s 
O       -2.74983466      20.63447261       7.38060000       5.87981516       0.00024109      -0.00010439       0.00000000 s 
O       -4.25666480      23.24437896       7.38060000       8.41725492       0.00021095      -0.00005220       0.00000000 s 
O       -5.76349493      25.85428532       7.38060000      11.19341015       0.00018082       0.00000000       0.00000000 s 
O       -7.27047575      28.46413947       7.38060000              inf       0.00000000       0.00000000       0.00000000 s 
O       -8.77727575      31.07399363       7.38060000              inf       0.00000000       0.00000000       0.00000000 s 
O       10.81112425       2.36559791       7.38060000              inf       0.00000000       0.00000000       0.00000000 s 
O        9.30432425       4.97545206       7.38060000              inf       0.00000000       0.00000000       0.00000000 s 
O        7.79752425       7.58530622       7.38060000              inf       0.00000000       0.00000000       0.00000000 s 
O        6.29082973      10.19502988       7.38060000       9.44887700       0.00010548      -0.00013049       0.00000000 s 
O        4.78399959      12.80493624       7.38060000       6.61980391       0.00007534      -0.00007830       0.00000000 s 
O        3.27716946      15.41484259       7.38060000       4.06529548       0.00004520      -0.00002610       0.00000000 s 
O        1.77044480      18.02456626       7.38060000       2.71951298       0.00012054      -0.00015659       0.00000000 s 
O        0.26361466      20.63447261       7.38060000       4.05313408       0.00009041      -0.00010439       0.00000000 s 
O       -1.24321548      23.24437896       7.38060000       6.60487225       0.00006027      -0.00005220       0.00000000 s 
O       -2.75004561      25.85428532       7.38060000       9.43319010       0.00003014       0.00000000       0.00000000 s 
O       -4.25687575      28.46413947       7.38060000              inf       0.00000000       0.00000000       0.00000000 s 
O       -5.76367575      31.07399363       7.38060000              inf       0.00000000       0.00000000       0.00000000 s 
O       13.82472425       2.36559791       7.38060000              inf       0.00000000       0.00000000       0.00000000 s 
O       12.31792425       4.97545206       7.38060000              inf       0.00000000       0.00000000       0.00000000 s 
O       10.81112425       7.58530622       7.38060000              inf       0.00000000       0.00000000       0.00000000 s 
O        9.30432425      10.19516038       7.38060000              inf       0.00000000       0.00000000       0.00000000 s 
O        7.79765986      12.80493624       7.38060000       8.43123199       0.00013561      -0.00007830       0.00000000 s 
O        6.29082973      15.41484259       7.38060000       5.89137914       0.00010548      -0.00002610       0.00000000 s 
O        4.78410507      18.02456626       7.38060000       4.06152179       0.00018082      -0.00015659       0.00000000 s 
O        3.27727493      20.63447261       7.38060000       4.05536139       0.00015068      -0.00010439       0.00000000 s 
O        1.77044480      23.24437896       7.38060000       5.87879659       0.00012054      -0.00005220       0.00000000 s 
O        0.26361466      25.85428532       7.38060000       8.41658120       0.00009041       0.00000000       0.00000000 s 
O       -1.24311000      28.46400898       7.38060000      11.19273330       0.00016575      -0.00013049       0.00000000 s 
O       -2.75007575      31.07399363       7.38060000              inf       0.00000000       0.00000000       0.00000000 s 
O       16.83832425       2.36559791       7.38060000              inf       0.00000000       0.00000000       0.00000000 s 
O       15.33152425       4.97545206       7.38060000              inf       0.00000000       0.00000000       0.00000000 s 
O       13.82478452       7.58530622       7.38060000      10.92723166       0.00006027       0.00000000       0.00000000 s 
O       12.31805986      10.19502988       7.38060000      10.06187690       0.00013561      -0.00013049       0.00000000 s 
O       10.81122973      12.80493624       7.38060000      10.06184531       0.00010548      -0.00007830       0.00000000 s 
O        9.30449000      15.41484259       7.38060000       8.42937516       0.00016575      -0.00002610       0.00000000 s 
O        7.79776534      18.02456626       7.38060000       6.61516924       0.00024109      -0.00015659       0.00000000 s 
O        6.29093520      20.63447261       7.38060000       5.88458262       0.00021095      -0.00010439       0.00000000 s 
O        4.78410507      23.24437896       7.38060000       6.60760605       0.00018082      -0.00005220       0.00000000 s 
O        3.27727493      25.85428532       7.38060000       8.41765402       0.00015068       0.00000000       0.00000000 s 
O        1.77055027      28.46400898       7.38060000      10.78025168       0.00022602      -0.00013049       0.00000000 s 
O        0.26352425      31.07399363       7.38060000              inf       0.00000000       0.00000000       0.00000000 s 
O       19.85192425       2.36559791       7.38060000              inf       0.00000000       0.00000000       0.00000000 s 
O       18.34512425       4.97545206       7.38060000              inf       0.00000000       0.00000000       0.00000000 s 
O       16.83844480       7.58530622       7.38060000       9.59992618       0.00012054       0.00000000       0.00000000 s 
O       15.33172014      10.19502988       7.38060000       8.05692530       0.00019588      -0.00013049       0.00000000 s 
O       13.82489000      12.80493624       7.38060000       7.47203194       0.00016575      -0.00007830       0.00000000 s 
O       12.31805986      15.41484259       7.38060000       8.05684639       0.00013561      -0.00002610       0.00000000 s 
O       10.81121466      18.02456626       7.38060000       9.44380483       0.00009041      -0.00015659       0.00000000 s 
O        9.30438452      20.63447261       7.38060000       8.42447540       0.00006027      -0.00010439       0.00000000 s 
O        7.79755439      23.24437896       7.38060000       8.42154489       0.00003014      -0.00005220       0.00000000 s 
O        6.29072425      25.85428532       7.38060000       9.43596033       0.00000000      -0.00000000       0.00000000 s 
O        4.78399959      28.46400898       7.38060000      11.19434668       0.00007534      -0.00013049       0.00000000 s 
O        3.27712425      31.07399363       7.38060000              inf       0.00000000       0.00000000       0.00000000 s 
O       22.86552425       2.36559791       7.38060000              inf       0.00000000       0.00000000       0.00000000 s 
O       21.35872425       4.97545206       7.38060000              inf       0.00000000       0.00000000       0.00000000 s 
O       19.85210507       7.58530622       7.38060000       9.11466238       0.00018082       0.00000000       0.00000000 s 
O       18.34538041      10.19502988       7.38060000       6.83747177       0.00025616      -0.00013049       0.00000000 s 
O       16.83855027      12.80493624       7.38060000       5.34659593       0.00022602      -0.00007830       0.00000000 s 
O       15.33172014      15.41484259       7.38060000       5.34653648       0.00019588      -0.00002610       0.00000000 s 
O       13.82499548      18.02456626       7.38060000       6.83719284       0.00027122      -0.00015659       0.00000000 s 
O       12.31816534      20.63447261       7.38060000       9.11448801       0.00024109      -0.00010439       0.00000000 s 
O       10.81121466      23.24437896       7.38060000      10.78656332       0.00009041      -0.00005220       0.00000000 s 
O        9.30438452      25.85428532       7.38060000      11.19744297       0.00006027       0.00000000       0.00000000 s 
O        7.79752425      28.46413947       7.38060000              inf       0.00000000       0.00000000       0.00000000 s 
O        6.29072425      31.07399363       7.38060000              inf       0.00000000       0.00000000       0.00000000 s 
O       25.87912425       2.36559791       7.38060000              inf       0.00000000       0.00000000       0.00000000 s 
O       24.37232425       4.97545206       7.38060000              inf       0.00000000       0.00000000       0.00000000 s 
O       22.86555439       7.58530622       7.38060000       9.59992618       0.00003014       0.00000000       0.00000000 s 
O       21.35882973      10.19502988       7.38060000       6.83751826       0.00010548      -0.00013049       0.00000000 s 
O       19.85199959      12.80493624       7.38060000       4.41647045       0.00007534      -0.00007830       0.00000000 s 
O       18.34516946      15.41484259       7.38060000       3.22847688       0.00004520      -0.00002610       0.00000000 s 
O       16.83844480      18.02456626       7.38060000       4.41632651       0.00012054      -0.00015659       0.00000000 s 
O       15.33161466      20.63447261       7.38060000       6.83733230       0.00009041      -0.00010439       0.00000000 s 
O       13.82478452      23.24437896       7.38060000       9.59992618       0.00006027      -0.00005220       0.00000000 s 
O       12.31792425      25.85428532       7.38060000              inf       0.00000000       0.00000000       0.00000000 s 
O       10.81112425      28.46413947       7.38060000              inf       0.00000000       0.00000000       0.00000000 s 
O        9.30432425      31.07399363       7.38060000              inf       0.00000000       0.00000000       0.00000000 s 
O       28.89272425       2.36559791       7.38060000              inf       0.00000000       0.00000000       0.00000000 s 
O       27.38592425       4.97545206       7.38060000              inf       0.00000000       0.00000000       0.00000000 s 
O       25.87921466       7.58530622       7.38060000      10.92723166       0.00009041       0.00000000       0.00000000 s 
O       24.37249000      10.19502988       7.38060000       8.05704365       0.00016575      -0.00013049       0.00000000 s 
O       22.86565986      12.80493624       7.38060000       5.34671483       0.00013561      -0.00007830       0.00000000 s 
O       21.35882973      15.41484259       7.38060000       3.22847688       0.00010548      -0.00002610       0.00000000 s 
O       19.85210507      18.02456626       7.38060000       3.22837843       0.00018082      -0.00015659       0.00000000 s 
O       18.34527493      20.63447261       7.38060000       5.34653648       0.00015068      -0.00010439       0.00000000 s 
O       16.83844480      23.24437896       7.38060000       8.05684639       0.00012054      -0.00005220       0.00000000 s 
O       15.33152425      25.85428532       7.38060000              inf       0.00000000       0.00000000       0.00000000 s 
O       13.82472425      28.46413947       7.38060000              inf       0.00000000       0.00000000       0.00000000 s 
O       12.31792425      31.07399363       7.38060000              inf       0.00000000       0.00000000       0.00000000 s 
O       31.90632425       2.36559791       7.38060000              inf       0.00000000       0.00000000       0.00000000 s 
O       30.39952425       4.97545206       7.38060000              inf       0.00000000       0.00000000       0.00000000 s 
O       28.89272425       7.58530622       7.38060000              inf       0.00000000       0.00000000       0.00000000 s 
O       27.38615027      10.19502988       7.38060000      10.06203485       0.00022602      -0.00013049       0.00000000 s 
O       25.87932014      12.80493624       7.38060000       7.47220210       0.00019588      -0.00007830       0.00000000 s 
O       24.37249000      15.41484259       7.38060000       5.34671483       0.00016575      -0.00002610       0.00000000 s 
O       22.86576534      18.02456626       7.38060000       4.41647045       0.00024109      -0.00015659       0.00000000 s 
O       21.35893520      20.63447261       7.38060000       5.34659593       0.00021095      -0.00010439       0.00000000 s 
O       19.85210507      23.24437896       7.38060000       7.47203194       0.00018082      -0.00005220       0.00000000 s 
O       18.34527493      25.85428532       7.38060000      10.06184531       0.00015068       0.00000000       0.00000000 s 
O       16.83832425      28.46413947       7.38060000              inf       0.00000000       0.00000000       0.00000000 s 
O       15.33152425      31.07399363       7.38060000              inf       0.00000000       0.00000000       0.00000000 s 
Cu      19.85199959      16.28481138      10.10010000       0.00000000       0.00000000       0.00000000       0.00000000 a1
N        1.73648152      12.30527966      10.10010000       0.00000000       0.00000000       0.00000000       0.00000000 a2
H       -0.33475069      12.40119180      10.10010000       0.00000000       0.00000000       0.00000000       0.00000000 a2
H        3.81193278      12.37159605      10.10010000       0.00000000       0.00000000       0.00000000       0.00000000 a2
C        0.59153954      12.98141458      10.10010000       0.00000000       0.00000000       0.00000000       0.00000000 a2
C        2.89471348      12.96460712      10.10010000       0.00000000       0.00000000       0.00000000       0.00000000 a2
C        0.55588866      14.38520293      10.10010000       0.00000000       0.00000000       0.00000000       0.00000000 a2
C        2.95124862      14.36474167      10.10010000       0.00000000       0.00000000       0.00000000       0.00000000 a2
H       -0.42282315      14.85964832      10.10010000       0.00000000       0.00000000       0.00000000       0.00000000 a2
C        1.75726030      15.12253893      10.10010000       0.00000000       0.00000000       0.00000000       0.00000000 a2
H        3.93787112      14.82438919      10.10010000       0.00000000       0.00000000       0.00000000       0.00000000 a2
C        1.76664766      16.60287430      10.10010000       0.00000000       0.00000000       0.00000000       0.00000000 a2
H       -0.38031632      16.79488127      10.10010000       0.00000000       0.00000000       0.00000000       0.00000000 a2
H        3.91308426      16.77642960      10.10010000       0.00000000       0.00000000       0.00000000       0.00000000 a2
C        0.55979127      17.33619112      10.10010000       0.00000000       0.00000000       0.00000000       0.00000000 a2
C        2.97603548      17.32303746      10.10010000       0.00000000       0.00000000       0.00000000       0.00000000 a2
H       -2.08153872      17.75674302      10.10010000       0.00000000       0.00000000       0.00000000       0.00000000 a2
H        5.62306117      17.73226259      10.10010000       0.00000000       0.00000000       0.00000000       0.00000000 a2
C       -1.98682128      18.83936272      10.10010000       0.00000000       0.00000000       0.00000000       0.00000000 a2
C        0.53806321      18.73924872      10.10010000       0.00000000       0.00000000       0.00000000       0.00000000 a2
C        3.00556876      18.73121037      10.10010000       0.00000000       0.00000000       0.00000000       0.00000000 a2
C        5.53087515      18.81634381      10.10010000       0.00000000       0.00000000       0.00000000       0.00000000 a2
H       -4.14348905      19.09750340      10.10010000       0.00000000       0.00000000       0.00000000       0.00000000 a2
C       -0.73577044      19.49284411      10.10010000       0.00000000       0.00000000       0.00000000       0.00000000 a2
C       -3.16910176      19.58930432      10.10010000       0.00000000       0.00000000       0.00000000       0.00000000 a2
C        1.77582407      19.41355674      10.10010000       0.00000000       0.00000000       0.00000000       0.00000000 a2
C        4.28646930      19.47293092      10.10010000       0.00000000       0.00000000       0.00000000       0.00000000 a2
H        7.69239482      19.06790765      10.10010000       0.00000000       0.00000000       0.00000000       0.00000000 a2
C        6.71821848      19.56445850      10.10010000       0.00000000       0.00000000       0.00000000       0.00000000 a2
N       -3.15707750      20.92147827      10.10010000       0.00000000       0.00000000       0.00000000       0.00000000 a2
C       -0.76857348      20.90046895      10.10010000       0.00000000       0.00000000       0.00000000       0.00000000 a2
H        1.78057049      20.49855141      10.10010000       0.00000000       0.00000000       0.00000000       0.00000000 a2
C        4.32517899      20.88567107      10.10010000       0.00000000       0.00000000       0.00000000       0.00000000 a2
N        6.71210087      20.89334404      10.10010000       0.00000000       0.00000000       0.00000000       0.00000000 a2
C       -2.00053316      21.57313276      10.10010000       0.00000000       0.00000000       0.00000000       0.00000000 a2
C        5.55618939      21.55413302      10.10010000       0.00000000       0.00000000       0.00000000       0.00000000 a2
H        0.13335180      21.50827788      10.10010000       0.00000000       0.00000000       0.00000000       0.00000000 a2
H        3.42536324      21.49530691      10.10010000       0.00000000       0.00000000       0.00000000       0.00000000 a2
H       -2.04209070      22.66634847      10.10010000       0.00000000       0.00000000       0.00000000       0.00000000 a2
H        5.60323168      22.64479107      10.10010000       0.00000000       0.00000000       0.00000000       0.00000000 a2
