222
Lattice="36.16319999999999 0.0 0.0 -18.081599999999995 31.318249882114287 0.0 0.0 0.0 30.0" Properties=species:S:1:pos:R:3:remoteness:R:1:shift:R:3:adsorption:S:1 size="_JSON [[12, 0], [0, 12]]" mass_center_dist=10.865689323737813 min_atom_dist=0.8615833659447253 s1=tpb_hollow_down s2=tpb_hollow_down s1idx=6 s2idx=6 pbc="T T T"
O       -1.24327575       2.36559791       7.38060000              inf       0.00000000       0.00000000       0.00000000 s 
O       -2.75007575       4.97545206       7.38060000              inf       0.00000000       0.00000000       0.00000000 s 
O       -4.25687575       7.58530622       7.38060000              inf       0.00000000       0.00000000       0.00000000 s 
O       -5.76367575      10.19516038       7.38060000              inf       0.00000000       0.00000000       0.00000000 s 
O       -7.27047575      12.80501453       7.38060000              inf       0.00000000       0.00000000       0.00000000 s 
O       -8.77727575      15.41486869       7.38060000              inf       0.00000000       0.00000000       0.00000000 s 
O      -10.28400041      18.02469675       7.38060000      10.92711555       0.00007534      -0.00002610       0.00000000 s 
O      -11.79072507      20.63442041       7.38060000       9.59824117       0.00015068      -0.00015659       0.00000000 s 
O      -13.29755520      23.24432677       7.38060000       9.11111213       0.00012054      -0.00010439       0.00000000 s 
O      -14.80438534      25.85423312       7.38060000       9.59493571       0.00009041      -0.00005220       0.00000000 s 
O      -16.31121548      28.46413947       7.38060000      10.92142458       0.00006027       0.00000000       0.00000000 s 
O      -17.81807575      31.07399363       7.38060000              inf       0.00000000       0.00000000       0.00000000 s 
O        1.77032425       2.36559791       7.38060000              inf       0.00000000       0.00000000       0.00000000 s 
O        0.26352425       4.97545206       7.38060000              inf       0.00000000       0.00000000       0.00000000 s 
O       -1.24327575       7.58530622       7.38060000              inf       0.00000000       0.00000000       0.00000000 s 
O       -2.74994014      10.19502988       7.38060000      10.06618962       0.00013561      -0.00013049       0.00000000 s 
O       -4.25677027      12.80493624       7.38060000      10.06461387       0.00010548      -0.00007830       0.00000000 s 
O       -5.76367575      15.41486869       7.38060000              inf       0.00000000       0.00000000       0.00000000 s 
O       -7.27047575      18.02472285       7.38060000              inf       0.00000000       0.00000000       0.00000000 s 
O       -8.77727575      20.63457700       7.38060000              inf       0.00000000       0.00000000       0.00000000 s 
O      -10.28389493      23.24432677       7.38060000      11.72607078       0.00018082      -0.00010439       0.00000000 s 
O      -11.79072507      25.85423312       7.38060000      11.72471811       0.00015068      -0.00005220       0.00000000 s 
O      -13.29767575      28.46413947       7.38060000              inf       0.00000000       0.00000000       0.00000000 s 
O      -14.80447575      31.07399363       7.38060000              inf       0.00000000       0.00000000       0.00000000 s 
O        4.78392425       2.36559791       7.38060000              inf       0.00000000       0.00000000       0.00000000 s 
O        3.27712425       4.97545206       7.38060000              inf       0.00000000       0.00000000       0.00000000 s 
O        1.77044480       7.58530622       7.38060000       9.60586231       0.00012054       0.00000000       0.00000000 s 
O        0.26372014      10.19502988       7.38060000       8.06206983       0.00019588      -0.00013049       0.00000000 s 
O       -1.24311000      12.80493624       7.38060000       7.47550002       0.00016575      -0.00007830       0.00000000 s 
O       -2.74994014      15.41484259       7.38060000       8.05813426       0.00013561      -0.00002610       0.00000000 s 
O       -4.25666480      18.02456626       7.38060000       9.59925573       0.00021095      -0.00015659       0.00000000 s 
O       -5.76367575      20.63457700       7.38060000              inf       0.00000000       0.00000000       0.00000000 s 
O       -7.27047575      23.24443116       7.38060000              inf       0.00000000       0.00000000       0.00000000 s 
O       -8.77727575      25.85428532       7.38060000              inf       0.00000000       0.00000000       0.00000000 s 
O      -10.28407575      28.46413947       7.38060000              inf       0.00000000       0.00000000       0.00000000 s 
O      -11.79087575      31.07399363       7.38060000              inf       0.00000000       0.00000000       0.00000000 s 
O        7.79752425       2.36559791       7.38060000              inf       0.00000000       0.00000000       0.00000000 s 
O        6.29072425       4.97545206       7.38060000              inf       0.00000000       0.00000000       0.00000000 s 
O        4.78410507       7.58530622       7.38060000       9.12070152       0.00018082      -0.00000000       0.00000000 s 
O        3.27738041      10.19502988       7.38060000       6.84324945       0.00025616      -0.00013049       0.00000000 s 
O        1.77055027      12.80493624       7.38060000       5.35107890       0.00022602      -0.00007830       0.00000000 s 
O        0.26372014      15.41484259       7.38060000       5.34811408       0.00019588      -0.00002610       0.00000000 s 
O       -1.24300452      18.02456626       7.38060000       6.83615350       0.00027122      -0.00015659       0.00000000 s 
O       -2.74983466      20.63447261       7.38060000       9.11200280       0.00024109      -0.00010439       0.00000000 s 
O       -4.25666480      23.24437896       7.38060000      11.72554868       0.00021095      -0.00005220       0.00000000 s 
O       -5.76367575      25.85428532       7.38060000              inf       0.00000000       0.00000000       0.00000000 s 
O       -7.27047575      28.46413947       7.38060000              inf       0.00000000       0.00000000       0.00000000 s 
O       -8.77727575      31.07399363       7.38060000              inf       0.00000000       0.00000000       0.00000000 s 
O       10.81112425       2.36559791       7.38060000              inf       0.00000000       0.00000000       0.00000000 s 
O        9.30432425       4.97545206       7.38060000              inf       0.00000000       0.00000000       0.00000000 s 
O        7.79755439       7.58530622       7.38060000       9.60545819       0.00003014       0.00000000       0.00000000 s 
O        6.29082973      10.19502988       7.38060000       6.84301227       0.00010548      -0.00013049       0.00000000 s 
O        4.78399959      12.80493624       7.38060000       4.42145755       0.00007534      -0.00007830       0.00000000 s 
O        3.27716946      15.41484259       7.38060000       3.23048808       0.00004520      -0.00002610       0.00000000 s 
O        1.77044480      18.02456626       7.38060000       4.41427761       0.00012054      -0.00015659       0.00000000 s 
O        0.26361466      20.63447261       7.38060000       6.83373504       0.00009041      -0.00010439       0.00000000 s 
O       -1.24321548      23.24437896       7.38060000       9.59574483       0.00006027      -0.00005220       0.00000000 s 
O       -2.75007575      25.85428532       7.38060000              inf       0.00000000       0.00000000       0.00000000 s 
O       -4.25687575      28.46413947       7.38060000              inf       0.00000000       0.00000000       0.00000000 s 
O       -5.76367575      31.07399363       7.38060000              inf       0.00000000       0.00000000       0.00000000 s 
O       13.82472425       2.36559791       7.38060000              inf       0.00000000       0.00000000       0.00000000 s 
O       12.31792425       4.97545206       7.38060000              inf       0.00000000       0.00000000       0.00000000 s 
O       10.81112425       7.58530622       7.38060000              inf       0.00000000       0.00000000       0.00000000 s 
O        9.30449000      10.19502988       7.38060000       8.06146584       0.00016575      -0.00013049       0.00000000 s 
O        7.79765986      12.80493624       7.38060000       5.35047223       0.00013561      -0.00007830       0.00000000 s 
O        6.29082973      15.41484259       7.38060000       3.22988719       0.00010548      -0.00002610       0.00000000 s 
O        4.78410507      18.02456626       7.38060000       3.22497323       0.00018082      -0.00015659       0.00000000 s 
O        3.27727493      20.63447261       7.38060000       5.34157205       0.00015068      -0.00010439       0.00000000 s 
O        1.77044480      23.24437896       7.38060000       8.05162269       0.00012054      -0.00005220       0.00000000 s 
O        0.26361466      25.85428532       7.38060000      10.92195772       0.00009041       0.00000000       0.00000000 s 
O       -1.24327575      28.46413947       7.38060000              inf       0.00000000       0.00000000       0.00000000 s 
O       -2.75007575      31.07399363       7.38060000              inf       0.00000000       0.00000000       0.00000000 s 
O       16.83832425       2.36559791       7.38060000              inf       0.00000000       0.00000000       0.00000000 s 
O       15.33152425       4.97545206       7.38060000              inf       0.00000000       0.00000000       0.00000000 s 
O       13.82472425       7.58530622       7.38060000              inf       0.00000000       0.00000000       0.00000000 s 
O       12.31804480      10.19516038       7.38060000       9.60586231       0.00012054       0.00000000       0.00000000 s 
O       10.81132014      12.80493624       7.38060000       7.47463149       0.00019588      -0.00007830       0.00000000 s 
O        9.30449000      15.41484259       7.38060000       5.34720354       0.00016575      -0.00002610       0.00000000 s 
O        7.79776534      18.02456626       7.38060000       4.41354215       0.00024109      -0.00015659       0.00000000 s 
O        6.29093520      20.63447261       7.38060000       5.34126817       0.00021095      -0.00010439       0.00000000 s 
O        4.78410507      23.24437896       7.38060000       7.46613913       0.00018082      -0.00005220       0.00000000 s 
O        3.27727493      25.85428532       7.38060000      10.05592451       0.00015068       0.00000000       0.00000000 s 
O        1.77032425      28.46413947       7.38060000              inf       0.00000000       0.00000000       0.00000000 s 
O        0.26352425      31.07399363       7.38060000              inf       0.00000000       0.00000000       0.00000000 s 
O       19.85192425       2.36559791       7.38060000              inf       0.00000000       0.00000000       0.00000000 s 
O       18.34512425       4.97545206       7.38060000              inf       0.00000000       0.00000000       0.00000000 s 
O       16.83832425       7.58530622       7.38060000              inf       0.00000000       0.00000000       0.00000000 s 
O       15.33170507      10.19516038       7.38060000       9.12070152       0.00018082       0.00000000       0.00000000 s 
O       13.82498041      12.80488404       7.38060000       6.84324945       0.00025616      -0.00013049       0.00000000 s 
O       12.31815027      15.41479039       7.38060000       5.35107890       0.00022602      -0.00007830       0.00000000 s 
O       10.81132014      18.02469675       7.38060000       5.34811408       0.00019588      -0.00002610       0.00000000 s 
O        9.30438452      20.63447261       7.38060000       6.83288292       0.00006027      -0.00010439       0.00000000 s 
O        7.79755439      23.24437896       7.38060000       8.05114056       0.00003014      -0.00005220       0.00000000 s 
O        6.29072425      25.85428532       7.38060000      10.05573150       0.00000000       0.00000000       0.00000000 s 
O        4.78399959      28.46400898       7.38060000      12.47294899       0.00007534      -0.00013049       0.00000000 s 
O        3.27712425      31.07399363       7.38060000              inf       0.00000000       0.00000000       0.00000000 s 
O       22.86552425       2.36559791       7.38060000              inf       0.00000000       0.00000000       0.00000000 s 
O       21.35872425       4.97545206       7.38060000              inf       0.00000000       0.00000000       0.00000000 s 
O       19.85192425       7.58530622       7.38060000              inf       0.00000000       0.00000000       0.00000000 s 
O       18.34515439      10.19516038       7.38060000       9.60545819       0.00003014       0.00000000       0.00000000 s 
O       16.83842973      12.80488404       7.38060000       6.84301227       0.00010548      -0.00013049       0.00000000 s 
O       15.33159959      15.41479039       7.38060000       4.42145755       0.00007534      -0.00007830       0.00000000 s 
O       13.82476946      18.02469675       7.38060000       3.23048808       0.00004520      -0.00002610       0.00000000 s 
O       12.31804480      20.63442041       7.38060000       4.41427761       0.00012054      -0.00015659       0.00000000 s 
O       10.81121466      23.24432677       7.38060000       6.83373504       0.00009041      -0.00010439       0.00000000 s 
O        9.30438452      25.85423312       7.38060000       9.59574483       0.00006027      -0.00005220       0.00000000 s 
O        7.79752425      28.46413947       7.38060000              inf       0.00000000       0.00000000       0.00000000 s 
O        6.29072425      31.07399363       7.38060000              inf       0.00000000       0.00000000       0.00000000 s 
O       25.87912425       2.36559791       7.38060000              inf       0.00000000       0.00000000       0.00000000 s 
O       24.37232425       4.97545206       7.38060000              inf       0.00000000       0.00000000       0.00000000 s 
O       22.86552425       7.58530622       7.38060000              inf       0.00000000       0.00000000       0.00000000 s 
O       21.35872425      10.19516038       7.38060000              inf       0.00000000       0.00000000       0.00000000 s 
O       19.85209000      12.80488404       7.38060000       8.06146584       0.00016575      -0.00013049       0.00000000 s 
O       18.34525986      15.41479039       7.38060000       5.35047223       0.00013561      -0.00007830       0.00000000 s 
O       16.83842973      18.02469675       7.38060000       3.22988719       0.00010548      -0.00002610       0.00000000 s 
O       15.33170507      20.63442041       7.38060000       3.22497323       0.00018082      -0.00015659       0.00000000 s 
O       13.82487493      23.24432677       7.38060000       5.34157205       0.00015068      -0.00010439       0.00000000 s 
O       12.31804480      25.85423312       7.38060000       8.05162269       0.00012054      -0.00005220       0.00000000 s 
O       10.81121466      28.46413947       7.38060000      10.92195772       0.00009041       0.00000000       0.00000000 s 
O        9.30432425      31.07399363       7.38060000              inf       0.00000000       0.00000000       0.00000000 s 
O       28.89272425       2.36559791       7.38060000              inf       0.00000000       0.00000000       0.00000000 s 
O       27.38592425       4.97545206       7.38060000              inf       0.00000000       0.00000000       0.00000000 s 
O       25.87912425       7.58530622       7.38060000              inf       0.00000000       0.00000000       0.00000000 s 
O       24.37232425      10.19516038       7.38060000              inf       0.00000000       0.00000000       0.00000000 s 
O       22.86575027      12.80488404       7.38060000      10.06538337       0.00022602      -0.00013049       0.00000000 s 
O       21.35892014      15.41479039       7.38060000       7.47463149       0.00019588      -0.00007830       0.00000000 s 
O       19.85209000      18.02469675       7.38060000       5.34720354       0.00016575      -0.00002610       0.00000000 s 
O       18.34536534      20.63442041       7.38060000       4.41354215       0.00024109      -0.00015659       0.00000000 s 
O       16.83853520      23.24432677       7.38060000       5.34126817       0.00021095      -0.00010439       0.00000000 s 
O       15.33170507      25.85423312       7.38060000       7.46613913       0.00018082      -0.00005220       0.00000000 s 
O       13.82487493      28.46413947       7.38060000      10.05592451       0.00015068       0.00000000       0.00000000 s 
O       12.31792425      31.07399363       7.38060000              inf       0.00000000       0.00000000       0.00000000 s 
O       31.90632425       2.36559791       7.38060000              inf       0.00000000       0.00000000       0.00000000 s 
O       30.39952425       4.97545206       7.38060000              inf       0.00000000       0.00000000       0.00000000 s 
O       28.89272425       7.58530622       7.38060000              inf       0.00000000       0.00000000       0.00000000 s 
O       27.38592425      10.19516038       7.38060000              inf       0.00000000       0.00000000       0.00000000 s 
O       25.87912425      12.80501453       7.38060000              inf       0.00000000       0.00000000       0.00000000 s 
O       24.37236946      15.41479039       7.38060000      10.06345671       0.00004520      -0.00007830       0.00000000 s 
O       22.86553932      18.02469675       7.38060000       8.05692983       0.00001507      -0.00002610       0.00000000 s 
O       21.35881466      20.63442041       7.38060000       6.83520373       0.00009041      -0.00015659       0.00000000 s 
O       19.85198452      23.24432677       7.38060000       6.83288292       0.00006027      -0.00010439       0.00000000 s 
O       18.34515439      25.85423312       7.38060000       8.05114056       0.00003014      -0.00005220       0.00000000 s 
O       16.83832425      28.46413947       7.38060000      10.05573150       0.00000000       0.00000000       0.00000000 s 
O       15.33159959      31.07386314       7.38060000      12.47294899       0.00007534      -0.00013049       0.00000000 s 
N       15.30153893      13.17373473      10.10010000       0.00000000       0.00000000       0.00000000       0.00000000 a1
H       13.22999029      13.26982956      10.10010000       0.00000000       0.00000000       0.00000000       0.00000000 a1
H       17.37677923      13.24005112      10.10010000       0.00000000       0.00000000       0.00000000       0.00000000 a1
C       14.15628052      13.85005234      10.10010000       0.00000000       0.00000000       0.00000000       0.00000000 a1
C       16.45945446      13.83324487      10.10010000       0.00000000       0.00000000       0.00000000       0.00000000 a1
C       14.12062964      15.25384069      10.10010000       0.00000000       0.00000000       0.00000000       0.00000000 a1
C       16.51598960      15.23337943      10.10010000       0.00000000       0.00000000       0.00000000       0.00000000 a1
H       13.14191783      15.72828608      10.10010000       0.00000000       0.00000000       0.00000000       0.00000000 a1
C       15.32200128      15.99117669      10.10010000       0.00000000       0.00000000       0.00000000       0.00000000 a1
H       17.50261210      15.69302695      10.10010000       0.00000000       0.00000000       0.00000000       0.00000000 a1
C       15.33149412      17.47132937      10.10010000       0.00000000       0.00000000       0.00000000       0.00000000 a1
H       13.18453014      17.66333634      10.10010000       0.00000000       0.00000000       0.00000000       0.00000000 a1
H       17.47793072      17.64488467      10.10010000       0.00000000       0.00000000       0.00000000       0.00000000 a1
C       14.12453225      18.20482888      10.10010000       0.00000000       0.00000000       0.00000000       0.00000000 a1
C       16.54088193      18.19149253      10.10010000       0.00000000       0.00000000       0.00000000       0.00000000 a1
H       11.48320226      18.62538078      10.10010000       0.00000000       0.00000000       0.00000000       0.00000000 a1
H       19.18780215      18.60090035      10.10010000       0.00000000       0.00000000       0.00000000       0.00000000 a1
C       11.57802518      19.70781779      10.10010000       0.00000000       0.00000000       0.00000000       0.00000000 a1
C       14.10280419      19.60788648      10.10010000       0.00000000       0.00000000       0.00000000       0.00000000 a1
C       16.57041521      19.59966544      10.10010000       0.00000000       0.00000000       0.00000000       0.00000000 a1
C       19.09561613      19.68498157      10.10010000       0.00000000       0.00000000       0.00000000       0.00000000 a1
H        9.42125193      19.96614116      10.10010000       0.00000000       0.00000000       0.00000000       0.00000000 a1
C       12.82897054      20.36148187      10.10010000       0.00000000       0.00000000       0.00000000       0.00000000 a1
C       10.39574470      20.45775939      10.10010000       0.00000000       0.00000000       0.00000000       0.00000000 a1
C       15.34056505      20.28219450      10.10010000       0.00000000       0.00000000       0.00000000       0.00000000 a1
C       17.85121028      20.34156868      10.10010000       0.00000000       0.00000000       0.00000000       0.00000000 a1
H       21.25724127      19.93636272      10.10010000       0.00000000       0.00000000       0.00000000       0.00000000 a1
C       20.28306494      20.43291357      10.10010000       0.00000000       0.00000000       0.00000000       0.00000000 a1
N       10.40787444      21.79011603      10.10010000       0.00000000       0.00000000       0.00000000       0.00000000 a1
C       12.79616750      21.76910670      10.10010000       0.00000000       0.00000000       0.00000000       0.00000000 a1
H       15.34541695      21.36700647      10.10010000       0.00000000       0.00000000       0.00000000       0.00000000 a1
C       17.88991997      21.75430883      10.10010000       0.00000000       0.00000000       0.00000000       0.00000000 a1
N       20.27684185      21.76198180      10.10010000       0.00000000       0.00000000       0.00000000       0.00000000 a1
C       11.56420782      22.44177052      10.10010000       0.00000000       0.00000000       0.00000000       0.00000000 a1
C       19.12103584      22.42258809      10.10010000       0.00000000       0.00000000       0.00000000       0.00000000 a1
H       13.69809278      22.37691564      10.10010000       0.00000000       0.00000000       0.00000000       0.00000000 a1
H       16.99010422      22.36394466      10.10010000       0.00000000       0.00000000       0.00000000       0.00000000 a1
H       11.52265028      23.53498622      10.10010000       0.00000000       0.00000000       0.00000000       0.00000000 a1
H       19.16797266      23.51342883      10.10010000       0.00000000       0.00000000       0.00000000       0.00000000 a1
N        4.75393893      10.56388057      10.10010000       0.00000000       0.00000000       0.00000000       0.00000000 a2
H        2.68239029      10.65997540      10.10010000       0.00000000       0.00000000       0.00000000       0.00000000 a2
H        6.82917923      10.63019697      10.10010000       0.00000000       0.00000000       0.00000000       0.00000000 a2
C        3.60868052      11.24019818      10.10010000       0.00000000       0.00000000       0.00000000       0.00000000 a2
C        5.91185446      11.22339072      10.10010000       0.00000000       0.00000000       0.00000000       0.00000000 a2
C        3.57302964      12.64398653      10.10010000       0.00000000       0.00000000       0.00000000       0.00000000 a2
C        5.96838960      12.62352528      10.10010000       0.00000000       0.00000000       0.00000000       0.00000000 a2
H        2.59431783      13.11843192      10.10010000       0.00000000       0.00000000       0.00000000       0.00000000 a2
C        4.77440128      13.38132253      10.10010000       0.00000000       0.00000000       0.00000000       0.00000000 a2
H        6.95501210      13.08317279      10.10010000       0.00000000       0.00000000       0.00000000       0.00000000 a2
C        4.78389412      14.86147522      10.10010000       0.00000000       0.00000000       0.00000000       0.00000000 a2
H        2.63693014      15.05348219      10.10010000       0.00000000       0.00000000       0.00000000       0.00000000 a2
H        6.93033072      15.03503052      10.10010000       0.00000000       0.00000000       0.00000000       0.00000000 a2
C        3.57693225      15.59497473      10.10010000       0.00000000       0.00000000       0.00000000       0.00000000 a2
C        5.99328193      15.58163837      10.10010000       0.00000000       0.00000000       0.00000000       0.00000000 a2
H        0.93560226      16.01552662      10.10010000       0.00000000       0.00000000       0.00000000       0.00000000 a2
H        8.64020215      15.99104619      10.10010000       0.00000000       0.00000000       0.00000000       0.00000000 a2
C        1.03042518      17.09796364      10.10010000       0.00000000       0.00000000       0.00000000       0.00000000 a2
C        3.55520419      16.99803232      10.10010000       0.00000000       0.00000000       0.00000000       0.00000000 a2
C        6.02281521      16.98981128      10.10010000       0.00000000       0.00000000       0.00000000       0.00000000 a2
C        8.54801613      17.07512741      10.10010000       0.00000000       0.00000000       0.00000000       0.00000000 a2
H       -1.12634807      17.35628700      10.10010000       0.00000000       0.00000000       0.00000000       0.00000000 a2
C        2.28137054      17.75162771      10.10010000       0.00000000       0.00000000       0.00000000       0.00000000 a2
C       -0.15185530      17.84790523      10.10010000       0.00000000       0.00000000       0.00000000       0.00000000 a2
C        4.79296505      17.67234034      10.10010000       0.00000000       0.00000000       0.00000000       0.00000000 a2
C        7.30361028      17.73171452      10.10010000       0.00000000       0.00000000       0.00000000       0.00000000 a2
H       10.70964127      17.32650856      10.10010000       0.00000000       0.00000000       0.00000000       0.00000000 a2
C        9.73546494      17.82305942      10.10010000       0.00000000       0.00000000       0.00000000       0.00000000 a2
N       -0.13972556      19.18026187      10.10010000       0.00000000       0.00000000       0.00000000       0.00000000 a2
C        2.24856750      19.15925255      10.10010000       0.00000000       0.00000000       0.00000000       0.00000000 a2
H        4.79781695      18.75715232      10.10010000       0.00000000       0.00000000       0.00000000       0.00000000 a2
C        7.34231997      19.14445467      10.10010000       0.00000000       0.00000000       0.00000000       0.00000000 a2
N        9.72924185      19.15212765      10.10010000       0.00000000       0.00000000       0.00000000       0.00000000 a2
C        1.01660782      19.83191636      10.10010000       0.00000000       0.00000000       0.00000000       0.00000000 a2
C        8.57343584      19.81273393      10.10010000       0.00000000       0.00000000       0.00000000       0.00000000 a2
H        3.15049278      19.76706148      10.10010000       0.00000000       0.00000000       0.00000000       0.00000000 a2
H        6.44250422      19.75409051      10.10010000       0.00000000       0.00000000       0.00000000       0.00000000 a2
H        0.97505028      20.92513207      10.10010000       0.00000000       0.00000000       0.00000000       0.00000000 a2
H        8.62037266      20.90357467      10.10010000       0.00000000       0.00000000       0.00000000       0.00000000 a2
