184
Lattice="36.16319999999999 0.0 0.0 -18.081599999999995 31.318249882114287 0.0 0.0 0.0 30.0" Properties=species:S:1:pos:R:3:remoteness:R:1:shift:R:3:adsorption:S:1 size="_JSON [[12, 0], [0, 12]]" mass_center_dist=7.970558617080902 min_atom_dist=2.2463153749677183 s1=cu_hollow s2=tpb_hollow_down s1idx=2 s2idx=6 pbc="T T T"
O       -1.24327575       2.36559791       7.38060000              inf       0.00000000       0.00000000       0.00000000 s 
O       -2.75007575       4.97545206       7.38060000              inf       0.00000000       0.00000000       0.00000000 s 
O       -4.25687575       7.58530622       7.38060000              inf       0.00000000       0.00000000       0.00000000 s 
O       -5.76367575      10.19516038       7.38060000              inf       0.00000000       0.00000000       0.00000000 s 
O       -7.27047575      12.80501453       7.38060000              inf       0.00000000       0.00000000       0.00000000 s 
O       -8.77727575      15.41486869       7.38060000              inf       0.00000000       0.00000000       0.00000000 s 
O      -10.28407575      18.02472285       7.38060000              inf       0.00000000       0.00000000       0.00000000 s 
O      -11.79072507      20.63442041       7.38060000       9.59999241       0.00015068      -0.00015659       0.00000000 s 
O      -13.29755520      23.24432677       7.38060000       9.11466238       0.00012054      -0.00010439       0.00000000 s 
O      -14.80438534      25.85423312       7.38060000       9.59992618       0.00009041      -0.00005220       0.00000000 s 
O      -16.31127575      28.46413947       7.38060000              inf       0.00000000       0.00000000       0.00000000 s 
O      -17.81807575      31.07399363       7.38060000              inf       0.00000000       0.00000000       0.00000000 s 
O        1.77032425       2.36559791       7.38060000              inf       0.00000000       0.00000000       0.00000000 s 
O        0.26352425       4.97545206       7.38060000              inf       0.00000000       0.00000000       0.00000000 s 
O       -1.24327575       7.58530622       7.38060000              inf       0.00000000       0.00000000       0.00000000 s 
O       -2.75007575      10.19516038       7.38060000              inf       0.00000000       0.00000000       0.00000000 s 
O       -4.25687575      12.80501453       7.38060000              inf       0.00000000       0.00000000       0.00000000 s 
O       -5.76367575      15.41486869       7.38060000              inf       0.00000000       0.00000000       0.00000000 s 
O       -7.27047575      18.02472285       7.38060000              inf       0.00000000       0.00000000       0.00000000 s 
O       -8.77727575      20.63457700       7.38060000              inf       0.00000000       0.00000000       0.00000000 s 
O      -10.28407575      23.24443116       7.38060000              inf       0.00000000       0.00000000       0.00000000 s 
O      -11.79072507      25.85423312       7.38060000      11.72896791       0.00015068      -0.00005220       0.00000000 s 
O      -13.29767575      28.46413947       7.38060000              inf       0.00000000       0.00000000       0.00000000 s 
O      -14.80447575      31.07399363       7.38060000              inf       0.00000000       0.00000000       0.00000000 s 
O        4.78392425       2.36559791       7.38060000              inf       0.00000000       0.00000000       0.00000000 s 
O        3.27712425       4.97545206       7.38060000              inf       0.00000000       0.00000000       0.00000000 s 
O        1.77032425       7.58530622       7.38060000              inf       0.00000000       0.00000000       0.00000000 s 
O        0.26365986      10.19502988       7.38060000      10.06618962       0.00013561      -0.00013049       0.00000000 s 
O       -1.24317027      12.80493624       7.38060000      10.06461387       0.00010548      -0.00007830       0.00000000 s 
O       -2.75007575      15.41486869       7.38060000              inf       0.00000000       0.00000000       0.00000000 s 
O       -4.25687575      18.02472285       7.38060000              inf       0.00000000       0.00000000       0.00000000 s 
O       -5.76367575      20.63457700       7.38060000              inf       0.00000000       0.00000000       0.00000000 s 
O       -7.27047575      23.24443116       7.38060000              inf       0.00000000       0.00000000       0.00000000 s 
O       -8.77727575      25.85428532       7.38060000              inf       0.00000000       0.00000000       0.00000000 s 
O      -10.28407575      28.46413947       7.38060000              inf       0.00000000       0.00000000       0.00000000 s 
O      -11.79087575      31.07399363       7.38060000              inf       0.00000000       0.00000000       0.00000000 s 
O        7.79752425       2.36559791       7.38060000              inf       0.00000000       0.00000000       0.00000000 s 
O        6.29072425       4.97545206       7.38060000              inf       0.00000000       0.00000000       0.00000000 s 
O        4.78404480       7.58530622       7.38060000       9.60586231       0.00012054       0.00000000       0.00000000 s 
O        3.27732014      10.19502988       7.38060000       8.06206983       0.00019588      -0.00013049       0.00000000 s 
O        1.77049000      12.80493624       7.38060000       7.47550002       0.00016575      -0.00007830       0.00000000 s 
O        0.26365986      15.41484259       7.38060000       8.05813426       0.00013561      -0.00002610       0.00000000 s 
O       -1.24306480      18.02456626       7.38060000       9.59925573       0.00021095      -0.00015659       0.00000000 s 
O       -2.75007575      20.63457700       7.38060000              inf       0.00000000       0.00000000       0.00000000 s 
O       -4.25687575      23.24443116       7.38060000              inf       0.00000000       0.00000000       0.00000000 s 
O       -5.76367575      25.85428532       7.38060000              inf       0.00000000       0.00000000       0.00000000 s 
O       -7.27047575      28.46413947       7.38060000              inf       0.00000000       0.00000000       0.00000000 s 
O       -8.77727575      31.07399363       7.38060000              inf       0.00000000       0.00000000       0.00000000 s 
O       10.81112425       2.36559791       7.38060000              inf       0.00000000       0.00000000       0.00000000 s 
O        9.30432425       4.97545206       7.38060000              inf       0.00000000       0.00000000       0.00000000 s 
O        7.79770507       7.58530622       7.38060000       9.12070152       0.00018082      -0.00000000       0.00000000 s 
O        6.29098041      10.19502988       7.38060000       6.84324945       0.00025616      -0.00013049       0.00000000 s 
O        4.78415027      12.80493624       7.38060000       5.35107890       0.00022602      -0.00007830       0.00000000 s 
O        3.27732014      15.41484259       7.38060000       5.34811408       0.00019588      -0.00002610       0.00000000 s 
O        1.77059548      18.02456626       7.38060000       6.83615350       0.00027122      -0.00015659       0.00000000 s 
O        0.26376534      20.63447261       7.38060000       9.11200280       0.00024109      -0.00010439       0.00000000 s 
O       -1.24306480      23.24437896       7.38060000      11.72554868       0.00021095      -0.00005220       0.00000000 s 
O       -2.75007575      25.85428532       7.38060000              inf       0.00000000       0.00000000       0.00000000 s 
O       -4.25687575      28.46413947       7.38060000              inf       0.00000000       0.00000000       0.00000000 s 
O       -5.76367575      31.07399363       7.38060000              inf       0.00000000       0.00000000       0.00000000 s 
O       13.82472425       2.36559791       7.38060000              inf       0.00000000       0.00000000       0.00000000 s 
O       12.31792425       4.97545206       7.38060000              inf       0.00000000       0.00000000       0.00000000 s 
O       10.81115439       7.58530622       7.38060000       9.60545819       0.00003014       0.00000000       0.00000000 s 
O        9.30442973      10.19502988       7.38060000       6.84301227       0.00010548      -0.00013049       0.00000000 s 
O        7.79759959      12.80493624       7.38060000       4.42145755       0.00007534      -0.00007830       0.00000000 s 
O        6.29076946      15.41484259       7.38060000       3.23048808       0.00004520      -0.00002610       0.00000000 s 
O        4.78404480      18.02456626       7.38060000       4.41427761       0.00012054      -0.00015659       0.00000000 s 
O        3.27721466      20.63447261       7.38060000       6.83373504       0.00009041      -0.00010439       0.00000000 s 
O        1.77038452      23.24437896       7.38060000       9.59574483       0.00006027      -0.00005220       0.00000000 s 
O        0.26352425      25.85428532       7.38060000              inf       0.00000000       0.00000000       0.00000000 s 
O       -1.24327575      28.46413947       7.38060000              inf       0.00000000       0.00000000       0.00000000 s 
O       -2.75007575      31.07399363       7.38060000              inf       0.00000000       0.00000000       0.00000000 s 
O       16.83832425       2.36559791       7.38060000              inf       0.00000000       0.00000000       0.00000000 s 
O       15.33152425       4.97545206       7.38060000              inf       0.00000000       0.00000000       0.00000000 s 
O       13.82472425       7.58530622       7.38060000              inf       0.00000000       0.00000000       0.00000000 s 
O       12.31809000      10.19502988       7.38060000       8.06146584       0.00016575      -0.00013049       0.00000000 s 
O       10.81125986      12.80493624       7.38060000       5.35047223       0.00013561      -0.00007830       0.00000000 s 
O        9.30442973      15.41484259       7.38060000       3.22988719       0.00010548      -0.00002610       0.00000000 s 
O        7.79770507      18.02456626       7.38060000       3.22497323       0.00018082      -0.00015659       0.00000000 s 
O        6.29087493      20.63447261       7.38060000       5.34157205       0.00015068      -0.00010439       0.00000000 s 
O        4.78404480      23.24437896       7.38060000       8.05162269       0.00012054      -0.00005220       0.00000000 s 
O        3.27721466      25.85428532       7.38060000      10.92195772       0.00009041       0.00000000       0.00000000 s 
O        1.77032425      28.46413947       7.38060000              inf       0.00000000       0.00000000       0.00000000 s 
O        0.26352425      31.07399363       7.38060000              inf       0.00000000       0.00000000       0.00000000 s 
O       19.85192425       2.36559791       7.38060000              inf       0.00000000       0.00000000       0.00000000 s 
O       18.34512425       4.97545206       7.38060000              inf       0.00000000       0.00000000       0.00000000 s 
O       16.83832425       7.58530622       7.38060000              inf       0.00000000       0.00000000       0.00000000 s 
O       15.33170507      10.19516038       7.38060000       9.11466238       0.00018082       0.00000000       0.00000000 s 
O       13.82498041      12.80488404       7.38060000       6.83747177       0.00025616      -0.00013049       0.00000000 s 
O       12.31815027      15.41479039       7.38060000       5.34659593       0.00022602      -0.00007830       0.00000000 s 
O       10.81136534      18.02456626       7.38060000       4.41354215       0.00024109      -0.00015659       0.00000000 s 
O        9.30453520      20.63447261       7.38060000       5.34126817       0.00021095      -0.00010439       0.00000000 s 
O        7.79770507      23.24437896       7.38060000       7.46613913       0.00018082      -0.00005220       0.00000000 s 
O        6.29087493      25.85428532       7.38060000      10.05592451       0.00015068       0.00000000       0.00000000 s 
O        4.78392425      28.46413947       7.38060000              inf       0.00000000       0.00000000       0.00000000 s 
O        3.27712425      31.07399363       7.38060000              inf       0.00000000       0.00000000       0.00000000 s 
O       22.86552425       2.36559791       7.38060000              inf       0.00000000       0.00000000       0.00000000 s 
O       21.35872425       4.97545206       7.38060000              inf       0.00000000       0.00000000       0.00000000 s 
O       19.85192425       7.58530622       7.38060000              inf       0.00000000       0.00000000       0.00000000 s 
O       18.34515439      10.19516038       7.38060000       9.59992618       0.00003014       0.00000000       0.00000000 s 
O       16.83842973      12.80488404       7.38060000       6.83751826       0.00010548      -0.00013049       0.00000000 s 
O       15.33159959      15.41479039       7.38060000       4.41647045       0.00007534      -0.00007830       0.00000000 s 
O       13.82476946      18.02469675       7.38060000       3.22847688       0.00004520      -0.00002610       0.00000000 s 
O       12.31804480      20.63442041       7.38060000       4.41632651       0.00012054      -0.00015659       0.00000000 s 
O       10.81121466      23.24432677       7.38060000       6.83733230       0.00009041      -0.00010439       0.00000000 s 
O        9.30438452      25.85423312       7.38060000       9.59992618       0.00006027      -0.00005220       0.00000000 s 
O        7.79759959      28.46400898       7.38060000      12.47294899       0.00007534      -0.00013049       0.00000000 s 
O        6.29072425      31.07399363       7.38060000              inf       0.00000000       0.00000000       0.00000000 s 
O       25.87912425       2.36559791       7.38060000              inf       0.00000000       0.00000000       0.00000000 s 
O       24.37232425       4.97545206       7.38060000              inf       0.00000000       0.00000000       0.00000000 s 
O       22.86552425       7.58530622       7.38060000              inf       0.00000000       0.00000000       0.00000000 s 
O       21.35881466      10.19516038       7.38060000      10.92723166       0.00009041       0.00000000       0.00000000 s 
O       19.85209000      12.80488404       7.38060000       8.05704365       0.00016575      -0.00013049       0.00000000 s 
O       18.34525986      15.41479039       7.38060000       5.34671483       0.00013561      -0.00007830       0.00000000 s 
O       16.83842973      18.02469675       7.38060000       3.22847688       0.00010548      -0.00002610       0.00000000 s 
O       15.33170507      20.63442041       7.38060000       3.22837843       0.00018082      -0.00015659       0.00000000 s 
O       13.82487493      23.24432677       7.38060000       5.34653648       0.00015068      -0.00010439       0.00000000 s 
O       12.31804480      25.85423312       7.38060000       8.05684639       0.00012054      -0.00005220       0.00000000 s 
O       10.81112425      28.46413947       7.38060000              inf       0.00000000       0.00000000       0.00000000 s 
O        9.30432425      31.07399363       7.38060000              inf       0.00000000       0.00000000       0.00000000 s 
O       28.89272425       2.36559791       7.38060000              inf       0.00000000       0.00000000       0.00000000 s 
O       27.38592425       4.97545206       7.38060000              inf       0.00000000       0.00000000       0.00000000 s 
O       25.87912425       7.58530622       7.38060000              inf       0.00000000       0.00000000       0.00000000 s 
O       24.37232425      10.19516038       7.38060000              inf       0.00000000       0.00000000       0.00000000 s 
O       22.86575027      12.80488404       7.38060000      10.06203485       0.00022602      -0.00013049       0.00000000 s 
O       21.35892014      15.41479039       7.38060000       7.47220210       0.00019588      -0.00007830       0.00000000 s 
O       19.85209000      18.02469675       7.38060000       5.34671483       0.00016575      -0.00002610       0.00000000 s 
O       18.34536534      20.63442041       7.38060000       4.41647045       0.00024109      -0.00015659       0.00000000 s 
O       16.83853520      23.24432677       7.38060000       5.34659593       0.00021095      -0.00010439       0.00000000 s 
O       15.33170507      25.85423312       7.38060000       7.47203194       0.00018082      -0.00005220       0.00000000 s 
O       13.82487493      28.46413947       7.38060000      10.06184531       0.00015068       0.00000000       0.00000000 s 
O       12.31792425      31.07399363       7.38060000              inf       0.00000000       0.00000000       0.00000000 s 
O       31.90632425       2.36559791       7.38060000              inf       0.00000000       0.00000000       0.00000000 s 
O       30.39952425       4.97545206       7.38060000              inf       0.00000000       0.00000000       0.00000000 s 
O       28.89272425       7.58530622       7.38060000              inf       0.00000000       0.00000000       0.00000000 s 
O       27.38592425      10.19516038       7.38060000              inf       0.00000000       0.00000000       0.00000000 s 
O       25.87912425      12.80501453       7.38060000              inf       0.00000000       0.00000000       0.00000000 s 
O       24.37236946      15.41479039       7.38060000      10.06184531       0.00004520      -0.00007830       0.00000000 s 
O       22.86553932      18.02469675       7.38060000       8.05684639       0.00001507      -0.00002610       0.00000000 s 
O       21.35881466      20.63442041       7.38060000       6.83737879       0.00009041      -0.00015659       0.00000000 s 
O       19.85198452      23.24432677       7.38060000       6.83733230       0.00006027      -0.00010439       0.00000000 s 
O       18.34515439      25.85423312       7.38060000       8.05684639       0.00003014      -0.00005220       0.00000000 s 
O       16.83832425      28.46413947       7.38060000      10.06184531       0.00000000       0.00000000       0.00000000 s 
O       15.33159959      31.07386314       7.38060000      12.47912395       0.00007534      -0.00013049       0.00000000 s 
Cu      15.33159959      18.89466553      10.10010000       0.00000000       0.00000000       0.00000000       0.00000000 a1
N        7.76753893      10.56388057      10.10010000       0.00000000       0.00000000       0.00000000       0.00000000 a2
H        5.69599029      10.65997540      10.10010000       0.00000000       0.00000000       0.00000000       0.00000000 a2
H        9.84277923      10.63019697      10.10010000       0.00000000       0.00000000       0.00000000       0.00000000 a2
C        6.62228052      11.24019818      10.10010000       0.00000000       0.00000000       0.00000000       0.00000000 a2
C        8.92545446      11.22339072      10.10010000       0.00000000       0.00000000       0.00000000       0.00000000 a2
C        6.58662964      12.64398653      10.10010000       0.00000000       0.00000000       0.00000000       0.00000000 a2
C        8.98198960      12.62352528      10.10010000       0.00000000       0.00000000       0.00000000       0.00000000 a2
H        5.60791783      13.11843192      10.10010000       0.00000000       0.00000000       0.00000000       0.00000000 a2
C        7.78800128      13.38132253      10.10010000       0.00000000       0.00000000       0.00000000       0.00000000 a2
H        9.96861210      13.08317279      10.10010000       0.00000000       0.00000000       0.00000000       0.00000000 a2
C        7.79749412      14.86147522      10.10010000       0.00000000       0.00000000       0.00000000       0.00000000 a2
H        5.65053014      15.05348219      10.10010000       0.00000000       0.00000000       0.00000000       0.00000000 a2
H        9.94393072      15.03503052      10.10010000       0.00000000       0.00000000       0.00000000       0.00000000 a2
C        6.59053225      15.59497473      10.10010000       0.00000000       0.00000000       0.00000000       0.00000000 a2
C        9.00688193      15.58163837      10.10010000       0.00000000       0.00000000       0.00000000       0.00000000 a2
H        3.94920226      16.01552662      10.10010000       0.00000000       0.00000000       0.00000000       0.00000000 a2
H       11.65380215      15.99104619      10.10010000       0.00000000       0.00000000       0.00000000       0.00000000 a2
C        4.04402518      17.09796364      10.10010000       0.00000000       0.00000000       0.00000000       0.00000000 a2
C        6.56880419      16.99803232      10.10010000       0.00000000       0.00000000       0.00000000       0.00000000 a2
C        9.03641521      16.98981128      10.10010000       0.00000000       0.00000000       0.00000000       0.00000000 a2
C       11.56161613      17.07512741      10.10010000       0.00000000       0.00000000       0.00000000       0.00000000 a2
H        1.88725193      17.35628700      10.10010000       0.00000000       0.00000000       0.00000000       0.00000000 a2
C        5.29497054      17.75162771      10.10010000       0.00000000       0.00000000       0.00000000       0.00000000 a2
C        2.86174470      17.84790523      10.10010000       0.00000000       0.00000000       0.00000000       0.00000000 a2
C        7.80656505      17.67234034      10.10010000       0.00000000       0.00000000       0.00000000       0.00000000 a2
C       10.31721028      17.73171452      10.10010000       0.00000000       0.00000000       0.00000000       0.00000000 a2
H       13.72324127      17.32650856      10.10010000       0.00000000       0.00000000       0.00000000       0.00000000 a2
C       12.74906494      17.82305942      10.10010000       0.00000000       0.00000000       0.00000000       0.00000000 a2
N        2.87387444      19.18026187      10.10010000       0.00000000       0.00000000       0.00000000       0.00000000 a2
C        5.26216750      19.15925255      10.10010000       0.00000000       0.00000000       0.00000000       0.00000000 a2
H        7.81141695      18.75715232      10.10010000       0.00000000       0.00000000       0.00000000       0.00000000 a2
C       10.35591997      19.14445467      10.10010000       0.00000000       0.00000000       0.00000000       0.00000000 a2
N       12.74284185      19.15212765      10.10010000       0.00000000       0.00000000       0.00000000       0.00000000 a2
C        4.03020782      19.83191636      10.10010000       0.00000000       0.00000000       0.00000000       0.00000000 a2
C       11.58703584      19.81273393      10.10010000       0.00000000       0.00000000       0.00000000       0.00000000 a2
H        6.16409278      19.76706148      10.10010000       0.00000000       0.00000000       0.00000000       0.00000000 a2
H        9.45610422      19.75409051      10.10010000       0.00000000       0.00000000       0.00000000       0.00000000 a2
H        3.98865028      20.92513207      10.10010000       0.00000000       0.00000000       0.00000000       0.00000000 a2
H       11.63397266      20.90357467      10.10010000       0.00000000       0.00000000       0.00000000       0.00000000 a2
