184
Lattice="36.16319999999999 0.0 0.0 -18.081599999999995 31.318249882114287 0.0 0.0 0.0 30.0" Properties=species:S:1:pos:R:3:remoteness:R:1:shift:R:3:adsorption:S:1 size="_JSON [[12, 0], [0, 12]]" mass_center_dist=8.707276883250817 min_atom_dist=2.9803327612189197 s1=cu_hollow s2=tpb_atop s1idx=2 s2idx=5 pbc="T T T"
O       -1.24327575       2.36559791       7.38060000              inf       0.00000000       0.00000000       0.00000000 s 
O       -2.75007575       4.97545206       7.38060000              inf       0.00000000       0.00000000       0.00000000 s 
O       -4.25687575       7.58530622       7.38060000              inf       0.00000000       0.00000000       0.00000000 s 
O       -5.76367575      10.19516038       7.38060000              inf       0.00000000       0.00000000       0.00000000 s 
O       -7.27047575      12.80501453       7.38060000              inf       0.00000000       0.00000000       0.00000000 s 
O       -8.77727575      15.41486869       7.38060000              inf       0.00000000       0.00000000       0.00000000 s 
O      -10.28407575      18.02472285       7.38060000              inf       0.00000000       0.00000000       0.00000000 s 
O      -11.79087575      20.63457700       7.38060000              inf       0.00000000       0.00000000       0.00000000 s 
O      -13.29752507      23.24437896       7.38060000      11.72896791       0.00015068      -0.00005220       0.00000000 s 
O      -14.80447575      25.85428532       7.38060000              inf       0.00000000       0.00000000       0.00000000 s 
O      -16.31127575      28.46413947       7.38060000              inf       0.00000000       0.00000000       0.00000000 s 
O      -17.81807575      31.07399363       7.38060000              inf       0.00000000       0.00000000       0.00000000 s 
O        1.77032425       2.36559791       7.38060000              inf       0.00000000       0.00000000       0.00000000 s 
O        0.26352425       4.97545206       7.38060000              inf       0.00000000       0.00000000       0.00000000 s 
O       -1.24327575       7.58530622       7.38060000              inf       0.00000000       0.00000000       0.00000000 s 
O       -2.75007575      10.19516038       7.38060000              inf       0.00000000       0.00000000       0.00000000 s 
O       -4.25687575      12.80501453       7.38060000              inf       0.00000000       0.00000000       0.00000000 s 
O       -5.76367575      15.41486869       7.38060000              inf       0.00000000       0.00000000       0.00000000 s 
O       -7.27047575      18.02472285       7.38060000              inf       0.00000000       0.00000000       0.00000000 s 
O       -8.77727575      20.63457700       7.38060000              inf       0.00000000       0.00000000       0.00000000 s 
O      -10.28407575      23.24443116       7.38060000              inf       0.00000000       0.00000000       0.00000000 s 
O      -11.79087575      25.85428532       7.38060000              inf       0.00000000       0.00000000       0.00000000 s 
O      -13.29767575      28.46413947       7.38060000              inf       0.00000000       0.00000000       0.00000000 s 
O      -14.80447575      31.07399363       7.38060000              inf       0.00000000       0.00000000       0.00000000 s 
O        4.78392425       2.36559791       7.38060000              inf       0.00000000       0.00000000       0.00000000 s 
O        3.27712425       4.97545206       7.38060000              inf       0.00000000       0.00000000       0.00000000 s 
O        1.77032425       7.58530622       7.38060000              inf       0.00000000       0.00000000       0.00000000 s 
O        0.26352425      10.19516038       7.38060000              inf       0.00000000       0.00000000       0.00000000 s 
O       -1.24312507      12.80506673       7.38060000      11.19620674       0.00015068       0.00005220       0.00000000 s 
O       -2.74995520      15.41497308       7.38060000      10.78153931       0.00012054       0.00010439       0.00000000 s 
O       -4.25678534      18.02487944       7.38060000      11.19341015       0.00009041       0.00015659       0.00000000 s 
O       -5.76367575      20.63457700       7.38060000              inf       0.00000000       0.00000000       0.00000000 s 
O       -7.27047575      23.24443116       7.38060000              inf       0.00000000       0.00000000       0.00000000 s 
O       -8.77727575      25.85428532       7.38060000              inf       0.00000000       0.00000000       0.00000000 s 
O      -10.28407575      28.46413947       7.38060000              inf       0.00000000       0.00000000       0.00000000 s 
O      -11.79087575      31.07399363       7.38060000              inf       0.00000000       0.00000000       0.00000000 s 
O        7.79752425       2.36559791       7.38060000              inf       0.00000000       0.00000000       0.00000000 s 
O        6.29072425       4.97545206       7.38060000              inf       0.00000000       0.00000000       0.00000000 s 
O        4.78392425       7.58530622       7.38060000              inf       0.00000000       0.00000000       0.00000000 s 
O        3.27715439      10.19516038       7.38060000      11.19992230       0.00003014       0.00000000       0.00000000 s 
O        1.77053520      12.80506673       7.38060000       9.43806608       0.00021095       0.00005220       0.00000000 s 
O        0.26370507      15.41497308       7.38060000       8.41911442       0.00018082       0.00010439       0.00000000 s 
O       -1.24312507      18.02487944       7.38060000       8.41725492       0.00015068       0.00015659       0.00000000 s 
O       -2.75006068      20.63460310       7.38060000       9.43319010       0.00001507       0.00002610       0.00000000 s 
O       -4.25667986      23.24450946       7.38060000      11.19273330       0.00019588       0.00007830       0.00000000 s 
O       -5.76367575      25.85428532       7.38060000              inf       0.00000000       0.00000000       0.00000000 s 
O       -7.27047575      28.46413947       7.38060000              inf       0.00000000       0.00000000       0.00000000 s 
O       -8.77727575      31.07399363       7.38060000              inf       0.00000000       0.00000000       0.00000000 s 
O       10.81112425       2.36559791       7.38060000              inf       0.00000000       0.00000000       0.00000000 s 
O        9.30432425       4.97545206       7.38060000              inf       0.00000000       0.00000000       0.00000000 s 
O        7.79758452       7.58530622       7.38060000      10.92723166       0.00006027       0.00000000       0.00000000 s 
O        6.29085986      10.19502988       7.38060000      10.06187690       0.00013561      -0.00013049       0.00000000 s 
O        4.78398452      12.80506673       7.38060000       8.42401722       0.00006027       0.00005220       0.00000000 s 
O        3.27736534      15.41497308       7.38060000       6.60951449       0.00024109       0.00010439       0.00000000 s 
O        1.77053520      18.02487944       7.38060000       5.87981516       0.00021095       0.00015659       0.00000000 s 
O        0.26359959      20.63460310       7.38060000       6.60487225       0.00007534       0.00002610       0.00000000 s 
O       -1.24323054      23.24450946       7.38060000       8.41658120       0.00004520       0.00007830       0.00000000 s 
O       -2.74984973      25.85441581       7.38060000      10.78025168       0.00022602       0.00013049       0.00000000 s 
O       -4.25687575      28.46413947       7.38060000              inf       0.00000000       0.00000000       0.00000000 s 
O       -5.76367575      31.07399363       7.38060000              inf       0.00000000       0.00000000       0.00000000 s 
O       13.82472425       2.36559791       7.38060000              inf       0.00000000       0.00000000       0.00000000 s 
O       12.31792425       4.97545206       7.38060000              inf       0.00000000       0.00000000       0.00000000 s 
O       10.81124480       7.58530622       7.38060000       9.59992618       0.00012054       0.00000000       0.00000000 s 
O        9.30452014      10.19502988       7.38060000       8.05692530       0.00019588      -0.00013049       0.00000000 s 
O        7.79769000      12.80493624       7.38060000       7.47203194       0.00016575      -0.00007830       0.00000000 s 
O        6.29081466      15.41497308       7.38060000       5.88677917       0.00009041       0.00010439       0.00000000 s 
O        4.78419548      18.02487944       7.38060000       4.05691616       0.00027122       0.00015659       0.00000000 s 
O        3.27725986      20.63460310       7.38060000       4.05313408       0.00013561       0.00002610       0.00000000 s 
O        1.77042973      23.24450946       7.38060000       5.87879659       0.00010548       0.00007830       0.00000000 s 
O        0.26359959      25.85441581       7.38060000       8.41765402       0.00007534       0.00013049       0.00000000 s 
O       -1.24312507      28.46413947       7.38060000      11.19434668       0.00015068      -0.00000000       0.00000000 s 
O       -2.75007575      31.07399363       7.38060000              inf       0.00000000       0.00000000       0.00000000 s 
O       16.83832425       2.36559791       7.38060000              inf       0.00000000       0.00000000       0.00000000 s 
O       15.33152425       4.97545206       7.38060000              inf       0.00000000       0.00000000       0.00000000 s 
O       13.82490507       7.58530622       7.38060000       9.11466238       0.00018082       0.00000000       0.00000000 s 
O       12.31818041      10.19502988       7.38060000       6.83747177       0.00025616      -0.00013049       0.00000000 s 
O       10.81135027      12.80493624       7.38060000       5.34659593       0.00022602      -0.00007830       0.00000000 s 
O        9.30452014      15.41484259       7.38060000       5.34653648       0.00019588      -0.00002610       0.00000000 s 
O        7.79764480      18.02487944       7.38060000       4.06307377       0.00012054       0.00015659       0.00000000 s 
O        6.29092014      20.63460310       7.38060000       2.71951298       0.00019588       0.00002610       0.00000000 s 
O        4.78409000      23.24450946       7.38060000       4.05536139       0.00016575       0.00007830       0.00000000 s 
O        3.27725986      25.85441581       7.38060000       6.60760605       0.00013561       0.00013049       0.00000000 s 
O        1.77032425      28.46413947       7.38060000       9.43596033       0.00000000       0.00000000       0.00000000 s 
O        0.26352425      31.07399363       7.38060000              inf       0.00000000       0.00000000       0.00000000 s 
O       19.85192425       2.36559791       7.38060000              inf       0.00000000       0.00000000       0.00000000 s 
O       18.34512425       4.97545206       7.38060000              inf       0.00000000       0.00000000       0.00000000 s 
O       16.83835439       7.58530622       7.38060000       9.59992618       0.00003014       0.00000000       0.00000000 s 
O       15.33162973      10.19502988       7.38060000       6.83751826       0.00010548      -0.00013049       0.00000000 s 
O       13.82479959      12.80493624       7.38060000       4.41647045       0.00007534      -0.00007830       0.00000000 s 
O       12.31796946      15.41484259       7.38060000       3.22847688       0.00004520      -0.00002610       0.00000000 s 
O       10.81124480      18.02456626       7.38060000       4.41632651       0.00012054      -0.00015659       0.00000000 s 
O        9.30436946      20.63460310       7.38060000       4.06529548       0.00004520       0.00002610       0.00000000 s 
O        7.79775027      23.24450946       7.38060000       4.06152179       0.00022602       0.00007830       0.00000000 s 
O        6.29092014      25.85441581       7.38060000       5.88458262       0.00019588       0.00013049       0.00000000 s 
O        4.78398452      28.46413947       7.38060000       8.42154489       0.00006027      -0.00000000       0.00000000 s 
O        3.27715439      31.07404583       7.38060000      11.19744297       0.00003014       0.00005220       0.00000000 s 
O       22.86552425       2.36559791       7.38060000              inf       0.00000000       0.00000000       0.00000000 s 
O       21.35872425       4.97545206       7.38060000              inf       0.00000000       0.00000000       0.00000000 s 
O       19.85201466       7.58530622       7.38060000      10.92723166       0.00009041       0.00000000       0.00000000 s 
O       18.34529000      10.19502988       7.38060000       8.05704365       0.00016575      -0.00013049       0.00000000 s 
O       16.83845986      12.80493624       7.38060000       5.34671483       0.00013561      -0.00007830       0.00000000 s 
O       15.33162973      15.41484259       7.38060000       3.22847688       0.00010548      -0.00002610       0.00000000 s 
O       13.82490507      18.02456626       7.38060000       3.22837843       0.00018082      -0.00015659       0.00000000 s 
O       12.31807493      20.63447261       7.38060000       5.34653648       0.00015068      -0.00010439       0.00000000 s 
O       10.81119959      23.24450946       7.38060000       5.89137914       0.00007534       0.00007830       0.00000000 s 
O        9.30458041      25.85441581       7.38060000       6.61516924       0.00025616       0.00013049       0.00000000 s 
O        7.79764480      28.46413947       7.38060000       8.42447540       0.00012054      -0.00000000       0.00000000 s 
O        6.29081466      31.07404583       7.38060000      10.78656332       0.00009041       0.00005220       0.00000000 s 
O       25.87912425       2.36559791       7.38060000              inf       0.00000000       0.00000000       0.00000000 s 
O       24.37232425       4.97545206       7.38060000              inf       0.00000000       0.00000000       0.00000000 s 
O       22.86552425       7.58530622       7.38060000              inf       0.00000000       0.00000000       0.00000000 s 
O       21.35895027      10.19502988       7.38060000      10.06203485       0.00022602      -0.00013049       0.00000000 s 
O       19.85212014      12.80493624       7.38060000       7.47220210       0.00019588      -0.00007830       0.00000000 s 
O       18.34529000      15.41484259       7.38060000       5.34671483       0.00016575      -0.00002610       0.00000000 s 
O       16.83856534      18.02456626       7.38060000       4.41647045       0.00024109      -0.00015659       0.00000000 s 
O       15.33173520      20.63447261       7.38060000       5.34659593       0.00021095      -0.00010439       0.00000000 s 
O       13.82490507      23.24437896       7.38060000       7.47203194       0.00018082      -0.00005220       0.00000000 s 
O       12.31802973      25.85441581       7.38060000       8.42937516       0.00010548       0.00013049       0.00000000 s 
O       10.81130507      28.46413947       7.38060000       9.44380483       0.00018082      -0.00000000       0.00000000 s 
O        9.30432425      31.07399363       7.38060000              inf       0.00000000       0.00000000       0.00000000 s 
O       28.89272425       2.36559791       7.38060000              inf       0.00000000       0.00000000       0.00000000 s 
O       27.38592425       4.97545206       7.38060000              inf       0.00000000       0.00000000       0.00000000 s 
O       25.87912425       7.58530622       7.38060000              inf       0.00000000       0.00000000       0.00000000 s 
O       24.37232425      10.19516038       7.38060000              inf       0.00000000       0.00000000       0.00000000 s 
O       22.86556946      12.80493624       7.38060000      10.06184531       0.00004520      -0.00007830       0.00000000 s 
O       21.35873932      15.41484259       7.38060000       8.05684639       0.00001507      -0.00002610       0.00000000 s 
O       19.85201466      18.02456626       7.38060000       6.83737879       0.00009041      -0.00015659       0.00000000 s 
O       18.34518452      20.63447261       7.38060000       6.83733230       0.00006027      -0.00010439       0.00000000 s 
O       16.83835439      23.24437896       7.38060000       8.05684639       0.00003014      -0.00005220       0.00000000 s 
O       15.33152425      25.85428532       7.38060000      10.06184531       0.00000000       0.00000000       0.00000000 s 
O       13.82479959      28.46400898       7.38060000      12.47912395       0.00007534      -0.00013049       0.00000000 s 
O       12.31792425      31.07399363       7.38060000              inf       0.00000000       0.00000000       0.00000000 s 
O       31.90632425       2.36559791       7.38060000              inf       0.00000000       0.00000000       0.00000000 s 
O       30.39952425       4.97545206       7.38060000              inf       0.00000000       0.00000000       0.00000000 s 
O       28.89272425       7.58530622       7.38060000              inf       0.00000000       0.00000000       0.00000000 s 
O       27.38592425      10.19516038       7.38060000              inf       0.00000000       0.00000000       0.00000000 s 
O       25.87912425      12.80501453       7.38060000              inf       0.00000000       0.00000000       0.00000000 s 
O       24.37232425      15.41486869       7.38060000              inf       0.00000000       0.00000000       0.00000000 s 
O       22.86567493      18.02456626       7.38060000       9.59999241       0.00015068      -0.00015659       0.00000000 s 
O       21.35884480      20.63447261       7.38060000       9.11466238       0.00012054      -0.00010439       0.00000000 s 
O       19.85201466      23.24437896       7.38060000       9.59992618       0.00009041      -0.00005220       0.00000000 s 
O       18.34512425      25.85428532       7.38060000              inf       0.00000000       0.00000000       0.00000000 s 
O       16.83832425      28.46413947       7.38060000              inf       0.00000000       0.00000000       0.00000000 s 
O       15.33152425      31.07399363       7.38060000              inf       0.00000000       0.00000000       0.00000000 s 
Cu      13.82479959      16.28481138      10.10010000       0.00000000       0.00000000       0.00000000       0.00000000 a1
N       11.22698598      17.74554675      10.10010000       0.00000000       0.00000000       0.00000000       0.00000000 a2
H       10.10830753      15.99976311      10.10010000       0.00000000       0.00000000       0.00000000       0.00000000 a2
H       12.20727993      19.57609845      10.10010000       0.00000000       0.00000000       0.00000000       0.00000000 a2
C       10.06896498      17.09206537      10.10010000       0.00000000       0.00000000       0.00000000       0.00000000 a2
C       11.23510764      19.07826877      10.10010000       0.00000000       0.00000000       0.00000000       0.00000000 a2
C        8.83542316      17.76308497      10.10010000       0.00000000       0.00000000       0.00000000       0.00000000 a2
C       10.05082311      19.82729692      10.10010000       0.00000000       0.00000000       0.00000000       0.00000000 a2
H        7.93518550      17.15271838      10.10010000       0.00000000       0.00000000       0.00000000       0.00000000 a2
C        8.79755728      19.17217133      10.10010000       0.00000000       0.00000000       0.00000000       0.00000000 a2
H       10.14606794      20.91156083      10.10010000       0.00000000       0.00000000       0.00000000       0.00000000 a2
C        7.52024292      19.92046871      10.10010000       0.00000000       0.00000000       0.00000000       0.00000000 a2
H        6.28047801      18.15714685      10.10010000       0.00000000       0.00000000       0.00000000       0.00000000 a2
H        8.44315792      21.86611498      10.10010000       0.00000000       0.00000000       0.00000000       0.00000000 a2
C        6.28174372      19.24195883      10.10010000       0.00000000       0.00000000       0.00000000       0.00000000 a2
C        7.50125724      21.32791086      10.10010000       0.00000000       0.00000000       0.00000000       0.00000000 a2
H        4.59687010      17.16477590      10.10010000       0.00000000       0.00000000       0.00000000       0.00000000 a2
H        8.47037072      23.82491492      10.10010000       0.00000000       0.00000000       0.00000000       0.00000000 a2
C        3.70665266      17.78811347      10.10010000       0.00000000       0.00000000       0.00000000       0.00000000 a2
C        5.05579618      19.92467058      10.10010000       0.00000000       0.00000000       0.00000000       0.00000000 a2
C        6.29651036      22.05757388      10.10010000       0.00000000       0.00000000       0.00000000       0.00000000 a2
C        7.48543584      24.28712009      10.10010000       0.00000000       0.00000000       0.00000000       0.00000000 a2
H        2.40476239      16.04945473      10.10010000       0.00000000       0.00000000       0.00000000       0.00000000 a2
C        3.76624660      19.19829597      10.10010000       0.00000000       0.00000000       0.00000000       0.00000000 a2
C        2.46604395      17.13919933      10.10010000       0.00000000       0.00000000       0.00000000       0.00000000 a2
C        5.09070873      21.33375693      10.10010000       0.00000000       0.00000000       0.00000000       0.00000000 a2
C        6.29461180      23.53772657      10.10010000       0.00000000       0.00000000       0.00000000       0.00000000 a2
H        8.34833499      26.28483296      10.10010000       0.00000000       0.00000000       0.00000000       0.00000000 a2
C        7.43122117      25.68944693      10.10010000       0.00000000       0.00000000       0.00000000       0.00000000 a2
N        1.31835959      17.81569963      10.10010000       0.00000000       0.00000000       0.00000000       0.00000000 a2
C        2.53080621      19.87370012      10.10010000       0.00000000       0.00000000       0.00000000       0.00000000 a2
H        4.15344900      21.88036479      10.10010000       0.00000000       0.00000000       0.00000000       0.00000000 a2
C        5.09049778      24.27762022      10.10010000       0.00000000       0.00000000       0.00000000       0.00000000 a2
N        6.27731373      26.34859170      10.10010000       0.00000000       0.00000000       0.00000000       0.00000000 a2
C        1.33228242      19.14312365      10.10010000       0.00000000       0.00000000       0.00000000       0.00000000 a2
C        5.12709795      25.67793747      10.10010000       0.00000000       0.00000000       0.00000000       0.00000000 a2
H        2.45539087      20.95869479      10.10010000       0.00000000       0.00000000       0.00000000       0.00000000 a2
H        4.11262978      23.80317484      10.10010000       0.00000000       0.00000000       0.00000000       0.00000000 a2
H        0.36475108      19.65374162      10.10010000       0.00000000       0.00000000       0.00000000       0.00000000 a2
H        4.20608152      26.26400632      10.10010000       0.00000000       0.00000000       0.00000000       0.00000000 a2
