184
Lattice="36.16319999999999 0.0 0.0 -18.081599999999995 31.318249882114287 0.0 0.0 0.0 30.0" Properties=species:S:1:pos:R:3:remoteness:R:1:shift:R:3:adsorption:S:1 size="_JSON [[12, 0], [0, 12]]" mass_center_dist=17.66426131640995 min_atom_dist=11.78432962206001 s1=cu_hollow s2=tpb_hollow_down s1idx=2 s2idx=7 pbc="T T T"
O       -1.24327575       2.36559791       7.38060000              inf       0.00000000       0.00000000       0.00000000 s 
O       -2.75007575       4.97545206       7.38060000              inf       0.00000000       0.00000000       0.00000000 s 
O       -4.25687575       7.58530622       7.38060000              inf       0.00000000       0.00000000       0.00000000 s 
O       -5.76367575      10.19516038       7.38060000              inf       0.00000000       0.00000000       0.00000000 s 
O       -7.27047575      12.80501453       7.38060000              inf       0.00000000       0.00000000       0.00000000 s 
O       -8.77712507      15.41471210       7.38060000       9.59999241       0.00015068      -0.00015659       0.00000000 s 
O      -10.28395520      18.02461845       7.38060000       9.11466238       0.00012054      -0.00010439       0.00000000 s 
O      -11.79078534      20.63452481       7.38060000       9.59992618       0.00009041      -0.00005220       0.00000000 s 
O      -13.29767575      23.24443116       7.38060000              inf       0.00000000       0.00000000       0.00000000 s 
O      -14.80447575      25.85428532       7.38060000              inf       0.00000000       0.00000000       0.00000000 s 
O      -16.31127575      28.46413947       7.38060000              inf       0.00000000       0.00000000       0.00000000 s 
O      -17.81807575      31.07399363       7.38060000              inf       0.00000000       0.00000000       0.00000000 s 
O        1.77032425       2.36559791       7.38060000              inf       0.00000000       0.00000000       0.00000000 s 
O        0.26352425       4.97545206       7.38060000              inf       0.00000000       0.00000000       0.00000000 s 
O       -1.24327575       7.58530622       7.38060000              inf       0.00000000       0.00000000       0.00000000 s 
O       -2.75007575      10.19516038       7.38060000              inf       0.00000000       0.00000000       0.00000000 s 
O       -4.25663466      12.80511893       7.38060000       9.59925573       0.00024109       0.00010439       0.00000000 s 
O       -5.76346480      15.41502528       7.38060000       9.11200280       0.00021095       0.00015659       0.00000000 s 
O       -7.27040041      18.02474895       7.38060000       9.59574483       0.00007534       0.00002610       0.00000000 s 
O       -8.77723054      20.63465530       7.38060000      10.92195772       0.00004520       0.00007830       0.00000000 s 
O      -10.28407575      23.24443116       7.38060000              inf       0.00000000       0.00000000       0.00000000 s 
O      -11.79087575      25.85428532       7.38060000              inf       0.00000000       0.00000000       0.00000000 s 
O      -13.29767575      28.46413947       7.38060000              inf       0.00000000       0.00000000       0.00000000 s 
O      -14.80447575      31.07399363       7.38060000              inf       0.00000000       0.00000000       0.00000000 s 
O        4.78392425       2.36559791       7.38060000              inf       0.00000000       0.00000000       0.00000000 s 
O        3.27712425       4.97545206       7.38060000              inf       0.00000000       0.00000000       0.00000000 s 
O        1.77032425       7.58530622       7.38060000              inf       0.00000000       0.00000000       0.00000000 s 
O        0.26364480      10.19521257       7.38060000      10.06461387       0.00012054       0.00005220       0.00000000 s 
O       -1.24318534      12.80511893       7.38060000       8.05813426       0.00009041       0.00010439       0.00000000 s 
O       -2.74980452      15.41502528       7.38060000       6.83615350       0.00027122       0.00015659       0.00000000 s 
O       -4.25674014      18.02474895       7.38060000       6.83373504       0.00013561       0.00002610       0.00000000 s 
O       -5.76357027      20.63465530       7.38060000       8.05162269       0.00010548       0.00007830       0.00000000 s 
O       -7.27040041      23.24456165       7.38060000      10.05592451       0.00007534       0.00013049       0.00000000 s 
O       -8.77712507      25.85428532       7.38060000      12.47294899       0.00015068      -0.00000000       0.00000000 s 
O      -10.28407575      28.46413947       7.38060000              inf       0.00000000       0.00000000       0.00000000 s 
O      -11.79087575      31.07399363       7.38060000              inf       0.00000000       0.00000000       0.00000000 s 
O        7.79752425       2.36559791       7.38060000              inf       0.00000000       0.00000000       0.00000000 s 
O        6.29072425       4.97545206       7.38060000              inf       0.00000000       0.00000000       0.00000000 s 
O        4.78392425       7.58530622       7.38060000              inf       0.00000000       0.00000000       0.00000000 s 
O        3.27730507      10.19521257       7.38060000      10.06618962       0.00018082       0.00005220       0.00000000 s 
O        1.77047493      12.80511893       7.38060000       7.47550002       0.00015068       0.00010439       0.00000000 s 
O        0.26364480      15.41502528       7.38060000       5.34811408       0.00012054       0.00015659       0.00000000 s 
O       -1.24307986      18.02474895       7.38060000       4.41427761       0.00019588       0.00002610       0.00000000 s 
O       -2.74991000      20.63465530       7.38060000       5.34157205       0.00016575       0.00007830       0.00000000 s 
O       -4.25674014      23.24456165       7.38060000       7.46613913       0.00013561       0.00013049       0.00000000 s 
O       -5.76367575      25.85428532       7.38060000      10.05573150       0.00000000       0.00000000       0.00000000 s 
O       -7.27047575      28.46413947       7.38060000              inf       0.00000000       0.00000000       0.00000000 s 
O       -8.77727575      31.07399363       7.38060000              inf       0.00000000       0.00000000       0.00000000 s 
O       10.81112425       2.36559791       7.38060000              inf       0.00000000       0.00000000       0.00000000 s 
O        9.30432425       4.97545206       7.38060000              inf       0.00000000       0.00000000       0.00000000 s 
O        7.79752425       7.58530622       7.38060000              inf       0.00000000       0.00000000       0.00000000 s 
O        6.29072425      10.19516038       7.38060000              inf       0.00000000       0.00000000       0.00000000 s 
O        4.78413520      12.80511893       7.38060000       8.06206983       0.00021095       0.00010439       0.00000000 s 
O        3.27730507      15.41502528       7.38060000       5.35107890       0.00018082       0.00015659       0.00000000 s 
O        1.77036946      18.02474895       7.38060000       3.23048808       0.00004520       0.00002610       0.00000000 s 
O        0.26375027      20.63465530       7.38060000       3.22497323       0.00022602       0.00007830       0.00000000 s 
O       -1.24307986      23.24456165       7.38060000       5.34126817       0.00019588       0.00013049       0.00000000 s 
O       -2.75001548      25.85428532       7.38060000       8.05114056       0.00006027      -0.00000000       0.00000000 s 
O       -4.25684561      28.46419167       7.38060000      10.92142458       0.00003014       0.00005220       0.00000000 s 
O       -5.76367575      31.07399363       7.38060000              inf       0.00000000       0.00000000       0.00000000 s 
O       13.82472425       2.36559791       7.38060000              inf       0.00000000       0.00000000       0.00000000 s 
O       12.31798452       4.97545206       7.38060000      10.92723166       0.00006027       0.00000000       0.00000000 s 
O       10.81125986       7.58517573       7.38060000      10.06187690       0.00013561      -0.00013049       0.00000000 s 
O        9.30442973      10.19508208       7.38060000      10.06184531       0.00010548      -0.00007830       0.00000000 s 
O        7.79758452      12.80511893       7.38060000       9.60586231       0.00006027       0.00010439       0.00000000 s 
O        6.29096534      15.41502528       7.38060000       6.84324945       0.00024109       0.00015659       0.00000000 s 
O        4.78402973      18.02474895       7.38060000       4.42145755       0.00010548       0.00002610       0.00000000 s 
O        3.27719959      20.63465530       7.38060000       3.22988719       0.00007534       0.00007830       0.00000000 s 
O        1.77058041      23.24456165       7.38060000       4.41354215       0.00025616       0.00013049       0.00000000 s 
O        0.26364480      25.85428532       7.38060000       6.83288292       0.00012054      -0.00000000       0.00000000 s 
O       -1.24318534      28.46419167       7.38060000       9.59493571       0.00009041       0.00005220       0.00000000 s 
O       -2.75007575      31.07399363       7.38060000              inf       0.00000000       0.00000000       0.00000000 s 
O       16.83832425       2.36559791       7.38060000              inf       0.00000000       0.00000000       0.00000000 s 
O       15.33164480       4.97545206       7.38060000       9.59992618       0.00012054       0.00000000       0.00000000 s 
O       13.82492014       7.58517573       7.38060000       8.05692530       0.00019588      -0.00013049       0.00000000 s 
O       12.31809000      10.19508208       7.38060000       7.47203194       0.00016575      -0.00007830       0.00000000 s 
O       10.81125986      12.80498844       7.38060000       8.05684639       0.00013561      -0.00002610       0.00000000 s 
O        9.30441466      15.41502528       7.38060000       9.12070152       0.00009041       0.00015659       0.00000000 s 
O        7.79769000      18.02474895       7.38060000       6.84301227       0.00016575       0.00002610       0.00000000 s 
O        6.29085986      20.63465530       7.38060000       5.35047223       0.00013561       0.00007830       0.00000000 s 
O        4.78402973      23.24456165       7.38060000       5.34720354       0.00010548       0.00013049       0.00000000 s 
O        3.27730507      25.85428532       7.38060000       6.83520373       0.00018082      -0.00000000       0.00000000 s 
O        1.77047493      28.46419167       7.38060000       9.11111213       0.00015068       0.00005220       0.00000000 s 
O        0.26364480      31.07409803       7.38060000      11.72471811       0.00012054       0.00010439       0.00000000 s 
O       19.85192425       2.36559791       7.38060000              inf       0.00000000       0.00000000       0.00000000 s 
O       18.34530507       4.97545206       7.38060000       9.11466238       0.00018082       0.00000000       0.00000000 s 
O       16.83858041       7.58517573       7.38060000       6.83747177       0.00025616      -0.00013049       0.00000000 s 
O       15.33175027      10.19508208       7.38060000       5.34659593       0.00022602      -0.00007830       0.00000000 s 
O       13.82492014      12.80498844       7.38060000       5.34653648       0.00019588      -0.00002610       0.00000000 s 
O       12.31819548      15.41471210       7.38060000       6.83719284       0.00027122      -0.00015659       0.00000000 s 
O       10.81136534      18.02461845       7.38060000       9.11448801       0.00024109      -0.00010439       0.00000000 s 
O        9.30452014      20.63465530       7.38060000       8.06146584       0.00019588       0.00007830       0.00000000 s 
O        7.79769000      23.24456165       7.38060000       7.47463149       0.00016575       0.00013049       0.00000000 s 
O        6.29075439      25.85428532       7.38060000       8.05692983       0.00003014       0.00000000       0.00000000 s 
O        4.78413520      28.46419167       7.38060000       9.59824117       0.00021095       0.00005220       0.00000000 s 
O        3.27730507      31.07409803       7.38060000      11.72607078       0.00018082       0.00010439       0.00000000 s 
O       22.86552425       2.36559791       7.38060000              inf       0.00000000       0.00000000       0.00000000 s 
O       21.35875439       4.97545206       7.38060000       9.59992618       0.00003014       0.00000000       0.00000000 s 
O       19.85202973       7.58517573       7.38060000       6.83751826       0.00010548      -0.00013049       0.00000000 s 
O       18.34519959      10.19508208       7.38060000       4.41647045       0.00007534      -0.00007830       0.00000000 s 
O       16.83836946      12.80498844       7.38060000       3.22847688       0.00004520      -0.00002610       0.00000000 s 
O       15.33164480      15.41471210       7.38060000       4.41632651       0.00012054      -0.00015659       0.00000000 s 
O       13.82481466      18.02461845       7.38060000       6.83733230       0.00009041      -0.00010439       0.00000000 s 
O       12.31798452      20.63452481       7.38060000       9.59992618       0.00006027      -0.00005220       0.00000000 s 
O       10.81135027      23.24456165       7.38060000      10.06538337       0.00022602       0.00013049       0.00000000 s 
O        9.30441466      25.85428532       7.38060000      10.06345671       0.00009041      -0.00000000       0.00000000 s 
O        7.79758452      28.46419167       7.38060000      10.92711555       0.00006027       0.00005220       0.00000000 s 
O        6.29072425      31.07399363       7.38060000              inf       0.00000000       0.00000000       0.00000000 s 
O       25.87912425       2.36559791       7.38060000              inf       0.00000000       0.00000000       0.00000000 s 
O       24.37241466       4.97545206       7.38060000      10.92723166       0.00009041      -0.00000000       0.00000000 s 
O       22.86569000       7.58517573       7.38060000       8.05704365       0.00016575      -0.00013049       0.00000000 s 
O       21.35885986      10.19508208       7.38060000       5.34671483       0.00013561      -0.00007830       0.00000000 s 
O       19.85202973      12.80498844       7.38060000       3.22847688       0.00010548      -0.00002610       0.00000000 s 
O       18.34530507      15.41471210       7.38060000       3.22837843       0.00018082      -0.00015659       0.00000000 s 
O       16.83847493      18.02461845       7.38060000       5.34653648       0.00015068      -0.00010439       0.00000000 s 
O       15.33164480      20.63452481       7.38060000       8.05684639       0.00012054      -0.00005220       0.00000000 s 
O       13.82472425      23.24443116       7.38060000              inf       0.00000000       0.00000000       0.00000000 s 
O       12.31792425      25.85428532       7.38060000              inf       0.00000000       0.00000000       0.00000000 s 
O       10.81112425      28.46413947       7.38060000              inf       0.00000000       0.00000000       0.00000000 s 
O        9.30432425      31.07399363       7.38060000              inf       0.00000000       0.00000000       0.00000000 s 
O       28.89272425       2.36559791       7.38060000              inf       0.00000000       0.00000000       0.00000000 s 
O       27.38592425       4.97545206       7.38060000              inf       0.00000000       0.00000000       0.00000000 s 
O       25.87935027       7.58517573       7.38060000      10.06203485       0.00022602      -0.00013049       0.00000000 s 
O       24.37252014      10.19508208       7.38060000       7.47220210       0.00019588      -0.00007830       0.00000000 s 
O       22.86569000      12.80498844       7.38060000       5.34671483       0.00016575      -0.00002610       0.00000000 s 
O       21.35896534      15.41471210       7.38060000       4.41647045       0.00024109      -0.00015659       0.00000000 s 
O       19.85213520      18.02461845       7.38060000       5.34659593       0.00021095      -0.00010439       0.00000000 s 
O       18.34530507      20.63452481       7.38060000       7.47203194       0.00018082      -0.00005220       0.00000000 s 
O       16.83847493      23.24443116       7.38060000      10.06184531       0.00015068       0.00000000       0.00000000 s 
O       15.33152425      25.85428532       7.38060000              inf       0.00000000       0.00000000       0.00000000 s 
O       13.82472425      28.46413947       7.38060000              inf       0.00000000       0.00000000       0.00000000 s 
O       12.31792425      31.07399363       7.38060000              inf       0.00000000       0.00000000       0.00000000 s 
O       31.90632425       2.36559791       7.38060000              inf       0.00000000       0.00000000       0.00000000 s 
O       30.39952425       4.97545206       7.38060000              inf       0.00000000       0.00000000       0.00000000 s 
O       28.89272425       7.58530622       7.38060000              inf       0.00000000       0.00000000       0.00000000 s 
O       27.38596946      10.19508208       7.38060000      10.06184531       0.00004520      -0.00007830       0.00000000 s 
O       25.87913932      12.80498844       7.38060000       8.05684639       0.00001507      -0.00002610       0.00000000 s 
O       24.37241466      15.41471210       7.38060000       6.83737879       0.00009041      -0.00015659       0.00000000 s 
O       22.86558452      18.02461845       7.38060000       6.83733230       0.00006027      -0.00010439       0.00000000 s 
O       21.35875439      20.63452481       7.38060000       8.05684639       0.00003014      -0.00005220       0.00000000 s 
O       19.85192425      23.24443116       7.38060000      10.06184531       0.00000000       0.00000000       0.00000000 s 
O       18.34519959      25.85415483       7.38060000      12.47912395       0.00007534      -0.00013049       0.00000000 s 
O       16.83832425      28.46413947       7.38060000              inf       0.00000000       0.00000000       0.00000000 s 
O       15.33152425      31.07399363       7.38060000              inf       0.00000000       0.00000000       0.00000000 s 
Cu      18.34519959      13.67495722      10.10010000       0.00000000       0.00000000       0.00000000       0.00000000 a1
N        6.70981054      16.87818782      10.10010000       0.00000000       0.00000000       0.00000000       0.00000000 a2
H        5.59081565      15.13222149      10.10010000       0.00000000       0.00000000       0.00000000       0.00000000 a2
H        7.68999900      18.70855683      10.10010000       0.00000000       0.00000000       0.00000000       0.00000000 a2
C        5.55147310      16.22452375      10.10010000       0.00000000       0.00000000       0.00000000       0.00000000 a2
C        6.71761576      18.21072715      10.10010000       0.00000000       0.00000000       0.00000000       0.00000000 a2
C        4.31793128      16.89554335      10.10010000       0.00000000       0.00000000       0.00000000       0.00000000 a2
C        5.53333123      18.95975530      10.10010000       0.00000000       0.00000000       0.00000000       0.00000000 a2
H        3.41769362      16.28517676      10.10010000       0.00000000       0.00000000       0.00000000       0.00000000 a2
C        4.28006540      18.30462971      10.10010000       0.00000000       0.00000000       0.00000000       0.00000000 a2
H        5.62857606      20.04401921      10.10010000       0.00000000       0.00000000       0.00000000       0.00000000 a2
C        3.00296199      19.05292709      10.10010000       0.00000000       0.00000000       0.00000000       0.00000000 a2
H        1.76319709      17.28960523      10.10010000       0.00000000       0.00000000       0.00000000       0.00000000 a2
H        3.92587699      20.99857336      10.10010000       0.00000000       0.00000000       0.00000000       0.00000000 a2
C        1.76425185      18.37441721      10.10010000       0.00000000       0.00000000       0.00000000       0.00000000 a2
C        2.98397631      20.46036924      10.10010000       0.00000000       0.00000000       0.00000000       0.00000000 a2
H        0.07937822      16.29723428      10.10010000       0.00000000       0.00000000       0.00000000       0.00000000 a2
H        3.95287885      22.95737330      10.10010000       0.00000000       0.00000000       0.00000000       0.00000000 a2
C       -0.81062826      16.92057185      10.10010000       0.00000000       0.00000000       0.00000000       0.00000000 a2
C        0.53830430      19.05712895      10.10010000       0.00000000       0.00000000       0.00000000       0.00000000 a2
C        1.77922944      21.19003226      10.10010000       0.00000000       0.00000000       0.00000000       0.00000000 a2
C        2.96794396      23.41957847      10.10010000       0.00000000       0.00000000       0.00000000       0.00000000 a2
H       -2.11272948      15.18191311      10.10010000       0.00000000       0.00000000       0.00000000       0.00000000 a2
C       -0.75124528      18.33075435      10.10010000       0.00000000       0.00000000       0.00000000       0.00000000 a2
C       -2.05123698      16.27165771      10.10010000       0.00000000       0.00000000       0.00000000       0.00000000 a2
C        0.57321686      20.46621531      10.10010000       0.00000000       0.00000000       0.00000000       0.00000000 a2
C        1.77711992      22.67018495      10.10010000       0.00000000       0.00000000       0.00000000       0.00000000 a2
H        3.83105407      25.41729134      10.10010000       0.00000000       0.00000000       0.00000000       0.00000000 a2
C        2.91394025      24.82190531      10.10010000       0.00000000       0.00000000       0.00000000       0.00000000 a2
N       -3.19902681      16.94834070      10.10010000       0.00000000       0.00000000       0.00000000       0.00000000 a2
C       -1.98668566      19.00615850      10.10010000       0.00000000       0.00000000       0.00000000       0.00000000 a2
H       -0.36383193      21.01282317      10.10010000       0.00000000       0.00000000       0.00000000       0.00000000 a2
C        0.57300590      23.41007860      10.10010000       0.00000000       0.00000000       0.00000000       0.00000000 a2
N        1.75982186      25.48105007      10.10010000       0.00000000       0.00000000       0.00000000       0.00000000 a2
C       -3.18520945      18.27558203      10.10010000       0.00000000       0.00000000       0.00000000       0.00000000 a2
C        0.60981703      24.81039585      10.10010000       0.00000000       0.00000000       0.00000000       0.00000000 a2
H       -2.06210100      20.09115317      10.10010000       0.00000000       0.00000000       0.00000000       0.00000000 a2
H       -0.40486209      22.93563322      10.10010000       0.00000000       0.00000000       0.00000000       0.00000000 a2
H       -4.15274080      18.78619999      10.10010000       0.00000000       0.00000000       0.00000000       0.00000000 a2
H       -0.31141036      25.39646470      10.10010000       0.00000000       0.00000000       0.00000000       0.00000000 a2
