184
Lattice="36.16319999999999 0.0 0.0 -18.081599999999995 31.318249882114287 0.0 0.0 0.0 30.0" Properties=species:S:1:pos:R:3:remoteness:R:1:shift:R:3:adsorption:S:1 size="_JSON [[12, 0], [0, 12]]" mass_center_dist=1.738626822416796 min_atom_dist=0.31701877279866975 s1=cu_hollow s2=tpb_atop s1idx=2 s2idx=4 pbc="T T T"
O       -1.24327575       2.36559791       7.38060000              inf       0.00000000       0.00000000       0.00000000 s 
O       -2.75007575       4.97545206       7.38060000              inf       0.00000000       0.00000000       0.00000000 s 
O       -4.25687575       7.58530622       7.38060000              inf       0.00000000       0.00000000       0.00000000 s 
O       -5.76367575      10.19516038       7.38060000              inf       0.00000000       0.00000000       0.00000000 s 
O       -7.27047575      12.80501453       7.38060000              inf       0.00000000       0.00000000       0.00000000 s 
O       -8.77727575      15.41486869       7.38060000              inf       0.00000000       0.00000000       0.00000000 s 
O      -10.28407575      18.02472285       7.38060000              inf       0.00000000       0.00000000       0.00000000 s 
O      -11.79087575      20.63457700       7.38060000              inf       0.00000000       0.00000000       0.00000000 s 
O      -13.29767575      23.24443116       7.38060000              inf       0.00000000       0.00000000       0.00000000 s 
O      -14.80447575      25.85428532       7.38060000              inf       0.00000000       0.00000000       0.00000000 s 
O      -16.31127575      28.46413947       7.38060000              inf       0.00000000       0.00000000       0.00000000 s 
O      -17.81807575      31.07399363       7.38060000              inf       0.00000000       0.00000000       0.00000000 s 
O        1.77032425       2.36559791       7.38060000              inf       0.00000000       0.00000000       0.00000000 s 
O        0.26352425       4.97545206       7.38060000              inf       0.00000000       0.00000000       0.00000000 s 
O       -1.24327575       7.58530622       7.38060000              inf       0.00000000       0.00000000       0.00000000 s 
O       -2.75007575      10.19516038       7.38060000              inf       0.00000000       0.00000000       0.00000000 s 
O       -4.25687575      12.80501453       7.38060000              inf       0.00000000       0.00000000       0.00000000 s 
O       -5.76367575      15.41486869       7.38060000              inf       0.00000000       0.00000000       0.00000000 s 
O       -7.27047575      18.02472285       7.38060000              inf       0.00000000       0.00000000       0.00000000 s 
O       -8.77727575      20.63457700       7.38060000              inf       0.00000000       0.00000000       0.00000000 s 
O      -10.28407575      23.24443116       7.38060000              inf       0.00000000       0.00000000       0.00000000 s 
O      -11.79087575      25.85428532       7.38060000              inf       0.00000000       0.00000000       0.00000000 s 
O      -13.29767575      28.46413947       7.38060000              inf       0.00000000       0.00000000       0.00000000 s 
O      -14.80447575      31.07399363       7.38060000              inf       0.00000000       0.00000000       0.00000000 s 
O        4.78392425       2.36559791       7.38060000              inf       0.00000000       0.00000000       0.00000000 s 
O        3.27712425       4.97545206       7.38060000              inf       0.00000000       0.00000000       0.00000000 s 
O        1.77032425       7.58530622       7.38060000              inf       0.00000000       0.00000000       0.00000000 s 
O        0.26352425      10.19516038       7.38060000              inf       0.00000000       0.00000000       0.00000000 s 
O       -1.24323054      12.80493624       7.38060000      10.78913708       0.00004520      -0.00007830       0.00000000 s 
O       -2.75006068      15.41484259       7.38060000      11.19992230       0.00001507      -0.00002610       0.00000000 s 
O       -4.25687575      18.02472285       7.38060000              inf       0.00000000       0.00000000       0.00000000 s 
O       -5.76367575      20.63457700       7.38060000              inf       0.00000000       0.00000000       0.00000000 s 
O       -7.27047575      23.24443116       7.38060000              inf       0.00000000       0.00000000       0.00000000 s 
O       -8.77727575      25.85428532       7.38060000              inf       0.00000000       0.00000000       0.00000000 s 
O      -10.28407575      28.46413947       7.38060000              inf       0.00000000       0.00000000       0.00000000 s 
O      -11.79087575      31.07399363       7.38060000              inf       0.00000000       0.00000000       0.00000000 s 
O        7.79752425       2.36559791       7.38060000              inf       0.00000000       0.00000000       0.00000000 s 
O        6.29072425       4.97545206       7.38060000              inf       0.00000000       0.00000000       0.00000000 s 
O        4.78392425       7.58530622       7.38060000              inf       0.00000000       0.00000000       0.00000000 s 
O        3.27725986      10.19502988       7.38060000       9.44600961       0.00013561      -0.00013049       0.00000000 s 
O        1.77042973      12.80493624       7.38060000       8.42694687       0.00010548      -0.00007830       0.00000000 s 
O        0.26359959      15.41484259       7.38060000       8.42401722       0.00007534      -0.00002610       0.00000000 s 
O       -1.24312507      18.02456626       7.38060000       9.43806608       0.00015068      -0.00015659       0.00000000 s 
O       -2.74995520      20.63447261       7.38060000      11.19620674       0.00012054      -0.00010439       0.00000000 s 
O       -4.25687575      23.24443116       7.38060000              inf       0.00000000       0.00000000       0.00000000 s 
O       -5.76367575      25.85428532       7.38060000              inf       0.00000000       0.00000000       0.00000000 s 
O       -7.27047575      28.46413947       7.38060000              inf       0.00000000       0.00000000       0.00000000 s 
O       -8.77727575      31.07399363       7.38060000              inf       0.00000000       0.00000000       0.00000000 s 
O       10.81112425       2.36559791       7.38060000              inf       0.00000000       0.00000000       0.00000000 s 
O        9.30432425       4.97545206       7.38060000              inf       0.00000000       0.00000000       0.00000000 s 
O        7.79764480       7.58530622       7.38060000      10.79526691       0.00012054      -0.00000000       0.00000000 s 
O        6.29092014      10.19502988       7.38060000       8.43098434       0.00019588      -0.00013049       0.00000000 s 
O        4.78409000      12.80493624       7.38060000       6.61707524       0.00016575      -0.00007830       0.00000000 s 
O        3.27725986      15.41484259       7.38060000       5.88677917       0.00013561      -0.00002610       0.00000000 s 
O        1.77053520      18.02456626       7.38060000       6.60951449       0.00021095      -0.00015659       0.00000000 s 
O        0.26370507      20.63447261       7.38060000       8.41911442       0.00018082      -0.00010439       0.00000000 s 
O       -1.24312507      23.24437896       7.38060000      10.78153931       0.00015068      -0.00005220       0.00000000 s 
O       -2.75007575      25.85428532       7.38060000              inf       0.00000000       0.00000000       0.00000000 s 
O       -4.25687575      28.46413947       7.38060000              inf       0.00000000       0.00000000       0.00000000 s 
O       -5.76367575      31.07399363       7.38060000              inf       0.00000000       0.00000000       0.00000000 s 
O       13.82472425       2.36559791       7.38060000              inf       0.00000000       0.00000000       0.00000000 s 
O       12.31792425       4.97545206       7.38060000              inf       0.00000000       0.00000000       0.00000000 s 
O       10.81112425       7.58530622       7.38060000              inf       0.00000000       0.00000000       0.00000000 s 
O        9.30458041      10.19502988       7.38060000       8.43209302       0.00025616      -0.00013049       0.00000000 s 
O        7.79775027      12.80493624       7.38060000       5.89255737       0.00022602      -0.00007830       0.00000000 s 
O        6.29092014      15.41484259       7.38060000       4.06307377       0.00019588      -0.00002610       0.00000000 s 
O        4.78419548      18.02456626       7.38060000       4.05691616       0.00027122      -0.00015659       0.00000000 s 
O        3.27736534      20.63447261       7.38060000       5.87981516       0.00024109      -0.00010439       0.00000000 s 
O        1.77053520      23.24437896       7.38060000       8.41725492       0.00021095      -0.00005220       0.00000000 s 
O        0.26370507      25.85428532       7.38060000      11.19341015       0.00018082       0.00000000       0.00000000 s 
O       -1.24327575      28.46413947       7.38060000              inf       0.00000000       0.00000000       0.00000000 s 
O       -2.75007575      31.07399363       7.38060000              inf       0.00000000       0.00000000       0.00000000 s 
O       16.83832425       2.36559791       7.38060000              inf       0.00000000       0.00000000       0.00000000 s 
O       15.33152425       4.97545206       7.38060000              inf       0.00000000       0.00000000       0.00000000 s 
O       13.82472425       7.58530622       7.38060000              inf       0.00000000       0.00000000       0.00000000 s 
O       12.31802973      10.19502988       7.38060000       9.44887700       0.00010548      -0.00013049       0.00000000 s 
O       10.81119959      12.80493624       7.38060000       6.61980391       0.00007534      -0.00007830       0.00000000 s 
O        9.30436946      15.41484259       7.38060000       4.06529548       0.00004520      -0.00002610       0.00000000 s 
O        7.79764480      18.02456626       7.38060000       2.71951298       0.00012054      -0.00015659       0.00000000 s 
O        6.29081466      20.63447261       7.38060000       4.05313408       0.00009041      -0.00010439       0.00000000 s 
O        4.78398452      23.24437896       7.38060000       6.60487225       0.00006027      -0.00005220       0.00000000 s 
O        3.27715439      25.85428532       7.38060000       9.43319010       0.00003014       0.00000000       0.00000000 s 
O        1.77032425      28.46413947       7.38060000              inf       0.00000000       0.00000000       0.00000000 s 
O        0.26352425      31.07399363       7.38060000              inf       0.00000000       0.00000000       0.00000000 s 
O       19.85192425       2.36559791       7.38060000              inf       0.00000000       0.00000000       0.00000000 s 
O       18.34512425       4.97545206       7.38060000              inf       0.00000000       0.00000000       0.00000000 s 
O       16.83832425       7.58530622       7.38060000              inf       0.00000000       0.00000000       0.00000000 s 
O       15.33161466      10.19516038       7.38060000      10.92723166       0.00009041       0.00000000       0.00000000 s 
O       13.82489000      12.80488404       7.38060000       8.05704365       0.00016575      -0.00013049       0.00000000 s 
O       12.31805986      15.41479039       7.38060000       5.34671483       0.00013561      -0.00007830       0.00000000 s 
O       10.81122973      18.02469675       7.38060000       3.22847688       0.00010548      -0.00002610       0.00000000 s 
O        9.30450507      20.63442041       7.38060000       3.22837843       0.00018082      -0.00015659       0.00000000 s 
O        7.79767493      23.24432677       7.38060000       5.34653648       0.00015068      -0.00010439       0.00000000 s 
O        6.29084480      25.85423312       7.38060000       8.05684639       0.00012054      -0.00005220       0.00000000 s 
O        4.78409000      28.46400898       7.38060000      11.19273330       0.00016575      -0.00013049       0.00000000 s 
O        3.27712425      31.07399363       7.38060000              inf       0.00000000       0.00000000       0.00000000 s 
O       22.86552425       2.36559791       7.38060000              inf       0.00000000       0.00000000       0.00000000 s 
O       21.35872425       4.97545206       7.38060000              inf       0.00000000       0.00000000       0.00000000 s 
O       19.85192425       7.58530622       7.38060000              inf       0.00000000       0.00000000       0.00000000 s 
O       18.34512425      10.19516038       7.38060000              inf       0.00000000       0.00000000       0.00000000 s 
O       16.83855027      12.80488404       7.38060000      10.06203485       0.00022602      -0.00013049       0.00000000 s 
O       15.33172014      15.41479039       7.38060000       7.47220210       0.00019588      -0.00007830       0.00000000 s 
O       13.82489000      18.02469675       7.38060000       5.34671483       0.00016575      -0.00002610       0.00000000 s 
O       12.31816534      20.63442041       7.38060000       4.41647045       0.00024109      -0.00015659       0.00000000 s 
O       10.81133520      23.24432677       7.38060000       5.34659593       0.00021095      -0.00010439       0.00000000 s 
O        9.30450507      25.85423312       7.38060000       7.47203194       0.00018082      -0.00005220       0.00000000 s 
O        7.79767493      28.46413947       7.38060000      10.06184531       0.00015068       0.00000000       0.00000000 s 
O        6.29072425      31.07399363       7.38060000              inf       0.00000000       0.00000000       0.00000000 s 
O       25.87912425       2.36559791       7.38060000              inf       0.00000000       0.00000000       0.00000000 s 
O       24.37232425       4.97545206       7.38060000              inf       0.00000000       0.00000000       0.00000000 s 
O       22.86552425       7.58530622       7.38060000              inf       0.00000000       0.00000000       0.00000000 s 
O       21.35872425      10.19516038       7.38060000              inf       0.00000000       0.00000000       0.00000000 s 
O       19.85192425      12.80501453       7.38060000              inf       0.00000000       0.00000000       0.00000000 s 
O       18.34516946      15.41479039       7.38060000      10.06184531       0.00004520      -0.00007830       0.00000000 s 
O       16.83833932      18.02469675       7.38060000       8.05684639       0.00001507      -0.00002610       0.00000000 s 
O       15.33161466      20.63442041       7.38060000       6.83737879       0.00009041      -0.00015659       0.00000000 s 
O       13.82478452      23.24432677       7.38060000       6.83733230       0.00006027      -0.00010439       0.00000000 s 
O       12.31795439      25.85423312       7.38060000       8.05684639       0.00003014      -0.00005220       0.00000000 s 
O       10.81112425      28.46413947       7.38060000      10.06184531       0.00000000       0.00000000       0.00000000 s 
O        9.30439959      31.07386314       7.38060000      12.47912395       0.00007534      -0.00013049       0.00000000 s 
O       28.89272425       2.36559791       7.38060000              inf       0.00000000       0.00000000       0.00000000 s 
O       27.38592425       4.97545206       7.38060000              inf       0.00000000       0.00000000       0.00000000 s 
O       25.87912425       7.58530622       7.38060000              inf       0.00000000       0.00000000       0.00000000 s 
O       24.37232425      10.19516038       7.38060000              inf       0.00000000       0.00000000       0.00000000 s 
O       22.86552425      12.80501453       7.38060000              inf       0.00000000       0.00000000       0.00000000 s 
O       21.35872425      15.41486869       7.38060000              inf       0.00000000       0.00000000       0.00000000 s 
O       19.85192425      18.02472285       7.38060000              inf       0.00000000       0.00000000       0.00000000 s 
O       18.34527493      20.63442041       7.38060000       9.59999241       0.00015068      -0.00015659       0.00000000 s 
O       16.83844480      23.24432677       7.38060000       9.11466238       0.00012054      -0.00010439       0.00000000 s 
O       15.33161466      25.85423312       7.38060000       9.59992618       0.00009041      -0.00005220       0.00000000 s 
O       13.82472425      28.46413947       7.38060000              inf       0.00000000       0.00000000       0.00000000 s 
O       12.31792425      31.07399363       7.38060000              inf       0.00000000       0.00000000       0.00000000 s 
O       31.90632425       2.36559791       7.38060000              inf       0.00000000       0.00000000       0.00000000 s 
O       30.39952425       4.97545206       7.38060000              inf       0.00000000       0.00000000       0.00000000 s 
O       28.89272425       7.58530622       7.38060000              inf       0.00000000       0.00000000       0.00000000 s 
O       27.38592425      10.19516038       7.38060000              inf       0.00000000       0.00000000       0.00000000 s 
O       25.87912425      12.80501453       7.38060000              inf       0.00000000       0.00000000       0.00000000 s 
O       24.37232425      15.41486869       7.38060000              inf       0.00000000       0.00000000       0.00000000 s 
O       22.86552425      18.02472285       7.38060000              inf       0.00000000       0.00000000       0.00000000 s 
O       21.35872425      20.63457700       7.38060000              inf       0.00000000       0.00000000       0.00000000 s 
O       19.85192425      23.24443116       7.38060000              inf       0.00000000       0.00000000       0.00000000 s 
O       18.34527493      25.85423312       7.38060000      11.72896791       0.00015068      -0.00005220       0.00000000 s 
O       16.83832425      28.46413947       7.38060000              inf       0.00000000       0.00000000       0.00000000 s 
O       15.33152425      31.07399363       7.38060000              inf       0.00000000       0.00000000       0.00000000 s 
Cu       9.30439959      18.89466553      10.10010000       0.00000000       0.00000000       0.00000000       0.00000000 a1
N        7.76368152      12.30527966      10.10010000       0.00000000       0.00000000       0.00000000       0.00000000 a2
H        5.69244931      12.40119180      10.10010000       0.00000000       0.00000000       0.00000000       0.00000000 a2
H        9.83913278      12.37159605      10.10010000       0.00000000       0.00000000       0.00000000       0.00000000 a2
C        6.61873954      12.98141458      10.10010000       0.00000000       0.00000000       0.00000000       0.00000000 a2
C        8.92191348      12.96460712      10.10010000       0.00000000       0.00000000       0.00000000       0.00000000 a2
C        6.58308866      14.38520293      10.10010000       0.00000000       0.00000000       0.00000000       0.00000000 a2
C        8.97844862      14.36474167      10.10010000       0.00000000       0.00000000       0.00000000       0.00000000 a2
H        5.60437685      14.85964832      10.10010000       0.00000000       0.00000000       0.00000000       0.00000000 a2
C        7.78446030      15.12253893      10.10010000       0.00000000       0.00000000       0.00000000       0.00000000 a2
H        9.96507112      14.82438919      10.10010000       0.00000000       0.00000000       0.00000000       0.00000000 a2
C        7.79384766      16.60287430      10.10010000       0.00000000       0.00000000       0.00000000       0.00000000 a2
H        5.64688368      16.79488127      10.10010000       0.00000000       0.00000000       0.00000000       0.00000000 a2
H        9.94028426      16.77642960      10.10010000       0.00000000       0.00000000       0.00000000       0.00000000 a2
C        6.58699127      17.33619112      10.10010000       0.00000000       0.00000000       0.00000000       0.00000000 a2
C        9.00323548      17.32303746      10.10010000       0.00000000       0.00000000       0.00000000       0.00000000 a2
H        3.94566128      17.75674302      10.10010000       0.00000000       0.00000000       0.00000000       0.00000000 a2
H       11.65026117      17.73226259      10.10010000       0.00000000       0.00000000       0.00000000       0.00000000 a2
C        4.04037872      18.83936272      10.10010000       0.00000000       0.00000000       0.00000000       0.00000000 a2
C        6.56526321      18.73924872      10.10010000       0.00000000       0.00000000       0.00000000       0.00000000 a2
C        9.03276876      18.73121037      10.10010000       0.00000000       0.00000000       0.00000000       0.00000000 a2
C       11.55807515      18.81634381      10.10010000       0.00000000       0.00000000       0.00000000       0.00000000 a2
H        1.88371095      19.09750340      10.10010000       0.00000000       0.00000000       0.00000000       0.00000000 a2
C        5.29142956      19.49284411      10.10010000       0.00000000       0.00000000       0.00000000       0.00000000 a2
C        2.85809824      19.58930432      10.10010000       0.00000000       0.00000000       0.00000000       0.00000000 a2
C        7.80302407      19.41355674      10.10010000       0.00000000       0.00000000       0.00000000       0.00000000 a2
C       10.31366930      19.47293092      10.10010000       0.00000000       0.00000000       0.00000000       0.00000000 a2
H       13.71959482      19.06790765      10.10010000       0.00000000       0.00000000       0.00000000       0.00000000 a2
C       12.74541848      19.56445850      10.10010000       0.00000000       0.00000000       0.00000000       0.00000000 a2
N        2.87012250      20.92147827      10.10010000       0.00000000       0.00000000       0.00000000       0.00000000 a2
C        5.25862652      20.90046895      10.10010000       0.00000000       0.00000000       0.00000000       0.00000000 a2
H        7.80777049      20.49855141      10.10010000       0.00000000       0.00000000       0.00000000       0.00000000 a2
C       10.35237899      20.88567107      10.10010000       0.00000000       0.00000000       0.00000000       0.00000000 a2
N       12.73930087      20.89334404      10.10010000       0.00000000       0.00000000       0.00000000       0.00000000 a2
C        4.02666684      21.57313276      10.10010000       0.00000000       0.00000000       0.00000000       0.00000000 a2
C       11.58338939      21.55413302      10.10010000       0.00000000       0.00000000       0.00000000       0.00000000 a2
H        6.16055180      21.50827788      10.10010000       0.00000000       0.00000000       0.00000000       0.00000000 a2
H        9.45256324      21.49530691      10.10010000       0.00000000       0.00000000       0.00000000       0.00000000 a2
H        3.98510930      22.66634847      10.10010000       0.00000000       0.00000000       0.00000000       0.00000000 a2
H       11.63043168      22.64479107      10.10010000       0.00000000       0.00000000       0.00000000       0.00000000 a2
