184
Lattice="36.16319999999999 0.0 0.0 -18.081599999999995 31.318249882114287 0.0 0.0 0.0 30.0" Properties=species:S:1:pos:R:3:remoteness:R:1:shift:R:3:adsorption:S:1 size="_JSON [[12, 0], [0, 12]]" mass_center_dist=12.172818311875634 min_atom_dist=8.446349811562824 s1=cu_atop s2=tpb_hollow_down s1idx=1 s2idx=7 pbc="T T T"
O       -1.24327575       2.36559791       7.38060000              inf       0.00000000       0.00000000       0.00000000 s 
O       -2.75007575       4.97545206       7.38060000              inf       0.00000000       0.00000000       0.00000000 s 
O       -4.25687575       7.58530622       7.38060000              inf       0.00000000       0.00000000       0.00000000 s 
O       -5.76367575      10.19516038       7.38060000              inf       0.00000000       0.00000000       0.00000000 s 
O       -7.27047575      12.80501453       7.38060000              inf       0.00000000       0.00000000       0.00000000 s 
O       -8.77727575      15.41486869       7.38060000              inf       0.00000000       0.00000000       0.00000000 s 
O      -10.28407575      18.02472285       7.38060000              inf       0.00000000       0.00000000       0.00000000 s 
O      -11.79087575      20.63457700       7.38060000              inf       0.00000000       0.00000000       0.00000000 s 
O      -13.29767575      23.24443116       7.38060000              inf       0.00000000       0.00000000       0.00000000 s 
O      -14.80447575      25.85428532       7.38060000              inf       0.00000000       0.00000000       0.00000000 s 
O      -16.31127575      28.46413947       7.38060000              inf       0.00000000       0.00000000       0.00000000 s 
O      -17.81807575      31.07399363       7.38060000              inf       0.00000000       0.00000000       0.00000000 s 
O        1.77032425       2.36559791       7.38060000              inf       0.00000000       0.00000000       0.00000000 s 
O        0.26352425       4.97545206       7.38060000              inf       0.00000000       0.00000000       0.00000000 s 
O       -1.24327575       7.58530622       7.38060000              inf       0.00000000       0.00000000       0.00000000 s 
O       -2.75007575      10.19516038       7.38060000              inf       0.00000000       0.00000000       0.00000000 s 
O       -4.25687575      12.80501453       7.38060000              inf       0.00000000       0.00000000       0.00000000 s 
O       -5.76363054      15.41479039       7.38060000      10.78784708       0.00004520      -0.00007830       0.00000000 s 
O       -7.27047575      18.02472285       7.38060000              inf       0.00000000       0.00000000       0.00000000 s 
O       -8.77727575      20.63457700       7.38060000              inf       0.00000000       0.00000000       0.00000000 s 
O      -10.28407575      23.24443116       7.38060000              inf       0.00000000       0.00000000       0.00000000 s 
O      -11.79087575      25.85428532       7.38060000              inf       0.00000000       0.00000000       0.00000000 s 
O      -13.29767575      28.46413947       7.38060000              inf       0.00000000       0.00000000       0.00000000 s 
O      -14.80447575      31.07399363       7.38060000              inf       0.00000000       0.00000000       0.00000000 s 
O        4.78392425       2.36559791       7.38060000              inf       0.00000000       0.00000000       0.00000000 s 
O        3.27712425       4.97545206       7.38060000              inf       0.00000000       0.00000000       0.00000000 s 
O        1.77032425       7.58530622       7.38060000              inf       0.00000000       0.00000000       0.00000000 s 
O        0.26358452      10.19516038       7.38060000      11.20071331       0.00006027       0.00000000       0.00000000 s 
O       -1.24314014      12.80488404       7.38060000       9.44093216       0.00013561      -0.00013049       0.00000000 s 
O       -2.74997027      15.41479039       7.38060000       8.42422336       0.00010548      -0.00007830       0.00000000 s 
O       -4.25680041      18.02469675       7.38060000       8.42426109       0.00007534      -0.00002610       0.00000000 s 
O       -5.76352507      20.63442041       7.38060000       9.44093216       0.00015068      -0.00015659       0.00000000 s 
O       -7.27047575      23.24443116       7.38060000              inf       0.00000000       0.00000000       0.00000000 s 
O       -8.77727575      25.85428532       7.38060000              inf       0.00000000       0.00000000       0.00000000 s 
O      -10.28407575      28.46413947       7.38060000              inf       0.00000000       0.00000000       0.00000000 s 
O      -11.79087575      31.07399363       7.38060000              inf       0.00000000       0.00000000       0.00000000 s 
O        7.79752425       2.36559791       7.38060000              inf       0.00000000       0.00000000       0.00000000 s 
O        6.29072425       4.97545206       7.38060000              inf       0.00000000       0.00000000       0.00000000 s 
O        4.78392425       7.58530622       7.38060000              inf       0.00000000       0.00000000       0.00000000 s 
O        3.27724480      10.19516038       7.38060000      10.78767029       0.00012054       0.00000000       0.00000000 s 
O        1.77052014      12.80488404       7.38060000       8.42422336       0.00019588      -0.00013049       0.00000000 s 
O        0.26369000      15.41479039       7.38060000       6.61224094       0.00016575      -0.00007830       0.00000000 s 
O       -1.24314014      18.02469675       7.38060000       5.88559409       0.00013561      -0.00002610       0.00000000 s 
O       -2.74986480      20.63442041       7.38060000       6.61224094       0.00021095      -0.00015659       0.00000000 s 
O       -4.25669493      23.24432677       7.38060000       8.42422336       0.00018082      -0.00010439       0.00000000 s 
O       -5.76352507      25.85423312       7.38060000      10.78784708       0.00015068      -0.00005220       0.00000000 s 
O       -7.27047575      28.46413947       7.38060000              inf       0.00000000       0.00000000       0.00000000 s 
O       -8.77727575      31.07399363       7.38060000              inf       0.00000000       0.00000000       0.00000000 s 
O       10.81112425       2.36559791       7.38060000              inf       0.00000000       0.00000000       0.00000000 s 
O        9.30432425       4.97545206       7.38060000              inf       0.00000000       0.00000000       0.00000000 s 
O        7.79776534       7.58541061       7.38060000       9.59925573       0.00024109       0.00010439       0.00000000 s 
O        6.29093520      10.19531697       7.38060000       9.11200280       0.00021095       0.00015659       0.00000000 s 
O        4.78418041      12.80488404       7.38060000       8.42426109       0.00025616      -0.00013049       0.00000000 s 
O        3.27735027      15.41479039       7.38060000       5.88559409       0.00022602      -0.00007830       0.00000000 s 
O        1.77052014      18.02469675       7.38060000       4.05913255       0.00019588      -0.00002610       0.00000000 s 
O        0.26379548      20.63442041       7.38060000       4.05913255       0.00027122      -0.00015659       0.00000000 s 
O       -1.24303466      23.24432677       7.38060000       5.88559409       0.00024109      -0.00010439       0.00000000 s 
O       -2.74986480      25.85423312       7.38060000       8.42426109       0.00021095      -0.00005220       0.00000000 s 
O       -4.25687575      28.46413947       7.38060000              inf       0.00000000       0.00000000       0.00000000 s 
O       -5.76367575      31.07399363       7.38060000              inf       0.00000000       0.00000000       0.00000000 s 
O       13.82472425       2.36559791       7.38060000              inf       0.00000000       0.00000000       0.00000000 s 
O       12.31804480       4.97550426       7.38060000      10.06461387       0.00012054       0.00005220       0.00000000 s 
O       10.81121466       7.58541061       7.38060000       8.05813426       0.00009041       0.00010439       0.00000000 s 
O        9.30459548      10.19531697       7.38060000       6.83615350       0.00027122       0.00015659       0.00000000 s 
O        7.79765986      12.80504063       7.38060000       6.83373504       0.00013561       0.00002610       0.00000000 s 
O        6.29079959      15.41479039       7.38060000       6.61224094       0.00007534      -0.00007830       0.00000000 s 
O        4.78396946      18.02469675       7.38060000       4.05913255       0.00004520      -0.00002610       0.00000000 s 
O        3.27724480      20.63442041       7.38060000       2.71950000       0.00012054      -0.00015659       0.00000000 s 
O        1.77041466      23.24432677       7.38060000       4.05928916       0.00009041      -0.00010439       0.00000000 s 
O        0.26358452      25.85423312       7.38060000       6.61243323       0.00006027      -0.00005220       0.00000000 s 
O       -1.24324561      28.46413947       7.38060000       9.44113417       0.00003014       0.00000000       0.00000000 s 
O       -2.75007575      31.07399363       7.38060000              inf       0.00000000       0.00000000       0.00000000 s 
O       16.83832425       2.36559791       7.38060000              inf       0.00000000       0.00000000       0.00000000 s 
O       15.33170507       4.97550426       7.38060000      10.06618962       0.00018082       0.00005220       0.00000000 s 
O       13.82487493       7.58541061       7.38060000       7.47550002       0.00015068       0.00010439       0.00000000 s 
O       12.31804480      10.19531697       7.38060000       5.34811408       0.00012054       0.00015659       0.00000000 s 
O       10.81132014      12.80504063       7.38060000       4.41427761       0.00019588       0.00002610       0.00000000 s 
O        9.30449000      15.41494699       7.38060000       5.34157205       0.00016575       0.00007830       0.00000000 s 
O        7.79762973      18.02469675       7.38060000       5.88559409       0.00010548      -0.00002610       0.00000000 s 
O        6.29090507      20.63442041       7.38060000       4.05928916       0.00018082      -0.00015659       0.00000000 s 
O        4.78407493      23.24432677       7.38060000       4.05928916       0.00015068      -0.00010439       0.00000000 s 
O        3.27724480      25.85423312       7.38060000       5.88575611       0.00012054      -0.00005220       0.00000000 s 
O        1.77041466      28.46413947       7.38060000       8.42441202       0.00009041       0.00000000       0.00000000 s 
O        0.26369000      31.07386314       7.38060000      11.20085520       0.00016575      -0.00013049       0.00000000 s 
O       19.85192425       2.36559791       7.38060000              inf       0.00000000       0.00000000       0.00000000 s 
O       18.34512425       4.97545206       7.38060000              inf       0.00000000       0.00000000       0.00000000 s 
O       16.83853520       7.58541061       7.38060000       8.06206983       0.00021095       0.00010439       0.00000000 s 
O       15.33170507      10.19531697       7.38060000       5.35107890       0.00018082       0.00015659       0.00000000 s 
O       13.82476946      12.80504063       7.38060000       3.23048808       0.00004520       0.00002610       0.00000000 s 
O       12.31815027      15.41494699       7.38060000       3.22497323       0.00022602       0.00007830       0.00000000 s 
O       10.81132014      18.02485334       7.38060000       5.34126817       0.00019588       0.00013049       0.00000000 s 
O        9.30456534      20.63442041       7.38060000       6.61243323       0.00024109      -0.00015659       0.00000000 s 
O        7.79773520      23.24432677       7.38060000       5.88575611       0.00021095      -0.00010439       0.00000000 s 
O        6.29090507      25.85423312       7.38060000       6.61243323       0.00018082      -0.00005220       0.00000000 s 
O        4.78407493      28.46413947       7.38060000       8.42441202       0.00015068       0.00000000       0.00000000 s 
O        3.27735027      31.07386314       7.38060000      10.78784708       0.00022602      -0.00013049       0.00000000 s 
O       22.86552425       2.36559791       7.38060000              inf       0.00000000       0.00000000       0.00000000 s 
O       21.35872425       4.97545206       7.38060000              inf       0.00000000       0.00000000       0.00000000 s 
O       19.85198452       7.58541061       7.38060000       9.60586231       0.00006027       0.00010439       0.00000000 s 
O       18.34536534      10.19531697       7.38060000       6.84324945       0.00024109       0.00015659       0.00000000 s 
O       16.83842973      12.80504063       7.38060000       4.42145755       0.00010548       0.00002610       0.00000000 s 
O       15.33159959      15.41494699       7.38060000       3.22988719       0.00007534       0.00007830       0.00000000 s 
O       13.82498041      18.02485334       7.38060000       4.41354215       0.00025616       0.00013049       0.00000000 s 
O       12.31804480      20.63457700       7.38060000       6.83288292       0.00012054      -0.00000000       0.00000000 s 
O       10.81118452      23.24432677       7.38060000       8.42422336       0.00006027      -0.00010439       0.00000000 s 
O        9.30435439      25.85423312       7.38060000       8.42426109       0.00003014      -0.00005220       0.00000000 s 
O        7.79752425      28.46413947       7.38060000       9.44103316       0.00000000       0.00000000       0.00000000 s 
O        6.29079959      31.07386314       7.38060000      11.20085520       0.00007534      -0.00013049       0.00000000 s 
O       25.87912425       2.36559791       7.38060000              inf       0.00000000       0.00000000       0.00000000 s 
O       24.37232425       4.97545206       7.38060000              inf       0.00000000       0.00000000       0.00000000 s 
O       22.86552425       7.58530622       7.38060000              inf       0.00000000       0.00000000       0.00000000 s 
O       21.35881466      10.19531697       7.38060000       9.12070152       0.00009041       0.00015659       0.00000000 s 
O       19.85209000      12.80504063       7.38060000       6.84301227       0.00016575       0.00002610       0.00000000 s 
O       18.34525986      15.41494699       7.38060000       5.35047223       0.00013561       0.00007830       0.00000000 s 
O       16.83842973      18.02485334       7.38060000       5.34720354       0.00010548       0.00013049       0.00000000 s 
O       15.33170507      20.63457700       7.38060000       6.83520373       0.00018082      -0.00000000       0.00000000 s 
O       13.82487493      23.24448336       7.38060000       9.11111213       0.00015068       0.00005220       0.00000000 s 
O       12.31801466      25.85423312       7.38060000      10.78784708       0.00009041      -0.00005220       0.00000000 s 
O       10.81112425      28.46413947       7.38060000              inf       0.00000000       0.00000000       0.00000000 s 
O        9.30432425      31.07399363       7.38060000              inf       0.00000000       0.00000000       0.00000000 s 
O       28.89272425       2.36559791       7.38060000              inf       0.00000000       0.00000000       0.00000000 s 
O       27.38592425       4.97545206       7.38060000              inf       0.00000000       0.00000000       0.00000000 s 
O       25.87912425       7.58530622       7.38060000              inf       0.00000000       0.00000000       0.00000000 s 
O       24.37232425      10.19516038       7.38060000              inf       0.00000000       0.00000000       0.00000000 s 
O       22.86553932      12.80504063       7.38060000       9.60545819       0.00001507       0.00002610       0.00000000 s 
O       21.35892014      15.41494699       7.38060000       8.06146584       0.00019588       0.00007830       0.00000000 s 
O       19.85209000      18.02485334       7.38060000       7.47463149       0.00016575       0.00013049       0.00000000 s 
O       18.34515439      20.63457700       7.38060000       8.05692983       0.00003014       0.00000000       0.00000000 s 
O       16.83853520      23.24448336       7.38060000       9.59824117       0.00021095       0.00005220       0.00000000 s 
O       15.33170507      25.85438971       7.38060000      11.72607078       0.00018082       0.00010439       0.00000000 s 
O       13.82472425      28.46413947       7.38060000              inf       0.00000000       0.00000000       0.00000000 s 
O       12.31792425      31.07399363       7.38060000              inf       0.00000000       0.00000000       0.00000000 s 
O       31.90632425       2.36559791       7.38060000              inf       0.00000000       0.00000000       0.00000000 s 
O       30.39952425       4.97545206       7.38060000              inf       0.00000000       0.00000000       0.00000000 s 
O       28.89272425       7.58530622       7.38060000              inf       0.00000000       0.00000000       0.00000000 s 
O       27.38592425      10.19516038       7.38060000              inf       0.00000000       0.00000000       0.00000000 s 
O       25.87912425      12.80501453       7.38060000              inf       0.00000000       0.00000000       0.00000000 s 
O       24.37232425      15.41486869       7.38060000              inf       0.00000000       0.00000000       0.00000000 s 
O       22.86575027      18.02485334       7.38060000      10.06538337       0.00022602       0.00013049       0.00000000 s 
O       21.35881466      20.63457700       7.38060000      10.06345671       0.00009041      -0.00000000       0.00000000 s 
O       19.85198452      23.24448336       7.38060000      10.92711555       0.00006027       0.00005220       0.00000000 s 
O       18.34512425      25.85428532       7.38060000              inf       0.00000000       0.00000000       0.00000000 s 
O       16.83832425      28.46413947       7.38060000              inf       0.00000000       0.00000000       0.00000000 s 
O       15.33152425      31.07399363       7.38060000              inf       0.00000000       0.00000000       0.00000000 s 
Cu       3.27724480      20.63442041      10.10010000       0.00000000       0.00000000       0.00000000       0.00000000 a1
N       18.76421054      11.65847950      10.10010000       0.00000000       0.00000000       0.00000000       0.00000000 a2
H       17.64521565       9.91251317      10.10010000       0.00000000       0.00000000       0.00000000       0.00000000 a2
H       19.74439900      13.48884852      10.10010000       0.00000000       0.00000000       0.00000000       0.00000000 a2
C       17.60587310      11.00481543      10.10010000       0.00000000       0.00000000       0.00000000       0.00000000 a2
C       18.77201576      12.99101884      10.10010000       0.00000000       0.00000000       0.00000000       0.00000000 a2
C       16.37233128      11.67583503      10.10010000       0.00000000       0.00000000       0.00000000       0.00000000 a2
C       17.58773123      13.74004698      10.10010000       0.00000000       0.00000000       0.00000000       0.00000000 a2
H       15.47209362      11.06546844      10.10010000       0.00000000       0.00000000       0.00000000       0.00000000 a2
C       16.33446540      13.08492139      10.10010000       0.00000000       0.00000000       0.00000000       0.00000000 a2
H       17.68297606      14.82431089      10.10010000       0.00000000       0.00000000       0.00000000       0.00000000 a2
C       15.05736199      13.83321878      10.10010000       0.00000000       0.00000000       0.00000000       0.00000000 a2
H       13.81759709      12.06989691      10.10010000       0.00000000       0.00000000       0.00000000       0.00000000 a2
H       15.98027699      15.77886505      10.10010000       0.00000000       0.00000000       0.00000000       0.00000000 a2
C       13.81865185      13.15470889      10.10010000       0.00000000       0.00000000       0.00000000       0.00000000 a2
C       15.03837631      15.24066093      10.10010000       0.00000000       0.00000000       0.00000000       0.00000000 a2
H       12.13377822      11.07752597      10.10010000       0.00000000       0.00000000       0.00000000       0.00000000 a2
H       16.00727885      17.73766499      10.10010000       0.00000000       0.00000000       0.00000000       0.00000000 a2
C       11.24377174      11.70086354      10.10010000       0.00000000       0.00000000       0.00000000       0.00000000 a2
C       12.59270430      13.83742064      10.10010000       0.00000000       0.00000000       0.00000000       0.00000000 a2
C       13.83362944      15.97032395      10.10010000       0.00000000       0.00000000       0.00000000       0.00000000 a2
C       15.02234396      18.19987016      10.10010000       0.00000000       0.00000000       0.00000000       0.00000000 a2
H        9.94167052       9.96220479      10.10010000       0.00000000       0.00000000       0.00000000       0.00000000 a2
C       11.30315472      13.11104603      10.10010000       0.00000000       0.00000000       0.00000000       0.00000000 a2
C       10.00316302      11.05194940      10.10010000       0.00000000       0.00000000       0.00000000       0.00000000 a2
C       12.62761686      15.24650700      10.10010000       0.00000000       0.00000000       0.00000000       0.00000000 a2
C       13.83151992      17.45047664      10.10010000       0.00000000       0.00000000       0.00000000       0.00000000 a2
H       15.88545407      20.19758302      10.10010000       0.00000000       0.00000000       0.00000000       0.00000000 a2
C       14.96834025      19.60219700      10.10010000       0.00000000       0.00000000       0.00000000       0.00000000 a2
N        8.85537319      11.72863238      10.10010000       0.00000000       0.00000000       0.00000000       0.00000000 a2
C       10.06771434      13.78645019      10.10010000       0.00000000       0.00000000       0.00000000       0.00000000 a2
H       11.69056807      15.79311485      10.10010000       0.00000000       0.00000000       0.00000000       0.00000000 a2
C       12.62740590      18.19037029      10.10010000       0.00000000       0.00000000       0.00000000       0.00000000 a2
N       13.81422186      20.26134176      10.10010000       0.00000000       0.00000000       0.00000000       0.00000000 a2
C        8.86919055      13.05587372      10.10010000       0.00000000       0.00000000       0.00000000       0.00000000 a2
C       12.66421703      19.59068754      10.10010000       0.00000000       0.00000000       0.00000000       0.00000000 a2
H        9.99229900      14.87144486      10.10010000       0.00000000       0.00000000       0.00000000       0.00000000 a2
H       11.64953791      17.71592490      10.10010000       0.00000000       0.00000000       0.00000000       0.00000000 a2
H        7.90165920      13.56649168      10.10010000       0.00000000       0.00000000       0.00000000       0.00000000 a2
H       11.74298964      20.17675639      10.10010000       0.00000000       0.00000000       0.00000000       0.00000000 a2
