222
Lattice="36.16319999999999 0.0 0.0 -18.081599999999995 31.318249882114287 0.0 0.0 0.0 30.0" Properties=species:S:1:pos:R:3:remoteness:R:1:shift:R:3:adsorption:S:1 size="_JSON [[12, 0], [0, 12]]" mass_center_dist=4.604844168349544 min_atom_dist=0.537836450741242 s1=tpb_atop s2=tpb_hollow_down s1idx=4 s2idx=7 pbc="T T T"
O       -1.24327575       2.36559791       7.38060000              inf       0.00000000       0.00000000       0.00000000 s 
O       -2.75007575       4.97545206       7.38060000              inf       0.00000000       0.00000000       0.00000000 s 
O       -4.25687575       7.58530622       7.38060000              inf       0.00000000       0.00000000       0.00000000 s 
O       -5.76367575      10.19516038       7.38060000              inf       0.00000000       0.00000000       0.00000000 s 
O       -7.27047575      12.80501453       7.38060000              inf       0.00000000       0.00000000       0.00000000 s 
O       -8.77727575      15.41486869       7.38060000              inf       0.00000000       0.00000000       0.00000000 s 
O      -10.28407575      18.02472285       7.38060000              inf       0.00000000       0.00000000       0.00000000 s 
O      -11.79087575      20.63457700       7.38060000              inf       0.00000000       0.00000000       0.00000000 s 
O      -13.29767575      23.24443116       7.38060000              inf       0.00000000       0.00000000       0.00000000 s 
O      -14.80447575      25.85428532       7.38060000              inf       0.00000000       0.00000000       0.00000000 s 
O      -16.31127575      28.46413947       7.38060000              inf       0.00000000       0.00000000       0.00000000 s 
O      -17.81807575      31.07399363       7.38060000              inf       0.00000000       0.00000000       0.00000000 s 
O        1.77032425       2.36559791       7.38060000              inf       0.00000000       0.00000000       0.00000000 s 
O        0.26352425       4.97545206       7.38060000              inf       0.00000000       0.00000000       0.00000000 s 
O       -1.24327575       7.58530622       7.38060000              inf       0.00000000       0.00000000       0.00000000 s 
O       -2.75007575      10.19516038       7.38060000              inf       0.00000000       0.00000000       0.00000000 s 
O       -4.25687575      12.80501453       7.38060000              inf       0.00000000       0.00000000       0.00000000 s 
O       -5.76367575      15.41486869       7.38060000              inf       0.00000000       0.00000000       0.00000000 s 
O       -7.27047575      18.02472285       7.38060000              inf       0.00000000       0.00000000       0.00000000 s 
O       -8.77727575      20.63457700       7.38060000              inf       0.00000000       0.00000000       0.00000000 s 
O      -10.28407575      23.24443116       7.38060000              inf       0.00000000       0.00000000       0.00000000 s 
O      -11.79087575      25.85428532       7.38060000              inf       0.00000000       0.00000000       0.00000000 s 
O      -13.29767575      28.46413947       7.38060000              inf       0.00000000       0.00000000       0.00000000 s 
O      -14.80447575      31.07399363       7.38060000              inf       0.00000000       0.00000000       0.00000000 s 
O        4.78392425       2.36559791       7.38060000              inf       0.00000000       0.00000000       0.00000000 s 
O        3.27712425       4.97545206       7.38060000              inf       0.00000000       0.00000000       0.00000000 s 
O        1.77032425       7.58530622       7.38060000              inf       0.00000000       0.00000000       0.00000000 s 
O        0.26352425      10.19516038       7.38060000              inf       0.00000000       0.00000000       0.00000000 s 
O       -1.24312507      12.80517112       7.38060000      11.72554868       0.00015068       0.00015659       0.00000000 s 
O       -2.75003054      15.41479039       7.38060000      10.78913708       0.00004520      -0.00007830       0.00000000 s 
O       -4.25686068      18.02469675       7.38060000      11.19992230       0.00001507      -0.00002610       0.00000000 s 
O       -5.76367575      20.63457700       7.38060000              inf       0.00000000       0.00000000       0.00000000 s 
O       -7.27047575      23.24443116       7.38060000              inf       0.00000000       0.00000000       0.00000000 s 
O       -8.77727575      25.85428532       7.38060000              inf       0.00000000       0.00000000       0.00000000 s 
O      -10.28407575      28.46413947       7.38060000              inf       0.00000000       0.00000000       0.00000000 s 
O      -11.79087575      31.07399363       7.38060000              inf       0.00000000       0.00000000       0.00000000 s 
O        7.79752425       2.36559791       7.38060000              inf       0.00000000       0.00000000       0.00000000 s 
O        6.29072425       4.97545206       7.38060000              inf       0.00000000       0.00000000       0.00000000 s 
O        4.78392425       7.58530622       7.38060000              inf       0.00000000       0.00000000       0.00000000 s 
O        3.27736534      10.19526477       7.38060000       9.59925573       0.00024109       0.00010439       0.00000000 s 
O        1.77053520      12.80517112       7.38060000       9.11200280       0.00021095       0.00015659       0.00000000 s 
O        0.26362973      15.41479039       7.38060000       8.42694687       0.00010548      -0.00007830       0.00000000 s 
O       -1.24320041      18.02469675       7.38060000       8.42401722       0.00007534      -0.00002610       0.00000000 s 
O       -2.74992507      20.63442041       7.38060000       9.43806608       0.00015068      -0.00015659       0.00000000 s 
O       -4.25675520      23.24432677       7.38060000      11.19620674       0.00012054      -0.00010439       0.00000000 s 
O       -5.76367575      25.85428532       7.38060000              inf       0.00000000       0.00000000       0.00000000 s 
O       -7.27047575      28.46413947       7.38060000              inf       0.00000000       0.00000000       0.00000000 s 
O       -8.77727575      31.07399363       7.38060000              inf       0.00000000       0.00000000       0.00000000 s 
O       10.81112425       2.36559791       7.38060000              inf       0.00000000       0.00000000       0.00000000 s 
O        9.30432425       4.97545206       7.38060000              inf       0.00000000       0.00000000       0.00000000 s 
O        7.79764480       7.58535842       7.38060000      10.06461387       0.00012054       0.00005220       0.00000000 s 
O        6.29081466      10.19526477       7.38060000       8.05813426       0.00009041       0.00010439       0.00000000 s 
O        4.78419548      12.80517112       7.38060000       6.83615350       0.00027122       0.00015659       0.00000000 s 
O        3.27729000      15.41479039       7.38060000       6.61707524       0.00016575      -0.00007830       0.00000000 s 
O        1.77045986      18.02469675       7.38060000       5.88677917       0.00013561      -0.00002610       0.00000000 s 
O        0.26373520      20.63442041       7.38060000       6.60951449       0.00021095      -0.00015659       0.00000000 s 
O       -1.24309493      23.24432677       7.38060000       8.41911442       0.00018082      -0.00010439       0.00000000 s 
O       -2.74992507      25.85423312       7.38060000      10.78153931       0.00015068      -0.00005220       0.00000000 s 
O       -4.25687575      28.46413947       7.38060000              inf       0.00000000       0.00000000       0.00000000 s 
O       -5.76367575      31.07399363       7.38060000              inf       0.00000000       0.00000000       0.00000000 s 
O       13.82472425       2.36559791       7.38060000              inf       0.00000000       0.00000000       0.00000000 s 
O       12.31792425       4.97545206       7.38060000              inf       0.00000000       0.00000000       0.00000000 s 
O       10.81130507       7.58535842       7.38060000      10.06618962       0.00018082       0.00005220       0.00000000 s 
O        9.30447493      10.19526477       7.38060000       7.47550002       0.00015068       0.00010439       0.00000000 s 
O        7.79764480      12.80517112       7.38060000       5.34811408       0.00012054       0.00015659       0.00000000 s 
O        6.29092014      15.41489479       7.38060000       4.41427761       0.00019588       0.00002610       0.00000000 s 
O        4.78412014      18.02469675       7.38060000       4.06307377       0.00019588      -0.00002610       0.00000000 s 
O        3.27739548      20.63442041       7.38060000       4.05691616       0.00027122      -0.00015659       0.00000000 s 
O        1.77056534      23.24432677       7.38060000       5.87981516       0.00024109      -0.00010439       0.00000000 s 
O        0.26373520      25.85423312       7.38060000       8.41725492       0.00021095      -0.00005220       0.00000000 s 
O       -1.24309493      28.46413947       7.38060000      11.19341015       0.00018082       0.00000000       0.00000000 s 
O       -2.75007575      31.07399363       7.38060000              inf       0.00000000       0.00000000       0.00000000 s 
O       16.83832425       2.36559791       7.38060000              inf       0.00000000       0.00000000       0.00000000 s 
O       15.33152425       4.97545206       7.38060000              inf       0.00000000       0.00000000       0.00000000 s 
O       13.82472425       7.58530622       7.38060000              inf       0.00000000       0.00000000       0.00000000 s 
O       12.31813520      10.19526477       7.38060000       8.06206983       0.00021095       0.00010439       0.00000000 s 
O       10.81130507      12.80517112       7.38060000       5.35107890       0.00018082       0.00015659       0.00000000 s 
O        9.30436946      15.41489479       7.38060000       3.23048808       0.00004520       0.00002610       0.00000000 s 
O        7.79775027      18.02480114       7.38060000       3.22497323       0.00022602       0.00007830       0.00000000 s 
O        6.29084480      20.63442041       7.38060000       2.71951298       0.00012054      -0.00015659       0.00000000 s 
O        4.78401466      23.24432677       7.38060000       4.05313408       0.00009041      -0.00010439       0.00000000 s 
O        3.27718452      25.85423312       7.38060000       6.60487225       0.00006027      -0.00005220       0.00000000 s 
O        1.77035439      28.46413947       7.38060000       9.43319010       0.00003014       0.00000000       0.00000000 s 
O        0.26352425      31.07399363       7.38060000              inf       0.00000000       0.00000000       0.00000000 s 
O       19.85192425       2.36559791       7.38060000              inf       0.00000000       0.00000000       0.00000000 s 
O       18.34512425       4.97545206       7.38060000              inf       0.00000000       0.00000000       0.00000000 s 
O       16.83832425       7.58530622       7.38060000              inf       0.00000000       0.00000000       0.00000000 s 
O       15.33158452      10.19526477       7.38060000       9.60586231       0.00006027       0.00010439       0.00000000 s 
O       13.82496534      12.80517112       7.38060000       6.84324945       0.00024109       0.00015659       0.00000000 s 
O       12.31802973      15.41489479       7.38060000       4.42145755       0.00010548       0.00002610       0.00000000 s 
O       10.81119959      18.02480114       7.38060000       3.22988719       0.00007534       0.00007830       0.00000000 s 
O        9.30450507      20.63442041       7.38060000       4.06152179       0.00018082      -0.00015659       0.00000000 s 
O        7.79767493      23.24432677       7.38060000       4.05536139       0.00015068      -0.00010439       0.00000000 s 
O        6.29084480      25.85423312       7.38060000       5.87879659       0.00012054      -0.00005220       0.00000000 s 
O        4.78401466      28.46413947       7.38060000       8.41658120       0.00009041       0.00000000       0.00000000 s 
O        3.27729000      31.07386314       7.38060000      11.19273330       0.00016575      -0.00013049       0.00000000 s 
O       22.86552425       2.36559791       7.38060000              inf       0.00000000       0.00000000       0.00000000 s 
O       21.35872425       4.97545206       7.38060000              inf       0.00000000       0.00000000       0.00000000 s 
O       19.85192425       7.58530622       7.38060000              inf       0.00000000       0.00000000       0.00000000 s 
O       18.34512425      10.19516038       7.38060000              inf       0.00000000       0.00000000       0.00000000 s 
O       16.83841466      12.80517112       7.38060000       9.12070152       0.00009041       0.00015659       0.00000000 s 
O       15.33169000      15.41489479       7.38060000       6.84301227       0.00016575       0.00002610       0.00000000 s 
O       13.82485986      18.02480114       7.38060000       5.35047223       0.00013561       0.00007830       0.00000000 s 
O       12.31802973      20.63470750       7.38060000       5.34720354       0.00010548       0.00013049       0.00000000 s 
O       10.81133520      23.24432677       7.38060000       5.88458262       0.00021095      -0.00010439       0.00000000 s 
O        9.30450507      25.85423312       7.38060000       6.60760605       0.00018082      -0.00005220       0.00000000 s 
O        7.79767493      28.46413947       7.38060000       8.41765402       0.00015068       0.00000000       0.00000000 s 
O        6.29095027      31.07386314       7.38060000      10.78025168       0.00022602      -0.00013049       0.00000000 s 
O       25.87912425       2.36559791       7.38060000              inf       0.00000000       0.00000000       0.00000000 s 
O       24.37232425       4.97545206       7.38060000              inf       0.00000000       0.00000000       0.00000000 s 
O       22.86552425       7.58530622       7.38060000              inf       0.00000000       0.00000000       0.00000000 s 
O       21.35872425      10.19516038       7.38060000              inf       0.00000000       0.00000000       0.00000000 s 
O       19.85192425      12.80501453       7.38060000              inf       0.00000000       0.00000000       0.00000000 s 
O       18.34513932      15.41489479       7.38060000       9.60545819       0.00001507       0.00002610       0.00000000 s 
O       16.83852014      18.02480114       7.38060000       8.06146584       0.00019588       0.00007830       0.00000000 s 
O       15.33169000      20.63470750       7.38060000       7.47463149       0.00016575       0.00013049       0.00000000 s 
O       13.82475439      23.24443116       7.38060000       8.05692983       0.00003014       0.00000000       0.00000000 s 
O       12.31795439      25.85423312       7.38060000       8.42154489       0.00003014      -0.00005220       0.00000000 s 
O       10.81112425      28.46413947       7.38060000       9.43596033       0.00000000      -0.00000000       0.00000000 s 
O        9.30439959      31.07386314       7.38060000      11.19434668       0.00007534      -0.00013049       0.00000000 s 
O       28.89272425       2.36559791       7.38060000              inf       0.00000000       0.00000000       0.00000000 s 
O       27.38592425       4.97545206       7.38060000              inf       0.00000000       0.00000000       0.00000000 s 
O       25.87912425       7.58530622       7.38060000              inf       0.00000000       0.00000000       0.00000000 s 
O       24.37232425      10.19516038       7.38060000              inf       0.00000000       0.00000000       0.00000000 s 
O       22.86552425      12.80501453       7.38060000              inf       0.00000000       0.00000000       0.00000000 s 
O       21.35872425      15.41486869       7.38060000              inf       0.00000000       0.00000000       0.00000000 s 
O       19.85192425      18.02472285       7.38060000              inf       0.00000000       0.00000000       0.00000000 s 
O       18.34535027      20.63470750       7.38060000      10.06538337       0.00022602       0.00013049       0.00000000 s 
O       16.83841466      23.24443116       7.38060000      10.06345671       0.00009041      -0.00000000       0.00000000 s 
O       15.33161466      25.85423312       7.38060000      10.78656332       0.00009041      -0.00005220       0.00000000 s 
O       13.82478452      28.46413947       7.38060000      11.19744297       0.00006027       0.00000000       0.00000000 s 
O       12.31792425      31.07399363       7.38060000              inf       0.00000000       0.00000000       0.00000000 s 
O       31.90632425       2.36559791       7.38060000              inf       0.00000000       0.00000000       0.00000000 s 
O       30.39952425       4.97545206       7.38060000              inf       0.00000000       0.00000000       0.00000000 s 
O       28.89272425       7.58530622       7.38060000              inf       0.00000000       0.00000000       0.00000000 s 
O       27.38592425      10.19516038       7.38060000              inf       0.00000000       0.00000000       0.00000000 s 
O       25.87912425      12.80501453       7.38060000              inf       0.00000000       0.00000000       0.00000000 s 
O       24.37232425      15.41486869       7.38060000              inf       0.00000000       0.00000000       0.00000000 s 
O       22.86552425      18.02472285       7.38060000              inf       0.00000000       0.00000000       0.00000000 s 
O       21.35872425      20.63457700       7.38060000              inf       0.00000000       0.00000000       0.00000000 s 
O       19.85192425      23.24443116       7.38060000              inf       0.00000000       0.00000000       0.00000000 s 
O       18.34512425      25.85428532       7.38060000              inf       0.00000000       0.00000000       0.00000000 s 
O       16.83832425      28.46413947       7.38060000              inf       0.00000000       0.00000000       0.00000000 s 
O       15.33152425      31.07399363       7.38060000              inf       0.00000000       0.00000000       0.00000000 s 
N        6.25688152      14.91513382      10.10010000       0.00000000       0.00000000       0.00000000       0.00000000 a1
H        4.18564931      15.01104596      10.10010000       0.00000000       0.00000000       0.00000000       0.00000000 a1
H        8.33233278      14.98145021      10.10010000       0.00000000       0.00000000       0.00000000       0.00000000 a1
C        5.11193954      15.59126873      10.10010000       0.00000000       0.00000000       0.00000000       0.00000000 a1
C        7.41511348      15.57446127      10.10010000       0.00000000       0.00000000       0.00000000       0.00000000 a1
C        5.07628866      16.99505709      10.10010000       0.00000000       0.00000000       0.00000000       0.00000000 a1
C        7.47164862      16.97459583      10.10010000       0.00000000       0.00000000       0.00000000       0.00000000 a1
H        4.09757685      17.46950247      10.10010000       0.00000000       0.00000000       0.00000000       0.00000000 a1
C        6.27766030      17.73239308      10.10010000       0.00000000       0.00000000       0.00000000       0.00000000 a1
H        8.45827112      17.43424334      10.10010000       0.00000000       0.00000000       0.00000000       0.00000000 a1
C        6.28704766      19.21272846      10.10010000       0.00000000       0.00000000       0.00000000       0.00000000 a1
H        4.14008368      19.40473543      10.10010000       0.00000000       0.00000000       0.00000000       0.00000000 a1
H        8.43348426      19.38628376      10.10010000       0.00000000       0.00000000       0.00000000       0.00000000 a1
C        5.08019127      19.94604528      10.10010000       0.00000000       0.00000000       0.00000000       0.00000000 a1
C        7.49643548      19.93289162      10.10010000       0.00000000       0.00000000       0.00000000       0.00000000 a1
H        2.43886128      20.36659718      10.10010000       0.00000000       0.00000000       0.00000000       0.00000000 a1
H       10.14346117      20.34211675      10.10010000       0.00000000       0.00000000       0.00000000       0.00000000 a1
C        2.53357872      21.44921688      10.10010000       0.00000000       0.00000000       0.00000000       0.00000000 a1
C        5.05846321      21.34910288      10.10010000       0.00000000       0.00000000       0.00000000       0.00000000 a1
C        7.52596876      21.34106452      10.10010000       0.00000000       0.00000000       0.00000000       0.00000000 a1
C       10.05127515      21.42619797      10.10010000       0.00000000       0.00000000       0.00000000       0.00000000 a1
H        0.37691095      21.70735756      10.10010000       0.00000000       0.00000000       0.00000000       0.00000000 a1
C        3.78462956      22.10269826      10.10010000       0.00000000       0.00000000       0.00000000       0.00000000 a1
C        1.35129824      22.19915847      10.10010000       0.00000000       0.00000000       0.00000000       0.00000000 a1
C        6.29622407      22.02341089      10.10010000       0.00000000       0.00000000       0.00000000       0.00000000 a1
C        8.80686930      22.08278508      10.10010000       0.00000000       0.00000000       0.00000000       0.00000000 a1
H       12.21279482      21.67776181      10.10010000       0.00000000       0.00000000       0.00000000       0.00000000 a1
C       11.23861848      22.17431266      10.10010000       0.00000000       0.00000000       0.00000000       0.00000000 a1
N        1.36332250      23.53133243      10.10010000       0.00000000       0.00000000       0.00000000       0.00000000 a1
C        3.75182652      23.51032310      10.10010000       0.00000000       0.00000000       0.00000000       0.00000000 a1
H        6.30097049      23.10840556      10.10010000       0.00000000       0.00000000       0.00000000       0.00000000 a1
C        8.84557899      23.49552523      10.10010000       0.00000000       0.00000000       0.00000000       0.00000000 a1
N       11.23250087      23.50319820      10.10010000       0.00000000       0.00000000       0.00000000       0.00000000 a1
C        2.51986684      24.18298691      10.10010000       0.00000000       0.00000000       0.00000000       0.00000000 a1
C       10.07658939      24.16398717      10.10010000       0.00000000       0.00000000       0.00000000       0.00000000 a1
H        4.65375180      24.11813204      10.10010000       0.00000000       0.00000000       0.00000000       0.00000000 a1
H        7.94576324      24.10516106      10.10010000       0.00000000       0.00000000       0.00000000       0.00000000 a1
H        2.47830930      25.27620262      10.10010000       0.00000000       0.00000000       0.00000000       0.00000000 a1
H       10.12363168      25.25464523      10.10010000       0.00000000       0.00000000       0.00000000       0.00000000 a1
N       14.24381054      14.26833366      10.10010000       0.00000000       0.00000000       0.00000000       0.00000000 a2
H       13.12481565      12.52236733      10.10010000       0.00000000       0.00000000       0.00000000       0.00000000 a2
H       15.22399900      16.09870268      10.10010000       0.00000000       0.00000000       0.00000000       0.00000000 a2
C       13.08547310      13.61466959      10.10010000       0.00000000       0.00000000       0.00000000       0.00000000 a2
C       14.25161576      15.60087300      10.10010000       0.00000000       0.00000000       0.00000000       0.00000000 a2
C       11.85193128      14.28568919      10.10010000       0.00000000       0.00000000       0.00000000       0.00000000 a2
C       13.06733123      16.34990114      10.10010000       0.00000000       0.00000000       0.00000000       0.00000000 a2
H       10.95169362      13.67532260      10.10010000       0.00000000       0.00000000       0.00000000       0.00000000 a2
C       11.81406540      15.69477555      10.10010000       0.00000000       0.00000000       0.00000000       0.00000000 a2
H       13.16257606      17.43416505      10.10010000       0.00000000       0.00000000       0.00000000       0.00000000 a2
C       10.53696199      16.44307293      10.10010000       0.00000000       0.00000000       0.00000000       0.00000000 a2
H        9.29719709      14.67975107      10.10010000       0.00000000       0.00000000       0.00000000       0.00000000 a2
H       11.45987699      18.38871921      10.10010000       0.00000000       0.00000000       0.00000000       0.00000000 a2
C        9.29825185      15.76456305      10.10010000       0.00000000       0.00000000       0.00000000       0.00000000 a2
C       10.51797631      17.85051508      10.10010000       0.00000000       0.00000000       0.00000000       0.00000000 a2
H        7.61337822      13.68738013      10.10010000       0.00000000       0.00000000       0.00000000       0.00000000 a2
H       11.48687885      20.34751915      10.10010000       0.00000000       0.00000000       0.00000000       0.00000000 a2
C        6.72337174      14.31071769      10.10010000       0.00000000       0.00000000       0.00000000       0.00000000 a2
C        8.07230430      16.44727480      10.10010000       0.00000000       0.00000000       0.00000000       0.00000000 a2
C        9.31322944      18.58017811      10.10010000       0.00000000       0.00000000       0.00000000       0.00000000 a2
C       10.50194396      20.80972432      10.10010000       0.00000000       0.00000000       0.00000000       0.00000000 a2
H        5.42127052      12.57205895      10.10010000       0.00000000       0.00000000       0.00000000       0.00000000 a2
C        6.78275472      15.72090019      10.10010000       0.00000000       0.00000000       0.00000000       0.00000000 a2
C        5.48276302      13.66180355      10.10010000       0.00000000       0.00000000       0.00000000       0.00000000 a2
C        8.10721686      17.85636116      10.10010000       0.00000000       0.00000000       0.00000000       0.00000000 a2
C        9.31111992      20.06033079      10.10010000       0.00000000       0.00000000       0.00000000       0.00000000 a2
H       11.36505407      22.80743718      10.10010000       0.00000000       0.00000000       0.00000000       0.00000000 a2
C       10.44794025      22.21205115      10.10010000       0.00000000       0.00000000       0.00000000       0.00000000 a2
N        4.33497319      14.33848654      10.10010000       0.00000000       0.00000000       0.00000000       0.00000000 a2
C        5.54731434      16.39630435      10.10010000       0.00000000       0.00000000       0.00000000       0.00000000 a2
H        7.17016807      18.40296901      10.10010000       0.00000000       0.00000000       0.00000000       0.00000000 a2
C        8.10700590      20.80022445      10.10010000       0.00000000       0.00000000       0.00000000       0.00000000 a2
N        9.29382186      22.87119592      10.10010000       0.00000000       0.00000000       0.00000000       0.00000000 a2
C        4.34879055      15.66572787      10.10010000       0.00000000       0.00000000       0.00000000       0.00000000 a2
C        8.14381703      22.20054170      10.10010000       0.00000000       0.00000000       0.00000000       0.00000000 a2
H        5.47189900      17.48129901      10.10010000       0.00000000       0.00000000       0.00000000       0.00000000 a2
H        7.12913791      20.32577906      10.10010000       0.00000000       0.00000000       0.00000000       0.00000000 a2
H        3.38125920      16.17634584      10.10010000       0.00000000       0.00000000       0.00000000       0.00000000 a2
H        7.22258964      22.78661054      10.10010000       0.00000000       0.00000000       0.00000000       0.00000000 a2
