184
Lattice="36.16319999999999 0.0 0.0 -18.081599999999995 31.318249882114287 0.0 0.0 0.0 30.0" Properties=species:S:1:pos:R:3:remoteness:R:1:shift:R:3:adsorption:S:1 size="_JSON [[12, 0], [0, 12]]" mass_center_dist=14.246881846460296 min_atom_dist=9.351008714497274 s1=cu_hollow s2=tpb_atop s1idx=2 s2idx=4 pbc="T T T"
O       -1.24327575       2.36559791       7.38060000              inf       0.00000000       0.00000000       0.00000000 s 
O       -2.75007575       4.97545206       7.38060000              inf       0.00000000       0.00000000       0.00000000 s 
O       -4.25687575       7.58530622       7.38060000              inf       0.00000000       0.00000000       0.00000000 s 
O       -5.76367575      10.19516038       7.38060000              inf       0.00000000       0.00000000       0.00000000 s 
O       -7.27047575      12.80501453       7.38060000              inf       0.00000000       0.00000000       0.00000000 s 
O       -8.77727575      15.41486869       7.38060000              inf       0.00000000       0.00000000       0.00000000 s 
O      -10.28392507      18.02456626       7.38060000       9.59999241       0.00015068      -0.00015659       0.00000000 s 
O      -11.79075520      20.63447261       7.38060000       9.11466238       0.00012054      -0.00010439       0.00000000 s 
O      -13.29758534      23.24437896       7.38060000       9.59992618       0.00009041      -0.00005220       0.00000000 s 
O      -14.80447575      25.85428532       7.38060000              inf       0.00000000       0.00000000       0.00000000 s 
O      -16.31127575      28.46413947       7.38060000              inf       0.00000000       0.00000000       0.00000000 s 
O      -17.81807575      31.07399363       7.38060000              inf       0.00000000       0.00000000       0.00000000 s 
O        1.77032425       2.36559791       7.38060000              inf       0.00000000       0.00000000       0.00000000 s 
O        0.26352425       4.97545206       7.38060000              inf       0.00000000       0.00000000       0.00000000 s 
O       -1.24327575       7.58530622       7.38060000              inf       0.00000000       0.00000000       0.00000000 s 
O       -2.75007575      10.19516038       7.38060000              inf       0.00000000       0.00000000       0.00000000 s 
O       -4.25687575      12.80501453       7.38060000              inf       0.00000000       0.00000000       0.00000000 s 
O       -5.76363054      15.41479039       7.38060000      10.78913708       0.00004520      -0.00007830       0.00000000 s 
O       -7.27046068      18.02469675       7.38060000      11.19992230       0.00001507      -0.00002610       0.00000000 s 
O       -8.77727575      20.63457700       7.38060000              inf       0.00000000       0.00000000       0.00000000 s 
O      -10.28392507      23.24437896       7.38060000      11.72896791       0.00015068      -0.00005220       0.00000000 s 
O      -11.79087575      25.85428532       7.38060000              inf       0.00000000       0.00000000       0.00000000 s 
O      -13.29767575      28.46413947       7.38060000              inf       0.00000000       0.00000000       0.00000000 s 
O      -14.80447575      31.07399363       7.38060000              inf       0.00000000       0.00000000       0.00000000 s 
O        4.78392425       2.36559791       7.38060000              inf       0.00000000       0.00000000       0.00000000 s 
O        3.27712425       4.97545206       7.38060000              inf       0.00000000       0.00000000       0.00000000 s 
O        1.77032425       7.58530622       7.38060000              inf       0.00000000       0.00000000       0.00000000 s 
O        0.26352425      10.19516038       7.38060000              inf       0.00000000       0.00000000       0.00000000 s 
O       -1.24314014      12.80488404       7.38060000       9.44600961       0.00013561      -0.00013049       0.00000000 s 
O       -2.74997027      15.41479039       7.38060000       8.42694687       0.00010548      -0.00007830       0.00000000 s 
O       -4.25680041      18.02469675       7.38060000       8.42401722       0.00007534      -0.00002610       0.00000000 s 
O       -5.76352507      20.63442041       7.38060000       9.43806608       0.00015068      -0.00015659       0.00000000 s 
O       -7.27035520      23.24432677       7.38060000      11.19620674       0.00012054      -0.00010439       0.00000000 s 
O       -8.77727575      25.85428532       7.38060000              inf       0.00000000       0.00000000       0.00000000 s 
O      -10.28407575      28.46413947       7.38060000              inf       0.00000000       0.00000000       0.00000000 s 
O      -11.79087575      31.07399363       7.38060000              inf       0.00000000       0.00000000       0.00000000 s 
O        7.79752425       2.36559791       7.38060000              inf       0.00000000       0.00000000       0.00000000 s 
O        6.29072425       4.97545206       7.38060000              inf       0.00000000       0.00000000       0.00000000 s 
O        4.78392425       7.58530622       7.38060000              inf       0.00000000       0.00000000       0.00000000 s 
O        3.27724480      10.19516038       7.38060000      10.79526691       0.00012054       0.00000000       0.00000000 s 
O        1.77052014      12.80488404       7.38060000       8.43098434       0.00019588      -0.00013049       0.00000000 s 
O        0.26369000      15.41479039       7.38060000       6.61707524       0.00016575      -0.00007830       0.00000000 s 
O       -1.24314014      18.02469675       7.38060000       5.88677917       0.00013561      -0.00002610       0.00000000 s 
O       -2.74986480      20.63442041       7.38060000       6.60951449       0.00021095      -0.00015659       0.00000000 s 
O       -4.25669493      23.24432677       7.38060000       8.41911442       0.00018082      -0.00010439       0.00000000 s 
O       -5.76352507      25.85423312       7.38060000      10.78153931       0.00015068      -0.00005220       0.00000000 s 
O       -7.27047575      28.46413947       7.38060000              inf       0.00000000       0.00000000       0.00000000 s 
O       -8.77727575      31.07399363       7.38060000              inf       0.00000000       0.00000000       0.00000000 s 
O       10.81112425       2.36559791       7.38060000              inf       0.00000000       0.00000000       0.00000000 s 
O        9.30432425       4.97545206       7.38060000              inf       0.00000000       0.00000000       0.00000000 s 
O        7.79752425       7.58530622       7.38060000              inf       0.00000000       0.00000000       0.00000000 s 
O        6.29072425      10.19516038       7.38060000              inf       0.00000000       0.00000000       0.00000000 s 
O        4.78418041      12.80488404       7.38060000       8.43209302       0.00025616      -0.00013049       0.00000000 s 
O        3.27735027      15.41479039       7.38060000       5.89255737       0.00022602      -0.00007830       0.00000000 s 
O        1.77052014      18.02469675       7.38060000       4.06307377       0.00019588      -0.00002610       0.00000000 s 
O        0.26379548      20.63442041       7.38060000       4.05691616       0.00027122      -0.00015659       0.00000000 s 
O       -1.24303466      23.24432677       7.38060000       5.87981516       0.00024109      -0.00010439       0.00000000 s 
O       -2.74986480      25.85423312       7.38060000       8.41725492       0.00021095      -0.00005220       0.00000000 s 
O       -4.25669493      28.46413947       7.38060000      11.19341015       0.00018082       0.00000000       0.00000000 s 
O       -5.76367575      31.07399363       7.38060000              inf       0.00000000       0.00000000       0.00000000 s 
O       13.82472425       2.36559791       7.38060000              inf       0.00000000       0.00000000       0.00000000 s 
O       12.31792425       4.97545206       7.38060000              inf       0.00000000       0.00000000       0.00000000 s 
O       10.81118452       7.58530622       7.38060000      10.92723166       0.00006027       0.00000000       0.00000000 s 
O        9.30445986      10.19502988       7.38060000      10.06187690       0.00013561      -0.00013049       0.00000000 s 
O        7.79762973      12.80488404       7.38060000       9.44887700       0.00010548      -0.00013049       0.00000000 s 
O        6.29079959      15.41479039       7.38060000       6.61980391       0.00007534      -0.00007830       0.00000000 s 
O        4.78396946      18.02469675       7.38060000       4.06529548       0.00004520      -0.00002610       0.00000000 s 
O        3.27724480      20.63442041       7.38060000       2.71951298       0.00012054      -0.00015659       0.00000000 s 
O        1.77041466      23.24432677       7.38060000       4.05313408       0.00009041      -0.00010439       0.00000000 s 
O        0.26358452      25.85423312       7.38060000       6.60487225       0.00006027      -0.00005220       0.00000000 s 
O       -1.24324561      28.46413947       7.38060000       9.43319010       0.00003014       0.00000000       0.00000000 s 
O       -2.75007575      31.07399363       7.38060000              inf       0.00000000       0.00000000       0.00000000 s 
O       16.83832425       2.36559791       7.38060000              inf       0.00000000       0.00000000       0.00000000 s 
O       15.33152425       4.97545206       7.38060000              inf       0.00000000       0.00000000       0.00000000 s 
O       13.82484480       7.58530622       7.38060000       9.59992618       0.00012054       0.00000000       0.00000000 s 
O       12.31812014      10.19502988       7.38060000       8.05692530       0.00019588      -0.00013049       0.00000000 s 
O       10.81129000      12.80493624       7.38060000       7.47203194       0.00016575      -0.00007830       0.00000000 s 
O        9.30445986      15.41484259       7.38060000       8.05684639       0.00013561      -0.00002610       0.00000000 s 
O        7.79762973      18.02469675       7.38060000       5.89137914       0.00010548      -0.00002610       0.00000000 s 
O        6.29090507      20.63442041       7.38060000       4.06152179       0.00018082      -0.00015659       0.00000000 s 
O        4.78407493      23.24432677       7.38060000       4.05536139       0.00015068      -0.00010439       0.00000000 s 
O        3.27724480      25.85423312       7.38060000       5.87879659       0.00012054      -0.00005220       0.00000000 s 
O        1.77041466      28.46413947       7.38060000       8.41658120       0.00009041       0.00000000       0.00000000 s 
O        0.26369000      31.07386314       7.38060000      11.19273330       0.00016575      -0.00013049       0.00000000 s 
O       19.85192425       2.36559791       7.38060000              inf       0.00000000       0.00000000       0.00000000 s 
O       18.34512425       4.97545206       7.38060000              inf       0.00000000       0.00000000       0.00000000 s 
O       16.83850507       7.58530622       7.38060000       9.11466238       0.00018082       0.00000000       0.00000000 s 
O       15.33178041      10.19502988       7.38060000       6.83747177       0.00025616      -0.00013049       0.00000000 s 
O       13.82495027      12.80493624       7.38060000       5.34659593       0.00022602      -0.00007830       0.00000000 s 
O       12.31812014      15.41484259       7.38060000       5.34653648       0.00019588      -0.00002610       0.00000000 s 
O       10.81139548      18.02456626       7.38060000       6.83719284       0.00027122      -0.00015659       0.00000000 s 
O        9.30456534      20.63442041       7.38060000       6.61516924       0.00024109      -0.00015659       0.00000000 s 
O        7.79773520      23.24432677       7.38060000       5.88458262       0.00021095      -0.00010439       0.00000000 s 
O        6.29090507      25.85423312       7.38060000       6.60760605       0.00018082      -0.00005220       0.00000000 s 
O        4.78407493      28.46413947       7.38060000       8.41765402       0.00015068       0.00000000       0.00000000 s 
O        3.27735027      31.07386314       7.38060000      10.78025168       0.00022602      -0.00013049       0.00000000 s 
O       22.86552425       2.36559791       7.38060000              inf       0.00000000       0.00000000       0.00000000 s 
O       21.35872425       4.97545206       7.38060000              inf       0.00000000       0.00000000       0.00000000 s 
O       19.85195439       7.58530622       7.38060000       9.59992618       0.00003014       0.00000000       0.00000000 s 
O       18.34522973      10.19502988       7.38060000       6.83751826       0.00010548      -0.00013049       0.00000000 s 
O       16.83839959      12.80493624       7.38060000       4.41647045       0.00007534      -0.00007830       0.00000000 s 
O       15.33156946      15.41484259       7.38060000       3.22847688       0.00004520      -0.00002610       0.00000000 s 
O       13.82484480      18.02456626       7.38060000       4.41632651       0.00012054      -0.00015659       0.00000000 s 
O       12.31801466      20.63447261       7.38060000       6.83733230       0.00009041      -0.00010439       0.00000000 s 
O       10.81118452      23.24432677       7.38060000       8.42447540       0.00006027      -0.00010439       0.00000000 s 
O        9.30435439      25.85423312       7.38060000       8.42154489       0.00003014      -0.00005220       0.00000000 s 
O        7.79752425      28.46413947       7.38060000       9.43596033       0.00000000      -0.00000000       0.00000000 s 
O        6.29079959      31.07386314       7.38060000      11.19434668       0.00007534      -0.00013049       0.00000000 s 
O       25.87912425       2.36559791       7.38060000              inf       0.00000000       0.00000000       0.00000000 s 
O       24.37232425       4.97545206       7.38060000              inf       0.00000000       0.00000000       0.00000000 s 
O       22.86561466       7.58530622       7.38060000      10.92723166       0.00009041       0.00000000       0.00000000 s 
O       21.35889000      10.19502988       7.38060000       8.05704365       0.00016575      -0.00013049       0.00000000 s 
O       19.85205986      12.80493624       7.38060000       5.34671483       0.00013561      -0.00007830       0.00000000 s 
O       18.34522973      15.41484259       7.38060000       3.22847688       0.00010548      -0.00002610       0.00000000 s 
O       16.83850507      18.02456626       7.38060000       3.22837843       0.00018082      -0.00015659       0.00000000 s 
O       15.33167493      20.63447261       7.38060000       5.34653648       0.00015068      -0.00010439       0.00000000 s 
O       13.82484480      23.24437896       7.38060000       8.05684639       0.00012054      -0.00005220       0.00000000 s 
O       12.31801466      25.85423312       7.38060000      10.78656332       0.00009041      -0.00005220       0.00000000 s 
O       10.81118452      28.46413947       7.38060000      11.19744297       0.00006027       0.00000000       0.00000000 s 
O        9.30432425      31.07399363       7.38060000              inf       0.00000000       0.00000000       0.00000000 s 
O       28.89272425       2.36559791       7.38060000              inf       0.00000000       0.00000000       0.00000000 s 
O       27.38592425       4.97545206       7.38060000              inf       0.00000000       0.00000000       0.00000000 s 
O       25.87912425       7.58530622       7.38060000              inf       0.00000000       0.00000000       0.00000000 s 
O       24.37255027      10.19502988       7.38060000      10.06203485       0.00022602      -0.00013049       0.00000000 s 
O       22.86572014      12.80493624       7.38060000       7.47220210       0.00019588      -0.00007830       0.00000000 s 
O       21.35889000      15.41484259       7.38060000       5.34671483       0.00016575      -0.00002610       0.00000000 s 
O       19.85216534      18.02456626       7.38060000       4.41647045       0.00024109      -0.00015659       0.00000000 s 
O       18.34533520      20.63447261       7.38060000       5.34659593       0.00021095      -0.00010439       0.00000000 s 
O       16.83850507      23.24437896       7.38060000       7.47203194       0.00018082      -0.00005220       0.00000000 s 
O       15.33167493      25.85428532       7.38060000      10.06184531       0.00015068       0.00000000       0.00000000 s 
O       13.82472425      28.46413947       7.38060000              inf       0.00000000       0.00000000       0.00000000 s 
O       12.31792425      31.07399363       7.38060000              inf       0.00000000       0.00000000       0.00000000 s 
O       31.90632425       2.36559791       7.38060000              inf       0.00000000       0.00000000       0.00000000 s 
O       30.39952425       4.97545206       7.38060000              inf       0.00000000       0.00000000       0.00000000 s 
O       28.89272425       7.58530622       7.38060000              inf       0.00000000       0.00000000       0.00000000 s 
O       27.38592425      10.19516038       7.38060000              inf       0.00000000       0.00000000       0.00000000 s 
O       25.87916946      12.80493624       7.38060000      10.06184531       0.00004520      -0.00007830       0.00000000 s 
O       24.37233932      15.41484259       7.38060000       8.05684639       0.00001507      -0.00002610       0.00000000 s 
O       22.86561466      18.02456626       7.38060000       6.83737879       0.00009041      -0.00015659       0.00000000 s 
O       21.35878452      20.63447261       7.38060000       6.83733230       0.00006027      -0.00010439       0.00000000 s 
O       19.85195439      23.24437896       7.38060000       8.05684639       0.00003014      -0.00005220       0.00000000 s 
O       18.34512425      25.85428532       7.38060000      10.06184531       0.00000000       0.00000000       0.00000000 s 
O       16.83839959      28.46400898       7.38060000      12.47912395       0.00007534      -0.00013049       0.00000000 s 
O       15.33152425      31.07399363       7.38060000              inf       0.00000000       0.00000000       0.00000000 s 
Cu      16.83839959      16.28481138      10.10010000       0.00000000       0.00000000       0.00000000       0.00000000 a1
N        3.24328152      14.91513382      10.10010000       0.00000000       0.00000000       0.00000000       0.00000000 a2
H        1.17204931      15.01104596      10.10010000       0.00000000       0.00000000       0.00000000       0.00000000 a2
H        5.31873278      14.98145021      10.10010000       0.00000000       0.00000000       0.00000000       0.00000000 a2
C        2.09833954      15.59126873      10.10010000       0.00000000       0.00000000       0.00000000       0.00000000 a2
C        4.40151348      15.57446127      10.10010000       0.00000000       0.00000000       0.00000000       0.00000000 a2
C        2.06268866      16.99505709      10.10010000       0.00000000       0.00000000       0.00000000       0.00000000 a2
C        4.45804862      16.97459583      10.10010000       0.00000000       0.00000000       0.00000000       0.00000000 a2
H        1.08397685      17.46950247      10.10010000       0.00000000       0.00000000       0.00000000       0.00000000 a2
C        3.26406030      17.73239308      10.10010000       0.00000000       0.00000000       0.00000000       0.00000000 a2
H        5.44467112      17.43424334      10.10010000       0.00000000       0.00000000       0.00000000       0.00000000 a2
C        3.27344766      19.21272846      10.10010000       0.00000000       0.00000000       0.00000000       0.00000000 a2
H        1.12648368      19.40473543      10.10010000       0.00000000       0.00000000       0.00000000       0.00000000 a2
H        5.41988426      19.38628376      10.10010000       0.00000000       0.00000000       0.00000000       0.00000000 a2
C        2.06659127      19.94604528      10.10010000       0.00000000       0.00000000       0.00000000       0.00000000 a2
C        4.48283548      19.93289162      10.10010000       0.00000000       0.00000000       0.00000000       0.00000000 a2
H       -0.57473872      20.36659718      10.10010000       0.00000000       0.00000000       0.00000000       0.00000000 a2
H        7.12986117      20.34211675      10.10010000       0.00000000       0.00000000       0.00000000       0.00000000 a2
C       -0.48002128      21.44921688      10.10010000       0.00000000       0.00000000       0.00000000       0.00000000 a2
C        2.04486321      21.34910288      10.10010000       0.00000000       0.00000000       0.00000000       0.00000000 a2
C        4.51236876      21.34106452      10.10010000       0.00000000       0.00000000       0.00000000       0.00000000 a2
C        7.03767515      21.42619797      10.10010000       0.00000000       0.00000000       0.00000000       0.00000000 a2
H       -2.63668905      21.70735756      10.10010000       0.00000000       0.00000000       0.00000000       0.00000000 a2
C        0.77102956      22.10269826      10.10010000       0.00000000       0.00000000       0.00000000       0.00000000 a2
C       -1.66230176      22.19915847      10.10010000       0.00000000       0.00000000       0.00000000       0.00000000 a2
C        3.28262407      22.02341089      10.10010000       0.00000000       0.00000000       0.00000000       0.00000000 a2
C        5.79326930      22.08278508      10.10010000       0.00000000       0.00000000       0.00000000       0.00000000 a2
H        9.19919482      21.67776181      10.10010000       0.00000000       0.00000000       0.00000000       0.00000000 a2
C        8.22501848      22.17431266      10.10010000       0.00000000       0.00000000       0.00000000       0.00000000 a2
N       -1.65027750      23.53133243      10.10010000       0.00000000       0.00000000       0.00000000       0.00000000 a2
C        0.73822652      23.51032310      10.10010000       0.00000000       0.00000000       0.00000000       0.00000000 a2
H        3.28737049      23.10840556      10.10010000       0.00000000       0.00000000       0.00000000       0.00000000 a2
C        5.83197899      23.49552523      10.10010000       0.00000000       0.00000000       0.00000000       0.00000000 a2
N        8.21890087      23.50319820      10.10010000       0.00000000       0.00000000       0.00000000       0.00000000 a2
C       -0.49373316      24.18298691      10.10010000       0.00000000       0.00000000       0.00000000       0.00000000 a2
C        7.06298939      24.16398717      10.10010000       0.00000000       0.00000000       0.00000000       0.00000000 a2
H        1.64015180      24.11813204      10.10010000       0.00000000       0.00000000       0.00000000       0.00000000 a2
H        4.93216324      24.10516106      10.10010000       0.00000000       0.00000000       0.00000000       0.00000000 a2
H       -0.53529070      25.27620262      10.10010000       0.00000000       0.00000000       0.00000000       0.00000000 a2
H        7.11003168      25.25464523      10.10010000       0.00000000       0.00000000       0.00000000       0.00000000 a2
