146
Lattice="36.16319999999999 0.0 0.0 -18.081599999999995 31.318249882114287 0.0 0.0 0.0 30.0" Properties=species:S:1:pos:R:3:remoteness:R:1:shift:R:3:adsorption:S:1 size="_JSON [[12, 0], [0, 12]]" mass_center_dist=16.77901468382425 min_atom_dist=16.77901468382425 s1=cu_hollow s2=cu_hollow s1idx=2 s2idx=2 pbc="T T T"
O       -1.24327575       2.36559791       7.38060000              inf       0.00000000       0.00000000       0.00000000 s 
O       -2.75007575       4.97545206       7.38060000              inf       0.00000000       0.00000000       0.00000000 s 
O       -4.25681548       7.58530622       7.38060000      10.92723166       0.00006027       0.00000000       0.00000000 s 
O       -5.76354014      10.19502988       7.38060000      10.06187690       0.00013561      -0.00013049       0.00000000 s 
O       -7.27037027      12.80493624       7.38060000      10.06184531       0.00010548      -0.00007830       0.00000000 s 
O       -8.77723054      15.41479039       7.38060000      10.06184531       0.00004520      -0.00007830       0.00000000 s 
O      -10.28406068      18.02469675       7.38060000       8.05684639       0.00001507      -0.00002610       0.00000000 s 
O      -11.79078534      20.63442041       7.38060000       6.83737879       0.00009041      -0.00015659       0.00000000 s 
O      -13.29761548      23.24432677       7.38060000       6.83733230       0.00006027      -0.00010439       0.00000000 s 
O      -14.80444561      25.85423312       7.38060000       8.05684639       0.00003014      -0.00005220       0.00000000 s 
O      -16.31127575      28.46413947       7.38060000      10.06184531       0.00000000       0.00000000       0.00000000 s 
O      -17.81800041      31.07386314       7.38060000      12.47912395       0.00007534      -0.00013049       0.00000000 s 
O        1.77032425       2.36559791       7.38060000              inf       0.00000000       0.00000000       0.00000000 s 
O        0.26352425       4.97545206       7.38060000              inf       0.00000000       0.00000000       0.00000000 s 
O       -1.24315520       7.58530622       7.38060000       9.59992618       0.00012054       0.00000000       0.00000000 s 
O       -2.74987986      10.19502988       7.38060000       8.05692530       0.00019588      -0.00013049       0.00000000 s 
O       -4.25671000      12.80493624       7.38060000       7.47203194       0.00016575      -0.00007830       0.00000000 s 
O       -5.76354014      15.41484259       7.38060000       8.05684639       0.00013561      -0.00002610       0.00000000 s 
O       -7.27026480      18.02456626       7.38060000       9.59979374       0.00021095      -0.00015659       0.00000000 s 
O       -8.77712507      20.63442041       7.38060000       9.59999241       0.00015068      -0.00015659       0.00000000 s 
O      -10.28395520      23.24432677       7.38060000       9.11466238       0.00012054      -0.00010439       0.00000000 s 
O      -11.79078534      25.85423312       7.38060000       9.59992618       0.00009041      -0.00005220       0.00000000 s 
O      -13.29767575      28.46413947       7.38060000              inf       0.00000000       0.00000000       0.00000000 s 
O      -14.80447575      31.07399363       7.38060000              inf       0.00000000       0.00000000       0.00000000 s 
O        4.78392425       2.36559791       7.38060000              inf       0.00000000       0.00000000       0.00000000 s 
O        3.27712425       4.97545206       7.38060000              inf       0.00000000       0.00000000       0.00000000 s 
O        1.77050507       7.58530622       7.38060000       9.11466238       0.00018082       0.00000000       0.00000000 s 
O        0.26378041      10.19502988       7.38060000       6.83747177       0.00025616      -0.00013049       0.00000000 s 
O       -1.24304973      12.80493624       7.38060000       5.34659593       0.00022602      -0.00007830       0.00000000 s 
O       -2.74987986      15.41484259       7.38060000       5.34653648       0.00019588      -0.00002610       0.00000000 s 
O       -4.25660452      18.02456626       7.38060000       6.83719284       0.00027122      -0.00015659       0.00000000 s 
O       -5.76343466      20.63447261       7.38060000       9.11448801       0.00024109      -0.00010439       0.00000000 s 
O       -7.27026480      23.24437896       7.38060000      11.72880530       0.00021095      -0.00005220       0.00000000 s 
O       -8.77712507      25.85423312       7.38060000      11.72896791       0.00015068      -0.00005220       0.00000000 s 
O      -10.28407575      28.46413947       7.38060000              inf       0.00000000       0.00000000       0.00000000 s 
O      -11.79087575      31.07399363       7.38060000              inf       0.00000000       0.00000000       0.00000000 s 
O        7.79752425       2.36559791       7.38060000              inf       0.00000000       0.00000000       0.00000000 s 
O        6.29072425       4.97545206       7.38060000              inf       0.00000000       0.00000000       0.00000000 s 
O        4.78395439       7.58530622       7.38060000       9.59992618       0.00003014       0.00000000       0.00000000 s 
O        3.27722973      10.19502988       7.38060000       6.83751826       0.00010548      -0.00013049       0.00000000 s 
O        1.77039959      12.80493624       7.38060000       4.41647045       0.00007534      -0.00007830       0.00000000 s 
O        0.26356946      15.41484259       7.38060000       3.22847688       0.00004520      -0.00002610       0.00000000 s 
O       -1.24315520      18.02456626       7.38060000       4.41632651       0.00012054      -0.00015659       0.00000000 s 
O       -2.74998534      20.63447261       7.38060000       6.83733230       0.00009041      -0.00010439       0.00000000 s 
O       -4.25681548      23.24437896       7.38060000       9.59992618       0.00006027      -0.00005220       0.00000000 s 
O       -5.76367575      25.85428532       7.38060000              inf       0.00000000       0.00000000       0.00000000 s 
O       -7.27047575      28.46413947       7.38060000              inf       0.00000000       0.00000000       0.00000000 s 
O       -8.77727575      31.07399363       7.38060000              inf       0.00000000       0.00000000       0.00000000 s 
O       10.81112425       2.36559791       7.38060000              inf       0.00000000       0.00000000       0.00000000 s 
O        9.30432425       4.97545206       7.38060000              inf       0.00000000       0.00000000       0.00000000 s 
O        7.79761466       7.58530622       7.38060000      10.92723166       0.00009041       0.00000000       0.00000000 s 
O        6.29089000      10.19502988       7.38060000       8.05704365       0.00016575      -0.00013049       0.00000000 s 
O        4.78405986      12.80493624       7.38060000       5.34671483       0.00013561      -0.00007830       0.00000000 s 
O        3.27722973      15.41484259       7.38060000       3.22847688       0.00010548      -0.00002610       0.00000000 s 
O        1.77050507      18.02456626       7.38060000       3.22837843       0.00018082      -0.00015659       0.00000000 s 
O        0.26367493      20.63447261       7.38060000       5.34653648       0.00015068      -0.00010439       0.00000000 s 
O       -1.24315520      23.24437896       7.38060000       8.05684639       0.00012054      -0.00005220       0.00000000 s 
O       -2.75007575      25.85428532       7.38060000              inf       0.00000000       0.00000000       0.00000000 s 
O       -4.25687575      28.46413947       7.38060000              inf       0.00000000       0.00000000       0.00000000 s 
O       -5.76367575      31.07399363       7.38060000              inf       0.00000000       0.00000000       0.00000000 s 
O       13.82472425       2.36559791       7.38060000              inf       0.00000000       0.00000000       0.00000000 s 
O       12.31792425       4.97545206       7.38060000              inf       0.00000000       0.00000000       0.00000000 s 
O       10.81112425       7.58530622       7.38060000              inf       0.00000000       0.00000000       0.00000000 s 
O        9.30455027      10.19502988       7.38060000      10.06203485       0.00022602      -0.00013049       0.00000000 s 
O        7.79772014      12.80493624       7.38060000       7.47220210       0.00019588      -0.00007830       0.00000000 s 
O        6.29089000      15.41484259       7.38060000       5.34671483       0.00016575      -0.00002610       0.00000000 s 
O        4.78416534      18.02456626       7.38060000       4.41647045       0.00024109      -0.00015659       0.00000000 s 
O        3.27733520      20.63447261       7.38060000       5.34659593       0.00021095      -0.00010439       0.00000000 s 
O        1.77050507      23.24437896       7.38060000       7.47203194       0.00018082      -0.00005220       0.00000000 s 
O        0.26367493      25.85428532       7.38060000      10.06184531       0.00015068       0.00000000       0.00000000 s 
O       -1.24327575      28.46413947       7.38060000              inf       0.00000000       0.00000000       0.00000000 s 
O       -2.75007575      31.07399363       7.38060000              inf       0.00000000       0.00000000       0.00000000 s 
O       16.83832425       2.36559791       7.38060000              inf       0.00000000       0.00000000       0.00000000 s 
O       15.33152425       4.97545206       7.38060000              inf       0.00000000       0.00000000       0.00000000 s 
O       13.82472425       7.58530622       7.38060000              inf       0.00000000       0.00000000       0.00000000 s 
O       12.31798452      10.19516038       7.38060000      10.92723166       0.00006027       0.00000000       0.00000000 s 
O       10.81116946      12.80493624       7.38060000      10.06184531       0.00004520      -0.00007830       0.00000000 s 
O        9.30433932      15.41484259       7.38060000       8.05684639       0.00001507      -0.00002610       0.00000000 s 
O        7.79761466      18.02456626       7.38060000       6.83737879       0.00009041      -0.00015659       0.00000000 s 
O        6.29078452      20.63447261       7.38060000       6.83733230       0.00006027      -0.00010439       0.00000000 s 
O        4.78395439      23.24437896       7.38060000       8.05684639       0.00003014      -0.00005220       0.00000000 s 
O        3.27712425      25.85428532       7.38060000      10.06184531       0.00000000       0.00000000       0.00000000 s 
O        1.77039959      28.46400898       7.38060000      12.47912395       0.00007534      -0.00013049       0.00000000 s 
O        0.26352425      31.07399363       7.38060000              inf       0.00000000       0.00000000       0.00000000 s 
O       19.85192425       2.36559791       7.38060000              inf       0.00000000       0.00000000       0.00000000 s 
O       18.34512425       4.97545206       7.38060000              inf       0.00000000       0.00000000       0.00000000 s 
O       16.83832425       7.58530622       7.38060000              inf       0.00000000       0.00000000       0.00000000 s 
O       15.33164480      10.19516038       7.38060000       9.59992618       0.00012054       0.00000000       0.00000000 s 
O       13.82492014      12.80488404       7.38060000       8.05692530       0.00019588      -0.00013049       0.00000000 s 
O       12.31809000      15.41479039       7.38060000       7.47203194       0.00016575      -0.00007830       0.00000000 s 
O       10.81125986      18.02469675       7.38060000       8.05684639       0.00013561      -0.00002610       0.00000000 s 
O        9.30444480      20.63447261       7.38060000       9.11466238       0.00012054      -0.00010439       0.00000000 s 
O        7.79761466      23.24437896       7.38060000       9.59992618       0.00009041      -0.00005220       0.00000000 s 
O        6.29072425      25.85428532       7.38060000              inf       0.00000000       0.00000000       0.00000000 s 
O        4.78392425      28.46413947       7.38060000              inf       0.00000000       0.00000000       0.00000000 s 
O        3.27712425      31.07399363       7.38060000              inf       0.00000000       0.00000000       0.00000000 s 
O       22.86552425       2.36559791       7.38060000              inf       0.00000000       0.00000000       0.00000000 s 
O       21.35872425       4.97545206       7.38060000              inf       0.00000000       0.00000000       0.00000000 s 
O       19.85192425       7.58530622       7.38060000              inf       0.00000000       0.00000000       0.00000000 s 
O       18.34530507      10.19516038       7.38060000       9.11466238       0.00018082       0.00000000       0.00000000 s 
O       16.83858041      12.80488404       7.38060000       6.83747177       0.00025616      -0.00013049       0.00000000 s 
O       15.33175027      15.41479039       7.38060000       5.34659593       0.00022602      -0.00007830       0.00000000 s 
O       13.82492014      18.02469675       7.38060000       5.34653648       0.00019588      -0.00002610       0.00000000 s 
O       12.31819548      20.63442041       7.38060000       6.83719284       0.00027122      -0.00015659       0.00000000 s 
O       10.81136534      23.24432677       7.38060000       9.11448801       0.00024109      -0.00010439       0.00000000 s 
O        9.30453520      25.85423312       7.38060000      11.72880530       0.00021095      -0.00005220       0.00000000 s 
O        7.79752425      28.46413947       7.38060000              inf       0.00000000       0.00000000       0.00000000 s 
O        6.29072425      31.07399363       7.38060000              inf       0.00000000       0.00000000       0.00000000 s 
O       25.87912425       2.36559791       7.38060000              inf       0.00000000       0.00000000       0.00000000 s 
O       24.37232425       4.97545206       7.38060000              inf       0.00000000       0.00000000       0.00000000 s 
O       22.86552425       7.58530622       7.38060000              inf       0.00000000       0.00000000       0.00000000 s 
O       21.35875439      10.19516038       7.38060000       9.59992618       0.00003014       0.00000000       0.00000000 s 
O       19.85202973      12.80488404       7.38060000       6.83751826       0.00010548      -0.00013049       0.00000000 s 
O       18.34519959      15.41479039       7.38060000       4.41647045       0.00007534      -0.00007830       0.00000000 s 
O       16.83836946      18.02469675       7.38060000       3.22847688       0.00004520      -0.00002610       0.00000000 s 
O       15.33164480      20.63442041       7.38060000       4.41632651       0.00012054      -0.00015659       0.00000000 s 
O       13.82481466      23.24432677       7.38060000       6.83733230       0.00009041      -0.00010439       0.00000000 s 
O       12.31798452      25.85423312       7.38060000       9.59992618       0.00006027      -0.00005220       0.00000000 s 
O       10.81112425      28.46413947       7.38060000              inf       0.00000000       0.00000000       0.00000000 s 
O        9.30432425      31.07399363       7.38060000              inf       0.00000000       0.00000000       0.00000000 s 
O       28.89272425       2.36559791       7.38060000              inf       0.00000000       0.00000000       0.00000000 s 
O       27.38592425       4.97545206       7.38060000              inf       0.00000000       0.00000000       0.00000000 s 
O       25.87912425       7.58530622       7.38060000              inf       0.00000000       0.00000000       0.00000000 s 
O       24.37241466      10.19516038       7.38060000      10.92723166       0.00009041       0.00000000       0.00000000 s 
O       22.86569000      12.80488404       7.38060000       8.05704365       0.00016575      -0.00013049       0.00000000 s 
O       21.35885986      15.41479039       7.38060000       5.34671483       0.00013561      -0.00007830       0.00000000 s 
O       19.85202973      18.02469675       7.38060000       3.22847688       0.00010548      -0.00002610       0.00000000 s 
O       18.34530507      20.63442041       7.38060000       3.22837843       0.00018082      -0.00015659       0.00000000 s 
O       16.83847493      23.24432677       7.38060000       5.34653648       0.00015068      -0.00010439       0.00000000 s 
O       15.33164480      25.85423312       7.38060000       8.05684639       0.00012054      -0.00005220       0.00000000 s 
O       13.82472425      28.46413947       7.38060000              inf       0.00000000       0.00000000       0.00000000 s 
O       12.31792425      31.07399363       7.38060000              inf       0.00000000       0.00000000       0.00000000 s 
O       31.90632425       2.36559791       7.38060000              inf       0.00000000       0.00000000       0.00000000 s 
O       30.39952425       4.97545206       7.38060000              inf       0.00000000       0.00000000       0.00000000 s 
O       28.89272425       7.58530622       7.38060000              inf       0.00000000       0.00000000       0.00000000 s 
O       27.38592425      10.19516038       7.38060000              inf       0.00000000       0.00000000       0.00000000 s 
O       25.87935027      12.80488404       7.38060000      10.06203485       0.00022602      -0.00013049       0.00000000 s 
O       24.37252014      15.41479039       7.38060000       7.47220210       0.00019588      -0.00007830       0.00000000 s 
O       22.86569000      18.02469675       7.38060000       5.34671483       0.00016575      -0.00002610       0.00000000 s 
O       21.35896534      20.63442041       7.38060000       4.41647045       0.00024109      -0.00015659       0.00000000 s 
O       19.85213520      23.24432677       7.38060000       5.34659593       0.00021095      -0.00010439       0.00000000 s 
O       18.34530507      25.85423312       7.38060000       7.47203194       0.00018082      -0.00005220       0.00000000 s 
O       16.83847493      28.46413947       7.38060000      10.06184531       0.00015068       0.00000000       0.00000000 s 
O       15.33152425      31.07399363       7.38060000              inf       0.00000000       0.00000000       0.00000000 s 
Cu      18.34519959      18.89466553      10.10010000       0.00000000       0.00000000       0.00000000       0.00000000 a1
Cu       1.77039959      16.28481138      10.10010000       0.00000000       0.00000000       0.00000000       0.00000000 a2
