222
Lattice="36.16319999999999 0.0 0.0 -18.081599999999995 31.318249882114287 0.0 0.0 0.0 30.0" Properties=species:S:1:pos:R:3:remoteness:R:1:shift:R:3:adsorption:S:1 size="_JSON [[12, 0], [0, 12]]" mass_center_dist=12.185480205464401 min_atom_dist=1.1851984617976379 s1=tpb_hollow_down s2=tpb_hollow_up s1idx=6 s2idx=9 pbc="T T T"
O       -1.24327575       2.36559791       7.38060000              inf       0.00000000       0.00000000       0.00000000 s 
O       -2.75007575       4.97545206       7.38060000              inf       0.00000000       0.00000000       0.00000000 s 
O       -4.25687575       7.58530622       7.38060000              inf       0.00000000       0.00000000       0.00000000 s 
O       -5.76367575      10.19516038       7.38060000              inf       0.00000000       0.00000000       0.00000000 s 
O       -7.27032507      12.80517112       7.38060000      11.72561138       0.00015068       0.00015659       0.00000000 s 
O       -8.77727575      15.41486869       7.38060000              inf       0.00000000       0.00000000       0.00000000 s 
O      -10.28400041      18.02469675       7.38060000      10.92711555       0.00007534      -0.00002610       0.00000000 s 
O      -11.79072507      20.63442041       7.38060000       9.59824117       0.00015068      -0.00015659       0.00000000 s 
O      -13.29755520      23.24432677       7.38060000       9.11111213       0.00012054      -0.00010439       0.00000000 s 
O      -14.80438534      25.85423312       7.38060000       9.59493571       0.00009041      -0.00005220       0.00000000 s 
O      -16.31121548      28.46413947       7.38060000      10.92142458       0.00006027       0.00000000       0.00000000 s 
O      -17.81807575      31.07399363       7.38060000              inf       0.00000000       0.00000000       0.00000000 s 
O        1.77032425       2.36559791       7.38060000              inf       0.00000000       0.00000000       0.00000000 s 
O        0.26352425       4.97545206       7.38060000              inf       0.00000000       0.00000000       0.00000000 s 
O       -1.24327575       7.58530622       7.38060000              inf       0.00000000       0.00000000       0.00000000 s 
O       -2.74983466      10.19526477       7.38060000       9.59946726       0.00024109       0.00010439       0.00000000 s 
O       -4.25666480      12.80517112       7.38060000       9.11210956       0.00021095       0.00015659       0.00000000 s 
O       -5.76360041      15.41489479       7.38060000       9.59573599       0.00007534       0.00002610       0.00000000 s 
O       -7.27043054      18.02480114       7.38060000      10.92185311       0.00004520       0.00007830       0.00000000 s 
O       -8.77727575      20.63457700       7.38060000              inf       0.00000000       0.00000000       0.00000000 s 
O      -10.28389493      23.24432677       7.38060000      11.72607078       0.00018082      -0.00010439       0.00000000 s 
O      -11.79072507      25.85423312       7.38060000      11.72471811       0.00015068      -0.00005220       0.00000000 s 
O      -13.29767575      28.46413947       7.38060000              inf       0.00000000       0.00000000       0.00000000 s 
O      -14.80447575      31.07399363       7.38060000              inf       0.00000000       0.00000000       0.00000000 s 
O        4.78392425       2.36559791       7.38060000              inf       0.00000000       0.00000000       0.00000000 s 
O        3.27712425       4.97545206       7.38060000              inf       0.00000000       0.00000000       0.00000000 s 
O        1.77044480       7.58535842       7.38060000      10.06494431       0.00012054       0.00005220       0.00000000 s 
O        0.26361466      10.19526477       7.38060000       8.05841572       0.00009041       0.00010439       0.00000000 s 
O       -1.24300452      12.80517112       7.38060000       6.83633055       0.00027122       0.00015659       0.00000000 s 
O       -2.74994014      15.41489479       7.38060000       6.83375739       0.00013561       0.00002610       0.00000000 s 
O       -4.25677027      18.02480114       7.38060000       8.05151029       0.00010548       0.00007830       0.00000000 s 
O       -5.76360041      20.63470750       7.38060000      10.05572933       0.00007534       0.00013049       0.00000000 s 
O       -7.27032507      23.24443116       7.38060000      12.47270683       0.00015068      -0.00000000       0.00000000 s 
O       -8.77727575      25.85428532       7.38060000              inf       0.00000000       0.00000000       0.00000000 s 
O      -10.28407575      28.46413947       7.38060000              inf       0.00000000       0.00000000       0.00000000 s 
O      -11.79087575      31.07399363       7.38060000              inf       0.00000000       0.00000000       0.00000000 s 
O        7.79752425       2.36559791       7.38060000              inf       0.00000000       0.00000000       0.00000000 s 
O        6.29072425       4.97545206       7.38060000              inf       0.00000000       0.00000000       0.00000000 s 
O        4.78410507       7.58535842       7.38060000      10.06654360       0.00018082       0.00005220       0.00000000 s 
O        3.27727493      10.19526477       7.38060000       7.47583520       0.00015068       0.00010439       0.00000000 s 
O        1.77044480      12.80517112       7.38060000       5.34838481       0.00012054       0.00015659       0.00000000 s 
O        0.26372014      15.41489479       7.38060000       4.41436602       0.00019588       0.00002610       0.00000000 s 
O       -1.24311000      18.02480114       7.38060000       5.34144709       0.00016575       0.00007830       0.00000000 s 
O       -2.74994014      20.63470750       7.38060000       7.46590806       0.00013561       0.00013049       0.00000000 s 
O       -4.25687575      23.24443116       7.38060000      10.05545476       0.00000000       0.00000000       0.00000000 s 
O       -5.76367575      25.85428532       7.38060000              inf       0.00000000       0.00000000       0.00000000 s 
O       -7.27047575      28.46413947       7.38060000              inf       0.00000000       0.00000000       0.00000000 s 
O       -8.77727575      31.07399363       7.38060000              inf       0.00000000       0.00000000       0.00000000 s 
O       10.81112425       2.36559791       7.38060000              inf       0.00000000       0.00000000       0.00000000 s 
O        9.30432425       4.97545206       7.38060000              inf       0.00000000       0.00000000       0.00000000 s 
O        7.79752425       7.58530622       7.38060000              inf       0.00000000       0.00000000       0.00000000 s 
O        6.29093520      10.19526477       7.38060000       8.06241008       0.00021095       0.00010439       0.00000000 s 
O        4.78410507      12.80517112       7.38060000       5.35139386       0.00018082       0.00015659       0.00000000 s 
O        3.27716946      15.41489479       7.38060000       3.23068240       0.00004520       0.00002610       0.00000000 s 
O        1.77055027      18.02480114       7.38060000       3.22483991       0.00022602       0.00007830       0.00000000 s 
O        0.26372014      20.63470750       7.38060000       5.34098964       0.00019588       0.00013049       0.00000000 s 
O       -1.24321548      23.24443116       7.38060000       8.05082441       0.00006027      -0.00000000       0.00000000 s 
O       -2.75004561      25.85433752       7.38060000      10.92109467       0.00003014       0.00005220       0.00000000 s 
O       -4.25687575      28.46413947       7.38060000              inf       0.00000000       0.00000000       0.00000000 s 
O       -5.76367575      31.07399363       7.38060000              inf       0.00000000       0.00000000       0.00000000 s 
O       13.82472425       2.36559791       7.38060000              inf       0.00000000       0.00000000       0.00000000 s 
O       12.31792425       4.97545206       7.38060000              inf       0.00000000       0.00000000       0.00000000 s 
O       10.81112425       7.58530622       7.38060000              inf       0.00000000       0.00000000       0.00000000 s 
O        9.30438452      10.19526477       7.38060000       9.60617260       0.00006027       0.00010439       0.00000000 s 
O        7.79776534      12.80517112       7.38060000       6.84353045       0.00024109       0.00015659       0.00000000 s 
O        6.29082973      15.41489479       7.38060000       4.42165326       0.00010548       0.00002610       0.00000000 s 
O        4.78399959      18.02480114       7.38060000       3.22982762       0.00007534       0.00007830       0.00000000 s 
O        3.27738041      20.63470750       7.38060000       4.41325890       0.00025616       0.00013049       0.00000000 s 
O        1.77044480      23.24443116       7.38060000       6.83254516       0.00012054      -0.00000000       0.00000000 s 
O        0.26361466      25.85433751       7.38060000       9.59458494       0.00009041       0.00005220       0.00000000 s 
O       -1.24327575      28.46413947       7.38060000              inf       0.00000000       0.00000000       0.00000000 s 
O       -2.75007575      31.07399363       7.38060000              inf       0.00000000       0.00000000       0.00000000 s 
O       16.83832425       2.36559791       7.38060000              inf       0.00000000       0.00000000       0.00000000 s 
O       15.33152425       4.97545206       7.38060000              inf       0.00000000       0.00000000       0.00000000 s 
O       13.82472425       7.58530622       7.38060000              inf       0.00000000       0.00000000       0.00000000 s 
O       12.31804480      10.19516038       7.38060000       9.60586231       0.00012054       0.00000000       0.00000000 s 
O       10.81132014      12.80488404       7.38060000       8.06206983       0.00019588      -0.00013049       0.00000000 s 
O        9.30449000      15.41489479       7.38060000       6.84317344       0.00016575       0.00002610       0.00000000 s 
O        7.79765986      18.02480114       7.38060000       5.35048067       0.00013561       0.00007830       0.00000000 s 
O        6.29082973      20.63470750       7.38060000       5.34701417       0.00010548       0.00013049       0.00000000 s 
O        4.78410507      23.24443116       7.38060000       6.83490085       0.00018082      -0.00000000       0.00000000 s 
O        3.27727493      25.85433751       7.38060000       9.11076881       0.00015068       0.00005220       0.00000000 s 
O        1.77044480      28.46424387       7.38060000      11.72436111       0.00012054       0.00010439       0.00000000 s 
O        0.26352425      31.07399363       7.38060000              inf       0.00000000       0.00000000       0.00000000 s 
O       19.85192425       2.36559791       7.38060000              inf       0.00000000       0.00000000       0.00000000 s 
O       18.34512425       4.97545206       7.38060000              inf       0.00000000       0.00000000       0.00000000 s 
O       16.83832425       7.58530622       7.38060000              inf       0.00000000       0.00000000       0.00000000 s 
O       15.33170507      10.19516038       7.38060000       9.12070152       0.00018082       0.00000000       0.00000000 s 
O       13.82498041      12.80488404       7.38060000       6.84324945       0.00025616      -0.00013049       0.00000000 s 
O       12.31815027      15.41479039       7.38060000       5.35107890       0.00022602      -0.00007830       0.00000000 s 
O       10.81132014      18.02469675       7.38060000       5.34811408       0.00019588      -0.00002610       0.00000000 s 
O        9.30459548      20.63442041       7.38060000       6.83615350       0.00027122      -0.00015659       0.00000000 s 
O        7.79755439      23.24443116       7.38060000       8.05670236       0.00003014       0.00000000       0.00000000 s 
O        6.29093520      25.85433752       7.38060000       9.59794003       0.00021095       0.00005220       0.00000000 s 
O        4.78410507      28.46424387       7.38060000      11.72573407       0.00018082       0.00010439       0.00000000 s 
O        3.27712425      31.07399363       7.38060000              inf       0.00000000       0.00000000       0.00000000 s 
O       22.86552425       2.36559791       7.38060000              inf       0.00000000       0.00000000       0.00000000 s 
O       21.35872425       4.97545206       7.38060000              inf       0.00000000       0.00000000       0.00000000 s 
O       19.85192425       7.58530622       7.38060000              inf       0.00000000       0.00000000       0.00000000 s 
O       18.34515439      10.19516038       7.38060000       9.60545819       0.00003014       0.00000000       0.00000000 s 
O       16.83842973      12.80488404       7.38060000       6.84301227       0.00010548      -0.00013049       0.00000000 s 
O       15.33159959      15.41479039       7.38060000       4.42145755       0.00007534      -0.00007830       0.00000000 s 
O       13.82476946      18.02469675       7.38060000       3.23048808       0.00004520      -0.00002610       0.00000000 s 
O       12.31804480      20.63442041       7.38060000       4.41427761       0.00012054      -0.00015659       0.00000000 s 
O       10.81121466      23.24432677       7.38060000       6.83373504       0.00009041      -0.00010439       0.00000000 s 
O        9.30438452      25.85423312       7.38060000       9.59574483       0.00006027      -0.00005220       0.00000000 s 
O        7.79752425      28.46413947       7.38060000              inf       0.00000000       0.00000000       0.00000000 s 
O        6.29072425      31.07399363       7.38060000              inf       0.00000000       0.00000000       0.00000000 s 
O       25.87912425       2.36559791       7.38060000              inf       0.00000000       0.00000000       0.00000000 s 
O       24.37232425       4.97545206       7.38060000              inf       0.00000000       0.00000000       0.00000000 s 
O       22.86552425       7.58530622       7.38060000              inf       0.00000000       0.00000000       0.00000000 s 
O       21.35872425      10.19516038       7.38060000              inf       0.00000000       0.00000000       0.00000000 s 
O       19.85209000      12.80488404       7.38060000       8.06146584       0.00016575      -0.00013049       0.00000000 s 
O       18.34525986      15.41479039       7.38060000       5.35047223       0.00013561      -0.00007830       0.00000000 s 
O       16.83842973      18.02469675       7.38060000       3.22988719       0.00010548      -0.00002610       0.00000000 s 
O       15.33170507      20.63442041       7.38060000       3.22497323       0.00018082      -0.00015659       0.00000000 s 
O       13.82487493      23.24432677       7.38060000       5.34157205       0.00015068      -0.00010439       0.00000000 s 
O       12.31804480      25.85423312       7.38060000       8.05162269       0.00012054      -0.00005220       0.00000000 s 
O       10.81121466      28.46413947       7.38060000      10.92195772       0.00009041       0.00000000       0.00000000 s 
O        9.30432425      31.07399363       7.38060000              inf       0.00000000       0.00000000       0.00000000 s 
O       28.89272425       2.36559791       7.38060000              inf       0.00000000       0.00000000       0.00000000 s 
O       27.38592425       4.97545206       7.38060000              inf       0.00000000       0.00000000       0.00000000 s 
O       25.87912425       7.58530622       7.38060000              inf       0.00000000       0.00000000       0.00000000 s 
O       24.37232425      10.19516038       7.38060000              inf       0.00000000       0.00000000       0.00000000 s 
O       22.86575027      12.80488404       7.38060000      10.06538337       0.00022602      -0.00013049       0.00000000 s 
O       21.35892014      15.41479039       7.38060000       7.47463149       0.00019588      -0.00007830       0.00000000 s 
O       19.85209000      18.02469675       7.38060000       5.34720354       0.00016575      -0.00002610       0.00000000 s 
O       18.34536534      20.63442041       7.38060000       4.41354215       0.00024109      -0.00015659       0.00000000 s 
O       16.83853520      23.24432677       7.38060000       5.34126817       0.00021095      -0.00010439       0.00000000 s 
O       15.33170507      25.85423312       7.38060000       7.46613913       0.00018082      -0.00005220       0.00000000 s 
O       13.82487493      28.46413947       7.38060000      10.05592451       0.00015068       0.00000000       0.00000000 s 
O       12.31792425      31.07399363       7.38060000              inf       0.00000000       0.00000000       0.00000000 s 
O       31.90632425       2.36559791       7.38060000              inf       0.00000000       0.00000000       0.00000000 s 
O       30.39952425       4.97545206       7.38060000              inf       0.00000000       0.00000000       0.00000000 s 
O       28.89272425       7.58530622       7.38060000              inf       0.00000000       0.00000000       0.00000000 s 
O       27.38592425      10.19516038       7.38060000              inf       0.00000000       0.00000000       0.00000000 s 
O       25.87912425      12.80501453       7.38060000              inf       0.00000000       0.00000000       0.00000000 s 
O       24.37236946      15.41479039       7.38060000      10.06345671       0.00004520      -0.00007830       0.00000000 s 
O       22.86553932      18.02469675       7.38060000       8.05692983       0.00001507      -0.00002610       0.00000000 s 
O       21.35881466      20.63442041       7.38060000       6.83520373       0.00009041      -0.00015659       0.00000000 s 
O       19.85198452      23.24432677       7.38060000       6.83288292       0.00006027      -0.00010439       0.00000000 s 
O       18.34515439      25.85423312       7.38060000       8.05114056       0.00003014      -0.00005220       0.00000000 s 
O       16.83832425      28.46413947       7.38060000      10.05573150       0.00000000       0.00000000       0.00000000 s 
O       15.33159959      31.07386314       7.38060000      12.47294899       0.00007534      -0.00013049       0.00000000 s 
N       15.30153893      13.17373473      10.10010000       0.00000000       0.00000000       0.00000000       0.00000000 a1
H       13.22999029      13.26982956      10.10010000       0.00000000       0.00000000       0.00000000       0.00000000 a1
H       17.37677923      13.24005112      10.10010000       0.00000000       0.00000000       0.00000000       0.00000000 a1
C       14.15628052      13.85005234      10.10010000       0.00000000       0.00000000       0.00000000       0.00000000 a1
C       16.45945446      13.83324487      10.10010000       0.00000000       0.00000000       0.00000000       0.00000000 a1
C       14.12062964      15.25384069      10.10010000       0.00000000       0.00000000       0.00000000       0.00000000 a1
C       16.51598960      15.23337943      10.10010000       0.00000000       0.00000000       0.00000000       0.00000000 a1
H       13.14191783      15.72828608      10.10010000       0.00000000       0.00000000       0.00000000       0.00000000 a1
C       15.32200128      15.99117669      10.10010000       0.00000000       0.00000000       0.00000000       0.00000000 a1
H       17.50261210      15.69302695      10.10010000       0.00000000       0.00000000       0.00000000       0.00000000 a1
C       15.33149412      17.47132937      10.10010000       0.00000000       0.00000000       0.00000000       0.00000000 a1
H       13.18453014      17.66333634      10.10010000       0.00000000       0.00000000       0.00000000       0.00000000 a1
H       17.47793072      17.64488467      10.10010000       0.00000000       0.00000000       0.00000000       0.00000000 a1
C       14.12453225      18.20482888      10.10010000       0.00000000       0.00000000       0.00000000       0.00000000 a1
C       16.54088193      18.19149253      10.10010000       0.00000000       0.00000000       0.00000000       0.00000000 a1
H       11.48320226      18.62538078      10.10010000       0.00000000       0.00000000       0.00000000       0.00000000 a1
H       19.18780215      18.60090035      10.10010000       0.00000000       0.00000000       0.00000000       0.00000000 a1
C       11.57802518      19.70781779      10.10010000       0.00000000       0.00000000       0.00000000       0.00000000 a1
C       14.10280419      19.60788648      10.10010000       0.00000000       0.00000000       0.00000000       0.00000000 a1
C       16.57041521      19.59966544      10.10010000       0.00000000       0.00000000       0.00000000       0.00000000 a1
C       19.09561613      19.68498157      10.10010000       0.00000000       0.00000000       0.00000000       0.00000000 a1
H        9.42125193      19.96614116      10.10010000       0.00000000       0.00000000       0.00000000       0.00000000 a1
C       12.82897054      20.36148187      10.10010000       0.00000000       0.00000000       0.00000000       0.00000000 a1
C       10.39574470      20.45775939      10.10010000       0.00000000       0.00000000       0.00000000       0.00000000 a1
C       15.34056505      20.28219450      10.10010000       0.00000000       0.00000000       0.00000000       0.00000000 a1
C       17.85121028      20.34156868      10.10010000       0.00000000       0.00000000       0.00000000       0.00000000 a1
H       21.25724127      19.93636272      10.10010000       0.00000000       0.00000000       0.00000000       0.00000000 a1
C       20.28306494      20.43291357      10.10010000       0.00000000       0.00000000       0.00000000       0.00000000 a1
N       10.40787444      21.79011603      10.10010000       0.00000000       0.00000000       0.00000000       0.00000000 a1
C       12.79616750      21.76910670      10.10010000       0.00000000       0.00000000       0.00000000       0.00000000 a1
H       15.34541695      21.36700647      10.10010000       0.00000000       0.00000000       0.00000000       0.00000000 a1
C       17.88991997      21.75430883      10.10010000       0.00000000       0.00000000       0.00000000       0.00000000 a1
N       20.27684185      21.76198180      10.10010000       0.00000000       0.00000000       0.00000000       0.00000000 a1
C       11.56420782      22.44177052      10.10010000       0.00000000       0.00000000       0.00000000       0.00000000 a1
C       19.12103584      22.42258809      10.10010000       0.00000000       0.00000000       0.00000000       0.00000000 a1
H       13.69809278      22.37691564      10.10010000       0.00000000       0.00000000       0.00000000       0.00000000 a1
H       16.99010422      22.36394466      10.10010000       0.00000000       0.00000000       0.00000000       0.00000000 a1
H       11.52265028      23.53498622      10.10010000       0.00000000       0.00000000       0.00000000       0.00000000 a1
H       19.16797266      23.51342883      10.10010000       0.00000000       0.00000000       0.00000000       0.00000000 a1
N       -1.67250280      20.04918672      10.10010000       0.00000000       0.00000000       0.00000000       0.00000000 a2
H       -0.55361339      21.79497036      10.10010000       0.00000000       0.00000000       0.00000000       0.00000000 a2
H       -2.65269126      18.21881770      10.10010000       0.00000000       0.00000000       0.00000000       0.00000000 a2
C       -0.51416536      20.70285079      10.10010000       0.00000000       0.00000000       0.00000000       0.00000000 a2
C       -1.68062445      18.71646469      10.10010000       0.00000000       0.00000000       0.00000000       0.00000000 a2
C        0.71906003      20.03164850      10.10010000       0.00000000       0.00000000       0.00000000       0.00000000 a2
C       -0.49623444      17.96761924      10.10010000       0.00000000       0.00000000       0.00000000       0.00000000 a2
H        1.61940316      20.64219778      10.10010000       0.00000000       0.00000000       0.00000000       0.00000000 a2
C        0.75703139      18.62274483      10.10010000       0.00000000       0.00000000       0.00000000       0.00000000 a2
H       -0.59147927      16.88335533      10.10010000       0.00000000       0.00000000       0.00000000       0.00000000 a2
C        2.03424027      17.87426476      10.10010000       0.00000000       0.00000000       0.00000000       0.00000000 a2
H        3.27411065      19.63776931      10.10010000       0.00000000       0.00000000       0.00000000       0.00000000 a2
H        1.11132527      15.92861848      10.10010000       0.00000000       0.00000000       0.00000000       0.00000000 a2
C        3.27284494      18.55295733      10.10010000       0.00000000       0.00000000       0.00000000       0.00000000 a2
C        2.05333143      16.46700530      10.10010000       0.00000000       0.00000000       0.00000000       0.00000000 a2
H        4.95761309      20.62995756      10.10010000       0.00000000       0.00000000       0.00000000       0.00000000 a2
H        1.08411246      13.96981854      10.10010000       0.00000000       0.00000000       0.00000000       0.00000000 a2
C        5.84793600      20.00680269      10.10010000       0.00000000       0.00000000       0.00000000       0.00000000 a2
C        4.49879249      17.87024558      10.10010000       0.00000000       0.00000000       0.00000000       0.00000000 a2
C        3.25797282      15.73715958      10.10010000       0.00000000       0.00000000       0.00000000       0.00000000 a2
C        2.06915283      13.50779606      10.10010000       0.00000000       0.00000000       0.00000000       0.00000000 a2
H        7.14982627      21.74546143      10.10010000       0.00000000       0.00000000       0.00000000       0.00000000 a2
C        5.78834206      18.59662019      10.10010000       0.00000000       0.00000000       0.00000000       0.00000000 a2
C        7.08854472      20.65571682      10.10010000       0.00000000       0.00000000       0.00000000       0.00000000 a2
C        4.46387993      16.46115922      10.10010000       0.00000000       0.00000000       0.00000000       0.00000000 a2
C        3.25997687      14.25718958      10.10010000       0.00000000       0.00000000       0.00000000       0.00000000 a2
H        1.20625367      11.51008320      10.10010000       0.00000000       0.00000000       0.00000000       0.00000000 a2
C        2.12326202      12.10528654      10.10010000       0.00000000       0.00000000       0.00000000       0.00000000 a2
N        8.23612360      19.97903384      10.10010000       0.00000000       0.00000000       0.00000000       0.00000000 a2
C        7.02378245      17.92121603      10.10010000       0.00000000       0.00000000       0.00000000       0.00000000 a2
H        5.40113967      15.91455137      10.10010000       0.00000000       0.00000000       0.00000000       0.00000000 a2
C        4.46398541      13.51711324      10.10010000       0.00000000       0.00000000       0.00000000       0.00000000 a2
N        3.27727493      11.44632446      10.10010000       0.00000000       0.00000000       0.00000000       0.00000000 a2
C        8.22220076      18.65160982      10.10010000       0.00000000       0.00000000       0.00000000       0.00000000 a2
C        4.42749071      12.11697868      10.10010000       0.00000000       0.00000000       0.00000000       0.00000000 a2
H        7.09919779      16.83622136      10.10010000       0.00000000       0.00000000       0.00000000       0.00000000 a2
H        5.44185340      13.99155863      10.10010000       0.00000000       0.00000000       0.00000000       0.00000000 a2
H        9.18983759      18.14117454      10.10010000       0.00000000       0.00000000       0.00000000       0.00000000 a2
H        5.34840167      11.53072714      10.10010000       0.00000000       0.00000000       0.00000000       0.00000000 a2
