184
Lattice="36.16319999999999 0.0 0.0 -18.081599999999995 31.318249882114287 0.0 0.0 0.0 30.0" Properties=species:S:1:pos:R:3:remoteness:R:1:shift:R:3:adsorption:S:1 size="_JSON [[12, 0], [0, 12]]" mass_center_dist=10.585726462167079 min_atom_dist=4.62884784536441 s1=cu_hollow s2=tpb_atop s1idx=2 s2idx=4 pbc="T T T"
O       -1.24327575       2.36559791       7.38060000              inf       0.00000000       0.00000000       0.00000000 s 
O       -2.75007575       4.97545206       7.38060000              inf       0.00000000       0.00000000       0.00000000 s 
O       -4.25687575       7.58530622       7.38060000              inf       0.00000000       0.00000000       0.00000000 s 
O       -5.76367575      10.19516038       7.38060000              inf       0.00000000       0.00000000       0.00000000 s 
O       -7.27047575      12.80501453       7.38060000              inf       0.00000000       0.00000000       0.00000000 s 
O       -8.77727575      15.41486869       7.38060000              inf       0.00000000       0.00000000       0.00000000 s 
O      -10.28407575      18.02472285       7.38060000              inf       0.00000000       0.00000000       0.00000000 s 
O      -11.79072507      20.63442041       7.38060000       9.59999241       0.00015068      -0.00015659       0.00000000 s 
O      -13.29755520      23.24432677       7.38060000       9.11466238       0.00012054      -0.00010439       0.00000000 s 
O      -14.80438534      25.85423312       7.38060000       9.59992618       0.00009041      -0.00005220       0.00000000 s 
O      -16.31127575      28.46413947       7.38060000              inf       0.00000000       0.00000000       0.00000000 s 
O      -17.81807575      31.07399363       7.38060000              inf       0.00000000       0.00000000       0.00000000 s 
O        1.77032425       2.36559791       7.38060000              inf       0.00000000       0.00000000       0.00000000 s 
O        0.26352425       4.97545206       7.38060000              inf       0.00000000       0.00000000       0.00000000 s 
O       -1.24327575       7.58530622       7.38060000              inf       0.00000000       0.00000000       0.00000000 s 
O       -2.75007575      10.19516038       7.38060000              inf       0.00000000       0.00000000       0.00000000 s 
O       -4.25683054      12.80493624       7.38060000      10.78913708       0.00004520      -0.00007830       0.00000000 s 
O       -5.76366068      15.41484259       7.38060000      11.19992230       0.00001507      -0.00002610       0.00000000 s 
O       -7.27047575      18.02472285       7.38060000              inf       0.00000000       0.00000000       0.00000000 s 
O       -8.77727575      20.63457700       7.38060000              inf       0.00000000       0.00000000       0.00000000 s 
O      -10.28407575      23.24443116       7.38060000              inf       0.00000000       0.00000000       0.00000000 s 
O      -11.79072507      25.85423312       7.38060000      11.72896791       0.00015068      -0.00005220       0.00000000 s 
O      -13.29767575      28.46413947       7.38060000              inf       0.00000000       0.00000000       0.00000000 s 
O      -14.80447575      31.07399363       7.38060000              inf       0.00000000       0.00000000       0.00000000 s 
O        4.78392425       2.36559791       7.38060000              inf       0.00000000       0.00000000       0.00000000 s 
O        3.27712425       4.97545206       7.38060000              inf       0.00000000       0.00000000       0.00000000 s 
O        1.77032425       7.58530622       7.38060000              inf       0.00000000       0.00000000       0.00000000 s 
O        0.26365986      10.19502988       7.38060000       9.44600961       0.00013561      -0.00013049       0.00000000 s 
O       -1.24317027      12.80493624       7.38060000       8.42694687       0.00010548      -0.00007830       0.00000000 s 
O       -2.75000041      15.41484259       7.38060000       8.42401722       0.00007534      -0.00002610       0.00000000 s 
O       -4.25672507      18.02456626       7.38060000       9.43806608       0.00015068      -0.00015659       0.00000000 s 
O       -5.76355520      20.63447261       7.38060000      11.19620674       0.00012054      -0.00010439       0.00000000 s 
O       -7.27047575      23.24443116       7.38060000              inf       0.00000000       0.00000000       0.00000000 s 
O       -8.77727575      25.85428532       7.38060000              inf       0.00000000       0.00000000       0.00000000 s 
O      -10.28407575      28.46413947       7.38060000              inf       0.00000000       0.00000000       0.00000000 s 
O      -11.79087575      31.07399363       7.38060000              inf       0.00000000       0.00000000       0.00000000 s 
O        7.79752425       2.36559791       7.38060000              inf       0.00000000       0.00000000       0.00000000 s 
O        6.29072425       4.97545206       7.38060000              inf       0.00000000       0.00000000       0.00000000 s 
O        4.78404480       7.58530622       7.38060000      10.79526691       0.00012054       0.00000000       0.00000000 s 
O        3.27732014      10.19502988       7.38060000       8.43098434       0.00019588      -0.00013049       0.00000000 s 
O        1.77049000      12.80493624       7.38060000       6.61707524       0.00016575      -0.00007830       0.00000000 s 
O        0.26365986      15.41484259       7.38060000       5.88677917       0.00013561      -0.00002610       0.00000000 s 
O       -1.24306480      18.02456626       7.38060000       6.60951449       0.00021095      -0.00015659       0.00000000 s 
O       -2.74989493      20.63447261       7.38060000       8.41911442       0.00018082      -0.00010439       0.00000000 s 
O       -4.25672507      23.24437896       7.38060000      10.78153931       0.00015068      -0.00005220       0.00000000 s 
O       -5.76367575      25.85428532       7.38060000              inf       0.00000000       0.00000000       0.00000000 s 
O       -7.27047575      28.46413947       7.38060000              inf       0.00000000       0.00000000       0.00000000 s 
O       -8.77727575      31.07399363       7.38060000              inf       0.00000000       0.00000000       0.00000000 s 
O       10.81112425       2.36559791       7.38060000              inf       0.00000000       0.00000000       0.00000000 s 
O        9.30432425       4.97545206       7.38060000              inf       0.00000000       0.00000000       0.00000000 s 
O        7.79752425       7.58530622       7.38060000              inf       0.00000000       0.00000000       0.00000000 s 
O        6.29098041      10.19502988       7.38060000       8.43209302       0.00025616      -0.00013049       0.00000000 s 
O        4.78415027      12.80493624       7.38060000       5.89255737       0.00022602      -0.00007830       0.00000000 s 
O        3.27732014      15.41484259       7.38060000       4.06307377       0.00019588      -0.00002610       0.00000000 s 
O        1.77059548      18.02456626       7.38060000       4.05691616       0.00027122      -0.00015659       0.00000000 s 
O        0.26376534      20.63447261       7.38060000       5.87981516       0.00024109      -0.00010439       0.00000000 s 
O       -1.24306480      23.24437896       7.38060000       8.41725492       0.00021095      -0.00005220       0.00000000 s 
O       -2.74989493      25.85428532       7.38060000      11.19341015       0.00018082       0.00000000       0.00000000 s 
O       -4.25687575      28.46413947       7.38060000              inf       0.00000000       0.00000000       0.00000000 s 
O       -5.76367575      31.07399363       7.38060000              inf       0.00000000       0.00000000       0.00000000 s 
O       13.82472425       2.36559791       7.38060000              inf       0.00000000       0.00000000       0.00000000 s 
O       12.31792425       4.97545206       7.38060000              inf       0.00000000       0.00000000       0.00000000 s 
O       10.81112425       7.58530622       7.38060000              inf       0.00000000       0.00000000       0.00000000 s 
O        9.30442973      10.19502988       7.38060000       9.44887700       0.00010548      -0.00013049       0.00000000 s 
O        7.79759959      12.80493624       7.38060000       6.61980391       0.00007534      -0.00007830       0.00000000 s 
O        6.29076946      15.41484259       7.38060000       4.06529548       0.00004520      -0.00002610       0.00000000 s 
O        4.78404480      18.02456626       7.38060000       2.71951298       0.00012054      -0.00015659       0.00000000 s 
O        3.27721466      20.63447261       7.38060000       4.05313408       0.00009041      -0.00010439       0.00000000 s 
O        1.77038452      23.24437896       7.38060000       6.60487225       0.00006027      -0.00005220       0.00000000 s 
O        0.26355439      25.85428532       7.38060000       9.43319010       0.00003014       0.00000000       0.00000000 s 
O       -1.24327575      28.46413947       7.38060000              inf       0.00000000       0.00000000       0.00000000 s 
O       -2.75007575      31.07399363       7.38060000              inf       0.00000000       0.00000000       0.00000000 s 
O       16.83832425       2.36559791       7.38060000              inf       0.00000000       0.00000000       0.00000000 s 
O       15.33152425       4.97545206       7.38060000              inf       0.00000000       0.00000000       0.00000000 s 
O       13.82472425       7.58530622       7.38060000              inf       0.00000000       0.00000000       0.00000000 s 
O       12.31804480      10.19516038       7.38060000       9.59992618       0.00012054       0.00000000       0.00000000 s 
O       10.81132014      12.80488404       7.38060000       8.05692530       0.00019588      -0.00013049       0.00000000 s 
O        9.30442973      15.41484259       7.38060000       5.89137914       0.00010548      -0.00002610       0.00000000 s 
O        7.79770507      18.02456626       7.38060000       4.06152179       0.00018082      -0.00015659       0.00000000 s 
O        6.29087493      20.63447261       7.38060000       4.05536139       0.00015068      -0.00010439       0.00000000 s 
O        4.78404480      23.24437896       7.38060000       5.87879659       0.00012054      -0.00005220       0.00000000 s 
O        3.27721466      25.85428532       7.38060000       8.41658120       0.00009041       0.00000000       0.00000000 s 
O        1.77049000      28.46400898       7.38060000      11.19273330       0.00016575      -0.00013049       0.00000000 s 
O        0.26352425      31.07399363       7.38060000              inf       0.00000000       0.00000000       0.00000000 s 
O       19.85192425       2.36559791       7.38060000              inf       0.00000000       0.00000000       0.00000000 s 
O       18.34512425       4.97545206       7.38060000              inf       0.00000000       0.00000000       0.00000000 s 
O       16.83832425       7.58530622       7.38060000              inf       0.00000000       0.00000000       0.00000000 s 
O       15.33170507      10.19516038       7.38060000       9.11466238       0.00018082       0.00000000       0.00000000 s 
O       13.82498041      12.80488404       7.38060000       6.83747177       0.00025616      -0.00013049       0.00000000 s 
O       12.31815027      15.41479039       7.38060000       5.34659593       0.00022602      -0.00007830       0.00000000 s 
O       10.81132014      18.02469675       7.38060000       5.34653648       0.00019588      -0.00002610       0.00000000 s 
O        9.30453520      20.63447261       7.38060000       5.88458262       0.00021095      -0.00010439       0.00000000 s 
O        7.79770507      23.24437896       7.38060000       6.60760605       0.00018082      -0.00005220       0.00000000 s 
O        6.29087493      25.85428532       7.38060000       8.41765402       0.00015068       0.00000000       0.00000000 s 
O        4.78415027      28.46400898       7.38060000      10.78025168       0.00022602      -0.00013049       0.00000000 s 
O        3.27712425      31.07399363       7.38060000              inf       0.00000000       0.00000000       0.00000000 s 
O       22.86552425       2.36559791       7.38060000              inf       0.00000000       0.00000000       0.00000000 s 
O       21.35872425       4.97545206       7.38060000              inf       0.00000000       0.00000000       0.00000000 s 
O       19.85192425       7.58530622       7.38060000              inf       0.00000000       0.00000000       0.00000000 s 
O       18.34515439      10.19516038       7.38060000       9.59992618       0.00003014       0.00000000       0.00000000 s 
O       16.83842973      12.80488404       7.38060000       6.83751826       0.00010548      -0.00013049       0.00000000 s 
O       15.33159959      15.41479039       7.38060000       4.41647045       0.00007534      -0.00007830       0.00000000 s 
O       13.82476946      18.02469675       7.38060000       3.22847688       0.00004520      -0.00002610       0.00000000 s 
O       12.31804480      20.63442041       7.38060000       4.41632651       0.00012054      -0.00015659       0.00000000 s 
O       10.81121466      23.24432677       7.38060000       6.83733230       0.00009041      -0.00010439       0.00000000 s 
O        9.30432425      25.85428532       7.38060000       9.43596033       0.00000000      -0.00000000       0.00000000 s 
O        7.79759959      28.46400898       7.38060000      11.19434668       0.00007534      -0.00013049       0.00000000 s 
O        6.29072425      31.07399363       7.38060000              inf       0.00000000       0.00000000       0.00000000 s 
O       25.87912425       2.36559791       7.38060000              inf       0.00000000       0.00000000       0.00000000 s 
O       24.37232425       4.97545206       7.38060000              inf       0.00000000       0.00000000       0.00000000 s 
O       22.86552425       7.58530622       7.38060000              inf       0.00000000       0.00000000       0.00000000 s 
O       21.35881466      10.19516038       7.38060000      10.92723166       0.00009041       0.00000000       0.00000000 s 
O       19.85209000      12.80488404       7.38060000       8.05704365       0.00016575      -0.00013049       0.00000000 s 
O       18.34525986      15.41479039       7.38060000       5.34671483       0.00013561      -0.00007830       0.00000000 s 
O       16.83842973      18.02469675       7.38060000       3.22847688       0.00010548      -0.00002610       0.00000000 s 
O       15.33170507      20.63442041       7.38060000       3.22837843       0.00018082      -0.00015659       0.00000000 s 
O       13.82487493      23.24432677       7.38060000       5.34653648       0.00015068      -0.00010439       0.00000000 s 
O       12.31804480      25.85423312       7.38060000       8.05684639       0.00012054      -0.00005220       0.00000000 s 
O       10.81112425      28.46413947       7.38060000              inf       0.00000000       0.00000000       0.00000000 s 
O        9.30432425      31.07399363       7.38060000              inf       0.00000000       0.00000000       0.00000000 s 
O       28.89272425       2.36559791       7.38060000              inf       0.00000000       0.00000000       0.00000000 s 
O       27.38592425       4.97545206       7.38060000              inf       0.00000000       0.00000000       0.00000000 s 
O       25.87912425       7.58530622       7.38060000              inf       0.00000000       0.00000000       0.00000000 s 
O       24.37232425      10.19516038       7.38060000              inf       0.00000000       0.00000000       0.00000000 s 
O       22.86575027      12.80488404       7.38060000      10.06203485       0.00022602      -0.00013049       0.00000000 s 
O       21.35892014      15.41479039       7.38060000       7.47220210       0.00019588      -0.00007830       0.00000000 s 
O       19.85209000      18.02469675       7.38060000       5.34671483       0.00016575      -0.00002610       0.00000000 s 
O       18.34536534      20.63442041       7.38060000       4.41647045       0.00024109      -0.00015659       0.00000000 s 
O       16.83853520      23.24432677       7.38060000       5.34659593       0.00021095      -0.00010439       0.00000000 s 
O       15.33170507      25.85423312       7.38060000       7.47203194       0.00018082      -0.00005220       0.00000000 s 
O       13.82487493      28.46413947       7.38060000      10.06184531       0.00015068       0.00000000       0.00000000 s 
O       12.31792425      31.07399363       7.38060000              inf       0.00000000       0.00000000       0.00000000 s 
O       31.90632425       2.36559791       7.38060000              inf       0.00000000       0.00000000       0.00000000 s 
O       30.39952425       4.97545206       7.38060000              inf       0.00000000       0.00000000       0.00000000 s 
O       28.89272425       7.58530622       7.38060000              inf       0.00000000       0.00000000       0.00000000 s 
O       27.38592425      10.19516038       7.38060000              inf       0.00000000       0.00000000       0.00000000 s 
O       25.87912425      12.80501453       7.38060000              inf       0.00000000       0.00000000       0.00000000 s 
O       24.37236946      15.41479039       7.38060000      10.06184531       0.00004520      -0.00007830       0.00000000 s 
O       22.86553932      18.02469675       7.38060000       8.05684639       0.00001507      -0.00002610       0.00000000 s 
O       21.35881466      20.63442041       7.38060000       6.83737879       0.00009041      -0.00015659       0.00000000 s 
O       19.85198452      23.24432677       7.38060000       6.83733230       0.00006027      -0.00010439       0.00000000 s 
O       18.34515439      25.85423312       7.38060000       8.05684639       0.00003014      -0.00005220       0.00000000 s 
O       16.83832425      28.46413947       7.38060000      10.06184531       0.00000000       0.00000000       0.00000000 s 
O       15.33159959      31.07386314       7.38060000      12.47912395       0.00007534      -0.00013049       0.00000000 s 
Cu      15.33159959      18.89466553      10.10010000       0.00000000       0.00000000       0.00000000       0.00000000 a1
N        4.75008152      12.30527966      10.10010000       0.00000000       0.00000000       0.00000000       0.00000000 a2
H        2.67884931      12.40119180      10.10010000       0.00000000       0.00000000       0.00000000       0.00000000 a2
H        6.82553278      12.37159605      10.10010000       0.00000000       0.00000000       0.00000000       0.00000000 a2
C        3.60513954      12.98141458      10.10010000       0.00000000       0.00000000       0.00000000       0.00000000 a2
C        5.90831348      12.96460712      10.10010000       0.00000000       0.00000000       0.00000000       0.00000000 a2
C        3.56948866      14.38520293      10.10010000       0.00000000       0.00000000       0.00000000       0.00000000 a2
C        5.96484862      14.36474167      10.10010000       0.00000000       0.00000000       0.00000000       0.00000000 a2
H        2.59077685      14.85964832      10.10010000       0.00000000       0.00000000       0.00000000       0.00000000 a2
C        4.77086030      15.12253893      10.10010000       0.00000000       0.00000000       0.00000000       0.00000000 a2
H        6.95147112      14.82438919      10.10010000       0.00000000       0.00000000       0.00000000       0.00000000 a2
C        4.78024766      16.60287430      10.10010000       0.00000000       0.00000000       0.00000000       0.00000000 a2
H        2.63328368      16.79488127      10.10010000       0.00000000       0.00000000       0.00000000       0.00000000 a2
H        6.92668426      16.77642960      10.10010000       0.00000000       0.00000000       0.00000000       0.00000000 a2
C        3.57339127      17.33619112      10.10010000       0.00000000       0.00000000       0.00000000       0.00000000 a2
C        5.98963548      17.32303746      10.10010000       0.00000000       0.00000000       0.00000000       0.00000000 a2
H        0.93206128      17.75674302      10.10010000       0.00000000       0.00000000       0.00000000       0.00000000 a2
H        8.63666117      17.73226259      10.10010000       0.00000000       0.00000000       0.00000000       0.00000000 a2
C        1.02677872      18.83936272      10.10010000       0.00000000       0.00000000       0.00000000       0.00000000 a2
C        3.55166321      18.73924872      10.10010000       0.00000000       0.00000000       0.00000000       0.00000000 a2
C        6.01916876      18.73121037      10.10010000       0.00000000       0.00000000       0.00000000       0.00000000 a2
C        8.54447515      18.81634381      10.10010000       0.00000000       0.00000000       0.00000000       0.00000000 a2
H       -1.12988905      19.09750340      10.10010000       0.00000000       0.00000000       0.00000000       0.00000000 a2
C        2.27782956      19.49284411      10.10010000       0.00000000       0.00000000       0.00000000       0.00000000 a2
C       -0.15550176      19.58930432      10.10010000       0.00000000       0.00000000       0.00000000       0.00000000 a2
C        4.78942407      19.41355674      10.10010000       0.00000000       0.00000000       0.00000000       0.00000000 a2
C        7.30006930      19.47293092      10.10010000       0.00000000       0.00000000       0.00000000       0.00000000 a2
H       10.70599482      19.06790765      10.10010000       0.00000000       0.00000000       0.00000000       0.00000000 a2
C        9.73181848      19.56445850      10.10010000       0.00000000       0.00000000       0.00000000       0.00000000 a2
N       -0.14347750      20.92147827      10.10010000       0.00000000       0.00000000       0.00000000       0.00000000 a2
C        2.24502652      20.90046895      10.10010000       0.00000000       0.00000000       0.00000000       0.00000000 a2
H        4.79417049      20.49855141      10.10010000       0.00000000       0.00000000       0.00000000       0.00000000 a2
C        7.33877899      20.88567107      10.10010000       0.00000000       0.00000000       0.00000000       0.00000000 a2
N        9.72570087      20.89334404      10.10010000       0.00000000       0.00000000       0.00000000       0.00000000 a2
C        1.01306684      21.57313276      10.10010000       0.00000000       0.00000000       0.00000000       0.00000000 a2
C        8.56978939      21.55413302      10.10010000       0.00000000       0.00000000       0.00000000       0.00000000 a2
H        3.14695180      21.50827788      10.10010000       0.00000000       0.00000000       0.00000000       0.00000000 a2
H        6.43896324      21.49530691      10.10010000       0.00000000       0.00000000       0.00000000       0.00000000 a2
H        0.97150930      22.66634847      10.10010000       0.00000000       0.00000000       0.00000000       0.00000000 a2
H        8.61683168      22.64479107      10.10010000       0.00000000       0.00000000       0.00000000       0.00000000 a2
