184
Lattice="36.16319999999999 0.0 0.0 -18.081599999999995 31.318249882114287 0.0 0.0 0.0 30.0" Properties=species:S:1:pos:R:3:remoteness:R:1:shift:R:3:adsorption:S:1 size="_JSON [[12, 0], [0, 12]]" mass_center_dist=9.687359846945213 min_atom_dist=3.9577798642635456 s1=cu_hollow s2=tpb_atop s1idx=2 s2idx=4 pbc="T T T"
O       -1.24327575       2.36559791       7.38060000              inf       0.00000000       0.00000000       0.00000000 s 
O       -2.75007575       4.97545206       7.38060000              inf       0.00000000       0.00000000       0.00000000 s 
O       -4.25687575       7.58530622       7.38060000              inf       0.00000000       0.00000000       0.00000000 s 
O       -5.76367575      10.19516038       7.38060000              inf       0.00000000       0.00000000       0.00000000 s 
O       -7.27047575      12.80501453       7.38060000              inf       0.00000000       0.00000000       0.00000000 s 
O       -8.77727575      15.41486869       7.38060000              inf       0.00000000       0.00000000       0.00000000 s 
O      -10.28407575      18.02472285       7.38060000              inf       0.00000000       0.00000000       0.00000000 s 
O      -11.79072507      20.63442041       7.38060000       9.59999241       0.00015068      -0.00015659       0.00000000 s 
O      -13.29755520      23.24432677       7.38060000       9.11466238       0.00012054      -0.00010439       0.00000000 s 
O      -14.80438534      25.85423312       7.38060000       9.59992618       0.00009041      -0.00005220       0.00000000 s 
O      -16.31127575      28.46413947       7.38060000              inf       0.00000000       0.00000000       0.00000000 s 
O      -17.81807575      31.07399363       7.38060000              inf       0.00000000       0.00000000       0.00000000 s 
O        1.77032425       2.36559791       7.38060000              inf       0.00000000       0.00000000       0.00000000 s 
O        0.26352425       4.97545206       7.38060000              inf       0.00000000       0.00000000       0.00000000 s 
O       -1.24327575       7.58530622       7.38060000              inf       0.00000000       0.00000000       0.00000000 s 
O       -2.75003054      10.19508208       7.38060000      10.78913708       0.00004520      -0.00007830       0.00000000 s 
O       -4.25686068      12.80498844       7.38060000      11.19992230       0.00001507      -0.00002610       0.00000000 s 
O       -5.76367575      15.41486869       7.38060000              inf       0.00000000       0.00000000       0.00000000 s 
O       -7.27047575      18.02472285       7.38060000              inf       0.00000000       0.00000000       0.00000000 s 
O       -8.77727575      20.63457700       7.38060000              inf       0.00000000       0.00000000       0.00000000 s 
O      -10.28407575      23.24443116       7.38060000              inf       0.00000000       0.00000000       0.00000000 s 
O      -11.79072507      25.85423312       7.38060000      11.72896791       0.00015068      -0.00005220       0.00000000 s 
O      -13.29767575      28.46413947       7.38060000              inf       0.00000000       0.00000000       0.00000000 s 
O      -14.80447575      31.07399363       7.38060000              inf       0.00000000       0.00000000       0.00000000 s 
O        4.78392425       2.36559791       7.38060000              inf       0.00000000       0.00000000       0.00000000 s 
O        3.27712425       4.97545206       7.38060000              inf       0.00000000       0.00000000       0.00000000 s 
O        1.77045986       7.58517573       7.38060000       9.44600961       0.00013561      -0.00013049       0.00000000 s 
O        0.26362973      10.19508208       7.38060000       8.42694687       0.00010548      -0.00007830       0.00000000 s 
O       -1.24320041      12.80498844       7.38060000       8.42401722       0.00007534      -0.00002610       0.00000000 s 
O       -2.74992507      15.41471210       7.38060000       9.43806608       0.00015068      -0.00015659       0.00000000 s 
O       -4.25675520      18.02461845       7.38060000      11.19620674       0.00012054      -0.00010439       0.00000000 s 
O       -5.76367575      20.63457700       7.38060000              inf       0.00000000       0.00000000       0.00000000 s 
O       -7.27047575      23.24443116       7.38060000              inf       0.00000000       0.00000000       0.00000000 s 
O       -8.77727575      25.85428532       7.38060000              inf       0.00000000       0.00000000       0.00000000 s 
O      -10.28407575      28.46413947       7.38060000              inf       0.00000000       0.00000000       0.00000000 s 
O      -11.79087575      31.07399363       7.38060000              inf       0.00000000       0.00000000       0.00000000 s 
O        7.79752425       2.36559791       7.38060000              inf       0.00000000       0.00000000       0.00000000 s 
O        6.29084480       4.97545206       7.38060000      10.79526691       0.00012054       0.00000000       0.00000000 s 
O        4.78412014       7.58517573       7.38060000       8.43098434       0.00019588      -0.00013049       0.00000000 s 
O        3.27729000      10.19508208       7.38060000       6.61707524       0.00016575      -0.00007830       0.00000000 s 
O        1.77045986      12.80498844       7.38060000       5.88677917       0.00013561      -0.00002610       0.00000000 s 
O        0.26373520      15.41471210       7.38060000       6.60951449       0.00021095      -0.00015659       0.00000000 s 
O       -1.24309493      18.02461845       7.38060000       8.41911442       0.00018082      -0.00010439       0.00000000 s 
O       -2.74992507      20.63452481       7.38060000      10.78153931       0.00015068      -0.00005220       0.00000000 s 
O       -4.25687575      23.24443116       7.38060000              inf       0.00000000       0.00000000       0.00000000 s 
O       -5.76367575      25.85428532       7.38060000              inf       0.00000000       0.00000000       0.00000000 s 
O       -7.27047575      28.46413947       7.38060000              inf       0.00000000       0.00000000       0.00000000 s 
O       -8.77727575      31.07399363       7.38060000              inf       0.00000000       0.00000000       0.00000000 s 
O       10.81112425       2.36559791       7.38060000              inf       0.00000000       0.00000000       0.00000000 s 
O        9.30432425       4.97545206       7.38060000              inf       0.00000000       0.00000000       0.00000000 s 
O        7.79778041       7.58517573       7.38060000       8.43209302       0.00025616      -0.00013049       0.00000000 s 
O        6.29095027      10.19508208       7.38060000       5.89255737       0.00022602      -0.00007830       0.00000000 s 
O        4.78412014      12.80498844       7.38060000       4.06307377       0.00019588      -0.00002610       0.00000000 s 
O        3.27739548      15.41471210       7.38060000       4.05691616       0.00027122      -0.00015659       0.00000000 s 
O        1.77056534      18.02461845       7.38060000       5.87981516       0.00024109      -0.00010439       0.00000000 s 
O        0.26373520      20.63452481       7.38060000       8.41725492       0.00021095      -0.00005220       0.00000000 s 
O       -1.24309493      23.24443116       7.38060000      11.19341015       0.00018082       0.00000000       0.00000000 s 
O       -2.75007575      25.85428532       7.38060000              inf       0.00000000       0.00000000       0.00000000 s 
O       -4.25687575      28.46413947       7.38060000              inf       0.00000000       0.00000000       0.00000000 s 
O       -5.76367575      31.07399363       7.38060000              inf       0.00000000       0.00000000       0.00000000 s 
O       13.82472425       2.36559791       7.38060000              inf       0.00000000       0.00000000       0.00000000 s 
O       12.31792425       4.97545206       7.38060000              inf       0.00000000       0.00000000       0.00000000 s 
O       10.81122973       7.58517573       7.38060000       9.44887700       0.00010548      -0.00013049       0.00000000 s 
O        9.30439959      10.19508208       7.38060000       6.61980391       0.00007534      -0.00007830       0.00000000 s 
O        7.79756946      12.80498844       7.38060000       4.06529548       0.00004520      -0.00002610       0.00000000 s 
O        6.29084480      15.41471210       7.38060000       2.71951298       0.00012054      -0.00015659       0.00000000 s 
O        4.78401466      18.02461845       7.38060000       4.05313408       0.00009041      -0.00010439       0.00000000 s 
O        3.27718452      20.63452481       7.38060000       6.60487225       0.00006027      -0.00005220       0.00000000 s 
O        1.77035439      23.24443116       7.38060000       9.43319010       0.00003014       0.00000000       0.00000000 s 
O        0.26352425      25.85428532       7.38060000              inf       0.00000000       0.00000000       0.00000000 s 
O       -1.24327575      28.46413947       7.38060000              inf       0.00000000       0.00000000       0.00000000 s 
O       -2.75007575      31.07399363       7.38060000              inf       0.00000000       0.00000000       0.00000000 s 
O       16.83832425       2.36559791       7.38060000              inf       0.00000000       0.00000000       0.00000000 s 
O       15.33152425       4.97545206       7.38060000              inf       0.00000000       0.00000000       0.00000000 s 
O       13.82472425       7.58530622       7.38060000              inf       0.00000000       0.00000000       0.00000000 s 
O       12.31805986      10.19508208       7.38060000       8.43123199       0.00013561      -0.00007830       0.00000000 s 
O       10.81122973      12.80498844       7.38060000       5.89137914       0.00010548      -0.00002610       0.00000000 s 
O        9.30450507      15.41471210       7.38060000       4.06152179       0.00018082      -0.00015659       0.00000000 s 
O        7.79767493      18.02461845       7.38060000       4.05536139       0.00015068      -0.00010439       0.00000000 s 
O        6.29084480      20.63452481       7.38060000       5.87879659       0.00012054      -0.00005220       0.00000000 s 
O        4.78401466      23.24443116       7.38060000       8.41658120       0.00009041       0.00000000       0.00000000 s 
O        3.27729000      25.85415483       7.38060000      11.19273330       0.00016575      -0.00013049       0.00000000 s 
O        1.77032425      28.46413947       7.38060000              inf       0.00000000       0.00000000       0.00000000 s 
O        0.26352425      31.07399363       7.38060000              inf       0.00000000       0.00000000       0.00000000 s 
O       19.85192425       2.36559791       7.38060000              inf       0.00000000       0.00000000       0.00000000 s 
O       18.34512425       4.97545206       7.38060000              inf       0.00000000       0.00000000       0.00000000 s 
O       16.83832425       7.58530622       7.38060000              inf       0.00000000       0.00000000       0.00000000 s 
O       15.33170507      10.19516038       7.38060000       9.11466238       0.00018082       0.00000000       0.00000000 s 
O       13.82498041      12.80488404       7.38060000       6.83747177       0.00025616      -0.00013049       0.00000000 s 
O       12.31815027      15.41479039       7.38060000       5.34659593       0.00022602      -0.00007830       0.00000000 s 
O       10.81132014      18.02469675       7.38060000       5.34653648       0.00019588      -0.00002610       0.00000000 s 
O        9.30450507      20.63452481       7.38060000       6.60760605       0.00018082      -0.00005220       0.00000000 s 
O        7.79767493      23.24443116       7.38060000       8.41765402       0.00015068       0.00000000       0.00000000 s 
O        6.29095027      25.85415483       7.38060000      10.78025168       0.00022602      -0.00013049       0.00000000 s 
O        4.78392425      28.46413947       7.38060000              inf       0.00000000       0.00000000       0.00000000 s 
O        3.27712425      31.07399363       7.38060000              inf       0.00000000       0.00000000       0.00000000 s 
O       22.86552425       2.36559791       7.38060000              inf       0.00000000       0.00000000       0.00000000 s 
O       21.35872425       4.97545206       7.38060000              inf       0.00000000       0.00000000       0.00000000 s 
O       19.85192425       7.58530622       7.38060000              inf       0.00000000       0.00000000       0.00000000 s 
O       18.34515439      10.19516038       7.38060000       9.59992618       0.00003014       0.00000000       0.00000000 s 
O       16.83842973      12.80488404       7.38060000       6.83751826       0.00010548      -0.00013049       0.00000000 s 
O       15.33159959      15.41479039       7.38060000       4.41647045       0.00007534      -0.00007830       0.00000000 s 
O       13.82476946      18.02469675       7.38060000       3.22847688       0.00004520      -0.00002610       0.00000000 s 
O       12.31804480      20.63442041       7.38060000       4.41632651       0.00012054      -0.00015659       0.00000000 s 
O       10.81121466      23.24432677       7.38060000       6.83733230       0.00009041      -0.00010439       0.00000000 s 
O        9.30438452      25.85423312       7.38060000       9.59992618       0.00006027      -0.00005220       0.00000000 s 
O        7.79752425      28.46413947       7.38060000              inf       0.00000000       0.00000000       0.00000000 s 
O        6.29072425      31.07399363       7.38060000              inf       0.00000000       0.00000000       0.00000000 s 
O       25.87912425       2.36559791       7.38060000              inf       0.00000000       0.00000000       0.00000000 s 
O       24.37232425       4.97545206       7.38060000              inf       0.00000000       0.00000000       0.00000000 s 
O       22.86552425       7.58530622       7.38060000              inf       0.00000000       0.00000000       0.00000000 s 
O       21.35881466      10.19516038       7.38060000      10.92723166       0.00009041       0.00000000       0.00000000 s 
O       19.85209000      12.80488404       7.38060000       8.05704365       0.00016575      -0.00013049       0.00000000 s 
O       18.34525986      15.41479039       7.38060000       5.34671483       0.00013561      -0.00007830       0.00000000 s 
O       16.83842973      18.02469675       7.38060000       3.22847688       0.00010548      -0.00002610       0.00000000 s 
O       15.33170507      20.63442041       7.38060000       3.22837843       0.00018082      -0.00015659       0.00000000 s 
O       13.82487493      23.24432677       7.38060000       5.34653648       0.00015068      -0.00010439       0.00000000 s 
O       12.31804480      25.85423312       7.38060000       8.05684639       0.00012054      -0.00005220       0.00000000 s 
O       10.81112425      28.46413947       7.38060000              inf       0.00000000       0.00000000       0.00000000 s 
O        9.30432425      31.07399363       7.38060000              inf       0.00000000       0.00000000       0.00000000 s 
O       28.89272425       2.36559791       7.38060000              inf       0.00000000       0.00000000       0.00000000 s 
O       27.38592425       4.97545206       7.38060000              inf       0.00000000       0.00000000       0.00000000 s 
O       25.87912425       7.58530622       7.38060000              inf       0.00000000       0.00000000       0.00000000 s 
O       24.37232425      10.19516038       7.38060000              inf       0.00000000       0.00000000       0.00000000 s 
O       22.86575027      12.80488404       7.38060000      10.06203485       0.00022602      -0.00013049       0.00000000 s 
O       21.35892014      15.41479039       7.38060000       7.47220210       0.00019588      -0.00007830       0.00000000 s 
O       19.85209000      18.02469675       7.38060000       5.34671483       0.00016575      -0.00002610       0.00000000 s 
O       18.34536534      20.63442041       7.38060000       4.41647045       0.00024109      -0.00015659       0.00000000 s 
O       16.83853520      23.24432677       7.38060000       5.34659593       0.00021095      -0.00010439       0.00000000 s 
O       15.33170507      25.85423312       7.38060000       7.47203194       0.00018082      -0.00005220       0.00000000 s 
O       13.82487493      28.46413947       7.38060000      10.06184531       0.00015068       0.00000000       0.00000000 s 
O       12.31792425      31.07399363       7.38060000              inf       0.00000000       0.00000000       0.00000000 s 
O       31.90632425       2.36559791       7.38060000              inf       0.00000000       0.00000000       0.00000000 s 
O       30.39952425       4.97545206       7.38060000              inf       0.00000000       0.00000000       0.00000000 s 
O       28.89272425       7.58530622       7.38060000              inf       0.00000000       0.00000000       0.00000000 s 
O       27.38592425      10.19516038       7.38060000              inf       0.00000000       0.00000000       0.00000000 s 
O       25.87912425      12.80501453       7.38060000              inf       0.00000000       0.00000000       0.00000000 s 
O       24.37236946      15.41479039       7.38060000      10.06184531       0.00004520      -0.00007830       0.00000000 s 
O       22.86553932      18.02469675       7.38060000       8.05684639       0.00001507      -0.00002610       0.00000000 s 
O       21.35881466      20.63442041       7.38060000       6.83737879       0.00009041      -0.00015659       0.00000000 s 
O       19.85198452      23.24432677       7.38060000       6.83733230       0.00006027      -0.00010439       0.00000000 s 
O       18.34515439      25.85423312       7.38060000       8.05684639       0.00003014      -0.00005220       0.00000000 s 
O       16.83832425      28.46413947       7.38060000      10.06184531       0.00000000       0.00000000       0.00000000 s 
O       15.33159959      31.07386314       7.38060000      12.47912395       0.00007534      -0.00013049       0.00000000 s 
Cu      15.33159959      18.89466553      10.10010000       0.00000000       0.00000000       0.00000000       0.00000000 a1
N        6.25688152       9.69542550      10.10010000       0.00000000       0.00000000       0.00000000       0.00000000 a2
H        4.18564931       9.79133764      10.10010000       0.00000000       0.00000000       0.00000000       0.00000000 a2
H        8.33233278       9.76174190      10.10010000       0.00000000       0.00000000       0.00000000       0.00000000 a2
C        5.11193954      10.37156042      10.10010000       0.00000000       0.00000000       0.00000000       0.00000000 a2
C        7.41511348      10.35475296      10.10010000       0.00000000       0.00000000       0.00000000       0.00000000 a2
C        5.07628866      11.77534877      10.10010000       0.00000000       0.00000000       0.00000000       0.00000000 a2
C        7.47164862      11.75488752      10.10010000       0.00000000       0.00000000       0.00000000       0.00000000 a2
H        4.09757685      12.24979416      10.10010000       0.00000000       0.00000000       0.00000000       0.00000000 a2
C        6.27766030      12.51268477      10.10010000       0.00000000       0.00000000       0.00000000       0.00000000 a2
H        8.45827112      12.21453503      10.10010000       0.00000000       0.00000000       0.00000000       0.00000000 a2
C        6.28704766      13.99302015      10.10010000       0.00000000       0.00000000       0.00000000       0.00000000 a2
H        4.14008368      14.18502712      10.10010000       0.00000000       0.00000000       0.00000000       0.00000000 a2
H        8.43348426      14.16657545      10.10010000       0.00000000       0.00000000       0.00000000       0.00000000 a2
C        5.08019127      14.72633697      10.10010000       0.00000000       0.00000000       0.00000000       0.00000000 a2
C        7.49643548      14.71318330      10.10010000       0.00000000       0.00000000       0.00000000       0.00000000 a2
H        2.43886128      15.14688887      10.10010000       0.00000000       0.00000000       0.00000000       0.00000000 a2
H       10.14346117      15.12240843      10.10010000       0.00000000       0.00000000       0.00000000       0.00000000 a2
C        2.53357872      16.22950857      10.10010000       0.00000000       0.00000000       0.00000000       0.00000000 a2
C        5.05846321      16.12939456      10.10010000       0.00000000       0.00000000       0.00000000       0.00000000 a2
C        7.52596876      16.12135621      10.10010000       0.00000000       0.00000000       0.00000000       0.00000000 a2
C       10.05127515      16.20648965      10.10010000       0.00000000       0.00000000       0.00000000       0.00000000 a2
H        0.37691095      16.48764924      10.10010000       0.00000000       0.00000000       0.00000000       0.00000000 a2
C        3.78462956      16.88298995      10.10010000       0.00000000       0.00000000       0.00000000       0.00000000 a2
C        1.35129824      16.97945016      10.10010000       0.00000000       0.00000000       0.00000000       0.00000000 a2
C        6.29622407      16.80370258      10.10010000       0.00000000       0.00000000       0.00000000       0.00000000 a2
C        8.80686930      16.86307676      10.10010000       0.00000000       0.00000000       0.00000000       0.00000000 a2
H       12.21279482      16.45805350      10.10010000       0.00000000       0.00000000       0.00000000       0.00000000 a2
C       11.23861848      16.95460435      10.10010000       0.00000000       0.00000000       0.00000000       0.00000000 a2
N        1.36332250      18.31162411      10.10010000       0.00000000       0.00000000       0.00000000       0.00000000 a2
C        3.75182652      18.29061479      10.10010000       0.00000000       0.00000000       0.00000000       0.00000000 a2
H        6.30097049      17.88869725      10.10010000       0.00000000       0.00000000       0.00000000       0.00000000 a2
C        8.84557899      18.27581692      10.10010000       0.00000000       0.00000000       0.00000000       0.00000000 a2
N       11.23250087      18.28348989      10.10010000       0.00000000       0.00000000       0.00000000       0.00000000 a2
C        2.51986684      18.96327860      10.10010000       0.00000000       0.00000000       0.00000000       0.00000000 a2
C       10.07658939      18.94427886      10.10010000       0.00000000       0.00000000       0.00000000       0.00000000 a2
H        4.65375180      18.89842372      10.10010000       0.00000000       0.00000000       0.00000000       0.00000000 a2
H        7.94576324      18.88545275      10.10010000       0.00000000       0.00000000       0.00000000       0.00000000 a2
H        2.47830930      20.05649431      10.10010000       0.00000000       0.00000000       0.00000000       0.00000000 a2
H       10.12363168      20.03493691      10.10010000       0.00000000       0.00000000       0.00000000       0.00000000 a2
