19
Lattice="4.0 0.0 0.0 2.0 3.464101408 0.0 0.0 0.0 10.0" Properties=species:S:1:pos:R:3:remoteness:R:1:shift:R:3:adsorption:S:1 size="_JSON [[4, 0], [0, 4]]" ac_name=triangle sym_prec=0.1 pbc="T T T"
H       -2.80000000      -1.53205072       2.00000000       2.88675135      -0.00000010      -0.00000011       0.00000000 s 
H       -2.30000000      -0.66602536       2.00000000       2.51661148      -0.00000010      -0.00000011       0.00000000 s 
H       -1.80000000       0.19999999       2.00000000       2.51661148      -0.00000010      -0.00000011       0.00000000 s 
H       -1.30000000       1.06602534       2.00000000       3.51188458      -0.00000010      -0.00000011       0.00000000 s 
H       -1.80000000      -1.53205072       2.00000000       3.21455025      -0.00000010      -0.00000011       0.00000000 s 
H       -1.30000000      -0.66602536       2.00000000       3.05505046      -0.00000010      -0.00000011       0.00000000 s 
H       -0.80000000       0.19999999       2.00000000       3.21455025      -0.00000010      -0.00000011       0.00000000 s 
H       -0.30000000       1.06602534       2.00000000       2.30940108      -0.00000010      -0.00000011       0.00000000 s 
H       -0.80000000      -1.53205072       2.00000000       3.21455025      -0.00000010      -0.00000011       0.00000000 s 
H       -0.30000000      -0.66602536       2.00000000       2.51661148      -0.00000010      -0.00000011       0.00000000 s 
H        0.20000000       0.19999999       2.00000000       2.08166600      -0.00000010      -0.00000011       0.00000000 s 
H        0.70000000       1.06602534       2.00000000       2.08166600      -0.00000010      -0.00000011       0.00000000 s 
H        0.20000000      -1.53205072       2.00000000       2.88675135      -0.00000010      -0.00000011       0.00000000 s 
H        0.70000000      -0.66602536       2.00000000       2.30940108      -0.00000010      -0.00000011       0.00000000 s 
H        1.20000000       0.19999999       2.00000000       2.08166600      -0.00000010      -0.00000011       0.00000000 s 
H        1.70000000       1.06602534       2.00000000       2.30940108      -0.00000010      -0.00000011       0.00000000 s 
O        0.20000000       0.19999999       4.00000000       0.00000000       0.00000000       0.00000000       0.00000000 a1
O        0.70000000       1.06602534       4.00000000       0.00000000       0.00000000       0.00000000       0.00000000 a1
O        1.20000000       0.19999999       4.00000000       0.00000000       0.00000000       0.00000000       0.00000000 a1
