133
Lattice="14.742898931714166 0.0 0.0 7.371449465857083 12.767725000290929 0.0 0.0 0.0 20.0" Properties=species:S:1:pos:R:3:remoteness:R:1:shift:R:3:adsorption:S:1 size="5 5" mass_center_dist=5.107090000116371 min_atom_dist=3.5770125279844422 s1=NH3-atop-V3C2 s2=NH3-atop-V3C2 s1idx=1 s2idx=1 pbc="T T T"
V      -8.10763513      -4.68095190       5.23024181              inf       0.00000000       0.00000000       0.00000000 s 
V      -5.15928962      -2.97869858       9.75369224              inf       0.00000000       0.00000000       0.00000000 s 
V      -6.63344897      -3.82981774       7.49188729              inf       0.00000000       0.00000000       0.00000000 s 
C      -8.10792525      -4.68110022       8.75758705              inf       0.00000000       0.00000000       0.00000000 s 
C      -5.15913466      -2.97862906       6.22648310              inf       0.00000000       0.00000000       0.00000000 s 
V      -6.63967946      -2.10572812       5.15970146       9.19831914      -0.00633423       0.02167878      -0.07054035 s 
V      -3.69325024      -0.40276776       9.85915741       6.25468905      -0.00825052       0.02238582       0.10546517 s 
V      -5.16864906      -1.25366446       7.50678526       7.57742726      -0.00948999       0.02260828       0.01489797 s 
C      -6.64128427      -2.10405879       8.79495288       6.92688263      -0.00764892       0.02349643       0.03736583 s 
C      -3.69133174      -0.40262410       6.22485575       8.24511372      -0.00648698       0.02245996      -0.00162735 s 
V      -5.16418474       0.44819791       5.15799070       8.18076254      -0.00512940       0.02205981      -0.07225111 s 
V      -2.21980864       2.15133917       9.86182020       5.55507263      -0.00909881       0.02294775       0.10812796 s 
V      -3.69205576       1.30154689       7.50754934       6.36213847      -0.00718658       0.02427463       0.01566205 s 
C      -5.16594168       0.44433854       8.78513303       5.51296124      -0.00659622       0.01834876       0.02754598 s 
C      -2.21656022       2.15147480       6.22507226       7.72961061      -0.00600535       0.02301386      -0.00141084 s 
V      -3.69144520       3.00222440       5.15943568       7.65914574      -0.00667975       0.02254130      -0.07080613 s 
V      -0.73996970       4.70189739       9.85940295       5.52308032      -0.00354976       0.01996097       0.10571071 s 
V      -2.21781934       3.85515304       7.50858417       6.39797363      -0.00724005       0.02433578       0.01669688 s 
C      -3.69226912       3.00237573       8.79123539       4.69876168      -0.00721355       0.02284095       0.03364834 s 
C      -0.74253974       4.70410298       6.22094892       7.70943353      -0.00627476       0.02209704      -0.00553418 s 
V      -2.21692555       5.55354285       5.15810838       8.23609024      -0.00645000       0.02031475      -0.07213343 s 
V       0.73786995       7.23548142       9.75369224              inf       0.00000000       0.00000000       0.00000000 s 
V      -0.73628940       6.38436226       7.49188729              inf       0.00000000       0.00000000       0.00000000 s 
C      -2.21531775       5.55613443       8.78809494       5.59246189      -0.00455208       0.02305465       0.03050789 s 
C       0.73802491       7.23555094       6.22648310              inf       0.00000000       0.00000000       0.00000000 s 
V      -5.15905534      -4.68095190       5.23024181              inf       0.00000000       0.00000000       0.00000000 s 
V      -2.21070983      -2.97869858       9.75369224              inf       0.00000000       0.00000000       0.00000000 s 
V      -3.68486918      -3.82981774       7.49188729              inf       0.00000000       0.00000000       0.00000000 s 
C      -5.15934546      -4.68110022       8.75758705              inf       0.00000000       0.00000000       0.00000000 s 
C      -2.21055487      -2.97862906       6.22648310              inf       0.00000000       0.00000000       0.00000000 s 
V      -3.68476545      -2.12740690       5.23024181              inf       0.00000000       0.00000000       0.00000000 s 
V      -0.74220134      -0.40133256       9.86198323       5.46975139      -0.00578140       0.02382102       0.10829099 s 
V      -2.21838835      -1.25141905       7.51011430       8.09918141      -0.00780906       0.02485369       0.01822701 s 
C      -3.68505557      -2.12755522       8.75758705              inf       0.00000000       0.00000000       0.00000000 s 
C      -0.74270394      -0.40224115       6.22485324       7.66746277      -0.00643896       0.02284291      -0.00162986 s 
V      -2.21677124       0.44857532       5.15948601       9.15349676      -0.00629568       0.02243722      -0.07075580 s 
V       0.71843785       2.15338092       9.85250210       3.62193276      -0.01943210       0.02498950       0.09880986 s 
V      -0.74513219       1.30145806       7.50796502       6.32551136      -0.00884279       0.02418580       0.01607773 s 
C      -2.21884326       0.44916394       8.79567172       6.87038701      -0.00807758       0.02317416       0.03808467 s 
C       0.73144790       2.15133914       6.22546978       6.46974226      -0.00657701       0.02287820      -0.00101332 s 
V      -0.74234792       3.00014565       5.15787374       8.17780810      -0.00616225       0.02046255      -0.07236807 s 
V       2.19621006       4.71324254       9.85457959       3.68327727      -0.01594978       0.03130612       0.10088735 s 
V       0.73064126       3.85534185       7.50753821       5.63704140      -0.00735923       0.02452459       0.01565092 s 
C      -0.74801102       3.00265481       8.78750460       5.50949585      -0.01153523       0.02312003       0.02991755 s 
C       2.20616666       4.70559399       6.22596963       6.50509051      -0.00614814       0.02358805      -0.00051347 s 
V       0.73303866       5.55549443       5.15803600       8.20559091      -0.00506557       0.02226633      -0.07220581 s 
V       3.68289998       7.25544239       9.85940295       5.52308032      -0.00354976       0.01996097       0.10571071 s 
V       2.20448740       6.40959791       7.50862864       6.39811397      -0.00780299       0.02523565       0.01674135 s 
C       0.72767280       5.55864515       8.78760206       5.55068956      -0.01014131       0.02556537       0.03001501 s 
C       3.68032994       7.25764798       6.22094892       7.70943353      -0.00627476       0.02209704      -0.00553418 s 
V      -2.21554112      -4.65868557       5.15803600       8.20559091      -0.00506557       0.02226633      -0.07220581 s 
V       0.73001446      -2.95701627       9.86225093       5.59459966      -0.00785550       0.02168231       0.10855869 s 
V      -0.74409238      -3.80458209       7.50862864       6.39811397      -0.00780299       0.02523565       0.01674135 s 
C      -2.22090698      -4.65553485       8.78760206       5.55068956      -0.01014131       0.02556537       0.03001501 s 
C       0.73185367      -2.95547564       6.22569653       7.75692810      -0.00617125       0.02315342      -0.00078657 s 
V      -0.74210336      -2.10601156       5.15954371       9.14605497      -0.00591770       0.02139534      -0.07069810 s 
V       2.20119288      -0.41518387       9.85034068       3.60359472      -0.01096697       0.00996971       0.09664844 s 
V       0.72914996      -1.25246093       7.50751483       6.31358506      -0.00885054       0.02381181       0.01562754 s 
C      -0.74471879      -2.10397919       8.79568884       6.85931704      -0.00824301       0.02357603       0.03810179 s 
C       2.20556617      -0.40227890       6.22499334       6.45910106      -0.00674864       0.02280516      -0.00148976 s 
V       0.73248723       0.44856391       5.15932489       7.61725440      -0.00561700       0.02242581      -0.07091692 s 
V       3.67635712       2.14946644       9.85352978       2.15904794      -0.01009262       0.02107502       0.09983754 s 
V       2.20315702       1.30114442       7.51101665       4.78562182      -0.00913337       0.02387216       0.01912936 s 
C       0.72937603       0.44859542       8.78991993       4.63343534      -0.00843808       0.02260564       0.03233288 s 
C       3.68034270       2.15172977       6.22488472       5.78690581      -0.00626200       0.02326883      -0.00159838 s 
V       2.20647122       3.00183147       5.16135775       7.05434916      -0.00592290       0.02214837      -0.06888406 s 
V       5.14130753       4.70692592       9.85250210       3.62193276      -0.01943210       0.02498950       0.09880986 s 
V       3.67846601       3.85763267       7.51251401       4.83306861      -0.00811427       0.02681541       0.02062672 s 
C       2.20141702       3.00406623       8.79387887       3.63495529      -0.01068698       0.02453145       0.03629182 s 
C       5.15431758       4.70488414       6.22546978       6.46974226      -0.00657701       0.02287820      -0.00101332 s 
V       3.68067026       5.55452337       5.15960201       7.67702249      -0.00601376       0.02129527      -0.07063980 s 
V       6.61907974       7.26678754       9.85457959       3.68327727      -0.01594978       0.03130612       0.10088735 s 
V       5.15351094       6.40888685       7.50753821       5.63704140      -0.00735923       0.02452459       0.01565092 s 
C       3.67880631       5.55672804       8.79257974       4.72934057      -0.00758759       0.02364826       0.03499269 s 
C       6.62903634       7.25913899       6.22596963       6.50509051      -0.00614814       0.02358805      -0.00051347 s 
V       0.73209047      -4.65965663       5.15960201       7.67702249      -0.00601376       0.02129527      -0.07063980 s 
V       3.67896134      -2.95141801       9.85824269       5.48401591      -0.00748840       0.02728057       0.10455045 s 
V       2.20444839      -3.80449620       7.50891878       6.42218687      -0.00784200       0.02532154       0.01703149 s 
C       0.73022652      -4.65745196       8.79257974       4.72934057      -0.00758759       0.02364826       0.03499269 s 
C       3.68056281      -2.95728725       6.22071971       7.68299954      -0.00604189       0.02134181      -0.00576339 s 
V       2.20545735      -2.10538939       5.15804715       8.16104153      -0.00693678       0.02201751      -0.07219466 s 
V       5.15641556      -0.41601514       9.85047348       3.64704824      -0.00432408       0.00913844       0.09678124 s 
V       3.67867582      -1.25149936       7.50579445       5.61077844      -0.00790447       0.02477338       0.01390716 s 
C       2.20278179      -2.10929423       8.78562856       5.48465180      -0.00932222       0.01826099       0.02804151 s 
C       5.15506440      -0.40222758       6.22490754       6.48386495      -0.00583020       0.02285648      -0.00157556 s 
V       3.68049887       0.44861495       5.16116204       7.04465430      -0.00618515       0.02247685      -0.06907977 s 
V       6.62406256       2.13836113       9.85034068       3.60359472      -0.01096697       0.00996971       0.09664844 s 
V       5.15443907       1.30103767       7.51172802       4.81736048      -0.00643111       0.02376541       0.01984073 s 
C       3.67840903       0.44618913       8.79165117       3.61623828      -0.00798487       0.02019935       0.03406412 s 
C       6.62843585       2.15126610       6.22499334       6.45910106      -0.00674864       0.02280516      -0.00148976 s 
V       5.15453572       3.00197073       5.16177664       7.07665828      -0.00643819       0.02228763      -0.06846517 s 
V       8.09922680       4.70301144       9.85352978       2.15904794      -0.01009262       0.02107502       0.09983754 s 
V       6.62602670       3.85468942       7.51101665       4.78562182      -0.00913337       0.02387216       0.01912936 s 
C       5.15439875       3.00364525       8.79451741       3.67613449      -0.00628504       0.02411047       0.03693036 s 
C       8.10321238       4.70527477       6.22488472       5.78690581      -0.00626200       0.02326883      -0.00159838 s 
V       6.62934090       5.55537647       5.16135775       7.05434916      -0.00592290       0.02214837      -0.06888406 s 
V       9.58362788       7.26490251       9.85571846       3.72321068       0.00001857       0.02942109       0.10202622 s 
V       8.10133569       6.41117767       7.51251401       4.83306861      -0.00811427       0.02681541       0.02062672 s 
C       6.62428670       5.55761123       8.79387887       3.63495529      -0.01068698       0.02453145       0.03629182 s 
C       9.57721884       7.25924725       6.22659757       6.52907372      -0.00654543       0.02369631       0.00011447 s 
V       3.67938212      -4.65928957       5.15836338       8.24404960      -0.00730189       0.02166233      -0.07187843 s 
V       6.62677901      -2.95631276       9.85915741       6.25468905      -0.00825052       0.02238582       0.10546517 s 
V       5.15138019      -3.80720946       7.50678526       7.57742726      -0.00948999       0.02260828       0.01489797 s 
C       3.68064219      -4.65615267       8.78807548       5.60540917      -0.00575170       0.02494755       0.03048843 s 
C       6.62869751      -2.95616910       6.22485575       8.24511372      -0.00648698       0.02245996      -0.00162735 s 
V       5.15584451      -2.10534709       5.15799070       8.18076254      -0.00512940       0.02205981      -0.07225111 s 
V       8.10183102      -0.39787301       9.85824269       5.48401591      -0.00748840       0.02728057       0.10455045 s 
V       6.62797349      -1.25199811       7.50754934       6.36213847      -0.00718658       0.02427463       0.01566205 s 
C       5.15408757      -2.10920646       8.78513303       5.51296124      -0.00659622       0.01834876       0.02754598 s 
C       8.10343249      -0.40374225       6.22071971       7.68299954      -0.00604189       0.02134181      -0.00576339 s 
V       6.62858405       0.44867940       5.15943568       7.65914574      -0.00667975       0.02254130      -0.07080613 s 
V       9.57928524       2.13752986       9.85047348       3.64704824      -0.00432408       0.00913844       0.09678124 s 
V       8.10154550       1.30204564       7.50579445       5.61077844      -0.00790447       0.02477338       0.01390716 s 
C       6.62776013       0.44883073       8.79123539       4.69876168      -0.00721355       0.02284095       0.03364834 s 
C       9.57793408       2.15131742       6.22490754       6.48386495      -0.00583020       0.02285648      -0.00157556 s 
V       8.10336855       3.00215995       5.16116204       7.04465430      -0.00618515       0.02247685      -0.06907977 s 
V      11.06009463       4.70697616       9.85499628       3.70404454       0.00219542       0.02503974       0.10130404 s 
V       9.57730875       3.85458267       7.51172802       4.81736048      -0.00643111       0.02376541       0.01984073 s 
C       8.10127871       2.99973413       8.79165117       3.61623828      -0.00798487       0.02019935       0.03406412 s 
C      11.05202693       4.70489480       6.22582521       6.51864454      -0.00602724       0.02288886      -0.00065789 s 
V       9.57740540       5.55551573       5.16177664       7.07665828      -0.00643819       0.02228763      -0.06846517 s 
V      12.52051366       7.25525541       9.85953383       5.60668483      -0.01167544       0.01977399       0.10584159 s 
V      11.04975975       6.40855090       7.50856924       5.69093631      -0.00827000       0.02418864       0.01668195 s 
C       9.57726843       5.55719025       8.79451741       3.67613449      -0.00628504       0.02411047       0.03693036 s 
C      12.52656281       7.25752158       6.22107954       7.77154529      -0.00578125       0.02197064      -0.00540356 s 
N       8.05003855       4.64764942      11.94684397       0.00000000       0.00000000       0.00000000       0.00000000 a1 
H       8.93268098       4.06308805      12.30845111       0.00000000       0.00000000       0.00000000       0.00000000 a1 
H       7.10346100       4.15140689      12.27661763       0.00000000       0.00000000       0.00000000       0.00000000 a1 
H       8.09601291       5.69327340      12.34329040       0.00000000       0.00000000       0.00000000       0.00000000 a1 
N       3.62716887       2.09410442      11.94684397       0.00000000       0.00000000       0.00000000       0.00000000 a2 
H       4.50981130       1.50954305      12.30845111       0.00000000       0.00000000       0.00000000       0.00000000 a2 
H       2.68059132       1.59786189      12.27661763       0.00000000       0.00000000       0.00000000       0.00000000 a2 
H       3.67314323       3.13972840      12.34329040       0.00000000       0.00000000       0.00000000       0.00000000 a2 
