502
Lattice="30.136139399999998 0.0 0.0 -15.068069699999999 26.098661399999997 0.0 0.0 0.0 12.0" Properties=species:S:1:pos:R:3:remoteness:R:1:shift:R:3:adsorption:S:1 size="_JSON [[10, 0], [0, 10]]" mass_center_dist=10.43946482771674 min_atom_dist=10.43946482771674 s1=h_ti2co2 s2=h_ti2co2 s1idx=1 s2idx=1 pbc="T T T"
Ti      -0.00013080       1.73976810       6.15725040              inf       0.00000000       0.00000000       0.00000000 s 
Ti       1.50674820       0.86977040       3.84273200              inf       0.00000000       0.00000000       0.00000000 s 
C        0.10000000       0.10000000       5.00000570              inf       0.00000000       0.00000000       0.00000000 s 
O        1.73563710       0.87950380       7.44027520              inf       0.00000000       0.00000000       0.00000000 s 
O        0.22543390       1.74735150       2.54845380              inf       0.00000000       0.00000000       0.00000000 s 
Ti      -1.50693777       4.34963424       6.15725040              inf       0.00000000       0.00000000       0.00000000 s 
Ti      -0.00005877       3.47963654       3.84273200              inf       0.00000000       0.00000000       0.00000000 s 
C       -1.40680697       2.70986614       5.00000570              inf       0.00000000       0.00000000       0.00000000 s 
O        0.22883013       3.48936994       7.44027520              inf       0.00000000       0.00000000       0.00000000 s 
O       -1.28137307       4.35721764       2.54845380              inf       0.00000000       0.00000000       0.00000000 s 
Ti      -3.01374474       6.95950038       6.15725040              inf       0.00000000       0.00000000       0.00000000 s 
Ti      -1.50686574       6.08950268       3.84273200              inf       0.00000000       0.00000000       0.00000000 s 
C       -2.91361394       5.31973228       5.00000570              inf       0.00000000       0.00000000       0.00000000 s 
O       -1.27797684       6.09923608       7.44027520              inf       0.00000000       0.00000000       0.00000000 s 
O       -2.78818004       6.96708378       2.54845380              inf       0.00000000       0.00000000       0.00000000 s 
Ti      -4.52055171       9.56936652       6.15725040              inf       0.00000000       0.00000000       0.00000000 s 
Ti      -3.01367271       8.69936882       3.84273200              inf       0.00000000       0.00000000       0.00000000 s 
C       -4.42042091       7.92959842       5.00000570              inf       0.00000000       0.00000000       0.00000000 s 
O       -2.78478381       8.70910222       7.44027520              inf       0.00000000       0.00000000       0.00000000 s 
O       -4.29498701       9.57694992       2.54845380              inf       0.00000000       0.00000000       0.00000000 s 
Ti      -6.02735868      12.17923266       6.15725040              inf       0.00000000       0.00000000       0.00000000 s 
Ti      -4.52047968      11.30923496       3.84273200              inf       0.00000000       0.00000000       0.00000000 s 
C       -5.92722788      10.53946456       5.00000570              inf       0.00000000       0.00000000       0.00000000 s 
O       -4.29159078      11.31896836       7.44027520              inf       0.00000000       0.00000000       0.00000000 s 
O       -5.80179398      12.18681606       2.54845380              inf       0.00000000       0.00000000       0.00000000 s 
Ti      -7.53416565      14.78909880       6.15725040              inf       0.00000000       0.00000000       0.00000000 s 
Ti      -6.02728665      13.91910110       3.84273200              inf       0.00000000       0.00000000       0.00000000 s 
C       -7.43403485      13.14933070       5.00000570              inf       0.00000000       0.00000000       0.00000000 s 
O       -5.79839775      13.92883450       7.44027520              inf       0.00000000       0.00000000       0.00000000 s 
O       -7.30860095      14.79668220       2.54845380              inf       0.00000000       0.00000000       0.00000000 s 
Ti      -9.04097262      17.39896494       6.15725040              inf       0.00000000       0.00000000       0.00000000 s 
Ti      -7.53409362      16.52896724       3.84273200              inf       0.00000000       0.00000000       0.00000000 s 
C       -8.94084182      15.75919684       5.00000570              inf       0.00000000       0.00000000       0.00000000 s 
O       -7.30520472      16.53870064       7.44027520              inf       0.00000000       0.00000000       0.00000000 s 
O       -8.81540792      17.40654834       2.54845380              inf       0.00000000       0.00000000       0.00000000 s 
Ti     -10.54777959      20.00883108       6.15725040              inf       0.00000000       0.00000000       0.00000000 s 
Ti      -9.04090059      19.13883338       3.84273200              inf       0.00000000       0.00000000       0.00000000 s 
C      -10.44764879      18.36906298       5.00000570              inf       0.00000000       0.00000000       0.00000000 s 
O       -8.81201169      19.14856678       7.44027520              inf       0.00000000       0.00000000       0.00000000 s 
O      -10.32221489      20.01641448       2.54845380              inf       0.00000000       0.00000000       0.00000000 s 
Ti     -12.05458656      22.61869722       6.15725040              inf       0.00000000       0.00000000       0.00000000 s 
Ti     -10.54770756      21.74869952       3.84273200              inf       0.00000000       0.00000000       0.00000000 s 
C      -11.95445576      20.97892912       5.00000570              inf       0.00000000       0.00000000       0.00000000 s 
O      -10.31881866      21.75843292       7.44027520              inf       0.00000000       0.00000000       0.00000000 s 
O      -11.82902186      22.62628062       2.54845380              inf       0.00000000       0.00000000       0.00000000 s 
Ti     -13.56139353      25.22856336       6.15725040              inf       0.00000000       0.00000000       0.00000000 s 
Ti     -12.05451453      24.35856566       3.84273200              inf       0.00000000       0.00000000       0.00000000 s 
C      -13.46126273      23.58879526       5.00000570              inf       0.00000000       0.00000000       0.00000000 s 
O      -11.82562563      24.36829906       7.44027520              inf       0.00000000       0.00000000       0.00000000 s 
O      -13.33582883      25.23614676       2.54845380              inf       0.00000000       0.00000000       0.00000000 s 
Ti       3.01348314       1.73976810       6.15725040              inf       0.00000000       0.00000000       0.00000000 s 
Ti       4.52036214       0.86977040       3.84273200              inf       0.00000000       0.00000000       0.00000000 s 
C        3.11361394       0.10000000       5.00000570              inf       0.00000000       0.00000000       0.00000000 s 
O        4.74925104       0.87950380       7.44027520              inf       0.00000000       0.00000000       0.00000000 s 
O        3.23904784       1.74735150       2.54845380              inf       0.00000000       0.00000000       0.00000000 s 
Ti       1.50667617       4.34963424       6.15725040              inf       0.00000000       0.00000000       0.00000000 s 
Ti       3.01355517       3.47963654       3.84273200              inf       0.00000000       0.00000000       0.00000000 s 
C        1.60680697       2.70986614       5.00000570              inf       0.00000000       0.00000000       0.00000000 s 
O        3.24244407       3.48936994       7.44027520              inf       0.00000000       0.00000000       0.00000000 s 
O        1.73224087       4.35721764       2.54845380              inf       0.00000000       0.00000000       0.00000000 s 
Ti      -0.00013080       6.95950038       6.15725040              inf       0.00000000       0.00000000       0.00000000 s 
Ti       1.50674820       6.08950268       3.84273200              inf       0.00000000       0.00000000       0.00000000 s 
C        0.10000000       5.31973228       5.00000570              inf       0.00000000       0.00000000       0.00000000 s 
O        1.73563710       6.09923608       7.44027520              inf       0.00000000       0.00000000       0.00000000 s 
O        0.22543390       6.96708378       2.54845380              inf       0.00000000       0.00000000       0.00000000 s 
Ti      -1.50693777       9.56936652       6.15725040              inf       0.00000000       0.00000000       0.00000000 s 
Ti      -0.00005877       8.69936882       3.84273200              inf       0.00000000       0.00000000       0.00000000 s 
C       -1.40680697       7.92959842       5.00000570              inf       0.00000000       0.00000000       0.00000000 s 
O        0.22883013       8.70910222       7.44027520              inf       0.00000000       0.00000000       0.00000000 s 
O       -1.28137307       9.57694992       2.54845380              inf       0.00000000       0.00000000       0.00000000 s 
Ti      -3.01374474      12.17923266       6.15725040              inf       0.00000000       0.00000000       0.00000000 s 
Ti      -1.50686574      11.30923496       3.84273200              inf       0.00000000       0.00000000       0.00000000 s 
C       -2.91361394      10.53946456       5.00000570              inf       0.00000000       0.00000000       0.00000000 s 
O       -1.27797684      11.31896836       7.44027520              inf       0.00000000       0.00000000       0.00000000 s 
O       -2.78818004      12.18681606       2.54845380              inf       0.00000000       0.00000000       0.00000000 s 
Ti      -4.52055171      14.78909880       6.15725040              inf       0.00000000       0.00000000       0.00000000 s 
Ti      -3.01367271      13.91910110       3.84273200              inf       0.00000000       0.00000000       0.00000000 s 
C       -4.42042091      13.14933070       5.00000570              inf       0.00000000       0.00000000       0.00000000 s 
O       -2.78478381      13.92883450       7.44027520              inf       0.00000000       0.00000000       0.00000000 s 
O       -4.29498701      14.79668220       2.54845380              inf       0.00000000       0.00000000       0.00000000 s 
Ti      -6.02735868      17.39896494       6.15725040              inf       0.00000000       0.00000000       0.00000000 s 
Ti      -4.52047968      16.52896724       3.84273200              inf       0.00000000       0.00000000       0.00000000 s 
C       -5.92722788      15.75919684       5.00000570              inf       0.00000000       0.00000000       0.00000000 s 
O       -4.29159078      16.53870064       7.44027520              inf       0.00000000       0.00000000       0.00000000 s 
O       -5.80179398      17.40654834       2.54845380              inf       0.00000000       0.00000000       0.00000000 s 
Ti      -7.53416565      20.00883108       6.15725040              inf       0.00000000       0.00000000       0.00000000 s 
Ti      -6.02728665      19.13883338       3.84273200              inf       0.00000000       0.00000000       0.00000000 s 
C       -7.43403485      18.36906298       5.00000570              inf       0.00000000       0.00000000       0.00000000 s 
O       -5.79839775      19.14856678       7.44027520              inf       0.00000000       0.00000000       0.00000000 s 
O       -7.30860095      20.01641448       2.54845380              inf       0.00000000       0.00000000       0.00000000 s 
Ti      -9.04097262      22.61869722       6.15725040              inf       0.00000000       0.00000000       0.00000000 s 
Ti      -7.53409362      21.74869952       3.84273200              inf       0.00000000       0.00000000       0.00000000 s 
C       -8.94084182      20.97892912       5.00000570              inf       0.00000000       0.00000000       0.00000000 s 
O       -7.30520472      21.75843292       7.44027520              inf       0.00000000       0.00000000       0.00000000 s 
O       -8.81540792      22.62628062       2.54845380              inf       0.00000000       0.00000000       0.00000000 s 
Ti     -10.54777959      25.22856336       6.15725040              inf       0.00000000       0.00000000       0.00000000 s 
Ti      -9.04090059      24.35856566       3.84273200              inf       0.00000000       0.00000000       0.00000000 s 
C      -10.44764879      23.58879526       5.00000570              inf       0.00000000       0.00000000       0.00000000 s 
O       -8.81201169      24.36829906       7.44027520              inf       0.00000000       0.00000000       0.00000000 s 
O      -10.32221489      25.23614676       2.54845380              inf       0.00000000       0.00000000       0.00000000 s 
Ti       6.02709708       1.73976810       6.15725040              inf       0.00000000       0.00000000       0.00000000 s 
Ti       7.53397608       0.86977040       3.84273200              inf       0.00000000       0.00000000       0.00000000 s 
C        6.12722788       0.10000000       5.00000570              inf       0.00000000       0.00000000       0.00000000 s 
O        7.76286498       0.87950380       7.44027520              inf       0.00000000       0.00000000       0.00000000 s 
O        6.25266178       1.74735150       2.54845380              inf       0.00000000       0.00000000       0.00000000 s 
Ti       4.52029011       4.34963424       6.15725040              inf       0.00000000       0.00000000       0.00000000 s 
Ti       6.02716911       3.47963654       3.84273200              inf       0.00000000       0.00000000       0.00000000 s 
C        4.62042091       2.70986614       5.00000570              inf       0.00000000       0.00000000       0.00000000 s 
O        6.25605801       3.48936994       7.44027520              inf       0.00000000       0.00000000       0.00000000 s 
O        4.74585481       4.35721764       2.54845380              inf       0.00000000       0.00000000       0.00000000 s 
Ti       3.01348314       6.95950038       6.15725040              inf       0.00000000       0.00000000       0.00000000 s 
Ti       4.52036214       6.08950268       3.84273200              inf       0.00000000       0.00000000       0.00000000 s 
C        3.11361394       5.31973228       5.00000570              inf       0.00000000       0.00000000       0.00000000 s 
O        4.74925104       6.09923608       7.44027520              inf       0.00000000       0.00000000       0.00000000 s 
O        3.23904784       6.96708378       2.54845380              inf       0.00000000       0.00000000       0.00000000 s 
Ti       1.50667617       9.56936652       6.15725040              inf       0.00000000       0.00000000       0.00000000 s 
Ti       3.01355517       8.69936882       3.84273200              inf       0.00000000       0.00000000       0.00000000 s 
C        1.60680697       7.92959842       5.00000570              inf       0.00000000       0.00000000       0.00000000 s 
O        3.24244407       8.70910222       7.44027520              inf       0.00000000       0.00000000       0.00000000 s 
O        1.73224087       9.57694992       2.54845380              inf       0.00000000       0.00000000       0.00000000 s 
Ti      -0.00013080      12.17923266       6.15725040              inf       0.00000000       0.00000000       0.00000000 s 
Ti       1.50674820      11.30923496       3.84273200              inf       0.00000000       0.00000000       0.00000000 s 
C        0.10000000      10.53946456       5.00000570              inf       0.00000000       0.00000000       0.00000000 s 
O        1.73563710      11.31896836       7.44027520              inf       0.00000000       0.00000000       0.00000000 s 
O        0.22543390      12.18681606       2.54845380              inf       0.00000000       0.00000000       0.00000000 s 
Ti      -1.50693777      14.78909880       6.15725040              inf       0.00000000       0.00000000       0.00000000 s 
Ti      -0.00005877      13.91910110       3.84273200              inf       0.00000000       0.00000000       0.00000000 s 
C       -1.40680697      13.14933070       5.00000570              inf       0.00000000       0.00000000       0.00000000 s 
O        0.22883013      13.92883450       7.44027520              inf       0.00000000       0.00000000       0.00000000 s 
O       -1.28137307      14.79668220       2.54845380              inf       0.00000000       0.00000000       0.00000000 s 
Ti      -3.01374474      17.39896494       6.15725040              inf       0.00000000       0.00000000       0.00000000 s 
Ti      -1.50686574      16.52896724       3.84273200              inf       0.00000000       0.00000000       0.00000000 s 
C       -2.91361394      15.75919684       5.00000570              inf       0.00000000       0.00000000       0.00000000 s 
O       -1.27797684      16.53870064       7.44027520              inf       0.00000000       0.00000000       0.00000000 s 
O       -2.78818004      17.40654834       2.54845380              inf       0.00000000       0.00000000       0.00000000 s 
Ti      -4.52055171      20.00883108       6.15725040              inf       0.00000000       0.00000000       0.00000000 s 
Ti      -3.01367271      19.13883338       3.84273200              inf       0.00000000       0.00000000       0.00000000 s 
C       -4.42042091      18.36906298       5.00000570              inf       0.00000000       0.00000000       0.00000000 s 
O       -2.78478381      19.14856678       7.44027520              inf       0.00000000       0.00000000       0.00000000 s 
O       -4.29498701      20.01641448       2.54845380              inf       0.00000000       0.00000000       0.00000000 s 
Ti      -6.02735868      22.61869722       6.15725040              inf       0.00000000       0.00000000       0.00000000 s 
Ti      -4.52047968      21.74869952       3.84273200              inf       0.00000000       0.00000000       0.00000000 s 
C       -5.92722788      20.97892912       5.00000570              inf       0.00000000       0.00000000       0.00000000 s 
O       -4.29159078      21.75843292       7.44027520              inf       0.00000000       0.00000000       0.00000000 s 
O       -5.80179398      22.62628062       2.54845380              inf       0.00000000       0.00000000       0.00000000 s 
Ti      -7.53416565      25.22856336       6.15725040              inf       0.00000000       0.00000000       0.00000000 s 
Ti      -6.02728665      24.35856566       3.84273200              inf       0.00000000       0.00000000       0.00000000 s 
C       -7.43403485      23.58879526       5.00000570              inf       0.00000000       0.00000000       0.00000000 s 
O       -5.79839775      24.36829906       7.44027520              inf       0.00000000       0.00000000       0.00000000 s 
O       -7.30860095      25.23614676       2.54845380              inf       0.00000000       0.00000000       0.00000000 s 
Ti       9.04071102       1.73976810       6.15725040              inf       0.00000000       0.00000000       0.00000000 s 
Ti      10.54759002       0.86977040       3.84273200              inf       0.00000000       0.00000000       0.00000000 s 
C        9.14084182       0.10000000       5.00000570              inf       0.00000000       0.00000000       0.00000000 s 
O       10.77647892       0.87950380       7.44027520              inf       0.00000000       0.00000000       0.00000000 s 
O        9.26627572       1.74735150       2.54845380              inf       0.00000000       0.00000000       0.00000000 s 
Ti       7.53390405       4.34963424       6.15725040              inf       0.00000000       0.00000000       0.00000000 s 
Ti       9.04078305       3.47963654       3.84273200              inf       0.00000000       0.00000000       0.00000000 s 
C        7.63403485       2.70986614       5.00000570              inf       0.00000000       0.00000000       0.00000000 s 
O        9.26967195       3.48936994       7.44027520              inf       0.00000000       0.00000000       0.00000000 s 
O        7.75946875       4.35721764       2.54845380              inf       0.00000000       0.00000000       0.00000000 s 
Ti       6.02709708       6.95950038       6.15725040              inf       0.00000000       0.00000000       0.00000000 s 
Ti       7.53397608       6.08950268       3.84273200              inf       0.00000000       0.00000000       0.00000000 s 
C        6.12722788       5.31973228       5.00000570              inf       0.00000000       0.00000000       0.00000000 s 
O        7.76286498       6.09923608       7.44027520              inf       0.00000000       0.00000000       0.00000000 s 
O        6.25266178       6.96708378       2.54845380              inf       0.00000000       0.00000000       0.00000000 s 
Ti       4.52029011       9.56936652       6.15725040              inf       0.00000000       0.00000000       0.00000000 s 
Ti       6.02716911       8.69936882       3.84273200              inf       0.00000000       0.00000000       0.00000000 s 
C        4.62042091       7.92959842       5.00000570              inf       0.00000000       0.00000000       0.00000000 s 
O        6.25605801       8.70910222       7.44027520              inf       0.00000000       0.00000000       0.00000000 s 
O        4.74585481       9.57694992       2.54845380              inf       0.00000000       0.00000000       0.00000000 s 
Ti       3.01348314      12.17923266       6.15725040              inf       0.00000000       0.00000000       0.00000000 s 
Ti       4.52036214      11.30923496       3.84273200       4.58571201       0.00000000       0.00000000       0.00000000 s 
C        3.11361394      10.53946456       5.00000570              inf       0.00000000       0.00000000       0.00000000 s 
O        4.74925104      11.31896836       7.44027520       0.98212807       0.00000000       0.00000000       0.00000000 s 
O        3.23904784      12.18681606       2.54845380              inf       0.00000000       0.00000000       0.00000000 s 
Ti       1.50667617      14.78909880       6.15725040              inf       0.00000000       0.00000000       0.00000000 s 
Ti       3.01355517      13.91910110       3.84273200              inf       0.00000000       0.00000000       0.00000000 s 
C        1.60680697      13.14933070       5.00000570              inf       0.00000000       0.00000000       0.00000000 s 
O        3.24244407      13.92883450       7.44027520              inf       0.00000000       0.00000000       0.00000000 s 
O        1.73224087      14.79668220       2.54845380              inf       0.00000000       0.00000000       0.00000000 s 
Ti      -0.00013080      17.39896494       6.15725040              inf       0.00000000       0.00000000       0.00000000 s 
Ti       1.50674820      16.52896724       3.84273200              inf       0.00000000       0.00000000       0.00000000 s 
C        0.10000000      15.75919684       5.00000570              inf       0.00000000       0.00000000       0.00000000 s 
O        1.73563710      16.53870064       7.44027520              inf       0.00000000       0.00000000       0.00000000 s 
O        0.22543390      17.40654834       2.54845380              inf       0.00000000       0.00000000       0.00000000 s 
Ti      -1.50693777      20.00883108       6.15725040              inf       0.00000000       0.00000000       0.00000000 s 
Ti      -0.00005877      19.13883338       3.84273200              inf       0.00000000       0.00000000       0.00000000 s 
C       -1.40680697      18.36906298       5.00000570              inf       0.00000000       0.00000000       0.00000000 s 
O        0.22883013      19.14856678       7.44027520              inf       0.00000000       0.00000000       0.00000000 s 
O       -1.28137307      20.01641448       2.54845380              inf       0.00000000       0.00000000       0.00000000 s 
Ti      -3.01374474      22.61869722       6.15725040              inf       0.00000000       0.00000000       0.00000000 s 
Ti      -1.50686574      21.74869952       3.84273200              inf       0.00000000       0.00000000       0.00000000 s 
C       -2.91361394      20.97892912       5.00000570              inf       0.00000000       0.00000000       0.00000000 s 
O       -1.27797684      21.75843292       7.44027520              inf       0.00000000       0.00000000       0.00000000 s 
O       -2.78818004      22.62628062       2.54845380              inf       0.00000000       0.00000000       0.00000000 s 
Ti      -4.52055171      25.22856336       6.15725040              inf       0.00000000       0.00000000       0.00000000 s 
Ti      -3.01367271      24.35856566       3.84273200              inf       0.00000000       0.00000000       0.00000000 s 
C       -4.42042091      23.58879526       5.00000570              inf       0.00000000       0.00000000       0.00000000 s 
O       -2.78478381      24.36829906       7.44027520              inf       0.00000000       0.00000000       0.00000000 s 
O       -4.29498701      25.23614676       2.54845380              inf       0.00000000       0.00000000       0.00000000 s 
Ti      12.05432496       1.73976810       6.15725040              inf       0.00000000       0.00000000       0.00000000 s 
Ti      13.56120396       0.86977040       3.84273200              inf       0.00000000       0.00000000       0.00000000 s 
C       12.15445576       0.10000000       5.00000570              inf       0.00000000       0.00000000       0.00000000 s 
O       13.79009286       0.87950380       7.44027520              inf       0.00000000       0.00000000       0.00000000 s 
O       12.27988966       1.74735150       2.54845380              inf       0.00000000       0.00000000       0.00000000 s 
Ti      10.54751799       4.34963424       6.15725040              inf       0.00000000       0.00000000       0.00000000 s 
Ti      12.05439699       3.47963654       3.84273200              inf       0.00000000       0.00000000       0.00000000 s 
C       10.64764879       2.70986614       5.00000570              inf       0.00000000       0.00000000       0.00000000 s 
O       12.28328589       3.48936994       7.44027520              inf       0.00000000       0.00000000       0.00000000 s 
O       10.77308269       4.35721764       2.54845380              inf       0.00000000       0.00000000       0.00000000 s 
Ti       9.04071102       6.95950038       6.15725040              inf       0.00000000       0.00000000       0.00000000 s 
Ti      10.54759002       6.08950268       3.84273200              inf       0.00000000       0.00000000       0.00000000 s 
C        9.14084182       5.31973228       5.00000570              inf       0.00000000       0.00000000       0.00000000 s 
O       10.77647892       6.09923608       7.44027520              inf       0.00000000       0.00000000       0.00000000 s 
O        9.26627572       6.96708378       2.54845380              inf       0.00000000       0.00000000       0.00000000 s 
Ti       7.53390405       9.56936652       6.15725040              inf       0.00000000       0.00000000       0.00000000 s 
Ti       9.04078305       8.69936882       3.84273200              inf       0.00000000       0.00000000       0.00000000 s 
C        7.63403485       7.92959842       5.00000570              inf       0.00000000       0.00000000       0.00000000 s 
O        9.26967195       8.70910222       7.44027520              inf       0.00000000       0.00000000       0.00000000 s 
O        7.75946875       9.57694992       2.54845380              inf       0.00000000       0.00000000       0.00000000 s 
Ti       6.02709708      12.17923266       6.15725040       2.73451524       0.00000000       0.00000000       0.00000000 s 
Ti       7.53397608      11.30923496       3.84273200              inf       0.00000000       0.00000000       0.00000000 s 
C        6.12722788      10.53946456       5.00000570       3.76949428       0.00000000       0.00000000       0.00000000 s 
O        7.76286498      11.31896836       7.44027520              inf       0.00000000       0.00000000       0.00000000 s 
O        6.25266178      12.18681606       2.54845380       6.12266681      -0.00000000      -0.00000000       0.00000000 s 
Ti       4.52029011      14.78909880       6.15725040              inf       0.00000000       0.00000000       0.00000000 s 
Ti       6.02716911      13.91910110       3.84273200              inf       0.00000000       0.00000000       0.00000000 s 
C        4.62042091      13.14933070       5.00000570              inf       0.00000000       0.00000000       0.00000000 s 
O        6.25605801      13.92883450       7.44027520              inf       0.00000000       0.00000000       0.00000000 s 
O        4.74585481      14.79668220       2.54845380              inf       0.00000000       0.00000000       0.00000000 s 
Ti       3.01348314      17.39896494       6.15725040              inf       0.00000000       0.00000000       0.00000000 s 
Ti       4.52036214      16.52896724       3.84273200              inf       0.00000000       0.00000000       0.00000000 s 
C        3.11361394      15.75919684       5.00000570              inf       0.00000000       0.00000000       0.00000000 s 
O        4.74925104      16.53870064       7.44027520              inf       0.00000000       0.00000000       0.00000000 s 
O        3.23904784      17.40654834       2.54845380              inf       0.00000000       0.00000000       0.00000000 s 
Ti       1.50667617      20.00883108       6.15725040              inf       0.00000000       0.00000000       0.00000000 s 
Ti       3.01355517      19.13883338       3.84273200              inf       0.00000000       0.00000000       0.00000000 s 
C        1.60680697      18.36906298       5.00000570              inf       0.00000000       0.00000000       0.00000000 s 
O        3.24244407      19.14856678       7.44027520              inf       0.00000000       0.00000000       0.00000000 s 
O        1.73224087      20.01641448       2.54845380              inf       0.00000000       0.00000000       0.00000000 s 
Ti      -0.00013080      22.61869722       6.15725040              inf       0.00000000       0.00000000       0.00000000 s 
Ti       1.50674820      21.74869952       3.84273200              inf       0.00000000       0.00000000       0.00000000 s 
C        0.10000000      20.97892912       5.00000570              inf       0.00000000       0.00000000       0.00000000 s 
O        1.73563710      21.75843292       7.44027520              inf       0.00000000       0.00000000       0.00000000 s 
O        0.22543390      22.62628062       2.54845380              inf       0.00000000       0.00000000       0.00000000 s 
Ti      -1.50693777      25.22856336       6.15725040              inf       0.00000000       0.00000000       0.00000000 s 
Ti      -0.00005877      24.35856566       3.84273200              inf       0.00000000       0.00000000       0.00000000 s 
C       -1.40680697      23.58879526       5.00000570              inf       0.00000000       0.00000000       0.00000000 s 
O        0.22883013      24.36829906       7.44027520              inf       0.00000000       0.00000000       0.00000000 s 
O       -1.28137307      25.23614676       2.54845380              inf       0.00000000       0.00000000       0.00000000 s 
Ti      15.06793890       1.73976810       6.15725040              inf       0.00000000       0.00000000       0.00000000 s 
Ti      16.57481790       0.86977040       3.84273200              inf       0.00000000       0.00000000       0.00000000 s 
C       15.16806970       0.10000000       5.00000570              inf       0.00000000       0.00000000       0.00000000 s 
O       16.80370680       0.87950380       7.44027520              inf       0.00000000       0.00000000       0.00000000 s 
O       15.29350360       1.74735150       2.54845380              inf       0.00000000       0.00000000       0.00000000 s 
Ti      13.56113193       4.34963424       6.15725040              inf       0.00000000       0.00000000       0.00000000 s 
Ti      15.06801093       3.47963654       3.84273200              inf       0.00000000       0.00000000       0.00000000 s 
C       13.66126273       2.70986614       5.00000570              inf       0.00000000       0.00000000       0.00000000 s 
O       15.29689983       3.48936994       7.44027520              inf       0.00000000       0.00000000       0.00000000 s 
O       13.78669663       4.35721764       2.54845380              inf       0.00000000       0.00000000       0.00000000 s 
Ti      12.05432496       6.95950038       6.15725040              inf       0.00000000       0.00000000       0.00000000 s 
Ti      13.56120396       6.08950268       3.84273200              inf       0.00000000       0.00000000       0.00000000 s 
C       12.15445576       5.31973228       5.00000570              inf       0.00000000       0.00000000       0.00000000 s 
O       13.79009286       6.09923608       7.44027520              inf       0.00000000       0.00000000       0.00000000 s 
O       12.27988966       6.96708378       2.54845380              inf       0.00000000       0.00000000       0.00000000 s 
Ti      10.54751799       9.56936652       6.15725040              inf       0.00000000       0.00000000       0.00000000 s 
Ti      12.05439699       8.69936882       3.84273200              inf       0.00000000       0.00000000       0.00000000 s 
C       10.64764879       7.92959842       5.00000570              inf       0.00000000       0.00000000       0.00000000 s 
O       12.28328589       8.70910222       7.44027520              inf       0.00000000       0.00000000       0.00000000 s 
O       10.77308269       9.57694992       2.54845380              inf       0.00000000       0.00000000       0.00000000 s 
Ti       9.04071102      12.17923266       6.15725040              inf       0.00000000       0.00000000       0.00000000 s 
Ti      10.54759002      11.30923496       3.84273200              inf       0.00000000       0.00000000       0.00000000 s 
C        9.14084182      10.53946456       5.00000570              inf       0.00000000       0.00000000       0.00000000 s 
O       10.77647892      11.31896836       7.44027520              inf       0.00000000       0.00000000       0.00000000 s 
O        9.26627572      12.18681606       2.54845380              inf       0.00000000       0.00000000       0.00000000 s 
Ti       7.53390405      14.78909880       6.15725040              inf       0.00000000       0.00000000       0.00000000 s 
Ti       9.04078305      13.91910110       3.84273200              inf       0.00000000       0.00000000       0.00000000 s 
C        7.63403485      13.14933070       5.00000570              inf       0.00000000       0.00000000       0.00000000 s 
O        9.26967195      13.92883450       7.44027520              inf       0.00000000       0.00000000       0.00000000 s 
O        7.75946875      14.79668220       2.54845380              inf       0.00000000       0.00000000       0.00000000 s 
Ti       6.02709708      17.39896494       6.15725040              inf       0.00000000       0.00000000       0.00000000 s 
Ti       7.53397608      16.52896724       3.84273200              inf       0.00000000       0.00000000       0.00000000 s 
C        6.12722788      15.75919684       5.00000570              inf       0.00000000       0.00000000       0.00000000 s 
O        7.76286498      16.53870064       7.44027520              inf       0.00000000       0.00000000       0.00000000 s 
O        6.25266178      17.40654834       2.54845380              inf       0.00000000       0.00000000       0.00000000 s 
Ti       4.52029011      20.00883108       6.15725040              inf       0.00000000       0.00000000       0.00000000 s 
Ti       6.02716911      19.13883338       3.84273200              inf       0.00000000       0.00000000       0.00000000 s 
C        4.62042091      18.36906298       5.00000570              inf       0.00000000       0.00000000       0.00000000 s 
O        6.25605801      19.14856678       7.44027520              inf       0.00000000       0.00000000       0.00000000 s 
O        4.74585481      20.01641448       2.54845380              inf       0.00000000       0.00000000       0.00000000 s 
Ti       3.01348314      22.61869722       6.15725040              inf       0.00000000       0.00000000       0.00000000 s 
Ti       4.52036214      21.74869952       3.84273200              inf       0.00000000       0.00000000       0.00000000 s 
C        3.11361394      20.97892912       5.00000570              inf       0.00000000       0.00000000       0.00000000 s 
O        4.74925104      21.75843292       7.44027520              inf       0.00000000       0.00000000       0.00000000 s 
O        3.23904784      22.62628062       2.54845380              inf       0.00000000       0.00000000       0.00000000 s 
Ti       1.50667617      25.22856336       6.15725040              inf       0.00000000       0.00000000       0.00000000 s 
Ti       3.01355517      24.35856566       3.84273200              inf       0.00000000       0.00000000       0.00000000 s 
C        1.60680697      23.58879526       5.00000570              inf       0.00000000       0.00000000       0.00000000 s 
O        3.24244407      24.36829906       7.44027520              inf       0.00000000       0.00000000       0.00000000 s 
O        1.73224087      25.23614676       2.54845380              inf       0.00000000       0.00000000       0.00000000 s 
Ti      18.08155284       1.73976810       6.15725040              inf       0.00000000       0.00000000       0.00000000 s 
Ti      19.58843184       0.86977040       3.84273200              inf       0.00000000       0.00000000       0.00000000 s 
C       18.18168364       0.10000000       5.00000570              inf       0.00000000       0.00000000       0.00000000 s 
O       19.81732074       0.87950380       7.44027520              inf       0.00000000       0.00000000       0.00000000 s 
O       18.30711754       1.74735150       2.54845380              inf       0.00000000       0.00000000       0.00000000 s 
Ti      16.57474587       4.34963424       6.15725040              inf       0.00000000       0.00000000       0.00000000 s 
Ti      18.08162487       3.47963654       3.84273200              inf       0.00000000       0.00000000       0.00000000 s 
C       16.67487667       2.70986614       5.00000570              inf       0.00000000       0.00000000       0.00000000 s 
O       18.31051377       3.48936994       7.44027520              inf       0.00000000       0.00000000       0.00000000 s 
O       16.80031057       4.35721764       2.54845380              inf       0.00000000       0.00000000       0.00000000 s 
Ti      15.06793890       6.95950038       6.15725040              inf       0.00000000       0.00000000       0.00000000 s 
Ti      16.57481790       6.08950268       3.84273200              inf       0.00000000       0.00000000       0.00000000 s 
C       15.16806970       5.31973228       5.00000570              inf       0.00000000       0.00000000       0.00000000 s 
O       16.80370680       6.09923608       7.44027520              inf       0.00000000       0.00000000       0.00000000 s 
O       15.29350360       6.96708378       2.54845380              inf       0.00000000       0.00000000       0.00000000 s 
Ti      13.56113193       9.56936652       6.15725040              inf       0.00000000       0.00000000       0.00000000 s 
Ti      15.06801093       8.69936882       3.84273200              inf       0.00000000       0.00000000       0.00000000 s 
C       13.66126273       7.92959842       5.00000570              inf       0.00000000       0.00000000       0.00000000 s 
O       15.29689983       8.70910222       7.44027520              inf       0.00000000       0.00000000       0.00000000 s 
O       13.78669663       9.57694992       2.54845380              inf       0.00000000       0.00000000       0.00000000 s 
Ti      12.05432496      12.17923266       6.15725040              inf       0.00000000       0.00000000       0.00000000 s 
Ti      13.56120396      11.30923496       3.84273200              inf       0.00000000       0.00000000       0.00000000 s 
C       12.15445576      10.53946456       5.00000570              inf       0.00000000       0.00000000       0.00000000 s 
O       13.79009286      11.31896836       7.44027520              inf       0.00000000       0.00000000       0.00000000 s 
O       12.27988966      12.18681606       2.54845380              inf       0.00000000       0.00000000       0.00000000 s 
Ti      10.54751799      14.78909880       6.15725040              inf       0.00000000       0.00000000       0.00000000 s 
Ti      12.05439699      13.91910110       3.84273200              inf       0.00000000       0.00000000       0.00000000 s 
C       10.64764879      13.14933070       5.00000570              inf       0.00000000       0.00000000       0.00000000 s 
O       12.28328589      13.92883450       7.44027520              inf       0.00000000       0.00000000       0.00000000 s 
O       10.77308269      14.79668220       2.54845380              inf       0.00000000       0.00000000       0.00000000 s 
Ti       9.04071102      17.39896494       6.15725040              inf       0.00000000       0.00000000       0.00000000 s 
Ti      10.54759002      16.52896724       3.84273200              inf       0.00000000       0.00000000       0.00000000 s 
C        9.14084182      15.75919684       5.00000570              inf       0.00000000       0.00000000       0.00000000 s 
O       10.77647892      16.53870064       7.44027520              inf       0.00000000       0.00000000       0.00000000 s 
O        9.26627572      17.40654834       2.54845380              inf       0.00000000       0.00000000       0.00000000 s 
Ti       7.53390405      20.00883108       6.15725040              inf       0.00000000       0.00000000       0.00000000 s 
Ti       9.04078305      19.13883338       3.84273200              inf       0.00000000       0.00000000       0.00000000 s 
C        7.63403485      18.36906298       5.00000570              inf       0.00000000       0.00000000       0.00000000 s 
O        9.26967195      19.14856678       7.44027520              inf       0.00000000       0.00000000       0.00000000 s 
O        7.75946875      20.01641448       2.54845380              inf       0.00000000       0.00000000       0.00000000 s 
Ti       6.02709708      22.61869722       6.15725040              inf       0.00000000       0.00000000       0.00000000 s 
Ti       7.53397608      21.74869952       3.84273200              inf       0.00000000       0.00000000       0.00000000 s 
C        6.12722788      20.97892912       5.00000570              inf       0.00000000       0.00000000       0.00000000 s 
O        7.76286498      21.75843292       7.44027520              inf       0.00000000       0.00000000       0.00000000 s 
O        6.25266178      22.62628062       2.54845380              inf       0.00000000       0.00000000       0.00000000 s 
Ti       4.52029011      25.22856336       6.15725040              inf       0.00000000       0.00000000       0.00000000 s 
Ti       6.02716911      24.35856566       3.84273200              inf       0.00000000       0.00000000       0.00000000 s 
C        4.62042091      23.58879526       5.00000570              inf       0.00000000       0.00000000       0.00000000 s 
O        6.25605801      24.36829906       7.44027520              inf       0.00000000       0.00000000       0.00000000 s 
O        4.74585481      25.23614676       2.54845380              inf       0.00000000       0.00000000       0.00000000 s 
Ti      21.09516678       1.73976810       6.15725040              inf       0.00000000       0.00000000       0.00000000 s 
Ti      22.60204578       0.86977040       3.84273200              inf       0.00000000       0.00000000       0.00000000 s 
C       21.19529758       0.10000000       5.00000570              inf       0.00000000       0.00000000       0.00000000 s 
O       22.83093468       0.87950380       7.44027520              inf       0.00000000       0.00000000       0.00000000 s 
O       21.32073148       1.74735150       2.54845380              inf       0.00000000       0.00000000       0.00000000 s 
Ti      19.58835981       4.34963424       6.15725040              inf       0.00000000       0.00000000       0.00000000 s 
Ti      21.09523881       3.47963654       3.84273200              inf       0.00000000       0.00000000       0.00000000 s 
C       19.68849061       2.70986614       5.00000570              inf       0.00000000       0.00000000       0.00000000 s 
O       21.32412771       3.48936994       7.44027520              inf       0.00000000       0.00000000       0.00000000 s 
O       19.81392451       4.35721764       2.54845380              inf       0.00000000       0.00000000       0.00000000 s 
Ti      18.08155284       6.95950038       6.15725040              inf       0.00000000       0.00000000       0.00000000 s 
Ti      19.58843184       6.08950268       3.84273200              inf       0.00000000       0.00000000       0.00000000 s 
C       18.18168364       5.31973228       5.00000570              inf       0.00000000       0.00000000       0.00000000 s 
O       19.81732074       6.09923608       7.44027520              inf       0.00000000       0.00000000       0.00000000 s 
O       18.30711754       6.96708378       2.54845380              inf       0.00000000       0.00000000       0.00000000 s 
Ti      16.57474587       9.56936652       6.15725040              inf       0.00000000       0.00000000       0.00000000 s 
Ti      18.08162487       8.69936882       3.84273200              inf       0.00000000       0.00000000       0.00000000 s 
C       16.67487667       7.92959842       5.00000570              inf       0.00000000       0.00000000       0.00000000 s 
O       18.31051377       8.70910222       7.44027520              inf       0.00000000       0.00000000       0.00000000 s 
O       16.80031057       9.57694992       2.54845380              inf       0.00000000       0.00000000       0.00000000 s 
Ti      15.06793890      12.17923266       6.15725040              inf       0.00000000       0.00000000       0.00000000 s 
Ti      16.57481790      11.30923496       3.84273200              inf       0.00000000       0.00000000       0.00000000 s 
C       15.16806970      10.53946456       5.00000570              inf       0.00000000       0.00000000       0.00000000 s 
O       16.80370680      11.31896836       7.44027520              inf       0.00000000       0.00000000       0.00000000 s 
O       15.29350360      12.18681606       2.54845380              inf       0.00000000       0.00000000       0.00000000 s 
Ti      13.56113193      14.78909880       6.15725040              inf       0.00000000       0.00000000       0.00000000 s 
Ti      15.06801093      13.91910110       3.84273200              inf       0.00000000       0.00000000       0.00000000 s 
C       13.66126273      13.14933070       5.00000570              inf       0.00000000       0.00000000       0.00000000 s 
O       15.29689983      13.92883450       7.44027520              inf       0.00000000       0.00000000       0.00000000 s 
O       13.78669663      14.79668220       2.54845380              inf       0.00000000       0.00000000       0.00000000 s 
Ti      12.05432496      17.39896494       6.15725040              inf       0.00000000       0.00000000       0.00000000 s 
Ti      13.56120396      16.52896724       3.84273200       4.58571201       0.00000000       0.00000000       0.00000000 s 
C       12.15445576      15.75919684       5.00000570              inf       0.00000000       0.00000000       0.00000000 s 
O       13.79009286      16.53870064       7.44027520       0.98212807       0.00000000       0.00000000       0.00000000 s 
O       12.27988966      17.40654834       2.54845380              inf       0.00000000       0.00000000       0.00000000 s 
Ti      10.54751799      20.00883108       6.15725040              inf       0.00000000       0.00000000       0.00000000 s 
Ti      12.05439699      19.13883338       3.84273200              inf       0.00000000       0.00000000       0.00000000 s 
C       10.64764879      18.36906298       5.00000570              inf       0.00000000       0.00000000       0.00000000 s 
O       12.28328589      19.14856678       7.44027520              inf       0.00000000       0.00000000       0.00000000 s 
O       10.77308269      20.01641448       2.54845380              inf       0.00000000       0.00000000       0.00000000 s 
Ti       9.04071102      22.61869722       6.15725040              inf       0.00000000       0.00000000       0.00000000 s 
Ti      10.54759002      21.74869952       3.84273200              inf       0.00000000       0.00000000       0.00000000 s 
C        9.14084182      20.97892912       5.00000570              inf       0.00000000       0.00000000       0.00000000 s 
O       10.77647892      21.75843292       7.44027520              inf       0.00000000       0.00000000       0.00000000 s 
O        9.26627572      22.62628062       2.54845380              inf       0.00000000       0.00000000       0.00000000 s 
Ti       7.53390405      25.22856336       6.15725040              inf       0.00000000       0.00000000       0.00000000 s 
Ti       9.04078305      24.35856566       3.84273200              inf       0.00000000       0.00000000       0.00000000 s 
C        7.63403485      23.58879526       5.00000570              inf       0.00000000       0.00000000       0.00000000 s 
O        9.26967195      24.36829906       7.44027520              inf       0.00000000       0.00000000       0.00000000 s 
O        7.75946875      25.23614676       2.54845380              inf       0.00000000       0.00000000       0.00000000 s 
Ti      24.10878072       1.73976810       6.15725040              inf       0.00000000       0.00000000       0.00000000 s 
Ti      25.61565972       0.86977040       3.84273200              inf       0.00000000       0.00000000       0.00000000 s 
C       24.20891152       0.10000000       5.00000570              inf       0.00000000       0.00000000       0.00000000 s 
O       25.84454862       0.87950380       7.44027520              inf       0.00000000       0.00000000       0.00000000 s 
O       24.33434542       1.74735150       2.54845380              inf       0.00000000       0.00000000       0.00000000 s 
Ti      22.60197375       4.34963424       6.15725040              inf       0.00000000       0.00000000       0.00000000 s 
Ti      24.10885275       3.47963654       3.84273200              inf       0.00000000       0.00000000       0.00000000 s 
C       22.70210455       2.70986614       5.00000570              inf       0.00000000       0.00000000       0.00000000 s 
O       24.33774165       3.48936994       7.44027520              inf       0.00000000       0.00000000       0.00000000 s 
O       22.82753845       4.35721764       2.54845380              inf       0.00000000       0.00000000       0.00000000 s 
Ti      21.09516678       6.95950038       6.15725040              inf       0.00000000       0.00000000       0.00000000 s 
Ti      22.60204578       6.08950268       3.84273200              inf       0.00000000       0.00000000       0.00000000 s 
C       21.19529758       5.31973228       5.00000570              inf       0.00000000       0.00000000       0.00000000 s 
O       22.83093468       6.09923608       7.44027520              inf       0.00000000       0.00000000       0.00000000 s 
O       21.32073148       6.96708378       2.54845380              inf       0.00000000       0.00000000       0.00000000 s 
Ti      19.58835981       9.56936652       6.15725040              inf       0.00000000       0.00000000       0.00000000 s 
Ti      21.09523881       8.69936882       3.84273200              inf       0.00000000       0.00000000       0.00000000 s 
C       19.68849061       7.92959842       5.00000570              inf       0.00000000       0.00000000       0.00000000 s 
O       21.32412771       8.70910222       7.44027520              inf       0.00000000       0.00000000       0.00000000 s 
O       19.81392451       9.57694992       2.54845380              inf       0.00000000       0.00000000       0.00000000 s 
Ti      18.08155284      12.17923266       6.15725040              inf       0.00000000       0.00000000       0.00000000 s 
Ti      19.58843184      11.30923496       3.84273200              inf       0.00000000       0.00000000       0.00000000 s 
C       18.18168364      10.53946456       5.00000570              inf       0.00000000       0.00000000       0.00000000 s 
O       19.81732074      11.31896836       7.44027520              inf       0.00000000       0.00000000       0.00000000 s 
O       18.30711754      12.18681606       2.54845380              inf       0.00000000       0.00000000       0.00000000 s 
Ti      16.57474587      14.78909880       6.15725040              inf       0.00000000       0.00000000       0.00000000 s 
Ti      18.08162487      13.91910110       3.84273200              inf       0.00000000       0.00000000       0.00000000 s 
C       16.67487667      13.14933070       5.00000570              inf       0.00000000       0.00000000       0.00000000 s 
O       18.31051377      13.92883450       7.44027520              inf       0.00000000       0.00000000       0.00000000 s 
O       16.80031057      14.79668220       2.54845380              inf       0.00000000       0.00000000       0.00000000 s 
Ti      15.06793890      17.39896494       6.15725040       2.73451524       0.00000000       0.00000000       0.00000000 s 
Ti      16.57481790      16.52896724       3.84273200              inf       0.00000000       0.00000000       0.00000000 s 
C       15.16806970      15.75919684       5.00000570       3.76949428       0.00000000       0.00000000       0.00000000 s 
O       16.80370680      16.53870064       7.44027520              inf       0.00000000       0.00000000       0.00000000 s 
O       15.29350360      17.40654834       2.54845380       6.12266681       0.00000000       0.00000000       0.00000000 s 
Ti      13.56113193      20.00883108       6.15725040              inf       0.00000000       0.00000000       0.00000000 s 
Ti      15.06801093      19.13883338       3.84273200              inf       0.00000000       0.00000000       0.00000000 s 
C       13.66126273      18.36906298       5.00000570              inf       0.00000000       0.00000000       0.00000000 s 
O       15.29689983      19.14856678       7.44027520              inf       0.00000000       0.00000000       0.00000000 s 
O       13.78669663      20.01641448       2.54845380              inf       0.00000000       0.00000000       0.00000000 s 
Ti      12.05432496      22.61869722       6.15725040              inf       0.00000000       0.00000000       0.00000000 s 
Ti      13.56120396      21.74869952       3.84273200              inf       0.00000000       0.00000000       0.00000000 s 
C       12.15445576      20.97892912       5.00000570              inf       0.00000000       0.00000000       0.00000000 s 
O       13.79009286      21.75843292       7.44027520              inf       0.00000000       0.00000000       0.00000000 s 
O       12.27988966      22.62628062       2.54845380              inf       0.00000000       0.00000000       0.00000000 s 
Ti      10.54751799      25.22856336       6.15725040              inf       0.00000000       0.00000000       0.00000000 s 
Ti      12.05439699      24.35856566       3.84273200              inf       0.00000000       0.00000000       0.00000000 s 
C       10.64764879      23.58879526       5.00000570              inf       0.00000000       0.00000000       0.00000000 s 
O       12.28328589      24.36829906       7.44027520              inf       0.00000000       0.00000000       0.00000000 s 
O       10.77308269      25.23614676       2.54845380              inf       0.00000000       0.00000000       0.00000000 s 
Ti      27.12239466       1.73976810       6.15725040              inf       0.00000000       0.00000000       0.00000000 s 
Ti      28.62927366       0.86977040       3.84273200              inf       0.00000000       0.00000000       0.00000000 s 
C       27.22252546       0.10000000       5.00000570              inf       0.00000000       0.00000000       0.00000000 s 
O       28.85816256       0.87950380       7.44027520              inf       0.00000000       0.00000000       0.00000000 s 
O       27.34795936       1.74735150       2.54845380              inf       0.00000000       0.00000000       0.00000000 s 
Ti      25.61558769       4.34963424       6.15725040              inf       0.00000000       0.00000000       0.00000000 s 
Ti      27.12246669       3.47963654       3.84273200              inf       0.00000000       0.00000000       0.00000000 s 
C       25.71571849       2.70986614       5.00000570              inf       0.00000000       0.00000000       0.00000000 s 
O       27.35135559       3.48936994       7.44027520              inf       0.00000000       0.00000000       0.00000000 s 
O       25.84115239       4.35721764       2.54845380              inf       0.00000000       0.00000000       0.00000000 s 
Ti      24.10878072       6.95950038       6.15725040              inf       0.00000000       0.00000000       0.00000000 s 
Ti      25.61565972       6.08950268       3.84273200              inf       0.00000000       0.00000000       0.00000000 s 
C       24.20891152       5.31973228       5.00000570              inf       0.00000000       0.00000000       0.00000000 s 
O       25.84454862       6.09923608       7.44027520              inf       0.00000000       0.00000000       0.00000000 s 
O       24.33434542       6.96708378       2.54845380              inf       0.00000000       0.00000000       0.00000000 s 
Ti      22.60197375       9.56936652       6.15725040              inf       0.00000000       0.00000000       0.00000000 s 
Ti      24.10885275       8.69936882       3.84273200              inf       0.00000000       0.00000000       0.00000000 s 
C       22.70210455       7.92959842       5.00000570              inf       0.00000000       0.00000000       0.00000000 s 
O       24.33774165       8.70910222       7.44027520              inf       0.00000000       0.00000000       0.00000000 s 
O       22.82753845       9.57694992       2.54845380              inf       0.00000000       0.00000000       0.00000000 s 
Ti      21.09516678      12.17923266       6.15725040              inf       0.00000000       0.00000000       0.00000000 s 
Ti      22.60204578      11.30923496       3.84273200              inf       0.00000000       0.00000000       0.00000000 s 
C       21.19529758      10.53946456       5.00000570              inf       0.00000000       0.00000000       0.00000000 s 
O       22.83093468      11.31896836       7.44027520              inf       0.00000000       0.00000000       0.00000000 s 
O       21.32073148      12.18681606       2.54845380              inf       0.00000000       0.00000000       0.00000000 s 
Ti      19.58835981      14.78909880       6.15725040              inf       0.00000000       0.00000000       0.00000000 s 
Ti      21.09523881      13.91910110       3.84273200              inf       0.00000000       0.00000000       0.00000000 s 
C       19.68849061      13.14933070       5.00000570              inf       0.00000000       0.00000000       0.00000000 s 
O       21.32412771      13.92883450       7.44027520              inf       0.00000000       0.00000000       0.00000000 s 
O       19.81392451      14.79668220       2.54845380              inf       0.00000000       0.00000000       0.00000000 s 
Ti      18.08155284      17.39896494       6.15725040              inf       0.00000000       0.00000000       0.00000000 s 
Ti      19.58843184      16.52896724       3.84273200              inf       0.00000000       0.00000000       0.00000000 s 
C       18.18168364      15.75919684       5.00000570              inf       0.00000000       0.00000000       0.00000000 s 
O       19.81732074      16.53870064       7.44027520              inf       0.00000000       0.00000000       0.00000000 s 
O       18.30711754      17.40654834       2.54845380              inf       0.00000000       0.00000000       0.00000000 s 
Ti      16.57474587      20.00883108       6.15725040              inf       0.00000000       0.00000000       0.00000000 s 
Ti      18.08162487      19.13883338       3.84273200              inf       0.00000000       0.00000000       0.00000000 s 
C       16.67487667      18.36906298       5.00000570              inf       0.00000000       0.00000000       0.00000000 s 
O       18.31051377      19.14856678       7.44027520              inf       0.00000000       0.00000000       0.00000000 s 
O       16.80031057      20.01641448       2.54845380              inf       0.00000000       0.00000000       0.00000000 s 
Ti      15.06793890      22.61869722       6.15725040              inf       0.00000000       0.00000000       0.00000000 s 
Ti      16.57481790      21.74869952       3.84273200              inf       0.00000000       0.00000000       0.00000000 s 
C       15.16806970      20.97892912       5.00000570              inf       0.00000000       0.00000000       0.00000000 s 
O       16.80370680      21.75843292       7.44027520              inf       0.00000000       0.00000000       0.00000000 s 
O       15.29350360      22.62628062       2.54845380              inf       0.00000000       0.00000000       0.00000000 s 
Ti      13.56113193      25.22856336       6.15725040              inf       0.00000000       0.00000000       0.00000000 s 
Ti      15.06801093      24.35856566       3.84273200              inf       0.00000000       0.00000000       0.00000000 s 
C       13.66126273      23.58879526       5.00000570              inf       0.00000000       0.00000000       0.00000000 s 
O       15.29689983      24.36829906       7.44027520              inf       0.00000000       0.00000000       0.00000000 s 
O       13.78669663      25.23614676       2.54845380              inf       0.00000000       0.00000000       0.00000000 s 
H       13.79674116      16.54404954       8.42236620       0.00000000       0.00000000       0.00000000       0.00000000 a1
H        4.75589934      11.32431726       8.42236620       0.00000000       0.00000000       0.00000000       0.00000000 a2
