501
Lattice="30.136139399999998 0.0 0.0 -15.068069699999999 26.098661399999997 0.0 0.0 0.0 12.0" Properties=species:S:1:pos:R:3:remoteness:R:1:shift:R:3:adsorption:S:1 size="_JSON [[10, 0], [0, 10]]" ac_name=h_ti2co2 sym_prec=1.0 pbc="T T T"
Ti      -7.53416565     -11.30956260       6.15725040              inf       0.00000000       0.00000000       0.00000000 s 
Ti      -6.02728665     -12.17956030       3.84273200              inf       0.00000000       0.00000000       0.00000000 s 
C       -7.43403485     -12.94933070       5.00000570              inf       0.00000000       0.00000000       0.00000000 s 
O       -5.79839775     -12.16982690       7.44027520              inf       0.00000000       0.00000000       0.00000000 s 
O       -7.30860095     -11.30197920       2.54845380              inf       0.00000000       0.00000000       0.00000000 s 
Ti      -9.04097262      -8.69969646       6.15725040              inf       0.00000000       0.00000000       0.00000000 s 
Ti      -7.53409362      -9.56969416       3.84273200              inf       0.00000000       0.00000000       0.00000000 s 
C       -8.94084182     -10.33946456       5.00000570              inf       0.00000000       0.00000000       0.00000000 s 
O       -7.30520472      -9.55996076       7.44027520              inf       0.00000000       0.00000000       0.00000000 s 
O       -8.81540792      -8.69211306       2.54845380              inf       0.00000000       0.00000000       0.00000000 s 
Ti     -10.54777959      -6.08983032       6.15725040              inf       0.00000000       0.00000000       0.00000000 s 
Ti      -9.04090059      -6.95982802       3.84273200              inf       0.00000000       0.00000000       0.00000000 s 
C      -10.44764879      -7.72959842       5.00000570              inf       0.00000000       0.00000000       0.00000000 s 
O       -8.81201169      -6.95009462       7.44027520              inf       0.00000000       0.00000000       0.00000000 s 
O      -10.32221489      -6.08224692       2.54845380              inf       0.00000000       0.00000000       0.00000000 s 
Ti     -12.05458656      -3.47996418       6.15725040              inf       0.00000000       0.00000000       0.00000000 s 
Ti     -10.54770756      -4.34996188       3.84273200              inf       0.00000000       0.00000000       0.00000000 s 
C      -11.95445576      -5.11973228       5.00000570              inf       0.00000000       0.00000000       0.00000000 s 
O      -10.31881866      -4.34022848       7.44027520              inf       0.00000000       0.00000000       0.00000000 s 
O      -11.82902186      -3.47238078       2.54845380              inf       0.00000000       0.00000000       0.00000000 s 
Ti     -13.56139353      -0.87009804       6.15725040              inf       0.00000000       0.00000000       0.00000000 s 
Ti     -12.05451453      -1.74009574       3.84273200              inf       0.00000000       0.00000000       0.00000000 s 
C      -13.46126273      -2.50986614       5.00000570              inf       0.00000000       0.00000000       0.00000000 s 
O      -11.82562563      -1.73036234       7.44027520              inf       0.00000000       0.00000000       0.00000000 s 
O      -13.33582883      -0.86251464       2.54845380              inf       0.00000000       0.00000000       0.00000000 s 
Ti     -15.06820050       1.73976810       6.15725040              inf       0.00000000       0.00000000       0.00000000 s 
Ti     -13.56132150       0.86977040       3.84273200              inf       0.00000000       0.00000000       0.00000000 s 
C      -14.96806970       0.10000000       5.00000570              inf       0.00000000       0.00000000       0.00000000 s 
O      -13.33243260       0.87950380       7.44027520              inf       0.00000000       0.00000000       0.00000000 s 
O      -14.84263580       1.74735150       2.54845380              inf       0.00000000       0.00000000       0.00000000 s 
Ti     -16.57500747       4.34963424       6.15725040              inf       0.00000000       0.00000000       0.00000000 s 
Ti     -15.06812847       3.47963654       3.84273200              inf       0.00000000       0.00000000       0.00000000 s 
C      -16.47487667       2.70986614       5.00000570              inf       0.00000000       0.00000000       0.00000000 s 
O      -14.83923957       3.48936994       7.44027520              inf       0.00000000       0.00000000       0.00000000 s 
O      -16.34944277       4.35721764       2.54845380              inf       0.00000000       0.00000000       0.00000000 s 
Ti     -18.08181444       6.95950038       6.15725040              inf       0.00000000       0.00000000       0.00000000 s 
Ti     -16.57493544       6.08950268       3.84273200              inf       0.00000000       0.00000000       0.00000000 s 
C      -17.98168364       5.31973228       5.00000570              inf       0.00000000       0.00000000       0.00000000 s 
O      -16.34604654       6.09923608       7.44027520              inf       0.00000000       0.00000000       0.00000000 s 
O      -17.85624974       6.96708378       2.54845380              inf       0.00000000       0.00000000       0.00000000 s 
Ti     -19.58862141       9.56936652       6.15725040              inf       0.00000000       0.00000000       0.00000000 s 
Ti     -18.08174241       8.69936882       3.84273200              inf       0.00000000       0.00000000       0.00000000 s 
C      -19.48849061       7.92959842       5.00000570              inf       0.00000000       0.00000000       0.00000000 s 
O      -17.85285351       8.70910222       7.44027520              inf       0.00000000       0.00000000       0.00000000 s 
O      -19.36305671       9.57694992       2.54845380              inf       0.00000000       0.00000000       0.00000000 s 
Ti     -21.09542838      12.17923266       6.15725040              inf       0.00000000       0.00000000       0.00000000 s 
Ti     -19.58854938      11.30923496       3.84273200              inf       0.00000000       0.00000000       0.00000000 s 
C      -20.99529758      10.53946456       5.00000570              inf       0.00000000       0.00000000       0.00000000 s 
O      -19.35966048      11.31896836       7.44027520              inf       0.00000000       0.00000000       0.00000000 s 
O      -20.86986368      12.18681606       2.54845380              inf       0.00000000       0.00000000       0.00000000 s 
Ti      -4.52055171     -11.30956260       6.15725040              inf       0.00000000       0.00000000       0.00000000 s 
Ti      -3.01367271     -12.17956030       3.84273200              inf       0.00000000       0.00000000       0.00000000 s 
C       -4.42042091     -12.94933070       5.00000570              inf       0.00000000       0.00000000       0.00000000 s 
O       -2.78478381     -12.16982690       7.44027520              inf       0.00000000       0.00000000       0.00000000 s 
O       -4.29498701     -11.30197920       2.54845380              inf       0.00000000       0.00000000       0.00000000 s 
Ti      -6.02735868      -8.69969646       6.15725040              inf       0.00000000       0.00000000       0.00000000 s 
Ti      -4.52047968      -9.56969416       3.84273200              inf       0.00000000       0.00000000       0.00000000 s 
C       -5.92722788     -10.33946456       5.00000570              inf       0.00000000       0.00000000       0.00000000 s 
O       -4.29159078      -9.55996076       7.44027520              inf       0.00000000       0.00000000       0.00000000 s 
O       -5.80179398      -8.69211306       2.54845380              inf       0.00000000       0.00000000       0.00000000 s 
Ti      -7.53416565      -6.08983032       6.15725040              inf       0.00000000       0.00000000       0.00000000 s 
Ti      -6.02728665      -6.95982802       3.84273200              inf       0.00000000       0.00000000       0.00000000 s 
C       -7.43403485      -7.72959842       5.00000570              inf       0.00000000       0.00000000       0.00000000 s 
O       -5.79839775      -6.95009462       7.44027520              inf       0.00000000       0.00000000       0.00000000 s 
O       -7.30860095      -6.08224692       2.54845380              inf       0.00000000       0.00000000       0.00000000 s 
Ti      -9.04097262      -3.47996418       6.15725040              inf       0.00000000       0.00000000       0.00000000 s 
Ti      -7.53409362      -4.34996188       3.84273200              inf       0.00000000       0.00000000       0.00000000 s 
C       -8.94084182      -5.11973228       5.00000570              inf       0.00000000       0.00000000       0.00000000 s 
O       -7.30520472      -4.34022848       7.44027520              inf       0.00000000       0.00000000       0.00000000 s 
O       -8.81540792      -3.47238078       2.54845380              inf       0.00000000       0.00000000       0.00000000 s 
Ti     -10.54777959      -0.87009804       6.15725040              inf       0.00000000       0.00000000       0.00000000 s 
Ti      -9.04090059      -1.74009574       3.84273200              inf       0.00000000       0.00000000       0.00000000 s 
C      -10.44764879      -2.50986614       5.00000570              inf       0.00000000       0.00000000       0.00000000 s 
O       -8.81201169      -1.73036234       7.44027520              inf       0.00000000       0.00000000       0.00000000 s 
O      -10.32221489      -0.86251464       2.54845380              inf       0.00000000       0.00000000       0.00000000 s 
Ti     -12.05458656       1.73976810       6.15725040              inf       0.00000000       0.00000000       0.00000000 s 
Ti     -10.54770756       0.86977040       3.84273200              inf       0.00000000       0.00000000       0.00000000 s 
C      -11.95445576       0.10000000       5.00000570              inf       0.00000000       0.00000000       0.00000000 s 
O      -10.31881866       0.87950380       7.44027520              inf       0.00000000       0.00000000       0.00000000 s 
O      -11.82902186       1.74735150       2.54845380              inf       0.00000000       0.00000000       0.00000000 s 
Ti     -13.56139353       4.34963424       6.15725040              inf       0.00000000       0.00000000       0.00000000 s 
Ti     -12.05451453       3.47963654       3.84273200              inf       0.00000000       0.00000000       0.00000000 s 
C      -13.46126273       2.70986614       5.00000570              inf       0.00000000       0.00000000       0.00000000 s 
O      -11.82562563       3.48936994       7.44027520              inf       0.00000000       0.00000000       0.00000000 s 
O      -13.33582883       4.35721764       2.54845380              inf       0.00000000       0.00000000       0.00000000 s 
Ti     -15.06820050       6.95950038       6.15725040              inf       0.00000000       0.00000000       0.00000000 s 
Ti     -13.56132150       6.08950268       3.84273200              inf       0.00000000       0.00000000       0.00000000 s 
C      -14.96806970       5.31973228       5.00000570              inf       0.00000000       0.00000000       0.00000000 s 
O      -13.33243260       6.09923608       7.44027520              inf       0.00000000       0.00000000       0.00000000 s 
O      -14.84263580       6.96708378       2.54845380              inf       0.00000000       0.00000000       0.00000000 s 
Ti     -16.57500747       9.56936652       6.15725040              inf       0.00000000       0.00000000       0.00000000 s 
Ti     -15.06812847       8.69936882       3.84273200              inf       0.00000000       0.00000000       0.00000000 s 
C      -16.47487667       7.92959842       5.00000570              inf       0.00000000       0.00000000       0.00000000 s 
O      -14.83923957       8.70910222       7.44027520              inf       0.00000000       0.00000000       0.00000000 s 
O      -16.34944277       9.57694992       2.54845380              inf       0.00000000       0.00000000       0.00000000 s 
Ti     -18.08181444      12.17923266       6.15725040              inf       0.00000000       0.00000000       0.00000000 s 
Ti     -16.57493544      11.30923496       3.84273200              inf       0.00000000       0.00000000       0.00000000 s 
C      -17.98168364      10.53946456       5.00000570              inf       0.00000000       0.00000000       0.00000000 s 
O      -16.34604654      11.31896836       7.44027520              inf       0.00000000       0.00000000       0.00000000 s 
O      -17.85624974      12.18681606       2.54845380              inf       0.00000000       0.00000000       0.00000000 s 
Ti      -1.50693777     -11.30956260       6.15725040              inf       0.00000000       0.00000000       0.00000000 s 
Ti      -0.00005877     -12.17956030       3.84273200              inf       0.00000000       0.00000000       0.00000000 s 
C       -1.40680697     -12.94933070       5.00000570              inf       0.00000000       0.00000000       0.00000000 s 
O        0.22883013     -12.16982690       7.44027520              inf       0.00000000       0.00000000       0.00000000 s 
O       -1.28137307     -11.30197920       2.54845380              inf       0.00000000       0.00000000       0.00000000 s 
Ti      -3.01374474      -8.69969646       6.15725040              inf       0.00000000       0.00000000       0.00000000 s 
Ti      -1.50686574      -9.56969416       3.84273200              inf       0.00000000       0.00000000       0.00000000 s 
C       -2.91361394     -10.33946456       5.00000570              inf       0.00000000       0.00000000       0.00000000 s 
O       -1.27797684      -9.55996076       7.44027520              inf       0.00000000       0.00000000       0.00000000 s 
O       -2.78818004      -8.69211306       2.54845380              inf       0.00000000       0.00000000       0.00000000 s 
Ti      -4.52055171      -6.08983032       6.15725040              inf       0.00000000       0.00000000       0.00000000 s 
Ti      -3.01367271      -6.95982802       3.84273200              inf       0.00000000       0.00000000       0.00000000 s 
C       -4.42042091      -7.72959842       5.00000570              inf       0.00000000       0.00000000       0.00000000 s 
O       -2.78478381      -6.95009462       7.44027520              inf       0.00000000       0.00000000       0.00000000 s 
O       -4.29498701      -6.08224692       2.54845380              inf       0.00000000       0.00000000       0.00000000 s 
Ti      -6.02735868      -3.47996418       6.15725040              inf       0.00000000       0.00000000       0.00000000 s 
Ti      -4.52047968      -4.34996188       3.84273200              inf       0.00000000       0.00000000       0.00000000 s 
C       -5.92722788      -5.11973228       5.00000570              inf       0.00000000       0.00000000       0.00000000 s 
O       -4.29159078      -4.34022848       7.44027520              inf       0.00000000       0.00000000       0.00000000 s 
O       -5.80179398      -3.47238078       2.54845380              inf       0.00000000       0.00000000       0.00000000 s 
Ti      -7.53416565      -0.87009804       6.15725040              inf       0.00000000       0.00000000       0.00000000 s 
Ti      -6.02728665      -1.74009574       3.84273200              inf       0.00000000       0.00000000       0.00000000 s 
C       -7.43403485      -2.50986614       5.00000570              inf       0.00000000       0.00000000       0.00000000 s 
O       -5.79839775      -1.73036234       7.44027520              inf       0.00000000       0.00000000       0.00000000 s 
O       -7.30860095      -0.86251464       2.54845380              inf       0.00000000       0.00000000       0.00000000 s 
Ti      -9.04097262       1.73976810       6.15725040              inf       0.00000000       0.00000000       0.00000000 s 
Ti      -7.53409362       0.86977040       3.84273200              inf       0.00000000       0.00000000       0.00000000 s 
C       -8.94084182       0.10000000       5.00000570              inf       0.00000000       0.00000000       0.00000000 s 
O       -7.30520472       0.87950380       7.44027520              inf       0.00000000       0.00000000       0.00000000 s 
O       -8.81540792       1.74735150       2.54845380              inf       0.00000000       0.00000000       0.00000000 s 
Ti     -10.54777959       4.34963424       6.15725040              inf       0.00000000       0.00000000       0.00000000 s 
Ti      -9.04090059       3.47963654       3.84273200              inf       0.00000000       0.00000000       0.00000000 s 
C      -10.44764879       2.70986614       5.00000570              inf       0.00000000       0.00000000       0.00000000 s 
O       -8.81201169       3.48936994       7.44027520              inf       0.00000000       0.00000000       0.00000000 s 
O      -10.32221489       4.35721764       2.54845380              inf       0.00000000       0.00000000       0.00000000 s 
Ti     -12.05458656       6.95950038       6.15725040              inf       0.00000000       0.00000000       0.00000000 s 
Ti     -10.54770756       6.08950268       3.84273200              inf       0.00000000       0.00000000       0.00000000 s 
C      -11.95445576       5.31973228       5.00000570              inf       0.00000000       0.00000000       0.00000000 s 
O      -10.31881866       6.09923608       7.44027520              inf       0.00000000       0.00000000       0.00000000 s 
O      -11.82902186       6.96708378       2.54845380              inf       0.00000000       0.00000000       0.00000000 s 
Ti     -13.56139353       9.56936652       6.15725040              inf       0.00000000       0.00000000       0.00000000 s 
Ti     -12.05451453       8.69936882       3.84273200              inf       0.00000000       0.00000000       0.00000000 s 
C      -13.46126273       7.92959842       5.00000570              inf       0.00000000       0.00000000       0.00000000 s 
O      -11.82562563       8.70910222       7.44027520              inf       0.00000000       0.00000000       0.00000000 s 
O      -13.33582883       9.57694992       2.54845380              inf       0.00000000       0.00000000       0.00000000 s 
Ti     -15.06820050      12.17923266       6.15725040              inf       0.00000000       0.00000000       0.00000000 s 
Ti     -13.56132150      11.30923496       3.84273200              inf       0.00000000       0.00000000       0.00000000 s 
C      -14.96806970      10.53946456       5.00000570              inf       0.00000000       0.00000000       0.00000000 s 
O      -13.33243260      11.31896836       7.44027520              inf       0.00000000       0.00000000       0.00000000 s 
O      -14.84263580      12.18681606       2.54845380              inf       0.00000000       0.00000000       0.00000000 s 
Ti       1.50667617     -11.30956260       6.15725040              inf       0.00000000       0.00000000       0.00000000 s 
Ti       3.01355517     -12.17956030       3.84273200              inf       0.00000000       0.00000000       0.00000000 s 
C        1.60680697     -12.94933070       5.00000570              inf       0.00000000       0.00000000       0.00000000 s 
O        3.24244407     -12.16982690       7.44027520              inf       0.00000000       0.00000000       0.00000000 s 
O        1.73224087     -11.30197920       2.54845380              inf       0.00000000       0.00000000       0.00000000 s 
Ti      -0.00013080      -8.69969646       6.15725040              inf       0.00000000       0.00000000       0.00000000 s 
Ti       1.50674820      -9.56969416       3.84273200              inf       0.00000000       0.00000000       0.00000000 s 
C        0.10000000     -10.33946456       5.00000570              inf       0.00000000       0.00000000       0.00000000 s 
O        1.73563710      -9.55996076       7.44027520              inf       0.00000000       0.00000000       0.00000000 s 
O        0.22543390      -8.69211306       2.54845380              inf       0.00000000       0.00000000       0.00000000 s 
Ti      -1.50693777      -6.08983032       6.15725040              inf       0.00000000       0.00000000       0.00000000 s 
Ti      -0.00005877      -6.95982802       3.84273200              inf       0.00000000       0.00000000       0.00000000 s 
C       -1.40680697      -7.72959842       5.00000570              inf       0.00000000       0.00000000       0.00000000 s 
O        0.22883013      -6.95009462       7.44027520              inf       0.00000000       0.00000000       0.00000000 s 
O       -1.28137307      -6.08224692       2.54845380              inf       0.00000000       0.00000000       0.00000000 s 
Ti      -3.01374474      -3.47996418       6.15725040              inf       0.00000000       0.00000000       0.00000000 s 
Ti      -1.50686574      -4.34996188       3.84273200              inf       0.00000000       0.00000000       0.00000000 s 
C       -2.91361394      -5.11973228       5.00000570              inf       0.00000000       0.00000000       0.00000000 s 
O       -1.27797684      -4.34022848       7.44027520              inf       0.00000000       0.00000000       0.00000000 s 
O       -2.78818004      -3.47238078       2.54845380              inf       0.00000000       0.00000000       0.00000000 s 
Ti      -4.52055171      -0.87009804       6.15725040              inf       0.00000000       0.00000000       0.00000000 s 
Ti      -3.01367271      -1.74009574       3.84273200              inf       0.00000000       0.00000000       0.00000000 s 
C       -4.42042091      -2.50986614       5.00000570              inf       0.00000000       0.00000000       0.00000000 s 
O       -2.78478381      -1.73036234       7.44027520              inf       0.00000000       0.00000000       0.00000000 s 
O       -4.29498701      -0.86251464       2.54845380              inf       0.00000000       0.00000000       0.00000000 s 
Ti      -6.02735868       1.73976810       6.15725040              inf       0.00000000       0.00000000       0.00000000 s 
Ti      -4.52047968       0.86977040       3.84273200              inf       0.00000000       0.00000000       0.00000000 s 
C       -5.92722788       0.10000000       5.00000570              inf       0.00000000       0.00000000       0.00000000 s 
O       -4.29159078       0.87950380       7.44027520              inf       0.00000000       0.00000000       0.00000000 s 
O       -5.80179398       1.74735150       2.54845380              inf       0.00000000       0.00000000       0.00000000 s 
Ti      -7.53416565       4.34963424       6.15725040              inf       0.00000000       0.00000000       0.00000000 s 
Ti      -6.02728665       3.47963654       3.84273200              inf       0.00000000       0.00000000       0.00000000 s 
C       -7.43403485       2.70986614       5.00000570              inf       0.00000000       0.00000000       0.00000000 s 
O       -5.79839775       3.48936994       7.44027520              inf       0.00000000       0.00000000       0.00000000 s 
O       -7.30860095       4.35721764       2.54845380              inf       0.00000000       0.00000000       0.00000000 s 
Ti      -9.04097262       6.95950038       6.15725040              inf       0.00000000       0.00000000       0.00000000 s 
Ti      -7.53409362       6.08950268       3.84273200              inf       0.00000000       0.00000000       0.00000000 s 
C       -8.94084182       5.31973228       5.00000570              inf       0.00000000       0.00000000       0.00000000 s 
O       -7.30520472       6.09923608       7.44027520              inf       0.00000000       0.00000000       0.00000000 s 
O       -8.81540792       6.96708378       2.54845380              inf       0.00000000       0.00000000       0.00000000 s 
Ti     -10.54777959       9.56936652       6.15725040              inf       0.00000000       0.00000000       0.00000000 s 
Ti      -9.04090059       8.69936882       3.84273200              inf       0.00000000       0.00000000       0.00000000 s 
C      -10.44764879       7.92959842       5.00000570              inf       0.00000000       0.00000000       0.00000000 s 
O       -8.81201169       8.70910222       7.44027520              inf       0.00000000       0.00000000       0.00000000 s 
O      -10.32221489       9.57694992       2.54845380              inf       0.00000000       0.00000000       0.00000000 s 
Ti     -12.05458656      12.17923266       6.15725040              inf       0.00000000       0.00000000       0.00000000 s 
Ti     -10.54770756      11.30923496       3.84273200              inf       0.00000000       0.00000000       0.00000000 s 
C      -11.95445576      10.53946456       5.00000570              inf       0.00000000       0.00000000       0.00000000 s 
O      -10.31881866      11.31896836       7.44027520              inf       0.00000000       0.00000000       0.00000000 s 
O      -11.82902186      12.18681606       2.54845380              inf       0.00000000       0.00000000       0.00000000 s 
Ti       4.52029011     -11.30956260       6.15725040              inf       0.00000000       0.00000000       0.00000000 s 
Ti       6.02716911     -12.17956030       3.84273200              inf       0.00000000       0.00000000       0.00000000 s 
C        4.62042091     -12.94933070       5.00000570              inf       0.00000000       0.00000000       0.00000000 s 
O        6.25605801     -12.16982690       7.44027520              inf       0.00000000       0.00000000       0.00000000 s 
O        4.74585481     -11.30197920       2.54845380              inf       0.00000000       0.00000000       0.00000000 s 
Ti       3.01348314      -8.69969646       6.15725040              inf       0.00000000       0.00000000       0.00000000 s 
Ti       4.52036214      -9.56969416       3.84273200              inf       0.00000000       0.00000000       0.00000000 s 
C        3.11361394     -10.33946456       5.00000570              inf       0.00000000       0.00000000       0.00000000 s 
O        4.74925104      -9.55996076       7.44027520              inf       0.00000000       0.00000000       0.00000000 s 
O        3.23904784      -8.69211306       2.54845380              inf       0.00000000       0.00000000       0.00000000 s 
Ti       1.50667617      -6.08983032       6.15725040              inf       0.00000000       0.00000000       0.00000000 s 
Ti       3.01355517      -6.95982802       3.84273200              inf       0.00000000       0.00000000       0.00000000 s 
C        1.60680697      -7.72959842       5.00000570              inf       0.00000000       0.00000000       0.00000000 s 
O        3.24244407      -6.95009462       7.44027520              inf       0.00000000       0.00000000       0.00000000 s 
O        1.73224087      -6.08224692       2.54845380              inf       0.00000000       0.00000000       0.00000000 s 
Ti      -0.00013080      -3.47996418       6.15725040              inf       0.00000000       0.00000000       0.00000000 s 
Ti       1.50674820      -4.34996188       3.84273200              inf       0.00000000       0.00000000       0.00000000 s 
C        0.10000000      -5.11973228       5.00000570              inf       0.00000000       0.00000000       0.00000000 s 
O        1.73563710      -4.34022848       7.44027520              inf       0.00000000       0.00000000       0.00000000 s 
O        0.22543390      -3.47238078       2.54845380              inf       0.00000000       0.00000000       0.00000000 s 
Ti      -1.50693777      -0.87009804       6.15725040              inf       0.00000000       0.00000000       0.00000000 s 
Ti      -0.00005877      -1.74009574       3.84273200              inf       0.00000000       0.00000000       0.00000000 s 
C       -1.40680697      -2.50986614       5.00000570              inf       0.00000000       0.00000000       0.00000000 s 
O        0.22883013      -1.73036234       7.44027520              inf       0.00000000       0.00000000       0.00000000 s 
O       -1.28137307      -0.86251464       2.54845380              inf       0.00000000       0.00000000       0.00000000 s 
Ti      -3.01374474       1.73976810       6.15725040              inf       0.00000000       0.00000000       0.00000000 s 
Ti      -1.50686574       0.86977040       3.84273200              inf       0.00000000       0.00000000       0.00000000 s 
C       -2.91361394       0.10000000       5.00000570              inf       0.00000000       0.00000000       0.00000000 s 
O       -1.27797684       0.87950380       7.44027520              inf       0.00000000       0.00000000       0.00000000 s 
O       -2.78818004       1.74735150       2.54845380              inf       0.00000000       0.00000000       0.00000000 s 
Ti      -4.52055171       4.34963424       6.15725040              inf       0.00000000       0.00000000       0.00000000 s 
Ti      -3.01367271       3.47963654       3.84273200              inf       0.00000000       0.00000000       0.00000000 s 
C       -4.42042091       2.70986614       5.00000570              inf       0.00000000       0.00000000       0.00000000 s 
O       -2.78478381       3.48936994       7.44027520              inf       0.00000000       0.00000000       0.00000000 s 
O       -4.29498701       4.35721764       2.54845380              inf       0.00000000       0.00000000       0.00000000 s 
Ti      -6.02735868       6.95950038       6.15725040              inf       0.00000000       0.00000000       0.00000000 s 
Ti      -4.52047968       6.08950268       3.84273200              inf       0.00000000       0.00000000       0.00000000 s 
C       -5.92722788       5.31973228       5.00000570              inf       0.00000000       0.00000000       0.00000000 s 
O       -4.29159078       6.09923608       7.44027520              inf       0.00000000       0.00000000       0.00000000 s 
O       -5.80179398       6.96708378       2.54845380              inf       0.00000000       0.00000000       0.00000000 s 
Ti      -7.53416565       9.56936652       6.15725040              inf       0.00000000       0.00000000       0.00000000 s 
Ti      -6.02728665       8.69936882       3.84273200              inf       0.00000000       0.00000000       0.00000000 s 
C       -7.43403485       7.92959842       5.00000570              inf       0.00000000       0.00000000       0.00000000 s 
O       -5.79839775       8.70910222       7.44027520              inf       0.00000000       0.00000000       0.00000000 s 
O       -7.30860095       9.57694992       2.54845380              inf       0.00000000       0.00000000       0.00000000 s 
Ti      -9.04097262      12.17923266       6.15725040              inf       0.00000000       0.00000000       0.00000000 s 
Ti      -7.53409362      11.30923496       3.84273200              inf       0.00000000       0.00000000       0.00000000 s 
C       -8.94084182      10.53946456       5.00000570              inf       0.00000000       0.00000000       0.00000000 s 
O       -7.30520472      11.31896836       7.44027520              inf       0.00000000       0.00000000       0.00000000 s 
O       -8.81540792      12.18681606       2.54845380              inf       0.00000000       0.00000000       0.00000000 s 
Ti       7.53390405     -11.30956260       6.15725040              inf       0.00000000       0.00000000       0.00000000 s 
Ti       9.04078305     -12.17956030       3.84273200              inf       0.00000000       0.00000000       0.00000000 s 
C        7.63403485     -12.94933070       5.00000570              inf       0.00000000       0.00000000       0.00000000 s 
O        9.26967195     -12.16982690       7.44027520              inf       0.00000000       0.00000000       0.00000000 s 
O        7.75946875     -11.30197920       2.54845380              inf       0.00000000       0.00000000       0.00000000 s 
Ti       6.02709708      -8.69969646       6.15725040              inf       0.00000000       0.00000000       0.00000000 s 
Ti       7.53397608      -9.56969416       3.84273200              inf       0.00000000       0.00000000       0.00000000 s 
C        6.12722788     -10.33946456       5.00000570              inf       0.00000000       0.00000000       0.00000000 s 
O        7.76286498      -9.55996076       7.44027520              inf       0.00000000       0.00000000       0.00000000 s 
O        6.25266178      -8.69211306       2.54845380              inf       0.00000000       0.00000000       0.00000000 s 
Ti       4.52029011      -6.08983032       6.15725040              inf       0.00000000       0.00000000       0.00000000 s 
Ti       6.02716911      -6.95982802       3.84273200              inf       0.00000000       0.00000000       0.00000000 s 
C        4.62042091      -7.72959842       5.00000570              inf       0.00000000       0.00000000       0.00000000 s 
O        6.25605801      -6.95009462       7.44027520              inf       0.00000000       0.00000000       0.00000000 s 
O        4.74585481      -6.08224692       2.54845380              inf       0.00000000       0.00000000       0.00000000 s 
Ti       3.01348314      -3.47996418       6.15725040              inf       0.00000000       0.00000000       0.00000000 s 
Ti       4.52036214      -4.34996188       3.84273200              inf       0.00000000       0.00000000       0.00000000 s 
C        3.11361394      -5.11973228       5.00000570              inf       0.00000000       0.00000000       0.00000000 s 
O        4.74925104      -4.34022848       7.44027520              inf       0.00000000       0.00000000       0.00000000 s 
O        3.23904784      -3.47238078       2.54845380              inf       0.00000000       0.00000000       0.00000000 s 
Ti       1.50667617      -0.87009804       6.15725040              inf       0.00000000       0.00000000       0.00000000 s 
Ti       3.01355517      -1.74009574       3.84273200              inf       0.00000000       0.00000000       0.00000000 s 
C        1.60680697      -2.50986614       5.00000570              inf       0.00000000       0.00000000       0.00000000 s 
O        3.24244407      -1.73036234       7.44027520              inf       0.00000000       0.00000000       0.00000000 s 
O        1.73224087      -0.86251464       2.54845380              inf       0.00000000       0.00000000       0.00000000 s 
Ti      -0.00013080       1.73976810       6.15725040              inf       0.00000000       0.00000000       0.00000000 s 
Ti       1.50674820       0.86977040       3.84273200       4.58571201       0.00000000       0.00000000       0.00000000 s 
C        0.10000000       0.10000000       5.00000570              inf       0.00000000       0.00000000       0.00000000 s 
O        1.73563710       0.87950380       7.44027520       0.98212807       0.00000000       0.00000000       0.00000000 s 
O        0.22543390       1.74735150       2.54845380              inf       0.00000000       0.00000000       0.00000000 s 
Ti      -1.50693777       4.34963424       6.15725040              inf       0.00000000       0.00000000       0.00000000 s 
Ti      -0.00005877       3.47963654       3.84273200              inf       0.00000000       0.00000000       0.00000000 s 
C       -1.40680697       2.70986614       5.00000570              inf       0.00000000       0.00000000       0.00000000 s 
O        0.22883013       3.48936994       7.44027520              inf       0.00000000       0.00000000       0.00000000 s 
O       -1.28137307       4.35721764       2.54845380              inf       0.00000000       0.00000000       0.00000000 s 
Ti      -3.01374474       6.95950038       6.15725040              inf       0.00000000       0.00000000       0.00000000 s 
Ti      -1.50686574       6.08950268       3.84273200              inf       0.00000000       0.00000000       0.00000000 s 
C       -2.91361394       5.31973228       5.00000570              inf       0.00000000       0.00000000       0.00000000 s 
O       -1.27797684       6.09923608       7.44027520              inf       0.00000000       0.00000000       0.00000000 s 
O       -2.78818004       6.96708378       2.54845380              inf       0.00000000       0.00000000       0.00000000 s 
Ti      -4.52055171       9.56936652       6.15725040              inf       0.00000000       0.00000000       0.00000000 s 
Ti      -3.01367271       8.69936882       3.84273200              inf       0.00000000       0.00000000       0.00000000 s 
C       -4.42042091       7.92959842       5.00000570              inf       0.00000000       0.00000000       0.00000000 s 
O       -2.78478381       8.70910222       7.44027520              inf       0.00000000       0.00000000       0.00000000 s 
O       -4.29498701       9.57694992       2.54845380              inf       0.00000000       0.00000000       0.00000000 s 
Ti      -6.02735868      12.17923266       6.15725040              inf       0.00000000       0.00000000       0.00000000 s 
Ti      -4.52047968      11.30923496       3.84273200              inf       0.00000000       0.00000000       0.00000000 s 
C       -5.92722788      10.53946456       5.00000570              inf       0.00000000       0.00000000       0.00000000 s 
O       -4.29159078      11.31896836       7.44027520              inf       0.00000000       0.00000000       0.00000000 s 
O       -5.80179398      12.18681606       2.54845380              inf       0.00000000       0.00000000       0.00000000 s 
Ti      10.54751799     -11.30956260       6.15725040              inf       0.00000000       0.00000000       0.00000000 s 
Ti      12.05439699     -12.17956030       3.84273200              inf       0.00000000       0.00000000       0.00000000 s 
C       10.64764879     -12.94933070       5.00000570              inf       0.00000000       0.00000000       0.00000000 s 
O       12.28328589     -12.16982690       7.44027520              inf       0.00000000       0.00000000       0.00000000 s 
O       10.77308269     -11.30197920       2.54845380              inf       0.00000000       0.00000000       0.00000000 s 
Ti       9.04071102      -8.69969646       6.15725040              inf       0.00000000       0.00000000       0.00000000 s 
Ti      10.54759002      -9.56969416       3.84273200              inf       0.00000000       0.00000000       0.00000000 s 
C        9.14084182     -10.33946456       5.00000570              inf       0.00000000       0.00000000       0.00000000 s 
O       10.77647892      -9.55996076       7.44027520              inf       0.00000000       0.00000000       0.00000000 s 
O        9.26627572      -8.69211306       2.54845380              inf       0.00000000       0.00000000       0.00000000 s 
Ti       7.53390405      -6.08983032       6.15725040              inf       0.00000000       0.00000000       0.00000000 s 
Ti       9.04078305      -6.95982802       3.84273200              inf       0.00000000       0.00000000       0.00000000 s 
C        7.63403485      -7.72959842       5.00000570              inf       0.00000000       0.00000000       0.00000000 s 
O        9.26967195      -6.95009462       7.44027520              inf       0.00000000       0.00000000       0.00000000 s 
O        7.75946875      -6.08224692       2.54845380              inf       0.00000000       0.00000000       0.00000000 s 
Ti       6.02709708      -3.47996418       6.15725040              inf       0.00000000       0.00000000       0.00000000 s 
Ti       7.53397608      -4.34996188       3.84273200              inf       0.00000000       0.00000000       0.00000000 s 
C        6.12722788      -5.11973228       5.00000570              inf       0.00000000       0.00000000       0.00000000 s 
O        7.76286498      -4.34022848       7.44027520              inf       0.00000000       0.00000000       0.00000000 s 
O        6.25266178      -3.47238078       2.54845380              inf       0.00000000       0.00000000       0.00000000 s 
Ti       4.52029011      -0.87009804       6.15725040              inf       0.00000000       0.00000000       0.00000000 s 
Ti       6.02716911      -1.74009574       3.84273200              inf       0.00000000       0.00000000       0.00000000 s 
C        4.62042091      -2.50986614       5.00000570              inf       0.00000000       0.00000000       0.00000000 s 
O        6.25605801      -1.73036234       7.44027520              inf       0.00000000       0.00000000       0.00000000 s 
O        4.74585481      -0.86251464       2.54845380              inf       0.00000000       0.00000000       0.00000000 s 
Ti       3.01348314       1.73976810       6.15725040       2.73451524      -0.00000000       0.00000000       0.00000000 s 
Ti       4.52036214       0.86977040       3.84273200              inf       0.00000000       0.00000000       0.00000000 s 
C        3.11361394       0.10000000       5.00000570       3.76949428      -0.00000000       0.00000000       0.00000000 s 
O        4.74925104       0.87950380       7.44027520              inf       0.00000000       0.00000000       0.00000000 s 
O        3.23904784       1.74735150       2.54845380       6.12266681      -0.00000000       0.00000000       0.00000000 s 
Ti       1.50667617       4.34963424       6.15725040              inf       0.00000000       0.00000000       0.00000000 s 
Ti       3.01355517       3.47963654       3.84273200              inf       0.00000000       0.00000000       0.00000000 s 
C        1.60680697       2.70986614       5.00000570              inf       0.00000000       0.00000000       0.00000000 s 
O        3.24244407       3.48936994       7.44027520              inf       0.00000000       0.00000000       0.00000000 s 
O        1.73224087       4.35721764       2.54845380              inf       0.00000000       0.00000000       0.00000000 s 
Ti      -0.00013080       6.95950038       6.15725040              inf       0.00000000       0.00000000       0.00000000 s 
Ti       1.50674820       6.08950268       3.84273200              inf       0.00000000       0.00000000       0.00000000 s 
C        0.10000000       5.31973228       5.00000570              inf       0.00000000       0.00000000       0.00000000 s 
O        1.73563710       6.09923608       7.44027520              inf       0.00000000       0.00000000       0.00000000 s 
O        0.22543390       6.96708378       2.54845380              inf       0.00000000       0.00000000       0.00000000 s 
Ti      -1.50693777       9.56936652       6.15725040              inf       0.00000000       0.00000000       0.00000000 s 
Ti      -0.00005877       8.69936882       3.84273200              inf       0.00000000       0.00000000       0.00000000 s 
C       -1.40680697       7.92959842       5.00000570              inf       0.00000000       0.00000000       0.00000000 s 
O        0.22883013       8.70910222       7.44027520              inf       0.00000000       0.00000000       0.00000000 s 
O       -1.28137307       9.57694992       2.54845380              inf       0.00000000       0.00000000       0.00000000 s 
Ti      -3.01374474      12.17923266       6.15725040              inf       0.00000000       0.00000000       0.00000000 s 
Ti      -1.50686574      11.30923496       3.84273200              inf       0.00000000       0.00000000       0.00000000 s 
C       -2.91361394      10.53946456       5.00000570              inf       0.00000000       0.00000000       0.00000000 s 
O       -1.27797684      11.31896836       7.44027520              inf       0.00000000       0.00000000       0.00000000 s 
O       -2.78818004      12.18681606       2.54845380              inf       0.00000000       0.00000000       0.00000000 s 
Ti      13.56113193     -11.30956260       6.15725040              inf       0.00000000       0.00000000       0.00000000 s 
Ti      15.06801093     -12.17956030       3.84273200              inf       0.00000000       0.00000000       0.00000000 s 
C       13.66126273     -12.94933070       5.00000570              inf       0.00000000       0.00000000       0.00000000 s 
O       15.29689983     -12.16982690       7.44027520              inf       0.00000000       0.00000000       0.00000000 s 
O       13.78669663     -11.30197920       2.54845380              inf       0.00000000       0.00000000       0.00000000 s 
Ti      12.05432496      -8.69969646       6.15725040              inf       0.00000000       0.00000000       0.00000000 s 
Ti      13.56120396      -9.56969416       3.84273200              inf       0.00000000       0.00000000       0.00000000 s 
C       12.15445576     -10.33946456       5.00000570              inf       0.00000000       0.00000000       0.00000000 s 
O       13.79009286      -9.55996076       7.44027520              inf       0.00000000       0.00000000       0.00000000 s 
O       12.27988966      -8.69211306       2.54845380              inf       0.00000000       0.00000000       0.00000000 s 
Ti      10.54751799      -6.08983032       6.15725040              inf       0.00000000       0.00000000       0.00000000 s 
Ti      12.05439699      -6.95982802       3.84273200              inf       0.00000000       0.00000000       0.00000000 s 
C       10.64764879      -7.72959842       5.00000570              inf       0.00000000       0.00000000       0.00000000 s 
O       12.28328589      -6.95009462       7.44027520              inf       0.00000000       0.00000000       0.00000000 s 
O       10.77308269      -6.08224692       2.54845380              inf       0.00000000       0.00000000       0.00000000 s 
Ti       9.04071102      -3.47996418       6.15725040              inf       0.00000000       0.00000000       0.00000000 s 
Ti      10.54759002      -4.34996188       3.84273200              inf       0.00000000       0.00000000       0.00000000 s 
C        9.14084182      -5.11973228       5.00000570              inf       0.00000000       0.00000000       0.00000000 s 
O       10.77647892      -4.34022848       7.44027520              inf       0.00000000       0.00000000       0.00000000 s 
O        9.26627572      -3.47238078       2.54845380              inf       0.00000000       0.00000000       0.00000000 s 
Ti       7.53390405      -0.87009804       6.15725040              inf       0.00000000       0.00000000       0.00000000 s 
Ti       9.04078305      -1.74009574       3.84273200              inf       0.00000000       0.00000000       0.00000000 s 
C        7.63403485      -2.50986614       5.00000570              inf       0.00000000       0.00000000       0.00000000 s 
O        9.26967195      -1.73036234       7.44027520              inf       0.00000000       0.00000000       0.00000000 s 
O        7.75946875      -0.86251464       2.54845380              inf       0.00000000       0.00000000       0.00000000 s 
Ti       6.02709708       1.73976810       6.15725040              inf       0.00000000       0.00000000       0.00000000 s 
Ti       7.53397608       0.86977040       3.84273200              inf       0.00000000       0.00000000       0.00000000 s 
C        6.12722788       0.10000000       5.00000570              inf       0.00000000       0.00000000       0.00000000 s 
O        7.76286498       0.87950380       7.44027520              inf       0.00000000       0.00000000       0.00000000 s 
O        6.25266178       1.74735150       2.54845380              inf       0.00000000       0.00000000       0.00000000 s 
Ti       4.52029011       4.34963424       6.15725040              inf       0.00000000       0.00000000       0.00000000 s 
Ti       6.02716911       3.47963654       3.84273200              inf       0.00000000       0.00000000       0.00000000 s 
C        4.62042091       2.70986614       5.00000570              inf       0.00000000       0.00000000       0.00000000 s 
O        6.25605801       3.48936994       7.44027520              inf       0.00000000       0.00000000       0.00000000 s 
O        4.74585481       4.35721764       2.54845380              inf       0.00000000       0.00000000       0.00000000 s 
Ti       3.01348314       6.95950038       6.15725040              inf       0.00000000       0.00000000       0.00000000 s 
Ti       4.52036214       6.08950268       3.84273200              inf       0.00000000       0.00000000       0.00000000 s 
C        3.11361394       5.31973228       5.00000570              inf       0.00000000       0.00000000       0.00000000 s 
O        4.74925104       6.09923608       7.44027520              inf       0.00000000       0.00000000       0.00000000 s 
O        3.23904784       6.96708378       2.54845380              inf       0.00000000       0.00000000       0.00000000 s 
Ti       1.50667617       9.56936652       6.15725040              inf       0.00000000       0.00000000       0.00000000 s 
Ti       3.01355517       8.69936882       3.84273200              inf       0.00000000       0.00000000       0.00000000 s 
C        1.60680697       7.92959842       5.00000570              inf       0.00000000       0.00000000       0.00000000 s 
O        3.24244407       8.70910222       7.44027520              inf       0.00000000       0.00000000       0.00000000 s 
O        1.73224087       9.57694992       2.54845380              inf       0.00000000       0.00000000       0.00000000 s 
Ti      -0.00013080      12.17923266       6.15725040              inf       0.00000000       0.00000000       0.00000000 s 
Ti       1.50674820      11.30923496       3.84273200              inf       0.00000000       0.00000000       0.00000000 s 
C        0.10000000      10.53946456       5.00000570              inf       0.00000000       0.00000000       0.00000000 s 
O        1.73563710      11.31896836       7.44027520              inf       0.00000000       0.00000000       0.00000000 s 
O        0.22543390      12.18681606       2.54845380              inf       0.00000000       0.00000000       0.00000000 s 
Ti      16.57474587     -11.30956260       6.15725040              inf       0.00000000       0.00000000       0.00000000 s 
Ti      18.08162487     -12.17956030       3.84273200              inf       0.00000000       0.00000000       0.00000000 s 
C       16.67487667     -12.94933070       5.00000570              inf       0.00000000       0.00000000       0.00000000 s 
O       18.31051377     -12.16982690       7.44027520              inf       0.00000000       0.00000000       0.00000000 s 
O       16.80031057     -11.30197920       2.54845380              inf       0.00000000       0.00000000       0.00000000 s 
Ti      15.06793890      -8.69969646       6.15725040              inf       0.00000000       0.00000000       0.00000000 s 
Ti      16.57481790      -9.56969416       3.84273200              inf       0.00000000       0.00000000       0.00000000 s 
C       15.16806970     -10.33946456       5.00000570              inf       0.00000000       0.00000000       0.00000000 s 
O       16.80370680      -9.55996076       7.44027520              inf       0.00000000       0.00000000       0.00000000 s 
O       15.29350360      -8.69211306       2.54845380              inf       0.00000000       0.00000000       0.00000000 s 
Ti      13.56113193      -6.08983032       6.15725040              inf       0.00000000       0.00000000       0.00000000 s 
Ti      15.06801093      -6.95982802       3.84273200              inf       0.00000000       0.00000000       0.00000000 s 
C       13.66126273      -7.72959842       5.00000570              inf       0.00000000       0.00000000       0.00000000 s 
O       15.29689983      -6.95009462       7.44027520              inf       0.00000000       0.00000000       0.00000000 s 
O       13.78669663      -6.08224692       2.54845380              inf       0.00000000       0.00000000       0.00000000 s 
Ti      12.05432496      -3.47996418       6.15725040              inf       0.00000000       0.00000000       0.00000000 s 
Ti      13.56120396      -4.34996188       3.84273200              inf       0.00000000       0.00000000       0.00000000 s 
C       12.15445576      -5.11973228       5.00000570              inf       0.00000000       0.00000000       0.00000000 s 
O       13.79009286      -4.34022848       7.44027520              inf       0.00000000       0.00000000       0.00000000 s 
O       12.27988966      -3.47238078       2.54845380              inf       0.00000000       0.00000000       0.00000000 s 
Ti      10.54751799      -0.87009804       6.15725040              inf       0.00000000       0.00000000       0.00000000 s 
Ti      12.05439699      -1.74009574       3.84273200              inf       0.00000000       0.00000000       0.00000000 s 
C       10.64764879      -2.50986614       5.00000570              inf       0.00000000       0.00000000       0.00000000 s 
O       12.28328589      -1.73036234       7.44027520              inf       0.00000000       0.00000000       0.00000000 s 
O       10.77308269      -0.86251464       2.54845380              inf       0.00000000       0.00000000       0.00000000 s 
Ti       9.04071102       1.73976810       6.15725040              inf       0.00000000       0.00000000       0.00000000 s 
Ti      10.54759002       0.86977040       3.84273200              inf       0.00000000       0.00000000       0.00000000 s 
C        9.14084182       0.10000000       5.00000570              inf       0.00000000       0.00000000       0.00000000 s 
O       10.77647892       0.87950380       7.44027520              inf       0.00000000       0.00000000       0.00000000 s 
O        9.26627572       1.74735150       2.54845380              inf       0.00000000       0.00000000       0.00000000 s 
Ti       7.53390405       4.34963424       6.15725040              inf       0.00000000       0.00000000       0.00000000 s 
Ti       9.04078305       3.47963654       3.84273200              inf       0.00000000       0.00000000       0.00000000 s 
C        7.63403485       2.70986614       5.00000570              inf       0.00000000       0.00000000       0.00000000 s 
O        9.26967195       3.48936994       7.44027520              inf       0.00000000       0.00000000       0.00000000 s 
O        7.75946875       4.35721764       2.54845380              inf       0.00000000       0.00000000       0.00000000 s 
Ti       6.02709708       6.95950038       6.15725040              inf       0.00000000       0.00000000       0.00000000 s 
Ti       7.53397608       6.08950268       3.84273200              inf       0.00000000       0.00000000       0.00000000 s 
C        6.12722788       5.31973228       5.00000570              inf       0.00000000       0.00000000       0.00000000 s 
O        7.76286498       6.09923608       7.44027520              inf       0.00000000       0.00000000       0.00000000 s 
O        6.25266178       6.96708378       2.54845380              inf       0.00000000       0.00000000       0.00000000 s 
Ti       4.52029011       9.56936652       6.15725040              inf       0.00000000       0.00000000       0.00000000 s 
Ti       6.02716911       8.69936882       3.84273200              inf       0.00000000       0.00000000       0.00000000 s 
C        4.62042091       7.92959842       5.00000570              inf       0.00000000       0.00000000       0.00000000 s 
O        6.25605801       8.70910222       7.44027520              inf       0.00000000       0.00000000       0.00000000 s 
O        4.74585481       9.57694992       2.54845380              inf       0.00000000       0.00000000       0.00000000 s 
Ti       3.01348314      12.17923266       6.15725040              inf       0.00000000       0.00000000       0.00000000 s 
Ti       4.52036214      11.30923496       3.84273200              inf       0.00000000       0.00000000       0.00000000 s 
C        3.11361394      10.53946456       5.00000570              inf       0.00000000       0.00000000       0.00000000 s 
O        4.74925104      11.31896836       7.44027520              inf       0.00000000       0.00000000       0.00000000 s 
O        3.23904784      12.18681606       2.54845380              inf       0.00000000       0.00000000       0.00000000 s 
Ti      19.58835981     -11.30956260       6.15725040              inf       0.00000000       0.00000000       0.00000000 s 
Ti      21.09523881     -12.17956030       3.84273200              inf       0.00000000       0.00000000       0.00000000 s 
C       19.68849061     -12.94933070       5.00000570              inf       0.00000000       0.00000000       0.00000000 s 
O       21.32412771     -12.16982690       7.44027520              inf       0.00000000       0.00000000       0.00000000 s 
O       19.81392451     -11.30197920       2.54845380              inf       0.00000000       0.00000000       0.00000000 s 
Ti      18.08155284      -8.69969646       6.15725040              inf       0.00000000       0.00000000       0.00000000 s 
Ti      19.58843184      -9.56969416       3.84273200              inf       0.00000000       0.00000000       0.00000000 s 
C       18.18168364     -10.33946456       5.00000570              inf       0.00000000       0.00000000       0.00000000 s 
O       19.81732074      -9.55996076       7.44027520              inf       0.00000000       0.00000000       0.00000000 s 
O       18.30711754      -8.69211306       2.54845380              inf       0.00000000       0.00000000       0.00000000 s 
Ti      16.57474587      -6.08983032       6.15725040              inf       0.00000000       0.00000000       0.00000000 s 
Ti      18.08162487      -6.95982802       3.84273200              inf       0.00000000       0.00000000       0.00000000 s 
C       16.67487667      -7.72959842       5.00000570              inf       0.00000000       0.00000000       0.00000000 s 
O       18.31051377      -6.95009462       7.44027520              inf       0.00000000       0.00000000       0.00000000 s 
O       16.80031057      -6.08224692       2.54845380              inf       0.00000000       0.00000000       0.00000000 s 
Ti      15.06793890      -3.47996418       6.15725040              inf       0.00000000       0.00000000       0.00000000 s 
Ti      16.57481790      -4.34996188       3.84273200              inf       0.00000000       0.00000000       0.00000000 s 
C       15.16806970      -5.11973228       5.00000570              inf       0.00000000       0.00000000       0.00000000 s 
O       16.80370680      -4.34022848       7.44027520              inf       0.00000000       0.00000000       0.00000000 s 
O       15.29350360      -3.47238078       2.54845380              inf       0.00000000       0.00000000       0.00000000 s 
Ti      13.56113193      -0.87009804       6.15725040              inf       0.00000000       0.00000000       0.00000000 s 
Ti      15.06801093      -1.74009574       3.84273200              inf       0.00000000       0.00000000       0.00000000 s 
C       13.66126273      -2.50986614       5.00000570              inf       0.00000000       0.00000000       0.00000000 s 
O       15.29689983      -1.73036234       7.44027520              inf       0.00000000       0.00000000       0.00000000 s 
O       13.78669663      -0.86251464       2.54845380              inf       0.00000000       0.00000000       0.00000000 s 
Ti      12.05432496       1.73976810       6.15725040              inf       0.00000000       0.00000000       0.00000000 s 
Ti      13.56120396       0.86977040       3.84273200              inf       0.00000000       0.00000000       0.00000000 s 
C       12.15445576       0.10000000       5.00000570              inf       0.00000000       0.00000000       0.00000000 s 
O       13.79009286       0.87950380       7.44027520              inf       0.00000000       0.00000000       0.00000000 s 
O       12.27988966       1.74735150       2.54845380              inf       0.00000000       0.00000000       0.00000000 s 
Ti      10.54751799       4.34963424       6.15725040              inf       0.00000000       0.00000000       0.00000000 s 
Ti      12.05439699       3.47963654       3.84273200              inf       0.00000000       0.00000000       0.00000000 s 
C       10.64764879       2.70986614       5.00000570              inf       0.00000000       0.00000000       0.00000000 s 
O       12.28328589       3.48936994       7.44027520              inf       0.00000000       0.00000000       0.00000000 s 
O       10.77308269       4.35721764       2.54845380              inf       0.00000000       0.00000000       0.00000000 s 
Ti       9.04071102       6.95950038       6.15725040              inf       0.00000000       0.00000000       0.00000000 s 
Ti      10.54759002       6.08950268       3.84273200              inf       0.00000000       0.00000000       0.00000000 s 
C        9.14084182       5.31973228       5.00000570              inf       0.00000000       0.00000000       0.00000000 s 
O       10.77647892       6.09923608       7.44027520              inf       0.00000000       0.00000000       0.00000000 s 
O        9.26627572       6.96708378       2.54845380              inf       0.00000000       0.00000000       0.00000000 s 
Ti       7.53390405       9.56936652       6.15725040              inf       0.00000000       0.00000000       0.00000000 s 
Ti       9.04078305       8.69936882       3.84273200              inf       0.00000000       0.00000000       0.00000000 s 
C        7.63403485       7.92959842       5.00000570              inf       0.00000000       0.00000000       0.00000000 s 
O        9.26967195       8.70910222       7.44027520              inf       0.00000000       0.00000000       0.00000000 s 
O        7.75946875       9.57694992       2.54845380              inf       0.00000000       0.00000000       0.00000000 s 
Ti       6.02709708      12.17923266       6.15725040              inf       0.00000000       0.00000000       0.00000000 s 
Ti       7.53397608      11.30923496       3.84273200              inf       0.00000000       0.00000000       0.00000000 s 
C        6.12722788      10.53946456       5.00000570              inf       0.00000000       0.00000000       0.00000000 s 
O        7.76286498      11.31896836       7.44027520              inf       0.00000000       0.00000000       0.00000000 s 
O        6.25266178      12.18681606       2.54845380              inf       0.00000000       0.00000000       0.00000000 s 
H        1.74228540       0.88485270       8.42236620       0.00000000       0.00000000       0.00000000       0.00000000 a1
