1
Lattice="1.7320508075666665 0.0 0.0 0.8660254037999999 1.5 0.0 0.0 0.0 20.0" Properties=species:S:1:pos:R:3 size="3 3" adsorbate_elements=O sym_prec=0.1 s1=2 ac_name=atop-honey pbc="T T T"
O        0.86602540       0.50000000       2.00000000
