53
Lattice="8.660254037833333 0.0 0.0 4.330127019 7.5 0.0 0.0 0.0 20.0" Properties=species:S:1:pos:R:3:remoteness:R:1:shift:R:3:adsorption:S:1 size="_JSON [[5, 0], [0, 5]]" sym_prec=0.1 mass_center_dist=3.0413812651612973 min_atom_dist=2.6457513110740543 s1=atop-honey s2=dimer-honey s1idx=1 s2idx=4 pbc="T T T"
H        0.00000000       0.00000000       0.00000000              inf       0.00000000       0.00000000       0.00000000 s 
H        0.86602540       0.50000000       0.00000000              inf       0.00000000       0.00000000       0.00000000 s 
H        0.86602540       1.50000000       0.00000000              inf       0.00000000       0.00000000       0.00000000 s 
H        1.73205081       2.00000000       0.00000000              inf       0.00000000       0.00000000       0.00000000 s 
H        1.73205081       3.00000000       0.00000000              inf       0.00000000       0.00000000       0.00000000 s 
H        2.59807621       3.50000000       0.00000000       3.31662479      -0.00000000      -0.00000000       0.00000000 s 
H        2.59807621       4.50000000       0.00000000       3.60555128      -0.00000000      -0.00000000       0.00000000 s 
H        3.46410162       5.00000000       0.00000000              inf       0.00000000       0.00000000       0.00000000 s 
H        3.46410162       6.00000000       0.00000000              inf       0.00000000       0.00000000       0.00000000 s 
H        4.33012702       6.50000000       0.00000000              inf       0.00000000       0.00000000       0.00000000 s 
H        1.73205081      -0.00000000       0.00000000       2.95803989      -0.00000000      -0.00000000       0.00000000 s 
H        2.59807621       0.50000000       0.00000000       3.20156212       0.00000000       0.00000000       0.00000000 s 
H        2.59807621       1.50000000       0.00000000              inf       0.00000000       0.00000000       0.00000000 s 
H        3.46410162       2.00000000       0.00000000       2.82842712      -0.00000000       0.00000000       0.00000000 s 
H        3.46410162       3.00000000       0.00000000       2.64575131      -0.00000000       0.00000000       0.00000000 s 
H        4.33012702       3.50000000       0.00000000       2.23606798      -0.00000000      -0.00000000       0.00000000 s 
H        4.33012702       4.50000000       0.00000000       2.64575131      -0.00000000      -0.00000000       0.00000000 s 
H        5.19615242       5.00000000       0.00000000       2.69258240      -0.00000000      -0.00000000       0.00000000 s 
H        5.19615242       6.00000000       0.00000000       2.69258240      -0.00000000      -0.00000000       0.00000000 s 
H        6.06217783       6.50000000       0.00000000       2.39791576      -0.00000000      -0.00000000       0.00000000 s 
H        3.46410162       0.00000000       0.00000000       2.95803989       0.00000000       0.00000000       0.00000000 s 
H        4.33012702       0.50000000       0.00000000       3.31662479      -0.00000000       0.00000000       0.00000000 s 
H        4.33012702       1.50000000       0.00000000       2.64575131      -0.00000000       0.00000000       0.00000000 s 
H        5.19615242       2.00000000       0.00000000       2.23606798      -0.00000000       0.00000000       0.00000000 s 
H        5.19615242       3.00000000       0.00000000       2.00000000      -0.00000000       0.00000000       0.00000000 s 
H        6.06217783       3.50000000       0.00000000       2.23606798      -0.00000000      -0.00000000       0.00000000 s 
H        6.06217783       4.50000000       0.00000000       2.39791576      -0.00000000      -0.00000000       0.00000000 s 
H        6.92820323       5.00000000       0.00000000       2.06155281      -0.00000000      -0.00000000       0.00000000 s 
H        6.92820323       6.00000000       0.00000000       2.06155281      -0.00000000      -0.00000000       0.00000000 s 
H        7.79422863       6.50000000       0.00000000       2.39791576       0.00000000       0.00000000       0.00000000 s 
H        5.19615242       0.00000000       0.00000000              inf       0.00000000       0.00000000       0.00000000 s 
H        6.06217783       0.50000000       0.00000000       3.31662479      -0.00000000       0.00000000       0.00000000 s 
H        6.06217783       1.50000000       0.00000000       2.64575131      -0.00000000       0.00000000       0.00000000 s 
H        6.92820323       2.00000000       0.00000000       2.82842712       0.00000000       0.00000000       0.00000000 s 
H        6.92820323       3.00000000       0.00000000       2.64575131      -0.00000000       0.00000000       0.00000000 s 
H        7.79422863       3.50000000       0.00000000       2.95803989      -0.00000000      -0.00000000       0.00000000 s 
H        7.79422863       4.50000000       0.00000000       2.39791576      -0.00000000      -0.00000000       0.00000000 s 
H        8.66025404       5.00000000       0.00000000       2.69258240       0.00000000      -0.00000000       0.00000000 s 
H        8.66025404       6.00000000       0.00000000       2.69258240       0.00000000       0.00000000       0.00000000 s 
H        9.52627944       6.50000000       0.00000000       3.42782730      -0.00000000      -0.00000000       0.00000000 s 
H        6.92820323       0.00000000       0.00000000              inf       0.00000000       0.00000000       0.00000000 s 
H        7.79422863       0.50000000       0.00000000              inf       0.00000000       0.00000000       0.00000000 s 
H        7.79422863       1.50000000       0.00000000       3.60555128      -0.00000000       0.00000000       0.00000000 s 
H        8.66025404       2.00000000       0.00000000              inf       0.00000000       0.00000000       0.00000000 s 
H        8.66025404       3.00000000       0.00000000              inf       0.00000000       0.00000000       0.00000000 s 
H        9.52627944       3.50000000       0.00000000              inf       0.00000000       0.00000000       0.00000000 s 
H        9.52627944       4.50000000       0.00000000       3.42782730      -0.00000000      -0.00000000       0.00000000 s 
H       10.39230485       5.00000000       0.00000000              inf       0.00000000       0.00000000       0.00000000 s 
H       10.39230485       6.00000000       0.00000000              inf       0.00000000       0.00000000       0.00000000 s 
H       11.25833025       6.50000000       0.00000000              inf       0.00000000       0.00000000       0.00000000 s 
O        5.19615242       3.00000000       2.00000000       0.00000000       0.00000000       0.00000000       0.00000000 a1
N        6.92820323       5.00000000       2.00000000       0.00000000       0.00000000       0.00000000       0.00000000 a2
N        6.92820323       6.00000000       2.00000000       0.00000000       0.00000000       0.00000000       0.00000000 a2
