2
Lattice="2.771858582266667 0.0 0.0 1.3859292911333334 2.400499947933333 0.0 0.0 0.0 26.7896391657" Properties=species:S:1:pos:R:3 size="3 3" adsorbate_elements="C O" ac_name=ontop s1=1 pbc="T T T"
C       0.50000000       0.30000000      18.63963917 
O       0.50000000       0.30000000      19.78963917 
