5
Lattice="2.0 0.0 0.0 0.0 2.0 0.0 0.0 0.0 10.0" Properties=species:S:1:pos:R:3:remoteness:R:1:shift:R:3:adsorption:S:1 size="2 2" ac_name=occupied pbc="T T T"
H      -1.00000000      -1.00000000       0.00000000              inf       0.00000000       0.00000000       0.00000000 s 
H      -1.00000000       0.00000000       0.00000000              inf       0.00000000       0.00000000       0.00000000 s 
H       0.00000000      -1.00000000       0.00000000              inf       0.00000000       0.00000000       0.00000000 s 
H       0.00000000       0.00000000       0.00000000       2.00000000       0.00000000       0.00000000       0.00000000 s 
O       0.00000000       0.00000000       2.00000000       0.00000000       0.00000000       0.00000000       0.00000000 a1 
