27
Lattice="5.0 0.0 0.0 2.5 4.330127018922193 0.0 0.0 0.0 10.0" Properties=species:S:1:pos:R:3:remoteness:R:1:shift:R:3:adsorption:S:1 size="_JSON [[5, 0], [0, 5]]" sym_prec=0.1 mass_center_dist=1.7320508075688772 min_atom_dist=1.7320508075688772 s1=atop-triang s2=atop-triang s1idx=1 s2idx=1 pbc="T T T"
H        0.20000000       0.20000000       2.00000000              inf       0.00000000       0.00000000       0.00000000 s 
H        0.70000000       1.06602540       2.00000000              inf       0.00000000       0.00000000       0.00000000 s 
H        1.20000000       1.93205081       2.00000000              inf       0.00000000       0.00000000       0.00000000 s 
H        1.70000000       2.79807621       2.00000000              inf       0.00000000       0.00000000       0.00000000 s 
H        2.20000000       3.66410162       2.00000000              inf       0.00000000       0.00000000       0.00000000 s 
H        1.20000000       0.20000000       2.00000000              inf       0.00000000       0.00000000       0.00000000 s 
H        1.70000000       1.06602540       2.00000000              inf       0.00000000       0.00000000       0.00000000 s 
H        2.20000000       1.93205081       2.00000000              inf       0.00000000       0.00000000       0.00000000 s 
H        2.70000000       2.79807621       2.00000000              inf       0.00000000       0.00000000       0.00000000 s 
H        3.20000000       3.66410162       2.00000000              inf       0.00000000       0.00000000       0.00000000 s 
H        2.20000000       0.20000000       2.00000000              inf       0.00000000       0.00000000       0.00000000 s 
H        2.70000000       1.06602540       2.00000000              inf       0.00000000       0.00000000       0.00000000 s 
H        3.20000000       1.93205081       2.00000000       2.00000000       0.00000000       0.00000000       0.00000000 s 
H        3.70000000       2.79807621       2.00000000              inf       0.00000000       0.00000000       0.00000000 s 
H        4.20000000       3.66410162       2.00000000              inf       0.00000000       0.00000000       0.00000000 s 
H        3.20000000       0.20000000       2.00000000              inf       0.00000000       0.00000000       0.00000000 s 
H        3.70000000       1.06602540       2.00000000              inf       0.00000000       0.00000000       0.00000000 s 
H        4.20000000       1.93205081       2.00000000              inf       0.00000000       0.00000000       0.00000000 s 
H        4.70000000       2.79807621       2.00000000       2.00000000       0.00000000       0.00000000       0.00000000 s 
H        5.20000000       3.66410162       2.00000000              inf       0.00000000       0.00000000       0.00000000 s 
H        4.20000000       0.20000000       2.00000000              inf       0.00000000       0.00000000       0.00000000 s 
H        4.70000000       1.06602540       2.00000000              inf       0.00000000       0.00000000       0.00000000 s 
H        5.20000000       1.93205081       2.00000000              inf       0.00000000       0.00000000       0.00000000 s 
H        5.70000000       2.79807621       2.00000000              inf       0.00000000       0.00000000       0.00000000 s 
H        6.20000000       3.66410162       2.00000000              inf       0.00000000       0.00000000       0.00000000 s 
Li       4.70000000       2.79807621       4.00000000       0.00000000       0.00000000       0.00000000       0.00000000 a1
Li       3.20000000       1.93205081       4.00000000       0.00000000       0.00000000       0.00000000       0.00000000 a2
