502
Lattice="28.910999499435217 0.0 0.0 -14.455499749717609 25.037660015310088 0.0 0.0 0.0 9.0" Properties=species:S:1:pos:R:3:remoteness:R:1:shift:R:3:adsorption:S:1 size="_JSON [[10, 0], [0, 10]]" mass_center_dist=10.424009112012738 min_atom_dist=10.424009112012738 s1=v2co2_h s2=v2co2_h s1idx=1 s2idx=1 pbc="T T T"
V        0.16392035       2.01055646       5.20782244              inf       0.00000000       0.00000000       0.00000000 s 
V        1.65954981       1.14696479       2.79255122              inf       0.00000000       0.00000000       0.00000000 s 
C        0.18675805       0.32305500       4.00020226              inf       0.00000000       0.00000000       0.00000000 s 
O        1.64124939       1.15782741       6.20821994              inf       0.00000000       0.00000000       0.00000000 s 
O        0.18240045       2.00003685       1.79220069              inf       0.00000000       0.00000000       0.00000000 s 
V       -1.28162962       4.51432246       5.20782244              inf       0.00000000       0.00000000       0.00000000 s 
V        0.21399983       3.65073079       2.79255122              inf       0.00000000       0.00000000       0.00000000 s 
C       -1.25879193       2.82682101       4.00020226              inf       0.00000000       0.00000000       0.00000000 s 
O        0.19569941       3.66159341       6.20821994              inf       0.00000000       0.00000000       0.00000000 s 
O       -1.26314952       4.50380286       1.79220069              inf       0.00000000       0.00000000       0.00000000 s 
V       -2.72717959       7.01808847       5.20782244              inf       0.00000000       0.00000000       0.00000000 s 
V       -1.23155014       6.15449679       2.79255122              inf       0.00000000       0.00000000       0.00000000 s 
C       -2.70434190       5.33058701       4.00020226              inf       0.00000000       0.00000000       0.00000000 s 
O       -1.24985056       6.16535941       6.20821994              inf       0.00000000       0.00000000       0.00000000 s 
O       -2.70869950       7.00756886       1.79220069              inf       0.00000000       0.00000000       0.00000000 s 
V       -4.17272957       9.52185447       5.20782244              inf       0.00000000       0.00000000       0.00000000 s 
V       -2.67710012       8.65826279       2.79255122              inf       0.00000000       0.00000000       0.00000000 s 
C       -4.14989188       7.83435301       4.00020226              inf       0.00000000       0.00000000       0.00000000 s 
O       -2.69540054       8.66912541       6.20821994              inf       0.00000000       0.00000000       0.00000000 s 
O       -4.15424947       9.51133486       1.79220069              inf       0.00000000       0.00000000       0.00000000 s 
V       -5.61827954      12.02562047       5.20782244              inf       0.00000000       0.00000000       0.00000000 s 
V       -4.12265009      11.16202880       2.79255122              inf       0.00000000       0.00000000       0.00000000 s 
C       -5.59544185      10.33811901       4.00020226              inf       0.00000000       0.00000000       0.00000000 s 
O       -4.14095051      11.17289142       6.20821994              inf       0.00000000       0.00000000       0.00000000 s 
O       -5.59979945      12.01510086       1.79220069              inf       0.00000000       0.00000000       0.00000000 s 
V       -7.06382952      14.52938647       5.20782244              inf       0.00000000       0.00000000       0.00000000 s 
V       -5.56820007      13.66579480       2.79255122              inf       0.00000000       0.00000000       0.00000000 s 
C       -7.04099183      12.84188501       4.00020226              inf       0.00000000       0.00000000       0.00000000 s 
O       -5.58650049      13.67665742       6.20821994              inf       0.00000000       0.00000000       0.00000000 s 
O       -7.04534942      14.51886686       1.79220069              inf       0.00000000       0.00000000       0.00000000 s 
V       -8.50937949      17.03315247       5.20782244              inf       0.00000000       0.00000000       0.00000000 s 
V       -7.01375004      16.16956080       2.79255122              inf       0.00000000       0.00000000       0.00000000 s 
C       -8.48654180      15.34565101       4.00020226              inf       0.00000000       0.00000000       0.00000000 s 
O       -7.03205046      16.18042342       6.20821994              inf       0.00000000       0.00000000       0.00000000 s 
O       -8.49089940      17.02263286       1.79220069              inf       0.00000000       0.00000000       0.00000000 s 
V       -9.95492947      19.53691847       5.20782244              inf       0.00000000       0.00000000       0.00000000 s 
V       -8.45930002      18.67332680       2.79255122              inf       0.00000000       0.00000000       0.00000000 s 
C       -9.93209178      17.84941701       4.00020226              inf       0.00000000       0.00000000       0.00000000 s 
O       -8.47760044      18.68418942       6.20821994              inf       0.00000000       0.00000000       0.00000000 s 
O       -9.93644937      19.52639886       1.79220069              inf       0.00000000       0.00000000       0.00000000 s 
V      -11.40047944      22.04068448       5.20782244              inf       0.00000000       0.00000000       0.00000000 s 
V       -9.90484999      21.17709280       2.79255122              inf       0.00000000       0.00000000       0.00000000 s 
C      -11.37764175      20.35318302       4.00020226              inf       0.00000000       0.00000000       0.00000000 s 
O       -9.92315041      21.18795542       6.20821994              inf       0.00000000       0.00000000       0.00000000 s 
O      -11.38199935      22.03016487       1.79220069              inf       0.00000000       0.00000000       0.00000000 s 
V      -12.84602942      24.54445048       5.20782244              inf       0.00000000       0.00000000       0.00000000 s 
V      -11.35039997      23.68085880       2.79255122              inf       0.00000000       0.00000000       0.00000000 s 
C      -12.82319173      22.85694902       4.00020226              inf       0.00000000       0.00000000       0.00000000 s 
O      -11.36870039      23.69172142       6.20821994              inf       0.00000000       0.00000000       0.00000000 s 
O      -12.82754932      24.53393087       1.79220069              inf       0.00000000       0.00000000       0.00000000 s 
V        3.05502030       2.01055646       5.20782244              inf       0.00000000       0.00000000       0.00000000 s 
V        4.55064976       1.14696479       2.79255122              inf       0.00000000       0.00000000       0.00000000 s 
C        3.07785800       0.32305500       4.00020226              inf       0.00000000       0.00000000       0.00000000 s 
O        4.53234934       1.15782741       6.20821994              inf       0.00000000       0.00000000       0.00000000 s 
O        3.07350040       2.00003685       1.79220069              inf       0.00000000       0.00000000       0.00000000 s 
V        1.60947033       4.51432246       5.20782244              inf       0.00000000       0.00000000       0.00000000 s 
V        3.10509978       3.65073079       2.79255122              inf       0.00000000       0.00000000       0.00000000 s 
C        1.63230802       2.82682101       4.00020226              inf       0.00000000       0.00000000       0.00000000 s 
O        3.08679936       3.66159341       6.20821994              inf       0.00000000       0.00000000       0.00000000 s 
O        1.62795043       4.50380286       1.79220069              inf       0.00000000       0.00000000       0.00000000 s 
V        0.16392035       7.01808847       5.20782244              inf       0.00000000       0.00000000       0.00000000 s 
V        1.65954981       6.15449679       2.79255122              inf       0.00000000       0.00000000       0.00000000 s 
C        0.18675805       5.33058701       4.00020226              inf       0.00000000       0.00000000       0.00000000 s 
O        1.64124939       6.16535941       6.20821994              inf       0.00000000       0.00000000       0.00000000 s 
O        0.18240045       7.00756886       1.79220069              inf       0.00000000       0.00000000       0.00000000 s 
V       -1.28162962       9.52185447       5.20782244              inf       0.00000000       0.00000000       0.00000000 s 
V        0.21399983       8.65826279       2.79255122              inf       0.00000000       0.00000000       0.00000000 s 
C       -1.25879193       7.83435301       4.00020226              inf       0.00000000       0.00000000       0.00000000 s 
O        0.19569941       8.66912541       6.20821994              inf       0.00000000       0.00000000       0.00000000 s 
O       -1.26314952       9.51133486       1.79220069              inf       0.00000000       0.00000000       0.00000000 s 
V       -2.72717959      12.02562047       5.20782244              inf       0.00000000       0.00000000       0.00000000 s 
V       -1.23155014      11.16202880       2.79255122              inf       0.00000000       0.00000000       0.00000000 s 
C       -2.70434190      10.33811901       4.00020226              inf       0.00000000       0.00000000       0.00000000 s 
O       -1.24985056      11.17289142       6.20821994              inf       0.00000000       0.00000000       0.00000000 s 
O       -2.70869950      12.01510086       1.79220069              inf       0.00000000       0.00000000       0.00000000 s 
V       -4.17272957      14.52938647       5.20782244              inf       0.00000000       0.00000000       0.00000000 s 
V       -2.67710012      13.66579480       2.79255122              inf       0.00000000       0.00000000       0.00000000 s 
C       -4.14989188      12.84188501       4.00020226              inf       0.00000000       0.00000000       0.00000000 s 
O       -2.69540054      13.67665742       6.20821994              inf       0.00000000       0.00000000       0.00000000 s 
O       -4.15424947      14.51886686       1.79220069              inf       0.00000000       0.00000000       0.00000000 s 
V       -5.61827954      17.03315247       5.20782244              inf       0.00000000       0.00000000       0.00000000 s 
V       -4.12265009      16.16956080       2.79255122              inf       0.00000000       0.00000000       0.00000000 s 
C       -5.59544185      15.34565101       4.00020226              inf       0.00000000       0.00000000       0.00000000 s 
O       -4.14095051      16.18042342       6.20821994              inf       0.00000000       0.00000000       0.00000000 s 
O       -5.59979945      17.02263286       1.79220069              inf       0.00000000       0.00000000       0.00000000 s 
V       -7.06382952      19.53691847       5.20782244              inf       0.00000000       0.00000000       0.00000000 s 
V       -5.56820007      18.67332680       2.79255122              inf       0.00000000       0.00000000       0.00000000 s 
C       -7.04099183      17.84941701       4.00020226              inf       0.00000000       0.00000000       0.00000000 s 
O       -5.58650049      18.68418942       6.20821994              inf       0.00000000       0.00000000       0.00000000 s 
O       -7.04534942      19.52639886       1.79220069              inf       0.00000000       0.00000000       0.00000000 s 
V       -8.50937949      22.04068448       5.20782244              inf       0.00000000       0.00000000       0.00000000 s 
V       -7.01375004      21.17709280       2.79255122              inf       0.00000000       0.00000000       0.00000000 s 
C       -8.48654180      20.35318302       4.00020226              inf       0.00000000       0.00000000       0.00000000 s 
O       -7.03205046      21.18795542       6.20821994              inf       0.00000000       0.00000000       0.00000000 s 
O       -8.49089940      22.03016487       1.79220069              inf       0.00000000       0.00000000       0.00000000 s 
V       -9.95492947      24.54445048       5.20782244              inf       0.00000000       0.00000000       0.00000000 s 
V       -8.45930002      23.68085880       2.79255122              inf       0.00000000       0.00000000       0.00000000 s 
C       -9.93209178      22.85694902       4.00020226              inf       0.00000000       0.00000000       0.00000000 s 
O       -8.47760044      23.69172142       6.20821994              inf       0.00000000       0.00000000       0.00000000 s 
O       -9.93644937      24.53393087       1.79220069              inf       0.00000000       0.00000000       0.00000000 s 
V        5.94612025       2.01055646       5.20782244              inf       0.00000000       0.00000000       0.00000000 s 
V        7.44174971       1.14696479       2.79255122              inf       0.00000000       0.00000000       0.00000000 s 
C        5.96895795       0.32305500       4.00020226              inf       0.00000000       0.00000000       0.00000000 s 
O        7.42344929       1.15782741       6.20821994              inf       0.00000000       0.00000000       0.00000000 s 
O        5.96460035       2.00003685       1.79220069              inf       0.00000000       0.00000000       0.00000000 s 
V        4.50057028       4.51432246       5.20782244              inf       0.00000000       0.00000000       0.00000000 s 
V        5.99619973       3.65073079       2.79255122              inf       0.00000000       0.00000000       0.00000000 s 
C        4.52340797       2.82682101       4.00020226              inf       0.00000000       0.00000000       0.00000000 s 
O        5.97789931       3.66159341       6.20821994              inf       0.00000000       0.00000000       0.00000000 s 
O        4.51905038       4.50380286       1.79220069              inf       0.00000000       0.00000000       0.00000000 s 
V        3.05502030       7.01808847       5.20782244              inf       0.00000000       0.00000000       0.00000000 s 
V        4.55064976       6.15449679       2.79255122              inf       0.00000000       0.00000000       0.00000000 s 
C        3.07785800       5.33058701       4.00020226              inf       0.00000000       0.00000000       0.00000000 s 
O        4.53234934       6.16535941       6.20821994              inf       0.00000000       0.00000000       0.00000000 s 
O        3.07350040       7.00756886       1.79220069              inf       0.00000000       0.00000000       0.00000000 s 
V        1.60947033       9.52185447       5.20782244              inf       0.00000000       0.00000000       0.00000000 s 
V        3.10509978       8.65826279       2.79255122              inf       0.00000000       0.00000000       0.00000000 s 
C        1.63230802       7.83435301       4.00020226              inf       0.00000000       0.00000000       0.00000000 s 
O        3.08679936       8.66912541       6.20821994              inf       0.00000000       0.00000000       0.00000000 s 
O        1.62795043       9.51133486       1.79220069              inf       0.00000000       0.00000000       0.00000000 s 
V        0.16392035      12.02562047       5.20782244              inf       0.00000000       0.00000000       0.00000000 s 
V        1.65954981      11.16202880       2.79255122              inf       0.00000000       0.00000000       0.00000000 s 
C        0.18675805      10.33811901       4.00020226              inf       0.00000000       0.00000000       0.00000000 s 
O        1.64124939      11.17289142       6.20821994              inf       0.00000000       0.00000000       0.00000000 s 
O        0.18240045      12.01510086       1.79220069              inf       0.00000000       0.00000000       0.00000000 s 
V       -1.28162962      14.52938647       5.20782244              inf       0.00000000       0.00000000       0.00000000 s 
V        0.21399983      13.66579480       2.79255122              inf       0.00000000       0.00000000       0.00000000 s 
C       -1.25879193      12.84188501       4.00020226              inf       0.00000000       0.00000000       0.00000000 s 
O        0.19569941      13.67665742       6.20821994              inf       0.00000000       0.00000000       0.00000000 s 
O       -1.26314952      14.51886686       1.79220069              inf       0.00000000       0.00000000       0.00000000 s 
V       -2.72717959      17.03315247       5.20782244              inf       0.00000000       0.00000000       0.00000000 s 
V       -1.23155014      16.16956080       2.79255122              inf       0.00000000       0.00000000       0.00000000 s 
C       -2.70434190      15.34565101       4.00020226              inf       0.00000000       0.00000000       0.00000000 s 
O       -1.24985056      16.18042342       6.20821994              inf       0.00000000       0.00000000       0.00000000 s 
O       -2.70869950      17.02263286       1.79220069              inf       0.00000000       0.00000000       0.00000000 s 
V       -4.17272957      19.53691847       5.20782244              inf       0.00000000       0.00000000       0.00000000 s 
V       -2.67710012      18.67332680       2.79255122              inf       0.00000000       0.00000000       0.00000000 s 
C       -4.14989188      17.84941701       4.00020226              inf       0.00000000       0.00000000       0.00000000 s 
O       -2.69540054      18.68418942       6.20821994              inf       0.00000000       0.00000000       0.00000000 s 
O       -4.15424947      19.52639886       1.79220069              inf       0.00000000       0.00000000       0.00000000 s 
V       -5.61827954      22.04068448       5.20782244              inf       0.00000000       0.00000000       0.00000000 s 
V       -4.12265009      21.17709280       2.79255122              inf       0.00000000       0.00000000       0.00000000 s 
C       -5.59544185      20.35318302       4.00020226              inf       0.00000000       0.00000000       0.00000000 s 
O       -4.14095051      21.18795542       6.20821994              inf       0.00000000       0.00000000       0.00000000 s 
O       -5.59979945      22.03016487       1.79220069              inf       0.00000000       0.00000000       0.00000000 s 
V       -7.06382952      24.54445048       5.20782244              inf       0.00000000       0.00000000       0.00000000 s 
V       -5.56820007      23.68085880       2.79255122              inf       0.00000000       0.00000000       0.00000000 s 
C       -7.04099183      22.85694902       4.00020226              inf       0.00000000       0.00000000       0.00000000 s 
O       -5.58650049      23.69172142       6.20821994              inf       0.00000000       0.00000000       0.00000000 s 
O       -7.04534942      24.53393087       1.79220069              inf       0.00000000       0.00000000       0.00000000 s 
V        8.83722020       2.01055646       5.20782244              inf       0.00000000       0.00000000       0.00000000 s 
V       10.33284966       1.14696479       2.79255122              inf       0.00000000       0.00000000       0.00000000 s 
C        8.86005790       0.32305500       4.00020226              inf       0.00000000       0.00000000       0.00000000 s 
O       10.31454924       1.15782741       6.20821994              inf       0.00000000       0.00000000       0.00000000 s 
O        8.85570030       2.00003685       1.79220069              inf       0.00000000       0.00000000       0.00000000 s 
V        7.39167023       4.51432246       5.20782244              inf       0.00000000       0.00000000       0.00000000 s 
V        8.88729968       3.65073079       2.79255122              inf       0.00000000       0.00000000       0.00000000 s 
C        7.41450792       2.82682101       4.00020226              inf       0.00000000       0.00000000       0.00000000 s 
O        8.86899926       3.66159341       6.20821994              inf       0.00000000       0.00000000       0.00000000 s 
O        7.41015033       4.50380286       1.79220069              inf       0.00000000       0.00000000       0.00000000 s 
V        5.94612025       7.01808847       5.20782244              inf       0.00000000       0.00000000       0.00000000 s 
V        7.44174971       6.15449679       2.79255122              inf       0.00000000       0.00000000       0.00000000 s 
C        5.96895795       5.33058701       4.00020226              inf       0.00000000       0.00000000       0.00000000 s 
O        7.42344929       6.16535941       6.20821994              inf       0.00000000       0.00000000       0.00000000 s 
O        5.96460035       7.00756886       1.79220069              inf       0.00000000       0.00000000       0.00000000 s 
V        4.50057028       9.52185447       5.20782244              inf       0.00000000       0.00000000       0.00000000 s 
V        5.99619973       8.65826279       2.79255122              inf       0.00000000       0.00000000       0.00000000 s 
C        4.52340797       7.83435301       4.00020226              inf       0.00000000       0.00000000       0.00000000 s 
O        5.97789931       8.66912541       6.20821994              inf       0.00000000       0.00000000       0.00000000 s 
O        4.51905038       9.51133486       1.79220069              inf       0.00000000       0.00000000       0.00000000 s 
V        3.05502030      12.02562047       5.20782244              inf       0.00000000       0.00000000       0.00000000 s 
V        4.55064976      11.16202880       2.79255122              inf       0.00000000       0.00000000       0.00000000 s 
C        3.07785800      10.33811901       4.00020226              inf       0.00000000       0.00000000       0.00000000 s 
O        4.53234934      11.17289142       6.20821994              inf       0.00000000       0.00000000       0.00000000 s 
O        3.07350040      12.01510086       1.79220069              inf       0.00000000       0.00000000       0.00000000 s 
V        1.60947033      14.52938647       5.20782244              inf       0.00000000       0.00000000       0.00000000 s 
V        3.10509987      13.66579481       2.79255110       4.36437006       0.00000009       0.00000001      -0.00000012 s 
C        1.63230802      12.84188501       4.00020226              inf       0.00000000       0.00000000       0.00000000 s 
O        3.26964204      13.76579900       6.17280384       0.98116475       0.18284268       0.08914158      -0.03541610 s 
O        1.62795043      14.51886686       1.79220069              inf       0.00000000       0.00000000       0.00000000 s 
V        0.16392035      17.03315247       5.20782244              inf       0.00000000       0.00000000       0.00000000 s 
V        1.65954981      16.16956080       2.79255122              inf       0.00000000       0.00000000       0.00000000 s 
C        0.18675805      15.34565101       4.00020226              inf       0.00000000       0.00000000       0.00000000 s 
O        1.64124939      16.18042342       6.20821994              inf       0.00000000       0.00000000       0.00000000 s 
O        0.18240045      17.02263286       1.79220069              inf       0.00000000       0.00000000       0.00000000 s 
V       -1.28162962      19.53691847       5.20782244              inf       0.00000000       0.00000000       0.00000000 s 
V        0.21399983      18.67332680       2.79255122              inf       0.00000000       0.00000000       0.00000000 s 
C       -1.25879193      17.84941701       4.00020226              inf       0.00000000       0.00000000       0.00000000 s 
O        0.19569941      18.68418942       6.20821994              inf       0.00000000       0.00000000       0.00000000 s 
O       -1.26314952      19.52639886       1.79220069              inf       0.00000000       0.00000000       0.00000000 s 
V       -2.72717959      22.04068448       5.20782244              inf       0.00000000       0.00000000       0.00000000 s 
V       -1.23155014      21.17709280       2.79255122              inf       0.00000000       0.00000000       0.00000000 s 
C       -2.70434190      20.35318302       4.00020226              inf       0.00000000       0.00000000       0.00000000 s 
O       -1.24985056      21.18795542       6.20821994              inf       0.00000000       0.00000000       0.00000000 s 
O       -2.70869950      22.03016487       1.79220069              inf       0.00000000       0.00000000       0.00000000 s 
V       -4.17272957      24.54445048       5.20782244              inf       0.00000000       0.00000000       0.00000000 s 
V       -2.67710012      23.68085880       2.79255122              inf       0.00000000       0.00000000       0.00000000 s 
C       -4.14989188      22.85694902       4.00020226              inf       0.00000000       0.00000000       0.00000000 s 
O       -2.69540054      23.69172142       6.20821994              inf       0.00000000       0.00000000       0.00000000 s 
O       -4.15424947      24.53393087       1.79220069              inf       0.00000000       0.00000000       0.00000000 s 
V       11.72832015       2.01055646       5.20782244              inf       0.00000000       0.00000000       0.00000000 s 
V       13.22394961       1.14696479       2.79255122              inf       0.00000000       0.00000000       0.00000000 s 
C       11.75115785       0.32305500       4.00020226              inf       0.00000000       0.00000000       0.00000000 s 
O       13.20564919       1.15782741       6.20821994              inf       0.00000000       0.00000000       0.00000000 s 
O       11.74680025       2.00003685       1.79220069              inf       0.00000000       0.00000000       0.00000000 s 
V       10.28277018       4.51432246       5.20782244              inf       0.00000000       0.00000000       0.00000000 s 
V       11.77839963       3.65073079       2.79255122              inf       0.00000000       0.00000000       0.00000000 s 
C       10.30560787       2.82682101       4.00020226              inf       0.00000000       0.00000000       0.00000000 s 
O       11.76009921       3.66159341       6.20821994              inf       0.00000000       0.00000000       0.00000000 s 
O       10.30125028       4.50380286       1.79220069              inf       0.00000000       0.00000000       0.00000000 s 
V        8.83722020       7.01808847       5.20782244              inf       0.00000000       0.00000000       0.00000000 s 
V       10.33284966       6.15449679       2.79255122              inf       0.00000000       0.00000000       0.00000000 s 
C        8.86005790       5.33058701       4.00020226              inf       0.00000000       0.00000000       0.00000000 s 
O       10.31454924       6.16535941       6.20821994              inf       0.00000000       0.00000000       0.00000000 s 
O        8.85570030       7.00756886       1.79220069              inf       0.00000000       0.00000000       0.00000000 s 
V        7.39167023       9.52185447       5.20782244              inf       0.00000000       0.00000000       0.00000000 s 
V        8.88729968       8.65826279       2.79255122              inf       0.00000000       0.00000000       0.00000000 s 
C        7.41450792       7.83435301       4.00020226              inf       0.00000000       0.00000000       0.00000000 s 
O        8.86899926       8.66912541       6.20821994              inf       0.00000000       0.00000000       0.00000000 s 
O        7.41015033       9.51133486       1.79220069              inf       0.00000000       0.00000000       0.00000000 s 
V        5.94612025      12.02562047       5.20782244              inf       0.00000000       0.00000000       0.00000000 s 
V        7.44174971      11.16202880       2.79255122              inf       0.00000000       0.00000000       0.00000000 s 
C        5.96895795      10.33811901       4.00020226              inf       0.00000000       0.00000000       0.00000000 s 
O        7.42344929      11.17289142       6.20821994              inf       0.00000000       0.00000000       0.00000000 s 
O        5.96460035      12.01510086       1.79220069              inf       0.00000000       0.00000000       0.00000000 s 
V        4.50057032      14.52938601       5.20782190       2.44003876       0.00000005      -0.00000046      -0.00000054 s 
V        5.99619973      13.66579480       2.79255122              inf       0.00000000       0.00000000       0.00000000 s 
C        4.52340792      12.84188501       4.00020220       3.52433540      -0.00000005      -0.00000000      -0.00000006 s 
O        5.97789931      13.67665742       6.20821994              inf       0.00000000       0.00000000       0.00000000 s 
O        4.51905038      14.51886686       1.79220069       5.56267398       0.00000000       0.00000000       0.00000000 s 
V        3.05502030      17.03315247       5.20782244              inf       0.00000000       0.00000000       0.00000000 s 
V        4.55064976      16.16956080       2.79255122              inf       0.00000000       0.00000000       0.00000000 s 
C        3.07785800      15.34565101       4.00020226              inf       0.00000000       0.00000000       0.00000000 s 
O        4.53234934      16.18042342       6.20821994              inf       0.00000000       0.00000000       0.00000000 s 
O        3.07350040      17.02263286       1.79220069              inf       0.00000000       0.00000000       0.00000000 s 
V        1.60947033      19.53691847       5.20782244              inf       0.00000000       0.00000000       0.00000000 s 
V        3.10509978      18.67332680       2.79255122              inf       0.00000000       0.00000000       0.00000000 s 
C        1.63230802      17.84941701       4.00020226              inf       0.00000000       0.00000000       0.00000000 s 
O        3.08679936      18.68418942       6.20821994              inf       0.00000000       0.00000000       0.00000000 s 
O        1.62795043      19.52639886       1.79220069              inf       0.00000000       0.00000000       0.00000000 s 
V        0.16392035      22.04068448       5.20782244              inf       0.00000000       0.00000000       0.00000000 s 
V        1.65954981      21.17709280       2.79255122              inf       0.00000000       0.00000000       0.00000000 s 
C        0.18675805      20.35318302       4.00020226              inf       0.00000000       0.00000000       0.00000000 s 
O        1.64124939      21.18795542       6.20821994              inf       0.00000000       0.00000000       0.00000000 s 
O        0.18240045      22.03016487       1.79220069              inf       0.00000000       0.00000000       0.00000000 s 
V       -1.28162962      24.54445048       5.20782244              inf       0.00000000       0.00000000       0.00000000 s 
V        0.21399983      23.68085880       2.79255122              inf       0.00000000       0.00000000       0.00000000 s 
C       -1.25879193      22.85694902       4.00020226              inf       0.00000000       0.00000000       0.00000000 s 
O        0.19569941      23.69172142       6.20821994              inf       0.00000000       0.00000000       0.00000000 s 
O       -1.26314952      24.53393087       1.79220069              inf       0.00000000       0.00000000       0.00000000 s 
V       14.61942010       2.01055646       5.20782244              inf       0.00000000       0.00000000       0.00000000 s 
V       16.11504956       1.14696479       2.79255122              inf       0.00000000       0.00000000       0.00000000 s 
C       14.64225780       0.32305500       4.00020226              inf       0.00000000       0.00000000       0.00000000 s 
O       16.09674914       1.15782741       6.20821994              inf       0.00000000       0.00000000       0.00000000 s 
O       14.63790020       2.00003685       1.79220069              inf       0.00000000       0.00000000       0.00000000 s 
V       13.17387013       4.51432246       5.20782244              inf       0.00000000       0.00000000       0.00000000 s 
V       14.66949958       3.65073079       2.79255122              inf       0.00000000       0.00000000       0.00000000 s 
C       13.19670782       2.82682101       4.00020226              inf       0.00000000       0.00000000       0.00000000 s 
O       14.65119916       3.66159341       6.20821994              inf       0.00000000       0.00000000       0.00000000 s 
O       13.19235023       4.50380286       1.79220069              inf       0.00000000       0.00000000       0.00000000 s 
V       11.72832015       7.01808847       5.20782244              inf       0.00000000       0.00000000       0.00000000 s 
V       13.22394961       6.15449679       2.79255122              inf       0.00000000       0.00000000       0.00000000 s 
C       11.75115785       5.33058701       4.00020226              inf       0.00000000       0.00000000       0.00000000 s 
O       13.20564919       6.16535941       6.20821994              inf       0.00000000       0.00000000       0.00000000 s 
O       11.74680025       7.00756886       1.79220069              inf       0.00000000       0.00000000       0.00000000 s 
V       10.28277018       9.52185447       5.20782244              inf       0.00000000       0.00000000       0.00000000 s 
V       11.77839963       8.65826279       2.79255122              inf       0.00000000       0.00000000       0.00000000 s 
C       10.30560787       7.83435301       4.00020226              inf       0.00000000       0.00000000       0.00000000 s 
O       11.76009921       8.66912541       6.20821994              inf       0.00000000       0.00000000       0.00000000 s 
O       10.30125028       9.51133486       1.79220069              inf       0.00000000       0.00000000       0.00000000 s 
V        8.83722020      12.02562047       5.20782244              inf       0.00000000       0.00000000       0.00000000 s 
V       10.33284966      11.16202880       2.79255122              inf       0.00000000       0.00000000       0.00000000 s 
C        8.86005790      10.33811901       4.00020226              inf       0.00000000       0.00000000       0.00000000 s 
O       10.31454924      11.17289142       6.20821994              inf       0.00000000       0.00000000       0.00000000 s 
O        8.85570030      12.01510086       1.79220069              inf       0.00000000       0.00000000       0.00000000 s 
V        7.39167023      14.52938647       5.20782244              inf       0.00000000       0.00000000       0.00000000 s 
V        8.88729968      13.66579480       2.79255122              inf       0.00000000       0.00000000       0.00000000 s 
C        7.41450792      12.84188501       4.00020226              inf       0.00000000       0.00000000       0.00000000 s 
O        8.86899926      13.67665742       6.20821994              inf       0.00000000       0.00000000       0.00000000 s 
O        7.41015033      14.51886686       1.79220069              inf       0.00000000       0.00000000       0.00000000 s 
V        5.94612025      17.03315247       5.20782244              inf       0.00000000       0.00000000       0.00000000 s 
V        7.44174971      16.16956080       2.79255122              inf       0.00000000       0.00000000       0.00000000 s 
C        5.96895795      15.34565101       4.00020226              inf       0.00000000       0.00000000       0.00000000 s 
O        7.42344929      16.18042342       6.20821994              inf       0.00000000       0.00000000       0.00000000 s 
O        5.96460035      17.02263286       1.79220069              inf       0.00000000       0.00000000       0.00000000 s 
V        4.50057028      19.53691847       5.20782244              inf       0.00000000       0.00000000       0.00000000 s 
V        5.99619973      18.67332680       2.79255122              inf       0.00000000       0.00000000       0.00000000 s 
C        4.52340797      17.84941701       4.00020226              inf       0.00000000       0.00000000       0.00000000 s 
O        5.97789931      18.68418942       6.20821994              inf       0.00000000       0.00000000       0.00000000 s 
O        4.51905038      19.52639886       1.79220069              inf       0.00000000       0.00000000       0.00000000 s 
V        3.05502030      22.04068448       5.20782244              inf       0.00000000       0.00000000       0.00000000 s 
V        4.55064976      21.17709280       2.79255122              inf       0.00000000       0.00000000       0.00000000 s 
C        3.07785800      20.35318302       4.00020226              inf       0.00000000       0.00000000       0.00000000 s 
O        4.53234934      21.18795542       6.20821994              inf       0.00000000       0.00000000       0.00000000 s 
O        3.07350040      22.03016487       1.79220069              inf       0.00000000       0.00000000       0.00000000 s 
V        1.60947033      24.54445048       5.20782244              inf       0.00000000       0.00000000       0.00000000 s 
V        3.10509978      23.68085880       2.79255122              inf       0.00000000       0.00000000       0.00000000 s 
C        1.63230802      22.85694902       4.00020226              inf       0.00000000       0.00000000       0.00000000 s 
O        3.08679936      23.69172142       6.20821994              inf       0.00000000       0.00000000       0.00000000 s 
O        1.62795043      24.53393087       1.79220069              inf       0.00000000       0.00000000       0.00000000 s 
V       17.51052005       2.01055646       5.20782244              inf       0.00000000       0.00000000       0.00000000 s 
V       19.00614951       1.14696479       2.79255122              inf       0.00000000       0.00000000       0.00000000 s 
C       17.53335775       0.32305500       4.00020226              inf       0.00000000       0.00000000       0.00000000 s 
O       18.98784909       1.15782741       6.20821994              inf       0.00000000       0.00000000       0.00000000 s 
O       17.52900015       2.00003685       1.79220069              inf       0.00000000       0.00000000       0.00000000 s 
V       16.06497008       4.51432246       5.20782244              inf       0.00000000       0.00000000       0.00000000 s 
V       17.56059953       3.65073079       2.79255122              inf       0.00000000       0.00000000       0.00000000 s 
C       16.08780777       2.82682101       4.00020226              inf       0.00000000       0.00000000       0.00000000 s 
O       17.54229911       3.66159341       6.20821994              inf       0.00000000       0.00000000       0.00000000 s 
O       16.08345018       4.50380286       1.79220069              inf       0.00000000       0.00000000       0.00000000 s 
V       14.61942010       7.01808847       5.20782244              inf       0.00000000       0.00000000       0.00000000 s 
V       16.11504956       6.15449679       2.79255122              inf       0.00000000       0.00000000       0.00000000 s 
C       14.64225780       5.33058701       4.00020226              inf       0.00000000       0.00000000       0.00000000 s 
O       16.09674914       6.16535941       6.20821994              inf       0.00000000       0.00000000       0.00000000 s 
O       14.63790020       7.00756886       1.79220069              inf       0.00000000       0.00000000       0.00000000 s 
V       13.17387013       9.52185447       5.20782244              inf       0.00000000       0.00000000       0.00000000 s 
V       14.66949958       8.65826279       2.79255122              inf       0.00000000       0.00000000       0.00000000 s 
C       13.19670782       7.83435301       4.00020226              inf       0.00000000       0.00000000       0.00000000 s 
O       14.65119916       8.66912541       6.20821994              inf       0.00000000       0.00000000       0.00000000 s 
O       13.19235023       9.51133486       1.79220069              inf       0.00000000       0.00000000       0.00000000 s 
V       11.72832015      12.02562047       5.20782244              inf       0.00000000       0.00000000       0.00000000 s 
V       13.22394961      11.16202880       2.79255122              inf       0.00000000       0.00000000       0.00000000 s 
C       11.75115785      10.33811901       4.00020226              inf       0.00000000       0.00000000       0.00000000 s 
O       13.20564919      11.17289142       6.20821994              inf       0.00000000       0.00000000       0.00000000 s 
O       11.74680025      12.01510086       1.79220069              inf       0.00000000       0.00000000       0.00000000 s 
V       10.28277018      14.52938647       5.20782244              inf       0.00000000       0.00000000       0.00000000 s 
V       11.77839963      13.66579480       2.79255122              inf       0.00000000       0.00000000       0.00000000 s 
C       10.30560787      12.84188501       4.00020226              inf       0.00000000       0.00000000       0.00000000 s 
O       11.76009921      13.67665742       6.20821994              inf       0.00000000       0.00000000       0.00000000 s 
O       10.30125028      14.51886686       1.79220069              inf       0.00000000       0.00000000       0.00000000 s 
V        8.83722020      17.03315247       5.20782244              inf       0.00000000       0.00000000       0.00000000 s 
V       10.33284966      16.16956080       2.79255122              inf       0.00000000       0.00000000       0.00000000 s 
C        8.86005790      15.34565101       4.00020226              inf       0.00000000       0.00000000       0.00000000 s 
O       10.31454924      16.18042342       6.20821994              inf       0.00000000       0.00000000       0.00000000 s 
O        8.85570030      17.02263286       1.79220069              inf       0.00000000       0.00000000       0.00000000 s 
V        7.39167023      19.53691847       5.20782244              inf       0.00000000       0.00000000       0.00000000 s 
V        8.88729968      18.67332680       2.79255122              inf       0.00000000       0.00000000       0.00000000 s 
C        7.41450792      17.84941701       4.00020226              inf       0.00000000       0.00000000       0.00000000 s 
O        8.86899926      18.68418942       6.20821994              inf       0.00000000       0.00000000       0.00000000 s 
O        7.41015033      19.52639886       1.79220069              inf       0.00000000       0.00000000       0.00000000 s 
V        5.94612025      22.04068448       5.20782244              inf       0.00000000       0.00000000       0.00000000 s 
V        7.44174971      21.17709280       2.79255122              inf       0.00000000       0.00000000       0.00000000 s 
C        5.96895795      20.35318302       4.00020226              inf       0.00000000       0.00000000       0.00000000 s 
O        7.42344929      21.18795542       6.20821994              inf       0.00000000       0.00000000       0.00000000 s 
O        5.96460035      22.03016487       1.79220069              inf       0.00000000       0.00000000       0.00000000 s 
V        4.50057028      24.54445048       5.20782244              inf       0.00000000       0.00000000       0.00000000 s 
V        5.99619973      23.68085880       2.79255122              inf       0.00000000       0.00000000       0.00000000 s 
C        4.52340797      22.85694902       4.00020226              inf       0.00000000       0.00000000       0.00000000 s 
O        5.97789931      23.69172142       6.20821994              inf       0.00000000       0.00000000       0.00000000 s 
O        4.51905038      24.53393087       1.79220069              inf       0.00000000       0.00000000       0.00000000 s 
V       20.40162000       2.01055646       5.20782244              inf       0.00000000       0.00000000       0.00000000 s 
V       21.89724946       1.14696479       2.79255122              inf       0.00000000       0.00000000       0.00000000 s 
C       20.42445770       0.32305500       4.00020226              inf       0.00000000       0.00000000       0.00000000 s 
O       21.87894904       1.15782741       6.20821994              inf       0.00000000       0.00000000       0.00000000 s 
O       20.42010010       2.00003685       1.79220069              inf       0.00000000       0.00000000       0.00000000 s 
V       18.95607003       4.51432246       5.20782244              inf       0.00000000       0.00000000       0.00000000 s 
V       20.45169948       3.65073079       2.79255122              inf       0.00000000       0.00000000       0.00000000 s 
C       18.97890772       2.82682101       4.00020226              inf       0.00000000       0.00000000       0.00000000 s 
O       20.43339906       3.66159341       6.20821994              inf       0.00000000       0.00000000       0.00000000 s 
O       18.97455013       4.50380286       1.79220069              inf       0.00000000       0.00000000       0.00000000 s 
V       17.51052005       7.01808847       5.20782244              inf       0.00000000       0.00000000       0.00000000 s 
V       19.00614951       6.15449679       2.79255122              inf       0.00000000       0.00000000       0.00000000 s 
C       17.53335775       5.33058701       4.00020226              inf       0.00000000       0.00000000       0.00000000 s 
O       18.98784909       6.16535941       6.20821994              inf       0.00000000       0.00000000       0.00000000 s 
O       17.52900015       7.00756886       1.79220069              inf       0.00000000       0.00000000       0.00000000 s 
V       16.06497008       9.52185447       5.20782244              inf       0.00000000       0.00000000       0.00000000 s 
V       17.56059953       8.65826279       2.79255122              inf       0.00000000       0.00000000       0.00000000 s 
C       16.08780777       7.83435301       4.00020226              inf       0.00000000       0.00000000       0.00000000 s 
O       17.54229911       8.66912541       6.20821994              inf       0.00000000       0.00000000       0.00000000 s 
O       16.08345018       9.51133486       1.79220069              inf       0.00000000       0.00000000       0.00000000 s 
V       14.61942010      12.02562047       5.20782244              inf       0.00000000       0.00000000       0.00000000 s 
V       16.11504956      11.16202880       2.79255122              inf       0.00000000       0.00000000       0.00000000 s 
C       14.64225780      10.33811901       4.00020226              inf       0.00000000       0.00000000       0.00000000 s 
O       16.09674914      11.17289142       6.20821994              inf       0.00000000       0.00000000       0.00000000 s 
O       14.63790020      12.01510086       1.79220069              inf       0.00000000       0.00000000       0.00000000 s 
V       13.17387013      14.52938647       5.20782244              inf       0.00000000       0.00000000       0.00000000 s 
V       14.66949958      13.66579480       2.79255122              inf       0.00000000       0.00000000       0.00000000 s 
C       13.19670782      12.84188501       4.00020226              inf       0.00000000       0.00000000       0.00000000 s 
O       14.65119916      13.67665742       6.20821994              inf       0.00000000       0.00000000       0.00000000 s 
O       13.19235023      14.51886686       1.79220069              inf       0.00000000       0.00000000       0.00000000 s 
V       11.72832015      17.03315247       5.20782244              inf       0.00000000       0.00000000       0.00000000 s 
V       13.22394970      16.16956081       2.79255110       4.36437006       0.00000009       0.00000001      -0.00000012 s 
C       11.75115785      15.34565101       4.00020226              inf       0.00000000       0.00000000       0.00000000 s 
O       13.38849187      16.26956500       6.17280384       0.98116475       0.18284268       0.08914158      -0.03541610 s 
O       11.74680025      17.02263286       1.79220069              inf       0.00000000       0.00000000       0.00000000 s 
V       10.28277018      19.53691847       5.20782244              inf       0.00000000       0.00000000       0.00000000 s 
V       11.77839963      18.67332680       2.79255122              inf       0.00000000       0.00000000       0.00000000 s 
C       10.30560787      17.84941701       4.00020226              inf       0.00000000       0.00000000       0.00000000 s 
O       11.76009921      18.68418942       6.20821994              inf       0.00000000       0.00000000       0.00000000 s 
O       10.30125028      19.52639886       1.79220069              inf       0.00000000       0.00000000       0.00000000 s 
V        8.83722020      22.04068448       5.20782244              inf       0.00000000       0.00000000       0.00000000 s 
V       10.33284966      21.17709280       2.79255122              inf       0.00000000       0.00000000       0.00000000 s 
C        8.86005790      20.35318302       4.00020226              inf       0.00000000       0.00000000       0.00000000 s 
O       10.31454924      21.18795542       6.20821994              inf       0.00000000       0.00000000       0.00000000 s 
O        8.85570030      22.03016487       1.79220069              inf       0.00000000       0.00000000       0.00000000 s 
V        7.39167023      24.54445048       5.20782244              inf       0.00000000       0.00000000       0.00000000 s 
V        8.88729968      23.68085880       2.79255122              inf       0.00000000       0.00000000       0.00000000 s 
C        7.41450792      22.85694902       4.00020226              inf       0.00000000       0.00000000       0.00000000 s 
O        8.86899926      23.69172142       6.20821994              inf       0.00000000       0.00000000       0.00000000 s 
O        7.41015033      24.53393087       1.79220069              inf       0.00000000       0.00000000       0.00000000 s 
V       23.29271995       2.01055646       5.20782244              inf       0.00000000       0.00000000       0.00000000 s 
V       24.78834941       1.14696479       2.79255122              inf       0.00000000       0.00000000       0.00000000 s 
C       23.31555765       0.32305500       4.00020226              inf       0.00000000       0.00000000       0.00000000 s 
O       24.77004899       1.15782741       6.20821994              inf       0.00000000       0.00000000       0.00000000 s 
O       23.31120005       2.00003685       1.79220069              inf       0.00000000       0.00000000       0.00000000 s 
V       21.84716998       4.51432246       5.20782244              inf       0.00000000       0.00000000       0.00000000 s 
V       23.34279943       3.65073079       2.79255122              inf       0.00000000       0.00000000       0.00000000 s 
C       21.87000767       2.82682101       4.00020226              inf       0.00000000       0.00000000       0.00000000 s 
O       23.32449901       3.66159341       6.20821994              inf       0.00000000       0.00000000       0.00000000 s 
O       21.86565008       4.50380286       1.79220069              inf       0.00000000       0.00000000       0.00000000 s 
V       20.40162000       7.01808847       5.20782244              inf       0.00000000       0.00000000       0.00000000 s 
V       21.89724946       6.15449679       2.79255122              inf       0.00000000       0.00000000       0.00000000 s 
C       20.42445770       5.33058701       4.00020226              inf       0.00000000       0.00000000       0.00000000 s 
O       21.87894904       6.16535941       6.20821994              inf       0.00000000       0.00000000       0.00000000 s 
O       20.42010010       7.00756886       1.79220069              inf       0.00000000       0.00000000       0.00000000 s 
V       18.95607003       9.52185447       5.20782244              inf       0.00000000       0.00000000       0.00000000 s 
V       20.45169948       8.65826279       2.79255122              inf       0.00000000       0.00000000       0.00000000 s 
C       18.97890772       7.83435301       4.00020226              inf       0.00000000       0.00000000       0.00000000 s 
O       20.43339906       8.66912541       6.20821994              inf       0.00000000       0.00000000       0.00000000 s 
O       18.97455013       9.51133486       1.79220069              inf       0.00000000       0.00000000       0.00000000 s 
V       17.51052005      12.02562047       5.20782244              inf       0.00000000       0.00000000       0.00000000 s 
V       19.00614951      11.16202880       2.79255122              inf       0.00000000       0.00000000       0.00000000 s 
C       17.53335775      10.33811901       4.00020226              inf       0.00000000       0.00000000       0.00000000 s 
O       18.98784909      11.17289142       6.20821994              inf       0.00000000       0.00000000       0.00000000 s 
O       17.52900015      12.01510086       1.79220069              inf       0.00000000       0.00000000       0.00000000 s 
V       16.06497008      14.52938647       5.20782244              inf       0.00000000       0.00000000       0.00000000 s 
V       17.56059953      13.66579480       2.79255122              inf       0.00000000       0.00000000       0.00000000 s 
C       16.08780777      12.84188501       4.00020226              inf       0.00000000       0.00000000       0.00000000 s 
O       17.54229911      13.67665742       6.20821994              inf       0.00000000       0.00000000       0.00000000 s 
O       16.08345018      14.51886686       1.79220069              inf       0.00000000       0.00000000       0.00000000 s 
V       14.61942015      17.03315201       5.20782190       2.44003876       0.00000004      -0.00000046      -0.00000054 s 
V       16.11504956      16.16956080       2.79255122              inf       0.00000000       0.00000000       0.00000000 s 
C       14.64225775      15.34565101       4.00020220       3.52433540      -0.00000005      -0.00000000      -0.00000006 s 
O       16.09674914      16.18042342       6.20821994              inf       0.00000000       0.00000000       0.00000000 s 
O       14.63790020      17.02263286       1.79220069       5.56267398      -0.00000000       0.00000000       0.00000000 s 
V       13.17387013      19.53691847       5.20782244              inf       0.00000000       0.00000000       0.00000000 s 
V       14.66949958      18.67332680       2.79255122              inf       0.00000000       0.00000000       0.00000000 s 
C       13.19670782      17.84941701       4.00020226              inf       0.00000000       0.00000000       0.00000000 s 
O       14.65119916      18.68418942       6.20821994              inf       0.00000000       0.00000000       0.00000000 s 
O       13.19235023      19.52639886       1.79220069              inf       0.00000000       0.00000000       0.00000000 s 
V       11.72832015      22.04068448       5.20782244              inf       0.00000000       0.00000000       0.00000000 s 
V       13.22394961      21.17709280       2.79255122              inf       0.00000000       0.00000000       0.00000000 s 
C       11.75115785      20.35318302       4.00020226              inf       0.00000000       0.00000000       0.00000000 s 
O       13.20564919      21.18795542       6.20821994              inf       0.00000000       0.00000000       0.00000000 s 
O       11.74680025      22.03016487       1.79220069              inf       0.00000000       0.00000000       0.00000000 s 
V       10.28277018      24.54445048       5.20782244              inf       0.00000000       0.00000000       0.00000000 s 
V       11.77839963      23.68085880       2.79255122              inf       0.00000000       0.00000000       0.00000000 s 
C       10.30560787      22.85694902       4.00020226              inf       0.00000000       0.00000000       0.00000000 s 
O       11.76009921      23.69172142       6.20821994              inf       0.00000000       0.00000000       0.00000000 s 
O       10.30125028      24.53393087       1.79220069              inf       0.00000000       0.00000000       0.00000000 s 
V       26.18381990       2.01055646       5.20782244              inf       0.00000000       0.00000000       0.00000000 s 
V       27.67944936       1.14696479       2.79255122              inf       0.00000000       0.00000000       0.00000000 s 
C       26.20665760       0.32305500       4.00020226              inf       0.00000000       0.00000000       0.00000000 s 
O       27.66114894       1.15782741       6.20821994              inf       0.00000000       0.00000000       0.00000000 s 
O       26.20230000       2.00003685       1.79220069              inf       0.00000000       0.00000000       0.00000000 s 
V       24.73826993       4.51432246       5.20782244              inf       0.00000000       0.00000000       0.00000000 s 
V       26.23389938       3.65073079       2.79255122              inf       0.00000000       0.00000000       0.00000000 s 
C       24.76110762       2.82682101       4.00020226              inf       0.00000000       0.00000000       0.00000000 s 
O       26.21559896       3.66159341       6.20821994              inf       0.00000000       0.00000000       0.00000000 s 
O       24.75675003       4.50380286       1.79220069              inf       0.00000000       0.00000000       0.00000000 s 
V       23.29271995       7.01808847       5.20782244              inf       0.00000000       0.00000000       0.00000000 s 
V       24.78834941       6.15449679       2.79255122              inf       0.00000000       0.00000000       0.00000000 s 
C       23.31555765       5.33058701       4.00020226              inf       0.00000000       0.00000000       0.00000000 s 
O       24.77004899       6.16535941       6.20821994              inf       0.00000000       0.00000000       0.00000000 s 
O       23.31120005       7.00756886       1.79220069              inf       0.00000000       0.00000000       0.00000000 s 
V       21.84716998       9.52185447       5.20782244              inf       0.00000000       0.00000000       0.00000000 s 
V       23.34279943       8.65826279       2.79255122              inf       0.00000000       0.00000000       0.00000000 s 
C       21.87000767       7.83435301       4.00020226              inf       0.00000000       0.00000000       0.00000000 s 
O       23.32449901       8.66912541       6.20821994              inf       0.00000000       0.00000000       0.00000000 s 
O       21.86565008       9.51133486       1.79220069              inf       0.00000000       0.00000000       0.00000000 s 
V       20.40162000      12.02562047       5.20782244              inf       0.00000000       0.00000000       0.00000000 s 
V       21.89724946      11.16202880       2.79255122              inf       0.00000000       0.00000000       0.00000000 s 
C       20.42445770      10.33811901       4.00020226              inf       0.00000000       0.00000000       0.00000000 s 
O       21.87894904      11.17289142       6.20821994              inf       0.00000000       0.00000000       0.00000000 s 
O       20.42010010      12.01510086       1.79220069              inf       0.00000000       0.00000000       0.00000000 s 
V       18.95607003      14.52938647       5.20782244              inf       0.00000000       0.00000000       0.00000000 s 
V       20.45169948      13.66579480       2.79255122              inf       0.00000000       0.00000000       0.00000000 s 
C       18.97890772      12.84188501       4.00020226              inf       0.00000000       0.00000000       0.00000000 s 
O       20.43339906      13.67665742       6.20821994              inf       0.00000000       0.00000000       0.00000000 s 
O       18.97455013      14.51886686       1.79220069              inf       0.00000000       0.00000000       0.00000000 s 
V       17.51052005      17.03315247       5.20782244              inf       0.00000000       0.00000000       0.00000000 s 
V       19.00614951      16.16956080       2.79255122              inf       0.00000000       0.00000000       0.00000000 s 
C       17.53335775      15.34565101       4.00020226              inf       0.00000000       0.00000000       0.00000000 s 
O       18.98784909      16.18042342       6.20821994              inf       0.00000000       0.00000000       0.00000000 s 
O       17.52900015      17.02263286       1.79220069              inf       0.00000000       0.00000000       0.00000000 s 
V       16.06497008      19.53691847       5.20782244              inf       0.00000000       0.00000000       0.00000000 s 
V       17.56059953      18.67332680       2.79255122              inf       0.00000000       0.00000000       0.00000000 s 
C       16.08780777      17.84941701       4.00020226              inf       0.00000000       0.00000000       0.00000000 s 
O       17.54229911      18.68418942       6.20821994              inf       0.00000000       0.00000000       0.00000000 s 
O       16.08345018      19.52639886       1.79220069              inf       0.00000000       0.00000000       0.00000000 s 
V       14.61942010      22.04068448       5.20782244              inf       0.00000000       0.00000000       0.00000000 s 
V       16.11504956      21.17709280       2.79255122              inf       0.00000000       0.00000000       0.00000000 s 
C       14.64225780      20.35318302       4.00020226              inf       0.00000000       0.00000000       0.00000000 s 
O       16.09674914      21.18795542       6.20821994              inf       0.00000000       0.00000000       0.00000000 s 
O       14.63790020      22.03016487       1.79220069              inf       0.00000000       0.00000000       0.00000000 s 
V       13.17387013      24.54445048       5.20782244              inf       0.00000000       0.00000000       0.00000000 s 
V       14.66949958      23.68085880       2.79255122              inf       0.00000000       0.00000000       0.00000000 s 
C       13.19670782      22.85694902       4.00020226              inf       0.00000000       0.00000000       0.00000000 s 
O       14.65119916      23.69172142       6.20821994              inf       0.00000000       0.00000000       0.00000000 s 
O       13.19235023      24.53393087       1.79220069              inf       0.00000000       0.00000000       0.00000000 s 
H       13.36413600      16.26386331       7.15364968       0.00000000       0.00000000       0.00000000       0.00000000 a1
H        3.24528618      13.76009731       7.15364968       0.00000000       0.00000000       0.00000000       0.00000000 a2
