192
Lattice="23.128 0.0 0.0 -11.564 20.029432 0.0 0.0 0.0 9.0" Properties=species:S:1:pos:R:3 size="8 0 0 8" pbc="T T T"
V        0.16767800       2.00795056       6.20100000
V        1.66232500       1.14668498       3.78900000
C        0.18646950       0.32297459       4.99500000
V       -1.27782200       4.51162956       6.20100000
V        0.21682500       3.65036398       3.78900000
C       -1.25903050       2.82665359       4.99500000
V       -2.72332200       7.01530856       6.20100000
V       -1.22867500       6.15404298       3.78900000
C       -2.70453050       5.33033259       4.99500000
V       -4.16882200       9.51898756       6.20100000
V       -2.67417500       8.65772198       3.78900000
C       -4.15003050       7.83401159       4.99500000
V       -5.61432200      12.02266656       6.20100000
V       -4.11967500      11.16140098       3.78900000
C       -5.59553050      10.33769059       4.99500000
V       -7.05982200      14.52634556       6.20100000
V       -5.56517500      13.66507998       3.78900000
C       -7.04103050      12.84136959       4.99500000
V       -8.50532200      17.03002456       6.20100000
V       -7.01067500      16.16875898       3.78900000
C       -8.48653050      15.34504859       4.99500000
V       -9.95082200      19.53370356       6.20100000
V       -8.45617500      18.67243798       3.78900000
C       -9.93203050      17.84872759       4.99500000
V        3.05867800       2.00795056       6.20100000
V        4.55332500       1.14668498       3.78900000
C        3.07746950       0.32297459       4.99500000
V        1.61317800       4.51162956       6.20100000
V        3.10782500       3.65036398       3.78900000
C        1.63196950       2.82665359       4.99500000
V        0.16767800       7.01530856       6.20100000
V        1.66232500       6.15404298       3.78900000
C        0.18646950       5.33033259       4.99500000
V       -1.27782200       9.51898756       6.20100000
V        0.21682500       8.65772198       3.78900000
C       -1.25903050       7.83401159       4.99500000
V       -2.72332200      12.02266656       6.20100000
V       -1.22867500      11.16140098       3.78900000
C       -2.70453050      10.33769059       4.99500000
V       -4.16882200      14.52634556       6.20100000
V       -2.67417500      13.66507998       3.78900000
C       -4.15003050      12.84136959       4.99500000
V       -5.61432200      17.03002456       6.20100000
V       -4.11967500      16.16875898       3.78900000
C       -5.59553050      15.34504859       4.99500000
V       -7.05982200      19.53370356       6.20100000
V       -5.56517500      18.67243798       3.78900000
C       -7.04103050      17.84872759       4.99500000
V        5.94967800       2.00795056       6.20100000
V        7.44432500       1.14668498       3.78900000
C        5.96846950       0.32297459       4.99500000
V        4.50417800       4.51162956       6.20100000
V        5.99882500       3.65036398       3.78900000
C        4.52296950       2.82665359       4.99500000
V        3.05867800       7.01530856       6.20100000
V        4.55332500       6.15404298       3.78900000
C        3.07746950       5.33033259       4.99500000
V        1.61317800       9.51898756       6.20100000
V        3.10782500       8.65772198       3.78900000
C        1.63196950       7.83401159       4.99500000
V        0.16767800      12.02266656       6.20100000
V        1.66232500      11.16140098       3.78900000
C        0.18646950      10.33769059       4.99500000
V       -1.27782200      14.52634556       6.20100000
V        0.21682500      13.66507998       3.78900000
C       -1.25903050      12.84136959       4.99500000
V       -2.72332200      17.03002456       6.20100000
V       -1.22867500      16.16875898       3.78900000
C       -2.70453050      15.34504859       4.99500000
V       -4.16882200      19.53370356       6.20100000
V       -2.67417500      18.67243798       3.78900000
C       -4.15003050      17.84872759       4.99500000
V        8.84067800       2.00795056       6.20100000
V       10.33532500       1.14668498       3.78900000
C        8.85946950       0.32297459       4.99500000
V        7.39517800       4.51162956       6.20100000
V        8.88982500       3.65036398       3.78900000
C        7.41396950       2.82665359       4.99500000
V        5.94967800       7.01530856       6.20100000
V        7.44432500       6.15404298       3.78900000
C        5.96846950       5.33033259       4.99500000
V        4.50417800       9.51898756       6.20100000
V        5.99882500       8.65772198       3.78900000
C        4.52296950       7.83401159       4.99500000
V        3.05867800      12.02266656       6.20100000
V        4.55332500      11.16140098       3.78900000
C        3.07746950      10.33769059       4.99500000
V        1.61317800      14.52634556       6.20100000
V        3.10782500      13.66507998       3.78900000
C        1.63196950      12.84136959       4.99500000
V        0.16767800      17.03002456       6.20100000
V        1.66232500      16.16875898       3.78900000
C        0.18646950      15.34504859       4.99500000
V       -1.27782200      19.53370356       6.20100000
V        0.21682500      18.67243798       3.78900000
C       -1.25903050      17.84872759       4.99500000
V       11.73167800       2.00795056       6.20100000
V       13.22632500       1.14668498       3.78900000
C       11.75046950       0.32297459       4.99500000
V       10.28617800       4.51162956       6.20100000
V       11.78082500       3.65036398       3.78900000
C       10.30496950       2.82665359       4.99500000
V        8.84067800       7.01530856       6.20100000
V       10.33532500       6.15404298       3.78900000
C        8.85946950       5.33033259       4.99500000
V        7.39517800       9.51898756       6.20100000
V        8.88982500       8.65772198       3.78900000
C        7.41396950       7.83401159       4.99500000
V        5.94967800      12.02266656       6.20100000
V        7.44432500      11.16140098       3.78900000
C        5.96846950      10.33769059       4.99500000
V        4.50417800      14.52634556       6.20100000
V        5.99882500      13.66507998       3.78900000
C        4.52296950      12.84136959       4.99500000
V        3.05867800      17.03002456       6.20100000
V        4.55332500      16.16875898       3.78900000
C        3.07746950      15.34504859       4.99500000
V        1.61317800      19.53370356       6.20100000
V        3.10782500      18.67243798       3.78900000
C        1.63196950      17.84872759       4.99500000
V       14.62267800       2.00795056       6.20100000
V       16.11732500       1.14668498       3.78900000
C       14.64146950       0.32297459       4.99500000
V       13.17717800       4.51162956       6.20100000
V       14.67182500       3.65036398       3.78900000
C       13.19596950       2.82665359       4.99500000
V       11.73167800       7.01530856       6.20100000
V       13.22632500       6.15404298       3.78900000
C       11.75046950       5.33033259       4.99500000
V       10.28617800       9.51898756       6.20100000
V       11.78082500       8.65772198       3.78900000
C       10.30496950       7.83401159       4.99500000
V        8.84067800      12.02266656       6.20100000
V       10.33532500      11.16140098       3.78900000
C        8.85946950      10.33769059       4.99500000
V        7.39517800      14.52634556       6.20100000
V        8.88982500      13.66507998       3.78900000
C        7.41396950      12.84136959       4.99500000
V        5.94967800      17.03002456       6.20100000
V        7.44432500      16.16875898       3.78900000
C        5.96846950      15.34504859       4.99500000
V        4.50417800      19.53370356       6.20100000
V        5.99882500      18.67243798       3.78900000
C        4.52296950      17.84872759       4.99500000
V       17.51367800       2.00795056       6.20100000
V       19.00832500       1.14668498       3.78900000
C       17.53246950       0.32297459       4.99500000
V       16.06817800       4.51162956       6.20100000
V       17.56282500       3.65036398       3.78900000
C       16.08696950       2.82665359       4.99500000
V       14.62267800       7.01530856       6.20100000
V       16.11732500       6.15404298       3.78900000
C       14.64146950       5.33033259       4.99500000
V       13.17717800       9.51898756       6.20100000
V       14.67182500       8.65772198       3.78900000
C       13.19596950       7.83401159       4.99500000
V       11.73167800      12.02266656       6.20100000
V       13.22632500      11.16140098       3.78900000
C       11.75046950      10.33769059       4.99500000
V       10.28617800      14.52634556       6.20100000
V       11.78082500      13.66507998       3.78900000
C       10.30496950      12.84136959       4.99500000
V        8.84067800      17.03002456       6.20100000
V       10.33532500      16.16875898       3.78900000
C        8.85946950      15.34504859       4.99500000
V        7.39517800      19.53370356       6.20100000
V        8.88982500      18.67243798       3.78900000
C        7.41396950      17.84872759       4.99500000
V       20.40467800       2.00795056       6.20100000
V       21.89932500       1.14668498       3.78900000
C       20.42346950       0.32297459       4.99500000
V       18.95917800       4.51162956       6.20100000
V       20.45382500       3.65036398       3.78900000
C       18.97796950       2.82665359       4.99500000
V       17.51367800       7.01530856       6.20100000
V       19.00832500       6.15404298       3.78900000
C       17.53246950       5.33033259       4.99500000
V       16.06817800       9.51898756       6.20100000
V       17.56282500       8.65772198       3.78900000
C       16.08696950       7.83401159       4.99500000
V       14.62267800      12.02266656       6.20100000
V       16.11732500      11.16140098       3.78900000
C       14.64146950      10.33769059       4.99500000
V       13.17717800      14.52634556       6.20100000
V       14.67182500      13.66507998       3.78900000
C       13.19596950      12.84136959       4.99500000
V       11.73167800      17.03002456       6.20100000
V       13.22632500      16.16875898       3.78900000
C       11.75046950      15.34504859       4.99500000
V       10.28617800      19.53370356       6.20100000
V       11.78082500      18.67243798       3.78900000
C       10.30496950      17.84872759       4.99500000
