142
Lattice="80.0 0.0 0.0 40.0 69.28203230275508 0.0 0.0 0.0 10.0" Properties=species:S:1:pos:R:3:remoteness:R:1:shift:R:3:adsorption:S:1 size="8 8" mass_center_dist=17.320508075688775 min_atom_dist=5.885334161674011 s1=tpb s2=tpb s1idx=1 s2idx=1 pbc="T T T"
Au     -37.50000000     -21.65063509       5.00000000              inf       0.00000000       0.00000000       0.00000000 s 
Au     -32.50000000     -12.99038106       5.00000000              inf       0.00000000       0.00000000       0.00000000 s 
Au     -27.50000000      -4.33012702       5.00000000              inf       0.00000000       0.00000000       0.00000000 s 
Au     -22.50000000       4.33012702       5.00000000              inf       0.00000000       0.00000000       0.00000000 s 
Au     -17.50000000      12.99038106       5.00000000              inf       0.00000000       0.00000000       0.00000000 s 
Au     -12.50000000      21.65063510       5.00000000              inf       0.00000000       0.00000000       0.00000000 s 
Au      -7.50000000      30.31088913       5.00000000              inf       0.00000000       0.00000000       0.00000000 s 
Au      -2.50000000      38.97114317       5.00000000              inf       0.00000000       0.00000000       0.00000000 s 
Au     -27.50000000     -21.65063509       5.00000000              inf       0.00000000       0.00000000       0.00000000 s 
Au     -22.50000000     -12.99038106       5.00000000              inf       0.00000000       0.00000000       0.00000000 s 
Au     -17.50000000      -4.33012702       5.00000000              inf       0.00000000       0.00000000       0.00000000 s 
Au     -12.50000000       4.33012702       5.00000000              inf       0.00000000       0.00000000       0.00000000 s 
Au      -7.50000000      12.99038106       5.00000000              inf       0.00000000       0.00000000       0.00000000 s 
Au      -2.50000000      21.65063510       5.00000000              inf       0.00000000       0.00000000       0.00000000 s 
Au       2.50000000      30.31088913       5.00000000              inf       0.00000000       0.00000000       0.00000000 s 
Au       7.50000000      38.97114317       5.00000000              inf       0.00000000       0.00000000       0.00000000 s 
Au     -17.50000000     -21.65063509       5.00000000              inf       0.00000000       0.00000000       0.00000000 s 
Au     -12.50000000     -12.99038106       5.00000000              inf       0.00000000       0.00000000       0.00000000 s 
Au      -7.50000000      -4.33012702       5.00000000              inf       0.00000000       0.00000000       0.00000000 s 
Au      -2.50000000       4.33012702       5.00000000              inf       0.00000000       0.00000000       0.00000000 s 
Au       2.50000000      12.99038106       5.00000000              inf       0.00000000       0.00000000       0.00000000 s 
Au       7.50000000      21.65063510       5.00000000              inf       0.00000000       0.00000000       0.00000000 s 
Au      12.50000000      30.31088913       5.00000000              inf       0.00000000       0.00000000       0.00000000 s 
Au      17.50000000      38.97114317       5.00000000              inf       0.00000000       0.00000000       0.00000000 s 
Au      -7.50000000     -21.65063509       5.00000000              inf       0.00000000       0.00000000       0.00000000 s 
Au      -2.50000000     -12.99038106       5.00000000              inf       0.00000000       0.00000000       0.00000000 s 
Au       2.50000000      -4.33012702       5.00000000              inf       0.00000000       0.00000000       0.00000000 s 
Au       7.50000000       4.33012702       5.00000000       2.99481292       0.00000000       0.00000000       0.00000000 s 
Au      12.50000000      12.99038106       5.00000000              inf       0.00000000       0.00000000       0.00000000 s 
Au      17.50000000      21.65063510       5.00000000              inf       0.00000000       0.00000000       0.00000000 s 
Au      22.50000000      30.31088913       5.00000000              inf       0.00000000       0.00000000       0.00000000 s 
Au      27.50000000      38.97114317       5.00000000              inf       0.00000000       0.00000000       0.00000000 s 
Au       2.50000000     -21.65063509       5.00000000              inf       0.00000000       0.00000000       0.00000000 s 
Au       7.50000000     -12.99038106       5.00000000              inf       0.00000000       0.00000000       0.00000000 s 
Au      12.50000000      -4.33012702       5.00000000              inf       0.00000000       0.00000000       0.00000000 s 
Au      17.50000000       4.33012702       5.00000000              inf       0.00000000       0.00000000       0.00000000 s 
Au      22.50000000      12.99038106       5.00000000       2.99481292       0.00000000       0.00000000       0.00000000 s 
Au      27.50000000      21.65063510       5.00000000              inf       0.00000000       0.00000000       0.00000000 s 
Au      32.50000000      30.31088913       5.00000000              inf       0.00000000       0.00000000       0.00000000 s 
Au      37.50000000      38.97114317       5.00000000              inf       0.00000000       0.00000000       0.00000000 s 
Au      12.50000000     -21.65063509       5.00000000              inf       0.00000000       0.00000000       0.00000000 s 
Au      17.50000000     -12.99038106       5.00000000              inf       0.00000000       0.00000000       0.00000000 s 
Au      22.50000000      -4.33012702       5.00000000              inf       0.00000000       0.00000000       0.00000000 s 
Au      27.50000000       4.33012702       5.00000000              inf       0.00000000       0.00000000       0.00000000 s 
Au      32.50000000      12.99038106       5.00000000              inf       0.00000000       0.00000000       0.00000000 s 
Au      37.50000000      21.65063510       5.00000000              inf       0.00000000       0.00000000       0.00000000 s 
Au      42.50000000      30.31088913       5.00000000              inf       0.00000000       0.00000000       0.00000000 s 
Au      47.50000000      38.97114317       5.00000000              inf       0.00000000       0.00000000       0.00000000 s 
Au      22.50000000     -21.65063509       5.00000000              inf       0.00000000       0.00000000       0.00000000 s 
Au      27.50000000     -12.99038106       5.00000000              inf       0.00000000       0.00000000       0.00000000 s 
Au      32.50000000      -4.33012702       5.00000000              inf       0.00000000       0.00000000       0.00000000 s 
Au      37.50000000       4.33012702       5.00000000              inf       0.00000000       0.00000000       0.00000000 s 
Au      42.50000000      12.99038106       5.00000000              inf       0.00000000       0.00000000       0.00000000 s 
Au      47.50000000      21.65063510       5.00000000              inf       0.00000000       0.00000000       0.00000000 s 
Au      52.50000000      30.31088913       5.00000000              inf       0.00000000       0.00000000       0.00000000 s 
Au      57.50000000      38.97114317       5.00000000              inf       0.00000000       0.00000000       0.00000000 s 
Au      32.50000000     -21.65063509       5.00000000              inf       0.00000000       0.00000000       0.00000000 s 
Au      37.50000000     -12.99038106       5.00000000              inf       0.00000000       0.00000000       0.00000000 s 
Au      42.50000000      -4.33012702       5.00000000              inf       0.00000000       0.00000000       0.00000000 s 
Au      47.50000000       4.33012702       5.00000000              inf       0.00000000       0.00000000       0.00000000 s 
Au      52.50000000      12.99038106       5.00000000              inf       0.00000000       0.00000000       0.00000000 s 
Au      57.50000000      21.65063510       5.00000000              inf       0.00000000       0.00000000       0.00000000 s 
Au      62.50000000      30.31088913       5.00000000              inf       0.00000000       0.00000000       0.00000000 s 
Au      67.50000000      38.97114317       5.00000000              inf       0.00000000       0.00000000       0.00000000 s 
C      23.15686907      14.13450872       7.99649903       0.00000000       0.00000000       0.00000000       0.00000000 a1 
C      23.89988543      13.00765035       8.01863406       0.00000000       0.00000000       0.00000000       0.00000000 a1 
C      23.17301403      11.87012833       8.01538614       0.00000000       0.00000000       0.00000000       0.00000000 a1 
C      21.82564715      11.78964868       7.99189705       0.00000000       0.00000000       0.00000000       0.00000000 a1 
C      21.20441175      12.98803099       7.97242739       0.00000000       0.00000000       0.00000000       0.00000000 a1 
C      21.80847118      14.19534931       7.97381249       0.00000000       0.00000000       0.00000000       0.00000000 a1 
C      21.11737125      15.37300647       7.95130394       0.00000000       0.00000000       0.00000000       0.00000000 a1 
C      21.15133473      10.60208485       7.99106303       0.00000000       0.00000000       0.00000000       0.00000000 a1 
C      25.26523097      13.01755105       8.04198962       0.00000000       0.00000000       0.00000000       0.00000000 a1 
C      26.01674692      14.14227808       8.09784877       0.00000000       0.00000000       0.00000000       0.00000000 a1 
C      27.35968494      14.10168371       8.11963917       0.00000000       0.00000000       0.00000000       0.00000000 a1 
N      28.03872617      13.03793759       8.08940402       0.00000000       0.00000000       0.00000000       0.00000000 a1 
C      27.37682274      11.96431659       8.03634111       0.00000000       0.00000000       0.00000000       0.00000000 a1 
C      26.03465222      11.90397166       8.01225716       0.00000000       0.00000000       0.00000000       0.00000000 a1 
C      19.76747018      15.46204608       7.89783508       0.00000000       0.00000000       0.00000000       0.00000000 a1 
C      19.13130906      16.64547910       7.87730935       0.00000000       0.00000000       0.00000000       0.00000000 a1 
N      19.71330364      17.76530292       7.90623464       0.00000000       0.00000000       0.00000000       0.00000000 a1 
C      20.97409754      17.72850746       7.95743578       0.00000000       0.00000000       0.00000000       0.00000000 a1 
C      21.69717209      16.59611448       7.98078894       0.00000000       0.00000000       0.00000000       0.00000000 a1 
C      21.74966119       9.38758591       7.98656766       0.00000000       0.00000000       0.00000000       0.00000000 a1 
C      21.04292549       8.24471275       7.98532723       0.00000000       0.00000000       0.00000000       0.00000000 a1 
N      19.78178052       8.18942616       7.98867567       0.00000000       0.00000000       0.00000000       0.00000000 a1 
C      19.18277093       9.30060399       7.99266004       0.00000000       0.00000000       0.00000000       0.00000000 a1 
C      19.80182194      10.49325943       7.99344737       0.00000000       0.00000000       0.00000000       0.00000000 a1 
H      23.69523142      15.08147302       7.98309816       0.00000000       0.00000000       0.00000000       0.00000000 a1 
H      23.72442401      10.93112723       8.04647880       0.00000000       0.00000000       0.00000000       0.00000000 a1 
H      20.11529036      12.98011378       7.95473113       0.00000000       0.00000000       0.00000000       0.00000000 a1 
H      25.60655067      15.16124834       8.13646501       0.00000000       0.00000000       0.00000000       0.00000000 a1 
H      27.94398193      15.03742024       8.16813815       0.00000000       0.00000000       0.00000000       0.00000000 a1 
H      27.97619536      11.03731586       8.00814098       0.00000000       0.00000000       0.00000000       0.00000000 a1 
H      25.64102221      10.87907696       7.96008828       0.00000000       0.00000000       0.00000000       0.00000000 a1 
H      19.08933858      14.59777040       7.86355903       0.00000000       0.00000000       0.00000000       0.00000000 a1 
H      18.02864137      16.68387452       7.83186185       0.00000000       0.00000000       0.00000000       0.00000000 a1 
H      21.47746810      18.71100483       7.98414886       0.00000000       0.00000000       0.00000000       0.00000000 a1 
H      22.78170251      16.76777952       8.02946581       0.00000000       0.00000000       0.00000000       0.00000000 a1 
H      22.83762414       9.23173702       7.98006511       0.00000000       0.00000000       0.00000000       0.00000000 a1 
H      21.56139376       7.26975728       7.98039017       0.00000000       0.00000000       0.00000000       0.00000000 a1 
H      18.07986742       9.24600383       7.99606522       0.00000000       0.00000000       0.00000000       0.00000000 a1 
H      19.11019696      11.34743405       7.99921463       0.00000000       0.00000000       0.00000000       0.00000000 a1 
C       8.15686907       5.47425468       7.99649903       0.00000000       0.00000000       0.00000000       0.00000000 a2 
C       8.89988543       4.34739631       8.01863406       0.00000000       0.00000000       0.00000000       0.00000000 a2 
C       8.17301403       3.20987429       8.01538614       0.00000000       0.00000000       0.00000000       0.00000000 a2 
C       6.82564715       3.12939464       7.99189705       0.00000000       0.00000000       0.00000000       0.00000000 a2 
C       6.20441175       4.32777695       7.97242739       0.00000000       0.00000000       0.00000000       0.00000000 a2 
C       6.80847118       5.53509527       7.97381249       0.00000000       0.00000000       0.00000000       0.00000000 a2 
C       6.11737125       6.71275243       7.95130394       0.00000000       0.00000000       0.00000000       0.00000000 a2 
C       6.15133473       1.94183081       7.99106303       0.00000000       0.00000000       0.00000000       0.00000000 a2 
C      10.26523097       4.35729701       8.04198962       0.00000000       0.00000000       0.00000000       0.00000000 a2 
C      11.01674692       5.48202404       8.09784877       0.00000000       0.00000000       0.00000000       0.00000000 a2 
C      12.35968494       5.44142967       8.11963917       0.00000000       0.00000000       0.00000000       0.00000000 a2 
N      13.03872617       4.37768355       8.08940402       0.00000000       0.00000000       0.00000000       0.00000000 a2 
C      12.37682274       3.30406255       8.03634111       0.00000000       0.00000000       0.00000000       0.00000000 a2 
C      11.03465222       3.24371762       8.01225716       0.00000000       0.00000000       0.00000000       0.00000000 a2 
C       4.76747018       6.80179204       7.89783508       0.00000000       0.00000000       0.00000000       0.00000000 a2 
C       4.13130906       7.98522506       7.87730935       0.00000000       0.00000000       0.00000000       0.00000000 a2 
N       4.71330364       9.10504888       7.90623464       0.00000000       0.00000000       0.00000000       0.00000000 a2 
C       5.97409754       9.06825342       7.95743578       0.00000000       0.00000000       0.00000000       0.00000000 a2 
C       6.69717209       7.93586044       7.98078894       0.00000000       0.00000000       0.00000000       0.00000000 a2 
C       6.74966119       0.72733187       7.98656766       0.00000000       0.00000000       0.00000000       0.00000000 a2 
C       6.04292549      -0.41554129       7.98532723       0.00000000       0.00000000       0.00000000       0.00000000 a2 
N       4.78178052      -0.47082788       7.98867567       0.00000000       0.00000000       0.00000000       0.00000000 a2 
C       4.18277093       0.64034995       7.99266004       0.00000000       0.00000000       0.00000000       0.00000000 a2 
C       4.80182194       1.83300539       7.99344737       0.00000000       0.00000000       0.00000000       0.00000000 a2 
H       8.69523142       6.42121898       7.98309816       0.00000000       0.00000000       0.00000000       0.00000000 a2 
H       8.72442401       2.27087319       8.04647880       0.00000000       0.00000000       0.00000000       0.00000000 a2 
H       5.11529036       4.31985974       7.95473113       0.00000000       0.00000000       0.00000000       0.00000000 a2 
H      10.60655067       6.50099430       8.13646501       0.00000000       0.00000000       0.00000000       0.00000000 a2 
H      12.94398193       6.37716620       8.16813815       0.00000000       0.00000000       0.00000000       0.00000000 a2 
H      12.97619536       2.37706182       8.00814098       0.00000000       0.00000000       0.00000000       0.00000000 a2 
H      10.64102221       2.21882292       7.96008828       0.00000000       0.00000000       0.00000000       0.00000000 a2 
H       4.08933858       5.93751636       7.86355903       0.00000000       0.00000000       0.00000000       0.00000000 a2 
H       3.02864137       8.02362048       7.83186185       0.00000000       0.00000000       0.00000000       0.00000000 a2 
H       6.47746810      10.05075079       7.98414886       0.00000000       0.00000000       0.00000000       0.00000000 a2 
H       7.78170251       8.10752548       8.02946581       0.00000000       0.00000000       0.00000000       0.00000000 a2 
H       7.83762414       0.57148298       7.98006511       0.00000000       0.00000000       0.00000000       0.00000000 a2 
H       6.56139376      -1.39049676       7.98039017       0.00000000       0.00000000       0.00000000       0.00000000 a2 
H       3.07986742       0.58574979       7.99606522       0.00000000       0.00000000       0.00000000       0.00000000 a2 
H       4.11019696       2.68718001       7.99921463       0.00000000       0.00000000       0.00000000       0.00000000 a2 
