40
Lattice="10.0 0.0 0.0 5.0 8.660254037844386 0.0 0.0 0.0 10.0" Properties=species:S:1:pos:R:3:remoteness:R:1:shift:R:3:adsorption:S:1 size="1 1" ac_name=tpb pbc="T T T"
Au       7.50000000       4.33012702       5.00000000       2.99481292       0.00000000       0.00000000       0.00000000 s 
C       8.15686907       5.47425468       7.99649903       0.00000000       0.00000000       0.00000000       0.00000000 a1 
C       8.89988543       4.34739631       8.01863406       0.00000000       0.00000000       0.00000000       0.00000000 a1 
C       8.17301403       3.20987429       8.01538614       0.00000000       0.00000000       0.00000000       0.00000000 a1 
C       6.82564715       3.12939464       7.99189705       0.00000000       0.00000000       0.00000000       0.00000000 a1 
C       6.20441175       4.32777695       7.97242739       0.00000000       0.00000000       0.00000000       0.00000000 a1 
C       6.80847118       5.53509527       7.97381249       0.00000000       0.00000000       0.00000000       0.00000000 a1 
C       6.11737125       6.71275243       7.95130394       0.00000000       0.00000000       0.00000000       0.00000000 a1 
C       6.15133473       1.94183081       7.99106303       0.00000000       0.00000000       0.00000000       0.00000000 a1 
C      10.26523097       4.35729701       8.04198962       0.00000000       0.00000000       0.00000000       0.00000000 a1 
C      11.01674692       5.48202404       8.09784877       0.00000000       0.00000000       0.00000000       0.00000000 a1 
C      12.35968494       5.44142967       8.11963917       0.00000000       0.00000000       0.00000000       0.00000000 a1 
N      13.03872617       4.37768355       8.08940402       0.00000000       0.00000000       0.00000000       0.00000000 a1 
C      12.37682274       3.30406255       8.03634111       0.00000000       0.00000000       0.00000000       0.00000000 a1 
C      11.03465222       3.24371762       8.01225716       0.00000000       0.00000000       0.00000000       0.00000000 a1 
C       4.76747018       6.80179204       7.89783508       0.00000000       0.00000000       0.00000000       0.00000000 a1 
C       4.13130906       7.98522506       7.87730935       0.00000000       0.00000000       0.00000000       0.00000000 a1 
N       4.71330364       9.10504888       7.90623464       0.00000000       0.00000000       0.00000000       0.00000000 a1 
C       5.97409754       9.06825342       7.95743578       0.00000000       0.00000000       0.00000000       0.00000000 a1 
C       6.69717209       7.93586044       7.98078894       0.00000000       0.00000000       0.00000000       0.00000000 a1 
C       6.74966119       0.72733187       7.98656766       0.00000000       0.00000000       0.00000000       0.00000000 a1 
C       6.04292549      -0.41554129       7.98532723       0.00000000       0.00000000       0.00000000       0.00000000 a1 
N       4.78178052      -0.47082788       7.98867567       0.00000000       0.00000000       0.00000000       0.00000000 a1 
C       4.18277093       0.64034995       7.99266004       0.00000000       0.00000000       0.00000000       0.00000000 a1 
C       4.80182194       1.83300539       7.99344737       0.00000000       0.00000000       0.00000000       0.00000000 a1 
H       8.69523142       6.42121898       7.98309816       0.00000000       0.00000000       0.00000000       0.00000000 a1 
H       8.72442401       2.27087319       8.04647880       0.00000000       0.00000000       0.00000000       0.00000000 a1 
H       5.11529036       4.31985974       7.95473113       0.00000000       0.00000000       0.00000000       0.00000000 a1 
H      10.60655067       6.50099430       8.13646501       0.00000000       0.00000000       0.00000000       0.00000000 a1 
H      12.94398193       6.37716620       8.16813815       0.00000000       0.00000000       0.00000000       0.00000000 a1 
H      12.97619536       2.37706182       8.00814098       0.00000000       0.00000000       0.00000000       0.00000000 a1 
H      10.64102221       2.21882292       7.96008828       0.00000000       0.00000000       0.00000000       0.00000000 a1 
H       4.08933858       5.93751636       7.86355903       0.00000000       0.00000000       0.00000000       0.00000000 a1 
H       3.02864137       8.02362048       7.83186185       0.00000000       0.00000000       0.00000000       0.00000000 a1 
H       6.47746810      10.05075079       7.98414886       0.00000000       0.00000000       0.00000000       0.00000000 a1 
H       7.78170251       8.10752548       8.02946581       0.00000000       0.00000000       0.00000000       0.00000000 a1 
H       7.83762414       0.57148298       7.98006511       0.00000000       0.00000000       0.00000000       0.00000000 a1 
H       6.56139376      -1.39049676       7.98039017       0.00000000       0.00000000       0.00000000       0.00000000 a1 
H       3.07986742       0.58574979       7.99606522       0.00000000       0.00000000       0.00000000       0.00000000 a1 
H       4.11019696       2.68718001       7.99921463       0.00000000       0.00000000       0.00000000       0.00000000 a1 
