16
Lattice="2.555483907208183 0.0 0.0 0.0 2.555483907208183 0.0 0.0 0.0 20.0" Properties=species:S:1:pos:R:3 s1=2 ac_name=TPA pbc="F F F"
C       1.44208868       0.08058304       9.22400000 
C       0.21455130       0.79476089       9.30400000 
C       0.20677313       2.19836785       9.33300000 
C       1.42653233       2.92880915       9.29400000 
C       2.65619102       2.21392420       9.32200000 
C       2.66396919       0.80607460       9.29400000 
C       1.40956176       4.40666233       9.25500000 
C       1.43643182      -1.40858384       9.23400000 
O       2.53315444       5.01972391       9.17900000 
O       2.56285292      -2.00467486       9.21100000 
O       0.26970563       4.98790410       9.17000000 
O       0.30011122      -1.98487587       9.18300000 
H      -0.69690934       0.22129729       9.51000000 
H      -0.71317279       2.74354718       9.56400000 
H       3.57542983       2.77253856       9.53600000 
H       3.58886486       0.24887445       9.49000000 
