4
Lattice="2.555483907208183 0.0 0.0 0.0 2.555483907208183 0.0 0.0 0.0 20.0" Properties=species:S:1:pos:R:3 pbc="T T T"
Cu       0.10000000       0.10038203       7.22900000 
Cu       1.37774195       1.37812398       1.80700000 
Cu       0.10000000       0.10038203       3.61500000 
Cu       1.37774195       1.37812398       5.42200000 
