52
Lattice="7.666451721624549 0.0 0.0 0.0 7.666451721624549 0.0 0.0 0.0 20.0" Properties=species:S:1:pos:R:3:adsorption:S:1 size="3 3" ac_name=TPA pbc="T T T"
Cu      -2.45548391      -2.45510188       7.22900000 s 
Cu      -1.17774196      -1.17735993       1.80700000 s 
Cu      -2.45548391      -2.45510188       3.61500000 s 
Cu      -1.17774196      -1.17735993       5.42200000 s 
Cu      -2.45548391       0.10038203       7.22900000 s 
Cu      -1.17774196       1.37812398       1.80700000 s 
Cu      -2.45548391       0.10038203       3.61500000 s 
Cu      -1.17774196       1.37812398       5.42200000 s 
Cu      -2.45548391       2.65586594       7.22900000 s 
Cu      -1.17774196       3.93360789       1.80700000 s 
Cu      -2.45548391       2.65586594       3.61500000 s 
Cu      -1.17774196       3.93360789       5.42200000 s 
Cu       0.10000000      -2.45510188       7.22900000 s 
Cu       1.37774195      -1.17735993       1.80700000 s 
Cu       0.10000000      -2.45510188       3.61500000 s 
Cu       1.37774195      -1.17735993       5.42200000 s 
Cu       0.10000000       0.10038203       7.22900000 s 
Cu       1.37774195       1.37812398       1.80700000 s 
Cu       0.10000000       0.10038203       3.61500000 s 
Cu       1.37774195       1.37812398       5.42200000 s 
Cu       0.10000000       2.65586594       7.22900000 s 
Cu       1.37774195       3.93360789       1.80700000 s 
Cu       0.10000000       2.65586594       3.61500000 s 
Cu       1.37774195       3.93360789       5.42200000 s 
Cu       2.65548391      -2.45510188       7.22900000 s 
Cu       3.93322586      -1.17735993       1.80700000 s 
Cu       2.65548391      -2.45510188       3.61500000 s 
Cu       3.93322586      -1.17735993       5.42200000 s 
Cu       2.65548391       0.10038203       7.22900000 s 
Cu       3.93322586       1.37812398       1.80700000 s 
Cu       2.65548391       0.10038203       3.61500000 s 
Cu       3.93322586       1.37812398       5.42200000 s 
Cu       2.65548391       2.65586594       7.22900000 s 
Cu       3.93322586       3.93360789       1.80700000 s 
Cu       2.65548391       2.65586594       3.61500000 s 
Cu       3.93322586       3.93360789       5.42200000 s 
C       0.08020101       1.31377726       9.22400000 a1 
C       0.79437886       2.54131464       9.30400000 a1 
C       2.19798582       2.54909281       9.33300000 a1 
C       2.92842712       1.32933361       9.29400000 a1 
C       2.21354217       0.09967492       9.32200000 a1 
C       0.80569257       0.09189675       9.29400000 a1 
C       4.40628030       1.34630418       9.25500000 a1 
C      -1.40896587       1.31943412       9.23400000 a1 
O       5.01934188       0.22271150       9.17900000 a1 
O      -2.00505689       0.19301302       9.21100000 a1 
O       4.98752207       2.48616031       9.17000000 a1 
O      -1.98525790       2.45575472       9.18300000 a1 
H       0.22091526       3.45277528       9.51000000 a1 
H       2.74316515       3.46903873       9.56400000 a1 
H       2.77215653      -0.81956389       9.53600000 a1 
H       0.24849242      -0.83299892       9.49000000 a1 
